%!PS-Adobe-3.0 EPSF-3.0
%%Title: gl2ps_renderer figure
%%Creator: GL2PS 1.4.0, (C) 1999-2017 C. Geuzaine
%%For: Octave
%%CreationDate: Sat Feb 23 18:52:03 2019
%%LanguageLevel: 3
%%DocumentData: Clean7Bit
%%Pages: 1
%%BoundingBox: 0 0 360 252
%%EndComments
%%BeginProlog
/gl2psdict 64 dict def gl2psdict begin
/tryPS3shading false def % set to false to force subdivision
/rThreshold 0.064 def % red component subdivision threshold
/gThreshold 0.034 def % green component subdivision threshold
/bThreshold 0.1 def % blue component subdivision threshold
/BD { bind def } bind def
/C  { setrgbcolor } BD
/G  { 0.082 mul exch 0.6094 mul add exch 0.3086 mul add neg 1.0 add setgray } BD
/W  { setlinewidth } BD
/LC  { setlinecap } BD
/LJ  { setlinejoin } BD
/FC { findfont exch /SH exch def SH scalefont setfont } BD
/SW { dup stringwidth pop } BD
/S  { FC moveto show } BD
/SBC{ FC moveto SW -2 div 0 rmoveto show } BD
/SBR{ FC moveto SW neg 0 rmoveto show } BD
/SCL{ FC moveto 0 SH -2 div rmoveto show } BD
/SCC{ FC moveto SW -2 div SH -2 div rmoveto show } BD
/SCR{ FC moveto SW neg SH -2 div rmoveto show } BD
/STL{ FC moveto 0 SH neg rmoveto show } BD
/STC{ FC moveto SW -2 div SH neg rmoveto show } BD
/STR{ FC moveto SW neg SH neg rmoveto show } BD
/FCT { FC translate 0 0 } BD
/SR  { gsave FCT moveto rotate show grestore } BD
/SRX  { gsave FCT moveto rotate xshow grestore } BD
/SBCR{ gsave FCT moveto rotate SW -2 div 0 rmoveto show grestore } BD
/SBRR{ gsave FCT moveto rotate SW neg 0 rmoveto show grestore } BD
/SCLR{ gsave FCT moveto rotate 0 SH -2 div rmoveto show grestore} BD
/SCCR{ gsave FCT moveto rotate SW -2 div SH -2 div rmoveto show grestore} BD
/SCRR{ gsave FCT moveto rotate SW neg SH -2 div rmoveto show grestore} BD
/STLR{ gsave FCT moveto rotate 0 SH neg rmoveto show grestore } BD
/STCR{ gsave FCT moveto rotate SW -2 div SH neg rmoveto show grestore } BD
/STRR{ gsave FCT moveto rotate SW neg SH neg rmoveto show grestore } BD
/P  { newpath 0.0 360.0 arc closepath fill } BD
/LS { newpath moveto } BD
/L  { lineto } BD
/LE { lineto stroke } BD
/T  { newpath moveto lineto lineto closepath fill } BD
/STshfill {
      /b1 exch def /g1 exch def /r1 exch def /y1 exch def /x1 exch def
      /b2 exch def /g2 exch def /r2 exch def /y2 exch def /x2 exch def
      /b3 exch def /g3 exch def /r3 exch def /y3 exch def /x3 exch def
      gsave << /ShadingType 4 /ColorSpace [/DeviceRGB]
      /DataSource [ 0 x1 y1 r1 g1 b1 0 x2 y2 r2 g2 b2 0 x3 y3 r3 g3 b3 ] >>
      shfill grestore } BD
/Tm { 3 -1 roll 8 -1 roll 13 -1 roll add add 3 div
      3 -1 roll 7 -1 roll 11 -1 roll add add 3 div
      3 -1 roll 6 -1 roll 9 -1 roll add add 3 div C T } BD
/STsplit {
      4 index 15 index add 0.5 mul
      4 index 15 index add 0.5 mul
      4 index 15 index add 0.5 mul
      4 index 15 index add 0.5 mul
      4 index 15 index add 0.5 mul
      5 copy 5 copy 25 15 roll
      9 index 30 index add 0.5 mul
      9 index 30 index add 0.5 mul
      9 index 30 index add 0.5 mul
      9 index 30 index add 0.5 mul
      9 index 30 index add 0.5 mul
      5 copy 5 copy 35 5 roll 25 5 roll 15 5 roll
      4 index 10 index add 0.5 mul
      4 index 10 index add 0.5 mul
      4 index 10 index add 0.5 mul
      4 index 10 index add 0.5 mul
      4 index 10 index add 0.5 mul
      5 copy 5 copy 40 5 roll 25 5 roll 15 5 roll 25 5 roll
      STnoshfill STnoshfill STnoshfill STnoshfill } BD
/STnoshfill {
      2 index 8 index sub abs rThreshold gt
      { STsplit }
      { 1 index 7 index sub abs gThreshold gt
        { STsplit }
        { dup 6 index sub abs bThreshold gt
          { STsplit }
          { 2 index 13 index sub abs rThreshold gt
            { STsplit }
            { 1 index 12 index sub abs gThreshold gt
              { STsplit }
              { dup 11 index sub abs bThreshold gt
                { STsplit }
                { 7 index 13 index sub abs rThreshold gt
                  { STsplit }
                  { 6 index 12 index sub abs gThreshold gt
                    { STsplit }
                    { 5 index 11 index sub abs bThreshold gt
                      { STsplit }
                      { Tm }
                      ifelse }
                    ifelse }
                  ifelse }
                ifelse }
              ifelse }
            ifelse }
          ifelse }
        ifelse }
      ifelse } BD
tryPS3shading
{ /shfill where
  { /ST { STshfill } BD }
  { /ST { STnoshfill } BD }
  ifelse }
{ /ST { STnoshfill } BD }
ifelse
end
%%EndProlog
%%BeginSetup
/DeviceRGB setcolorspace
gl2psdict begin
%%EndSetup
%%Page: 1 1
%%BeginPageSetup
%%EndPageSetup
mark
gsave
1.0 1.0 scale
1 1 1 C
newpath 0 0 moveto 360 0 lineto 360 252 lineto 0 252 lineto
closepath fill
gsave
1.0 1.0 scale
1 1 1 C
newpath 0 0 moveto 360 0 lineto 360 252 lineto 0 252 lineto
closepath fill
newpath 0 0 moveto 360 0 lineto 360 252 lineto 0 252 lineto
closepath clip
1 1 1 C
46.8 230 325.8 27.72 46.8 27.72 T
46.8 230 325.8 230 325.8 27.72 T
0.5 W
0.15 0.15 0.15 C
46.8 27.72 LS
46.8 30.5139 LE
46.8 230 LS
46.8 227.206 LE
102.6 27.72 LS
102.6 30.5139 LE
102.6 230 LS
102.6 227.206 LE
158.4 27.72 LS
158.4 30.5139 LE
158.4 230 LS
158.4 227.206 LE
214.2 27.72 LS
214.2 30.5139 LE
214.2 230 LS
214.2 227.206 LE
270 27.72 LS
270 30.5139 LE
270 230 LS
270 227.206 LE
325.8 27.72 LS
325.8 30.5139 LE
325.8 230 LS
325.8 227.206 LE
gsave
0.14902 0.14902 0.14902 C
(0) [10] 0 43.8 12.2096 10 /Helvetica SRX
grestore

gsave
0.14902 0.14902 0.14902 C
(2) [10] 0 99.6 12.2096 10 /Helvetica SRX
grestore

gsave
0.14902 0.14902 0.14902 C
(4) [10] 0 155.4 12.2096 10 /Helvetica SRX
grestore

gsave
0.14902 0.14902 0.14902 C
(6) [10] 0 211.2 12.2096 10 /Helvetica SRX
grestore

gsave
0.14902 0.14902 0.14902 C
(8) [10] 0 267 12.2096 10 /Helvetica SRX
grestore

gsave
0.14902 0.14902 0.14902 C
(10) [6 10] 0 319.8 12.2096 10 /Helvetica SRX
grestore

46.8 36.9145 LS
49.59 36.9145 LE
325.8 36.9145 LS
323.01 36.9145 LE
46.8 82.8873 LS
49.59 82.8873 LE
325.8 82.8873 LS
323.01 82.8873 LE
46.8 128.86 LS
49.59 128.86 LE
325.8 128.86 LS
323.01 128.86 LE
46.8 174.833 LS
49.59 174.833 LE
325.8 174.833 LS
323.01 174.833 LE
46.8 220.805 LS
49.59 220.805 LE
325.8 220.805 LS
323.01 220.805 LE
gsave
0.14902 0.14902 0.14902 C
(-1) [3 10] 0 32.8 32.9145 10 /Helvetica SRX
grestore

gsave
0.14902 0.14902 0.14902 C
(-0.5) [3 6 3 10] 0 23.8 78.8873 10 /Helvetica SRX
grestore

gsave
0.14902 0.14902 0.14902 C
(0) [10] 0 35.8 124.86 10 /Helvetica SRX
grestore

gsave
0.14902 0.14902 0.14902 C
(0.5) [6 3 10] 0 26.8 170.833 10 /Helvetica SRX
grestore

gsave
0.14902 0.14902 0.14902 C
(1) [10] 0 35.8 216.805 10 /Helvetica SRX
grestore

2 LC
[16 0] 0 setdash
46.8 27.72 LS
325.8 27.72 LE
46.8 230 LS
325.8 230 LE
46.8 27.72 LS
46.8 230 LE
325.8 27.72 LS
325.8 230 LE
gsave
0.14902 0.14902 0.14902 C
(x) [10] 0 183.8 0.209604 11 /Helvetica SRX
grestore

gsave
0.14902 0.14902 0.14902 C
(sin \(x\)) [5 2 6 3 4 5 10] 90 15.8 114.36 11 /Helvetica SRX
grestore

gsave
0 0 0 C
(Errorbar plot of sin \(x\)) [7 4 4 7 4 7 6 4 3 7 3 7 4 3 7 4 3 6 3 7 3 4 6 10] 0 127.8 243 11 /Helvetica-Bold SRX
grestore

0 LC
1 LJ
[] 0 setdash
0 0.447 0.741 C
46.8 120.07 LS
46.8 132.192 LE
46.521 132.192 LS
49.59 132.192 LE
46.521 120.07 LS
49.59 120.07 LE
49.59 129.324 LS
49.59 139.62 LE
46.8 139.62 LS
52.38 139.62 LE
46.8 129.324 LS
52.38 129.324 LE
52.38 146.607 LS
52.38 153.313 LE
49.59 153.313 LS
55.17 153.313 LE
49.59 146.607 LS
55.17 146.607 LE
55.17 155.251 LS
55.17 156.794 LE
52.38 156.794 LS
57.96 156.794 LE
52.38 155.251 LS
57.96 155.251 LE
57.96 156.983 LS
57.96 173.442 LE
55.17 173.442 LS
60.75 173.442 LE
55.17 156.983 LS
60.75 156.983 LE
60.75 166.174 LS
60.75 173.174 LE
57.96 173.174 LS
63.54 173.174 LE
57.96 166.174 LS
63.54 166.174 LE
63.54 174.618 LS
63.54 187.483 LE
60.75 187.483 LS
66.33 187.483 LE
60.75 174.618 LS
66.33 174.618 LE
66.33 185.26 LS
66.33 188.287 LE
63.54 188.287 LS
69.12 188.287 LE
63.54 185.26 LS
69.12 185.26 LE
69.12 189.246 LS
69.12 197.169 LE
66.33 197.169 LS
71.91 197.169 LE
66.33 189.246 LS
71.91 189.246 LE
71.91 195.304 LS
71.91 208.362 LE
69.12 208.362 LS
74.7 208.362 LE
69.12 195.304 LS
74.7 195.304 LE
74.7 200.886 LS
74.7 207.674 LE
71.91 207.674 LS
77.49 207.674 LE
71.91 200.886 LS
77.49 200.886 LE
77.49 209.346 LS
77.49 212.492 LE
74.7 212.492 LS
80.28 212.492 LE
74.7 209.346 LS
80.28 209.346 LE
80.28 210.597 LS
80.28 220.915 LE
77.49 220.915 LS
83.07 220.915 LE
77.49 210.597 LS
83.07 210.597 LE
83.07 213.836 LS
83.07 221 LE
80.28 221 LS
85.86 221 LE
80.28 213.836 LS
85.86 213.836 LE
85.86 212.82 LS
85.86 219.864 LE
83.07 219.864 LS
88.65 219.864 LE
83.07 212.82 LS
88.65 212.82 LE
88.65 211.428 LS
88.65 229.678 LE
85.86 229.678 LS
91.44 229.678 LE
85.86 211.428 LS
91.44 211.428 LE
91.44 212.037 LS
91.44 222.158 LE
88.65 222.158 LS
94.23 222.158 LE
88.65 212.037 LS
94.23 212.037 LE
94.23 215.036 LS
94.23 220.373 LE
91.44 220.373 LS
97.02 220.373 LE
91.44 215.036 LS
97.02 215.036 LE
97.02 214.311 LS
97.02 221.566 LE
94.23 221.566 LS
99.81 221.566 LE
94.23 214.311 LS
99.81 214.311 LE
99.81 213.402 LS
99.81 221.525 LE
97.02 221.525 LS
102.6 221.525 LE
97.02 213.402 LS
102.6 213.402 LE
102.6 212.135 LS
102.6 219.292 LE
99.81 219.292 LS
105.39 219.292 LE
99.81 212.135 LS
105.39 212.135 LE
105.39 207.976 LS
105.39 209.268 LE
102.6 209.268 LS
108.18 209.268 LE
102.6 207.976 LS
108.18 207.976 LE
108.18 198.923 LS
108.18 206.298 LE
105.39 206.298 LS
110.97 206.298 LE
105.39 198.923 LS
110.97 198.923 LE
110.97 194.496 LS
110.97 197.707 LE
108.18 197.707 LS
113.76 197.707 LE
108.18 194.496 LS
113.76 194.496 LE
113.76 187.472 LS
113.76 195.091 LE
110.97 195.091 LS
116.55 195.091 LE
110.97 187.472 LS
116.55 187.472 LE
116.55 175.687 LS
116.55 190.93 LE
113.76 190.93 LS
119.34 190.93 LE
113.76 175.687 LS
119.34 175.687 LE
119.34 171.424 LS
119.34 183.061 LE
116.55 183.061 LS
122.13 183.061 LE
116.55 171.424 LS
122.13 171.424 LE
122.13 163.002 LS
122.13 176.449 LE
119.34 176.449 LS
124.92 176.449 LE
119.34 163.002 LS
124.92 163.002 LE
124.92 157.49 LS
124.92 166.609 LE
122.13 166.609 LS
127.71 166.609 LE
122.13 157.49 LS
127.71 157.49 LE
127.71 150.639 LS
127.71 158.788 LE
124.92 158.788 LS
130.5 158.788 LE
124.92 150.639 LS
130.5 150.639 LE
130.5 138.846 LS
130.5 148.321 LE
127.71 148.321 LS
133.29 148.321 LE
127.71 138.846 LS
133.29 138.846 LE
133.29 131.426 LS
133.29 137.03 LE
130.5 137.03 LS
136.08 137.03 LE
130.5 131.426 LS
136.08 131.426 LE
136.08 118.801 LS
136.08 125.566 LE
133.29 125.566 LS
138.87 125.566 LE
133.29 118.801 LS
138.87 118.801 LE
138.87 105.174 LS
138.87 120.432 LE
136.08 120.432 LS
141.66 120.432 LE
136.08 105.174 LS
141.66 105.174 LE
141.66 99.1626 LS
141.66 108.272 LE
138.87 108.272 LS
144.45 108.272 LE
138.87 99.1626 LS
144.45 99.1626 LE
144.45 94.9351 LS
144.45 97.5454 LE
141.66 97.5454 LS
147.24 97.5454 LE
141.66 94.9351 LS
147.24 94.9351 LE
147.24 79.9563 LS
147.24 92.2898 LE
144.45 92.2898 LS
150.03 92.2898 LE
144.45 79.9563 LS
150.03 79.9563 LE
150.03 72.8181 LS
150.03 88.187 LE
147.24 88.187 LS
152.82 88.187 LE
147.24 72.8181 LS
152.82 72.8181 LE
152.82 65.8499 LS
152.82 73.7751 LE
150.03 73.7751 LS
155.61 73.7751 LE
150.03 65.8499 LS
155.61 65.8499 LE
155.61 57.2873 LS
155.61 71.0014 LE
152.82 71.0014 LS
158.4 71.0014 LE
152.82 57.2873 LS
158.4 57.2873 LE
158.4 52.2611 LS
158.4 62.8885 LE
155.61 62.8885 LS
161.19 62.8885 LE
155.61 52.2611 LS
161.19 52.2611 LE
161.19 46.3617 LS
161.19 58.3565 LE
158.4 58.3565 LS
163.98 58.3565 LE
158.4 46.3617 LS
163.98 46.3617 LE
163.98 45.4696 LS
163.98 50.045 LE
161.19 50.045 LS
166.77 50.045 LE
161.19 45.4696 LS
166.77 45.4696 LE
166.77 35.6031 LS
166.77 53.447 LE
163.98 53.447 LS
169.56 53.447 LE
163.98 35.6031 LS
169.56 35.6031 LE
169.56 32.5202 LS
169.56 43.7468 LE
166.77 43.7468 LS
172.35 43.7468 LE
166.77 32.5202 LS
172.35 32.5202 LE
172.35 37.4985 LS
172.35 44.5531 LE
169.56 44.5531 LS
175.14 44.5531 LE
169.56 37.4985 LS
175.14 37.4985 LE
175.14 30.5619 LS
175.14 41.3541 LE
172.35 41.3541 LS
177.93 41.3541 LE
172.35 30.5619 LS
177.93 30.5619 LE
177.93 30.3461 LS
177.93 37.0874 LE
175.14 37.0874 LS
180.72 37.0874 LE
175.14 30.3461 LS
180.72 30.3461 LE
180.72 33.0248 LS
180.72 42.3973 LE
177.93 42.3973 LS
183.51 42.3973 LE
177.93 33.0248 LS
183.51 33.0248 LE
183.51 33.6516 LS
183.51 39.8204 LE
180.72 39.8204 LS
186.3 39.8204 LE
180.72 33.6516 LS
186.3 33.6516 LE
186.3 36.1858 LS
186.3 41.2133 LE
183.51 41.2133 LS
189.09 41.2133 LE
183.51 36.1858 LS
189.09 36.1858 LE
189.09 35.2321 LS
189.09 44.0441 LE
186.3 44.0441 LS
191.88 44.0441 LE
186.3 35.2321 LS
191.88 35.2321 LE
191.88 43.0253 LS
191.88 49.1122 LE
189.09 49.1122 LS
194.67 49.1122 LE
189.09 43.0253 LS
194.67 43.0253 LE
194.67 44.6913 LS
194.67 53.2183 LE
191.88 53.2183 LS
197.46 53.2183 LE
191.88 44.6913 LS
197.46 44.6913 LE
197.46 54.5536 LS
197.46 63.647 LE
194.67 63.647 LS
200.25 63.647 LE
194.67 54.5536 LS
200.25 54.5536 LE
200.25 55.8713 LS
200.25 68.662 LE
197.46 68.662 LS
203.04 68.662 LE
197.46 55.8713 LS
203.04 55.8713 LE
203.04 62.5456 LS
203.04 79.8604 LE
200.25 79.8604 LS
205.83 79.8604 LE
200.25 62.5456 LS
205.83 62.5456 LE
205.83 73.9882 LS
205.83 86.8159 LE
203.04 86.8159 LS
208.62 86.8159 LE
203.04 73.9882 LS
208.62 73.9882 LE
208.62 80.9221 LS
208.62 95.2861 LE
205.83 95.2861 LS
211.41 95.2861 LE
205.83 80.9221 LS
211.41 80.9221 LE
211.41 86.0217 LS
211.41 96.6212 LE
208.62 96.6212 LS
214.2 96.6212 LE
208.62 86.0217 LS
214.2 86.0217 LE
214.2 96.5142 LS
214.2 107.258 LE
211.41 107.258 LS
216.99 107.258 LE
211.41 96.5142 LS
216.99 96.5142 LE
216.99 107.637 LS
216.99 114.417 LE
214.2 114.417 LS
219.78 114.417 LE
214.2 107.637 LS
219.78 107.637 LE
219.78 119.181 LS
219.78 126.656 LE
216.99 126.656 LS
222.57 126.656 LE
216.99 119.181 LS
222.57 119.181 LE
222.57 127.421 LS
222.57 136.145 LE
219.78 136.145 LS
225.36 136.145 LE
219.78 127.421 LS
225.36 127.421 LE
225.36 133.144 LS
225.36 146.934 LE
222.57 146.934 LS
228.15 146.934 LE
222.57 133.144 LS
228.15 133.144 LE
228.15 147.112 LS
228.15 155.163 LE
225.36 155.163 LS
230.94 155.163 LE
225.36 147.112 LS
230.94 147.112 LE
230.94 149.157 LS
230.94 159.864 LE
228.15 159.864 LS
233.73 159.864 LE
228.15 149.157 LS
233.73 149.157 LE
233.73 163.619 LS
233.73 169.974 LE
230.94 169.974 LS
236.52 169.974 LE
230.94 163.619 LS
236.52 163.619 LE
236.52 165.912 LS
236.52 179.13 LE
233.73 179.13 LS
239.31 179.13 LE
233.73 165.912 LS
239.31 165.912 LE
239.31 179.199 LS
239.31 182.089 LE
236.52 182.089 LS
242.1 182.089 LE
236.52 179.199 LS
242.1 179.199 LE
242.1 180.464 LS
242.1 189.593 LE
239.31 189.593 LS
244.89 189.593 LE
239.31 180.464 LS
244.89 180.464 LE
244.89 189.392 LS
244.89 199.643 LE
242.1 199.643 LS
247.68 199.643 LE
242.1 189.392 LS
247.68 189.392 LE
247.68 197.198 LS
247.68 202.856 LE
244.89 202.856 LS
250.47 202.856 LE
244.89 197.198 LS
250.47 197.198 LE
250.47 202.293 LS
250.47 213.709 LE
247.68 213.709 LS
253.26 213.709 LE
247.68 202.293 LS
253.26 202.293 LE
253.26 205.503 LS
253.26 213.707 LE
250.47 213.707 LS
256.05 213.707 LE
250.47 205.503 LS
256.05 205.503 LE
256.05 209.699 LS
256.05 216.022 LE
253.26 216.022 LS
258.84 216.022 LE
253.26 209.699 LS
258.84 209.699 LE
258.84 214.989 LS
258.84 219.527 LE
256.05 219.527 LS
261.63 219.527 LE
256.05 214.989 LS
261.63 214.989 LE
261.63 217.807 LS
261.63 221.846 LE
258.84 221.846 LS
264.42 221.846 LE
258.84 217.807 LS
264.42 217.807 LE
264.42 215.965 LS
264.42 222.67 LE
261.63 222.67 LS
267.21 222.67 LE
261.63 215.965 LS
267.21 215.965 LE
267.21 212.119 LS
267.21 225.496 LE
264.42 225.496 LS
270 225.496 LE
264.42 212.119 LS
270 212.119 LE
270 214.096 LS
270 224.097 LE
267.21 224.097 LS
272.79 224.097 LE
267.21 214.096 LS
272.79 214.096 LE
272.79 217.344 LS
272.79 220.885 LE
270 220.885 LS
275.58 220.885 LE
270 217.344 LS
275.58 217.344 LE
275.58 207.813 LS
275.58 221.257 LE
272.79 221.257 LS
278.37 221.257 LE
272.79 207.813 LS
278.37 207.813 LE
278.37 205.136 LS
278.37 213.764 LE
275.58 213.764 LS
281.16 213.764 LE
275.58 205.136 LS
281.16 205.136 LE
281.16 199.091 LS
281.16 215.772 LE
278.37 215.772 LS
283.95 215.772 LE
278.37 199.091 LS
283.95 199.091 LE
283.95 200.517 LS
283.95 211.133 LE
281.16 211.133 LS
286.74 211.133 LE
281.16 200.517 LS
286.74 200.517 LE
286.74 189.537 LS
286.74 203.087 LE
283.95 203.087 LS
289.53 203.087 LE
283.95 189.537 LS
289.53 189.537 LE
289.53 189.277 LS
289.53 193.805 LE
286.74 193.805 LS
292.32 193.805 LE
286.74 189.277 LS
292.32 189.277 LE
292.32 176.637 LS
292.32 187.343 LE
289.53 187.343 LS
295.11 187.343 LE
289.53 176.637 LS
295.11 176.637 LE
295.11 172.416 LS
295.11 180.269 LE
292.32 180.269 LS
297.9 180.269 LE
292.32 172.416 LS
297.9 172.416 LE
297.9 164.669 LS
297.9 167.223 LE
295.11 167.223 LS
300.69 167.223 LE
295.11 164.669 LS
300.69 164.669 LE
300.69 150.15 LS
300.69 162.043 LE
297.9 162.043 LS
303.48 162.043 LE
297.9 150.15 LS
303.48 150.15 LE
303.48 148.377 LS
303.48 154.181 LE
300.69 154.181 LS
306.27 154.181 LE
300.69 148.377 LS
306.27 148.377 LE
306.27 135.5 LS
306.27 141.969 LE
303.48 141.969 LS
309.06 141.969 LE
303.48 135.5 LS
309.06 135.5 LE
309.06 123.286 LS
309.06 132 LE
306.27 132 LS
311.85 132 LE
306.27 123.286 LS
311.85 123.286 LE
311.85 119.699 LS
311.85 129.33 LE
309.06 129.33 LS
314.64 129.33 LE
309.06 119.699 LS
314.64 119.699 LE
314.64 110.896 LS
314.64 116.198 LE
311.85 116.198 LS
317.43 116.198 LE
311.85 110.896 LS
317.43 110.896 LE
317.43 95.7763 LS
317.43 108.647 LE
314.64 108.647 LS
320.22 108.647 LE
314.64 95.7763 LS
320.22 95.7763 LE
320.22 91.2754 LS
320.22 103.636 LE
317.43 103.636 LS
323.01 103.636 LE
317.43 91.2754 LS
323.01 91.2754 LE
323.01 80.1995 LS
323.01 92.405 LE
320.22 92.405 LS
325.8 92.405 LE
320.22 80.1995 LS
325.8 80.1995 LE
325.8 78.5467 LS
325.8 81.5023 LE
323.01 81.5023 LS
326.079 81.5023 LE
323.01 78.5467 LS
326.079 78.5467 LE
46.8 128.86 LS
49.59 138.039 L
52.38 147.127 L
55.17 156.032 L
57.96 164.665 L
60.75 172.941 L
63.54 180.776 L
66.33 188.093 L
69.12 194.818 L
71.91 200.883 L
74.7 206.229 L
77.49 210.802 L
80.28 214.557 L
83.07 217.455 L
85.86 219.468 L
88.65 220.575 L
91.44 220.766 L
94.23 220.039 L
97.02 218.401 L
99.81 215.868 L
102.6 212.466 L
105.39 208.228 L
108.18 203.198 L
110.97 197.424 L
113.76 190.966 L
116.55 183.887 L
119.34 176.258 L
122.13 168.156 L
124.92 159.661 L
127.71 150.858 L
130.5 141.835 L
133.29 132.683 L
136.08 123.493 L
138.87 114.356 L
141.66 105.364 L
144.45 96.6071 L
147.24 88.1722 L
150.03 80.144 L
152.82 72.6024 L
155.61 65.623 L
158.4 59.2754 L
161.19 53.6231 L
163.98 48.7226 L
166.77 44.6227 L
169.56 41.3645 L
172.35 38.9805 L
175.14 37.4946 L
177.93 36.9216 L
180.72 37.2672 L
183.51 38.5279 L
186.3 40.6912 L
189.09 43.7355 L
191.88 47.6303 L
194.67 52.3368 L
197.46 57.8078 L
200.25 63.9888 L
203.04 70.8179 L
205.83 78.227 L
208.62 86.1419 L
211.41 94.4837 L
214.2 103.169 L
216.99 112.111 L
219.78 121.22 L
222.57 130.406 L
225.36 139.576 L
228.15 148.639 L
230.94 157.505 L
233.73 166.084 L
236.52 174.291 L
239.31 182.045 L
242.1 189.267 L
244.89 195.885 L
247.68 201.834 L
250.47 207.054 L
253.26 211.492 L
256.05 215.105 L
258.84 217.856 L
261.63 219.718 L
264.42 220.672 L
267.21 220.708 L
270 219.827 L
272.79 218.037 L
275.58 215.356 L
278.37 211.811 L
281.16 207.436 L
283.95 202.277 L
286.74 196.384 L
289.53 189.817 L
292.32 182.64 L
295.11 174.927 L
297.9 166.752 L
300.69 158.2 L
303.48 149.354 L
306.27 140.303 L
309.06 131.138 L
311.85 121.95 L
314.64 112.831 L
317.43 103.873 L
320.22 95.1639 L
323.01 86.7916 L
325.8 78.8397 LE
grestore
grestore
showpage
cleartomark
%%PageTrailer
%%Trailer
end
%%EOF
