%!PS-Adobe-3.0 EPSF-3.0
%%Title: gl2ps_renderer figure
%%Creator: GL2PS 1.4.0, (C) 1999-2017 C. Geuzaine
%%For: Octave
%%CreationDate: Sat Feb 23 18:52:02 2019
%%LanguageLevel: 3
%%DocumentData: Clean7Bit
%%Pages: 1
%%BoundingBox: 0 0 360 252
%%EndComments
%%BeginProlog
/gl2psdict 64 dict def gl2psdict begin
/tryPS3shading false def % set to false to force subdivision
/rThreshold 0.064 def % red component subdivision threshold
/gThreshold 0.034 def % green component subdivision threshold
/bThreshold 0.1 def % blue component subdivision threshold
/BD { bind def } bind def
/C  { setrgbcolor } BD
/G  { 0.082 mul exch 0.6094 mul add exch 0.3086 mul add neg 1.0 add setgray } BD
/W  { setlinewidth } BD
/LC  { setlinecap } BD
/LJ  { setlinejoin } BD
/FC { findfont exch /SH exch def SH scalefont setfont } BD
/SW { dup stringwidth pop } BD
/S  { FC moveto show } BD
/SBC{ FC moveto SW -2 div 0 rmoveto show } BD
/SBR{ FC moveto SW neg 0 rmoveto show } BD
/SCL{ FC moveto 0 SH -2 div rmoveto show } BD
/SCC{ FC moveto SW -2 div SH -2 div rmoveto show } BD
/SCR{ FC moveto SW neg SH -2 div rmoveto show } BD
/STL{ FC moveto 0 SH neg rmoveto show } BD
/STC{ FC moveto SW -2 div SH neg rmoveto show } BD
/STR{ FC moveto SW neg SH neg rmoveto show } BD
/FCT { FC translate 0 0 } BD
/SR  { gsave FCT moveto rotate show grestore } BD
/SRX  { gsave FCT moveto rotate xshow grestore } BD
/SBCR{ gsave FCT moveto rotate SW -2 div 0 rmoveto show grestore } BD
/SBRR{ gsave FCT moveto rotate SW neg 0 rmoveto show grestore } BD
/SCLR{ gsave FCT moveto rotate 0 SH -2 div rmoveto show grestore} BD
/SCCR{ gsave FCT moveto rotate SW -2 div SH -2 div rmoveto show grestore} BD
/SCRR{ gsave FCT moveto rotate SW neg SH -2 div rmoveto show grestore} BD
/STLR{ gsave FCT moveto rotate 0 SH neg rmoveto show grestore } BD
/STCR{ gsave FCT moveto rotate SW -2 div SH neg rmoveto show grestore } BD
/STRR{ gsave FCT moveto rotate SW neg SH neg rmoveto show grestore } BD
/P  { newpath 0.0 360.0 arc closepath fill } BD
/LS { newpath moveto } BD
/L  { lineto } BD
/LE { lineto stroke } BD
/T  { newpath moveto lineto lineto closepath fill } BD
/STshfill {
      /b1 exch def /g1 exch def /r1 exch def /y1 exch def /x1 exch def
      /b2 exch def /g2 exch def /r2 exch def /y2 exch def /x2 exch def
      /b3 exch def /g3 exch def /r3 exch def /y3 exch def /x3 exch def
      gsave << /ShadingType 4 /ColorSpace [/DeviceRGB]
      /DataSource [ 0 x1 y1 r1 g1 b1 0 x2 y2 r2 g2 b2 0 x3 y3 r3 g3 b3 ] >>
      shfill grestore } BD
/Tm { 3 -1 roll 8 -1 roll 13 -1 roll add add 3 div
      3 -1 roll 7 -1 roll 11 -1 roll add add 3 div
      3 -1 roll 6 -1 roll 9 -1 roll add add 3 div C T } BD
/STsplit {
      4 index 15 index add 0.5 mul
      4 index 15 index add 0.5 mul
      4 index 15 index add 0.5 mul
      4 index 15 index add 0.5 mul
      4 index 15 index add 0.5 mul
      5 copy 5 copy 25 15 roll
      9 index 30 index add 0.5 mul
      9 index 30 index add 0.5 mul
      9 index 30 index add 0.5 mul
      9 index 30 index add 0.5 mul
      9 index 30 index add 0.5 mul
      5 copy 5 copy 35 5 roll 25 5 roll 15 5 roll
      4 index 10 index add 0.5 mul
      4 index 10 index add 0.5 mul
      4 index 10 index add 0.5 mul
      4 index 10 index add 0.5 mul
      4 index 10 index add 0.5 mul
      5 copy 5 copy 40 5 roll 25 5 roll 15 5 roll 25 5 roll
      STnoshfill STnoshfill STnoshfill STnoshfill } BD
/STnoshfill {
      2 index 8 index sub abs rThreshold gt
      { STsplit }
      { 1 index 7 index sub abs gThreshold gt
        { STsplit }
        { dup 6 index sub abs bThreshold gt
          { STsplit }
          { 2 index 13 index sub abs rThreshold gt
            { STsplit }
            { 1 index 12 index sub abs gThreshold gt
              { STsplit }
              { dup 11 index sub abs bThreshold gt
                { STsplit }
                { 7 index 13 index sub abs rThreshold gt
                  { STsplit }
                  { 6 index 12 index sub abs gThreshold gt
                    { STsplit }
                    { 5 index 11 index sub abs bThreshold gt
                      { STsplit }
                      { Tm }
                      ifelse }
                    ifelse }
                  ifelse }
                ifelse }
              ifelse }
            ifelse }
          ifelse }
        ifelse }
      ifelse } BD
tryPS3shading
{ /shfill where
  { /ST { STshfill } BD }
  { /ST { STnoshfill } BD }
  ifelse }
{ /ST { STnoshfill } BD }
ifelse
end
%%EndProlog
%%BeginSetup
/DeviceRGB setcolorspace
gl2psdict begin
%%EndSetup
%%Page: 1 1
%%BeginPageSetup
%%EndPageSetup
mark
gsave
1.0 1.0 scale
1 1 1 C
newpath 0 0 moveto 360 0 lineto 360 252 lineto 0 252 lineto
closepath fill
gsave
1.0 1.0 scale
1 1 1 C
newpath 0 0 moveto 360 0 lineto 360 252 lineto 0 252 lineto
closepath fill
newpath 0 0 moveto 360 0 lineto 360 252 lineto 0 252 lineto
closepath clip
1 1 1 C
46.8 230 325.8 30.5139 46.8 30.5139 T
46.8 230 325.8 230 325.8 30.5139 T
0.5 W
0.15 0.15 0.15 C
46.8 30.5139 LS
46.8 33.3107 LE
46.8 230 LS
46.8 227.203 LE
116.55 30.5139 LS
116.55 33.3107 LE
116.55 230 LS
116.55 227.203 LE
186.3 30.5139 LS
186.3 33.3107 LE
186.3 230 LS
186.3 227.203 LE
256.05 30.5139 LS
256.05 33.3107 LE
256.05 230 LS
256.05 227.203 LE
325.8 30.5139 LS
325.8 33.3107 LE
325.8 230 LS
325.8 227.203 LE
gsave
0.14902 0.14902 0.14902 C
(-4) [3 10] 0 42.3 14.9956 10 /Helvetica SRX
grestore

gsave
0.14902 0.14902 0.14902 C
(-2) [3 10] 0 112.05 14.9956 10 /Helvetica SRX
grestore

gsave
0.14902 0.14902 0.14902 C
(0) [10] 0 183.3 14.9956 10 /Helvetica SRX
grestore

gsave
0.14902 0.14902 0.14902 C
(2) [10] 0 253.05 14.9956 10 /Helvetica SRX
grestore

gsave
0.14902 0.14902 0.14902 C
(4) [10] 0 322.8 14.9956 10 /Helvetica SRX
grestore

46.8 30.5139 LS
49.59 30.5139 LE
325.8 30.5139 LS
323.01 30.5139 LE
46.8 70.4111 LS
49.59 70.4111 LE
325.8 70.4111 LS
323.01 70.4111 LE
46.8 110.308 LS
49.59 110.308 LE
325.8 110.308 LS
323.01 110.308 LE
46.8 150.206 LS
49.59 150.206 LE
325.8 150.206 LS
323.01 150.206 LE
46.8 190.103 LS
49.59 190.103 LE
325.8 190.103 LS
323.01 190.103 LE
46.8 230 LS
49.59 230 LE
325.8 230 LS
323.01 230 LE
gsave
0.14902 0.14902 0.14902 C
(0) [10] 0 35.8 26.5139 10 /Helvetica SRX
grestore

gsave
0.14902 0.14902 0.14902 C
(200) [6 6 10] 0 23.8 66.4111 10 /Helvetica SRX
grestore

gsave
0.14902 0.14902 0.14902 C
(400) [6 6 10] 0 23.8 106.308 10 /Helvetica SRX
grestore

gsave
0.14902 0.14902 0.14902 C
(600) [6 6 10] 0 23.8 146.206 10 /Helvetica SRX
grestore

gsave
0.14902 0.14902 0.14902 C
(800) [6 6 10] 0 23.8 186.103 10 /Helvetica SRX
grestore

gsave
0.14902 0.14902 0.14902 C
(1000) [6 6 6 10] 0 17.8 226 10 /Helvetica SRX
grestore

2 LC
[16 0] 0 setdash
46.8 30.5139 LS
325.8 30.5139 LE
46.8 230 LS
325.8 230 LE
46.8 30.5139 LS
46.8 230 LE
325.8 30.5139 LS
325.8 230 LE
gsave
0 0 0 C
(Histogram of 10,000 normally distributed random numbers) [8 3 6 4 7 7 4 6 10 3 7 4 3 6 6 3 6 6 6 3 7 7 4 10 6 3 3 6 3 7 3 6 4 4 3 7 7 4 6 7 3 4 6 7 7 7 10 3 7 7 10 7 6 4 10] 0 31.8 243 11 /Helvetica-Bold SRX
grestore

gsave
0.14902 0.14902 0.14902 C
(Count) [8 6 6 6 10] 90 11.8 115.757 11 /Helvetica SRX
grestore

gsave
0.14902 0.14902 0.14902 C
(Value) [7 6 2 6 10] 0 172.8 0.995582 11 /Helvetica SRX
grestore

0.267004 0.00487433 0.329415 C
51.5704 30.5139 51.5704 31.1123 60.0552 30.5139 T
60.0552 31.1123 60.0552 30.5139 51.5704 31.1123 T
60.0552 30.5139 60.0552 30.9129 68.54 30.5139 T
68.54 30.9129 68.54 30.5139 60.0552 30.9129 T
68.54 30.5139 68.54 31.3118 77.0248 30.5139 T
77.0248 31.3118 77.0248 30.5139 68.54 31.3118 T
77.0248 30.5139 77.0248 33.1072 85.5095 30.5139 T
85.5095 33.1072 85.5095 30.5139 77.0248 33.1072 T
85.5095 30.5139 85.5095 34.9026 93.9943 30.5139 T
93.9943 34.9026 93.9943 30.5139 85.5095 34.9026 T
93.9943 30.5139 93.9943 40.0892 102.479 30.5139 T
102.479 40.0892 102.479 30.5139 93.9943 40.0892 T
102.479 30.5139 102.479 46.4728 110.964 30.5139 T
110.964 46.4728 110.964 30.5139 102.479 46.4728 T
110.964 30.5139 110.964 57.644 119.449 30.5139 T
119.449 57.644 119.449 30.5139 110.964 57.644 T
119.449 30.5139 119.449 73.2039 127.933 30.5139 T
127.933 73.2039 127.933 30.5139 119.449 73.2039 T
127.933 30.5139 127.933 87.5669 136.418 30.5139 T
136.418 87.5669 136.418 30.5139 127.933 87.5669 T
136.418 30.5139 136.418 113.7 144.903 30.5139 T
144.903 113.7 144.903 30.5139 136.418 113.7 T
144.903 30.5139 144.903 145.218 153.388 30.5139 T
153.388 145.218 153.388 30.5139 144.903 145.218 T
153.388 30.5139 153.388 175.939 161.872 30.5139 T
161.872 175.939 161.872 30.5139 153.388 175.939 T
161.872 30.5139 161.872 184.318 170.357 30.5139 T
170.357 184.318 170.357 30.5139 161.872 184.318 T
170.357 30.5139 170.357 206.062 178.842 30.5139 T
178.842 206.062 178.842 30.5139 170.357 206.062 T
178.842 30.5139 178.842 223.816 187.327 30.5139 T
187.327 223.816 187.327 30.5139 178.842 223.816 T
187.327 30.5139 187.327 226.01 195.812 30.5139 T
195.812 226.01 195.812 30.5139 187.327 226.01 T
195.812 30.5139 195.812 213.642 204.296 30.5139 T
204.296 213.642 204.296 30.5139 195.812 213.642 T
204.296 30.5139 204.296 188.706 212.781 30.5139 T
212.781 188.706 212.781 30.5139 204.296 188.706 T
212.781 30.5139 212.781 150.605 221.266 30.5139 T
221.266 150.605 221.266 30.5139 212.781 150.605 T
221.266 30.5139 221.266 135.643 229.751 30.5139 T
229.751 135.643 229.751 30.5139 221.266 135.643 T
229.751 30.5139 229.751 102.728 238.235 30.5139 T
238.235 102.728 238.235 30.5139 229.751 102.728 T
238.235 30.5139 238.235 82.1808 246.72 30.5139 T
246.72 82.1808 246.72 30.5139 238.235 82.1808 T
246.72 30.5139 246.72 63.8281 255.205 30.5139 T
255.205 63.8281 255.205 30.5139 246.72 63.8281 T
255.205 30.5139 255.205 49.6646 263.69 30.5139 T
263.69 49.6646 263.69 30.5139 255.205 49.6646 T
263.69 30.5139 263.69 41.6851 272.175 30.5139 T
272.175 41.6851 272.175 30.5139 263.69 41.6851 T
272.175 30.5139 272.175 41.6851 280.659 30.5139 T
280.659 41.6851 280.659 30.5139 272.175 41.6851 T
280.659 30.5139 280.659 33.9052 289.144 30.5139 T
289.144 33.9052 289.144 30.5139 280.659 33.9052 T
289.144 30.5139 289.144 32.9077 297.629 30.5139 T
297.629 32.9077 297.629 30.5139 289.144 32.9077 T
297.629 30.5139 297.629 31.7108 306.114 30.5139 T
306.114 31.7108 306.114 30.5139 297.629 31.7108 T
0 LC
[] 0 setdash
0 0 0 C
60.0552 31.1123 LS
51.5704 31.1123 L
51.5704 30.5139 L
60.0552 30.5139 L
60.0552 31.1123 LE
68.54 30.9129 LS
60.0552 30.9129 L
60.0552 30.5139 L
68.54 30.5139 L
68.54 30.9129 LE
77.0248 31.3118 LS
68.54 31.3118 L
68.54 30.5139 L
77.0248 30.5139 L
77.0248 31.3118 LE
85.5095 33.1072 LS
77.0248 33.1072 L
77.0248 30.5139 L
85.5095 30.5139 L
85.5095 33.1072 LE
93.9943 34.9026 LS
85.5095 34.9026 L
85.5095 30.5139 L
93.9943 30.5139 L
93.9943 34.9026 LE
102.479 40.0892 LS
93.9943 40.0892 L
93.9943 30.5139 L
102.479 30.5139 L
102.479 40.0892 LE
110.964 46.4728 LS
102.479 46.4728 L
102.479 30.5139 L
110.964 30.5139 L
110.964 46.4728 LE
119.449 57.644 LS
110.964 57.644 L
110.964 30.5139 L
119.449 30.5139 L
119.449 57.644 LE
127.933 73.2039 LS
119.449 73.2039 L
119.449 30.5139 L
127.933 30.5139 L
127.933 73.2039 LE
136.418 87.5669 LS
127.933 87.5669 L
127.933 30.5139 L
136.418 30.5139 L
136.418 87.5669 LE
144.903 113.7 LS
136.418 113.7 L
136.418 30.5139 L
144.903 30.5139 L
144.903 113.7 LE
153.388 145.218 LS
144.903 145.218 L
144.903 30.5139 L
153.388 30.5139 L
153.388 145.218 LE
161.872 175.939 LS
153.388 175.939 L
153.388 30.5139 L
161.872 30.5139 L
161.872 175.939 LE
170.357 184.318 LS
161.872 184.318 L
161.872 30.5139 L
170.357 30.5139 L
170.357 184.318 LE
178.842 206.062 LS
170.357 206.062 L
170.357 30.5139 L
178.842 30.5139 L
178.842 206.062 LE
187.327 223.816 LS
178.842 223.816 L
178.842 30.5139 L
187.327 30.5139 L
187.327 223.816 LE
195.812 226.01 LS
187.327 226.01 L
187.327 30.5139 L
195.812 30.5139 L
195.812 226.01 LE
204.296 213.642 LS
195.812 213.642 L
195.812 30.5139 L
204.296 30.5139 L
204.296 213.642 LE
212.781 188.706 LS
204.296 188.706 L
204.296 30.5139 L
212.781 30.5139 L
212.781 188.706 LE
221.266 150.605 LS
212.781 150.605 L
212.781 30.5139 L
221.266 30.5139 L
221.266 150.605 LE
229.751 135.643 LS
221.266 135.643 L
221.266 30.5139 L
229.751 30.5139 L
229.751 135.643 LE
238.235 102.728 LS
229.751 102.728 L
229.751 30.5139 L
238.235 30.5139 L
238.235 102.728 LE
246.72 82.1808 LS
238.235 82.1808 L
238.235 30.5139 L
246.72 30.5139 L
246.72 82.1808 LE
255.205 63.8281 LS
246.72 63.8281 L
246.72 30.5139 L
255.205 30.5139 L
255.205 63.8281 LE
263.69 49.6646 LS
255.205 49.6646 L
255.205 30.5139 L
263.69 30.5139 L
263.69 49.6646 LE
272.175 41.6851 LS
263.69 41.6851 L
263.69 30.5139 L
272.175 30.5139 L
272.175 41.6851 LE
280.659 41.6851 LS
272.175 41.6851 L
272.175 30.5139 L
280.659 30.5139 L
280.659 41.6851 LE
289.144 33.9052 LS
280.659 33.9052 L
280.659 30.5139 L
289.144 30.5139 L
289.144 33.9052 LE
297.629 32.9077 LS
289.144 32.9077 L
289.144 30.5139 L
297.629 30.5139 L
297.629 32.9077 LE
306.114 31.7108 LS
297.629 31.7108 L
297.629 30.5139 L
306.114 30.5139 L
306.114 31.7108 LE
1 LJ
46.8 30.5139 LS
325.8 30.5139 LE
grestore
grestore
showpage
cleartomark
%%PageTrailer
%%Trailer
end
%%EOF
