%!PS-Adobe-3.0 EPSF-3.0
%%Title: gl2ps_renderer figure
%%Creator: GL2PS 1.4.0, (C) 1999-2017 C. Geuzaine
%%For: Octave
%%CreationDate: Sat Feb 23 18:52:01 2019
%%LanguageLevel: 3
%%DocumentData: Clean7Bit
%%Pages: 1
%%BoundingBox: 0 0 360 252
%%EndComments
%%BeginProlog
/gl2psdict 64 dict def gl2psdict begin
/tryPS3shading false def % set to false to force subdivision
/rThreshold 0.064 def % red component subdivision threshold
/gThreshold 0.034 def % green component subdivision threshold
/bThreshold 0.1 def % blue component subdivision threshold
/BD { bind def } bind def
/C  { setrgbcolor } BD
/G  { 0.082 mul exch 0.6094 mul add exch 0.3086 mul add neg 1.0 add setgray } BD
/W  { setlinewidth } BD
/LC  { setlinecap } BD
/LJ  { setlinejoin } BD
/FC { findfont exch /SH exch def SH scalefont setfont } BD
/SW { dup stringwidth pop } BD
/S  { FC moveto show } BD
/SBC{ FC moveto SW -2 div 0 rmoveto show } BD
/SBR{ FC moveto SW neg 0 rmoveto show } BD
/SCL{ FC moveto 0 SH -2 div rmoveto show } BD
/SCC{ FC moveto SW -2 div SH -2 div rmoveto show } BD
/SCR{ FC moveto SW neg SH -2 div rmoveto show } BD
/STL{ FC moveto 0 SH neg rmoveto show } BD
/STC{ FC moveto SW -2 div SH neg rmoveto show } BD
/STR{ FC moveto SW neg SH neg rmoveto show } BD
/FCT { FC translate 0 0 } BD
/SR  { gsave FCT moveto rotate show grestore } BD
/SRX  { gsave FCT moveto rotate xshow grestore } BD
/SBCR{ gsave FCT moveto rotate SW -2 div 0 rmoveto show grestore } BD
/SBRR{ gsave FCT moveto rotate SW neg 0 rmoveto show grestore } BD
/SCLR{ gsave FCT moveto rotate 0 SH -2 div rmoveto show grestore} BD
/SCCR{ gsave FCT moveto rotate SW -2 div SH -2 div rmoveto show grestore} BD
/SCRR{ gsave FCT moveto rotate SW neg SH -2 div rmoveto show grestore} BD
/STLR{ gsave FCT moveto rotate 0 SH neg rmoveto show grestore } BD
/STCR{ gsave FCT moveto rotate SW -2 div SH neg rmoveto show grestore } BD
/STRR{ gsave FCT moveto rotate SW neg SH neg rmoveto show grestore } BD
/P  { newpath 0.0 360.0 arc closepath fill } BD
/LS { newpath moveto } BD
/L  { lineto } BD
/LE { lineto stroke } BD
/T  { newpath moveto lineto lineto closepath fill } BD
/STshfill {
      /b1 exch def /g1 exch def /r1 exch def /y1 exch def /x1 exch def
      /b2 exch def /g2 exch def /r2 exch def /y2 exch def /x2 exch def
      /b3 exch def /g3 exch def /r3 exch def /y3 exch def /x3 exch def
      gsave << /ShadingType 4 /ColorSpace [/DeviceRGB]
      /DataSource [ 0 x1 y1 r1 g1 b1 0 x2 y2 r2 g2 b2 0 x3 y3 r3 g3 b3 ] >>
      shfill grestore } BD
/Tm { 3 -1 roll 8 -1 roll 13 -1 roll add add 3 div
      3 -1 roll 7 -1 roll 11 -1 roll add add 3 div
      3 -1 roll 6 -1 roll 9 -1 roll add add 3 div C T } BD
/STsplit {
      4 index 15 index add 0.5 mul
      4 index 15 index add 0.5 mul
      4 index 15 index add 0.5 mul
      4 index 15 index add 0.5 mul
      4 index 15 index add 0.5 mul
      5 copy 5 copy 25 15 roll
      9 index 30 index add 0.5 mul
      9 index 30 index add 0.5 mul
      9 index 30 index add 0.5 mul
      9 index 30 index add 0.5 mul
      9 index 30 index add 0.5 mul
      5 copy 5 copy 35 5 roll 25 5 roll 15 5 roll
      4 index 10 index add 0.5 mul
      4 index 10 index add 0.5 mul
      4 index 10 index add 0.5 mul
      4 index 10 index add 0.5 mul
      4 index 10 index add 0.5 mul
      5 copy 5 copy 40 5 roll 25 5 roll 15 5 roll 25 5 roll
      STnoshfill STnoshfill STnoshfill STnoshfill } BD
/STnoshfill {
      2 index 8 index sub abs rThreshold gt
      { STsplit }
      { 1 index 7 index sub abs gThreshold gt
        { STsplit }
        { dup 6 index sub abs bThreshold gt
          { STsplit }
          { 2 index 13 index sub abs rThreshold gt
            { STsplit }
            { 1 index 12 index sub abs gThreshold gt
              { STsplit }
              { dup 11 index sub abs bThreshold gt
                { STsplit }
                { 7 index 13 index sub abs rThreshold gt
                  { STsplit }
                  { 6 index 12 index sub abs gThreshold gt
                    { STsplit }
                    { 5 index 11 index sub abs bThreshold gt
                      { STsplit }
                      { Tm }
                      ifelse }
                    ifelse }
                  ifelse }
                ifelse }
              ifelse }
            ifelse }
          ifelse }
        ifelse }
      ifelse } BD
tryPS3shading
{ /shfill where
  { /ST { STshfill } BD }
  { /ST { STnoshfill } BD }
  ifelse }
{ /ST { STnoshfill } BD }
ifelse
end
%%EndProlog
%%BeginSetup
/DeviceRGB setcolorspace
gl2psdict begin
%%EndSetup
%%Page: 1 1
%%BeginPageSetup
%%EndPageSetup
mark
gsave
1.0 1.0 scale
1 1 1 C
newpath 0 0 moveto 360 0 lineto 360 252 lineto 0 252 lineto
closepath fill
gsave
1.0 1.0 scale
1 1 1 C
newpath 0 0 moveto 360 0 lineto 360 252 lineto 0 252 lineto
closepath fill
newpath 0 0 moveto 360 0 lineto 360 252 lineto 0 252 lineto
closepath clip
1 1 1 C
46.8 233.1 325.8 27.72 46.8 27.72 T
46.8 233.1 325.8 233.1 325.8 27.72 T
0.5 W
0.15 0.15 0.15 C
46.8 27.72 LS
46.8 30.5152 LE
46.8 233.1 LS
46.8 230.305 LE
116.55 27.72 LS
116.55 30.5152 LE
116.55 233.1 LS
116.55 230.305 LE
186.3 27.72 LS
186.3 30.5152 LE
186.3 233.1 LS
186.3 230.305 LE
256.05 27.72 LS
256.05 30.5152 LE
256.05 233.1 LS
256.05 230.305 LE
325.8 27.72 LS
325.8 30.5152 LE
325.8 233.1 LS
325.8 230.305 LE
gsave
0.14902 0.14902 0.14902 C
(-2) [3 10] 0 42.3 12.2061 10 /Helvetica SRX
grestore

gsave
0.14902 0.14902 0.14902 C
(-1) [3 10] 0 112.05 12.2061 10 /Helvetica SRX
grestore

gsave
0.14902 0.14902 0.14902 C
(0) [10] 0 183.3 12.2061 10 /Helvetica SRX
grestore

gsave
0.14902 0.14902 0.14902 C
(1) [10] 0 253.05 12.2061 10 /Helvetica SRX
grestore

gsave
0.14902 0.14902 0.14902 C
(2) [10] 0 322.8 12.2061 10 /Helvetica SRX
grestore

46.8 27.72 LS
49.59 27.72 LE
325.8 27.72 LS
323.01 27.72 LE
46.8 79.065 LS
49.59 79.065 LE
325.8 79.065 LS
323.01 79.065 LE
46.8 130.41 LS
49.59 130.41 LE
325.8 130.41 LS
323.01 130.41 LE
46.8 181.755 LS
49.59 181.755 LE
325.8 181.755 LS
323.01 181.755 LE
46.8 233.1 LS
49.59 233.1 LE
325.8 233.1 LS
323.01 233.1 LE
gsave
0.14902 0.14902 0.14902 C
(-2) [3 10] 0 32.8 23.72 10 /Helvetica SRX
grestore

gsave
0.14902 0.14902 0.14902 C
(-1) [3 10] 0 32.8 75.065 10 /Helvetica SRX
grestore

gsave
0.14902 0.14902 0.14902 C
(0) [10] 0 35.8 126.41 10 /Helvetica SRX
grestore

gsave
0.14902 0.14902 0.14902 C
(1) [10] 0 35.8 177.755 10 /Helvetica SRX
grestore

gsave
0.14902 0.14902 0.14902 C
(2) [10] 0 35.8 229.1 10 /Helvetica SRX
grestore

2 LC
[16 0] 0 setdash
46.8 27.72 LS
325.8 27.72 LE
46.8 233.1 LS
325.8 233.1 LE
46.8 27.72 LS
46.8 233.1 LE
325.8 27.72 LS
325.8 233.1 LE
0 LC
1 LJ
[] 0 setdash
0 0.447 0.741 C
116.55 130.41 LS
119.964 114.544 L
129.871 100.23 L
145.302 88.871 L
164.746 81.578 L
186.3 79.065 L
207.854 81.578 L
227.298 88.871 L
242.729 100.23 L
252.636 114.544 L
256.05 130.41 L
252.636 146.276 L
242.729 160.59 L
227.298 171.949 L
207.854 179.242 L
186.3 181.755 L
164.746 179.242 L
145.302 171.949 L
129.871 160.59 L
119.964 146.276 L
116.55 130.41 LE
2 LC
0 LJ
1 0 0 C
150.906 140.052 LS
156.906 140.052 LE
153.906 143.052 LS
153.906 137.052 LE
199.695 131.914 LS
205.695 131.914 LE
202.695 134.914 LS
202.695 128.914 LE
135.64 146.369 LS
141.64 146.369 LE
138.64 149.369 LS
138.64 143.369 LE
125.61 116.034 LS
131.61 116.034 LE
128.61 119.034 LS
128.61 113.034 LE
127.586 107.911 LS
133.586 107.911 LE
130.586 110.911 LS
130.586 104.911 LE
165.218 86.0857 LS
171.218 86.0857 LE
168.218 89.0857 LS
168.218 83.0857 LE
169.361 126.75 LS
175.361 126.75 LE
172.361 129.75 LS
172.361 123.75 LE
192.257 109.353 LS
198.257 109.353 LE
195.257 112.353 LS
195.257 106.353 LE
146.256 153.902 LS
152.256 153.902 LE
149.256 156.902 LS
149.256 150.902 LE
135.846 122.855 LS
141.846 122.855 LE
138.846 125.855 LS
138.846 119.855 LE
238.188 128.506 LS
244.188 128.506 LE
241.188 131.506 LS
241.188 125.506 LE
180.789 142.172 LS
186.789 142.172 LE
183.789 145.172 LS
183.789 139.172 LE
116.693 137.159 LS
122.693 137.159 LE
119.693 140.159 LS
119.693 134.159 LE
239.41 137.729 LS
245.41 137.729 LE
242.41 140.729 LS
242.41 134.729 LE
133.089 136.37 LS
139.089 136.37 LE
136.089 139.37 LS
136.089 133.37 LE
200.567 130.45 LS
206.567 130.45 LE
203.567 133.45 LS
203.567 127.45 LE
206.888 159.556 LS
212.888 159.556 LE
209.888 162.556 LS
209.888 156.556 LE
199.279 108.903 LS
205.279 108.903 LE
202.279 111.903 LS
202.279 105.903 LE
206.878 96.7311 LS
212.878 96.7311 LE
209.878 99.7311 LS
209.878 93.7311 LE
163.404 151.192 LS
169.404 151.192 LE
166.404 154.192 LS
166.404 148.192 LE
181.573 163.834 LS
187.573 163.834 LE
184.573 166.834 LS
184.573 160.834 LE
207.937 114.106 LS
213.937 114.106 LE
210.937 117.106 LS
210.937 111.106 LE
207.124 141.657 LS
213.124 141.657 LE
210.124 144.657 LS
210.124 138.657 LE
173.42 141.135 LS
179.42 141.135 LE
176.42 144.135 LS
176.42 138.135 LE
156.453 137.696 LS
162.453 137.696 LE
159.453 140.696 LS
159.453 134.696 LE
191.977 177.368 LS
197.977 177.368 LE
194.977 180.368 LS
194.977 174.368 LE
244.788 114.824 LS
250.788 114.824 LE
247.788 117.824 LS
247.788 111.824 LE
243.897 154.345 LS
249.897 154.345 LE
246.897 157.345 LS
246.897 151.345 LE
197.894 149.183 LS
203.894 149.183 LE
200.894 152.183 LS
200.894 146.183 LE
183.918 94.2751 LS
189.918 94.2751 LE
186.918 97.2751 LS
186.918 91.2751 LE
1 LC
1 LJ
0 0 1 C
76.5145 186.039 LS
75.9415 184.275 L
74.4415 183.185 L
72.5874 183.185 L
71.0874 184.275 L
70.5145 186.039 L
71.0874 187.802 L
72.5874 188.892 L
74.4415 188.892 L
75.9415 187.802 L
76.5145 186.039 LE
55.373 48.635 LS
54.8 46.8717 L
53.3 45.7819 L
51.4459 45.7819 L
49.9459 46.8717 L
49.373 48.635 L
49.9459 50.3984 L
51.4459 51.4882 L
53.3 51.4882 L
54.8 50.3984 L
55.373 48.635 LE
241.624 212.059 LS
241.051 210.296 L
239.551 209.206 L
237.697 209.206 L
236.197 210.296 L
235.624 212.059 L
236.197 213.822 L
237.697 214.912 L
239.551 214.912 L
241.051 213.822 L
241.624 212.059 LE
329.039 171.813 LS
328.466 170.05 L
326.966 168.96 L
325.112 168.96 L
323.612 170.05 L
323.039 171.813 L
323.612 173.576 L
325.112 174.666 L
326.966 174.666 L
328.466 173.576 L
329.039 171.813 LE
205.09 205.727 LS
204.517 203.963 L
203.017 202.874 L
201.163 202.874 L
199.663 203.963 L
199.09 205.727 L
199.663 207.49 L
201.163 208.58 L
203.017 208.58 L
204.517 207.49 L
205.09 205.727 LE
84.816 171.498 LS
84.243 169.735 L
82.743 168.645 L
80.8889 168.645 L
79.3889 169.735 L
78.816 171.498 L
79.3889 173.262 L
80.8889 174.351 L
82.743 174.351 L
84.243 173.262 L
84.816 171.498 LE
265.074 139.303 LS
264.501 137.54 L
263.001 136.45 L
261.147 136.45 L
259.647 137.54 L
259.074 139.303 L
259.647 141.067 L
261.147 142.156 L
263.001 142.156 L
264.501 141.067 L
265.074 139.303 LE
88.6921 151.405 LS
88.1192 149.641 L
86.6191 148.551 L
84.7651 148.551 L
83.265 149.641 L
82.6921 151.405 L
83.265 153.168 L
84.7651 154.258 L
86.6191 154.258 L
88.1192 153.168 L
88.6921 151.405 LE
163.714 74.4768 LS
163.141 72.7135 L
161.641 71.6237 L
159.787 71.6237 L
158.287 72.7135 L
157.714 74.4768 L
158.287 76.2402 L
159.787 77.33 L
161.641 77.33 L
163.141 76.2402 L
163.714 74.4768 LE
293.891 36.0187 LS
293.318 34.2553 L
291.818 33.1655 L
289.963 33.1655 L
288.463 34.2553 L
287.891 36.0187 L
288.463 37.782 L
289.963 38.8718 L
291.818 38.8718 L
293.318 37.782 L
293.891 36.0187 LE
161.099 68.768 LS
160.526 67.0046 L
159.026 65.9148 L
157.172 65.9148 L
155.672 67.0046 L
155.099 68.768 L
155.672 70.5313 L
157.172 71.6211 L
159.026 71.6211 L
160.526 70.5313 L
161.099 68.768 LE
200.562 53.4795 LS
199.989 51.7162 L
198.489 50.6264 L
196.634 50.6264 L
195.134 51.7162 L
194.562 53.4795 L
195.134 55.2429 L
196.634 56.3327 L
198.489 56.3327 L
199.989 55.2429 L
200.562 53.4795 LE
269.124 154.465 LS
268.551 152.702 L
267.051 151.612 L
265.197 151.612 L
263.697 152.702 L
263.124 154.465 L
263.697 156.228 L
265.197 157.318 L
267.051 157.318 L
268.551 156.228 L
269.124 154.465 LE
233.418 170.943 LS
232.845 169.18 L
231.345 168.09 L
229.491 168.09 L
227.991 169.18 L
227.418 170.943 L
227.991 172.707 L
229.491 173.796 L
231.345 173.796 L
232.845 172.707 L
233.418 170.943 LE
145.079 83.9004 LS
144.506 82.137 L
143.006 81.0472 L
141.152 81.0472 L
139.652 82.137 L
139.079 83.9004 L
139.652 85.6637 L
141.152 86.7536 L
143.006 86.7536 L
144.506 85.6637 L
145.079 83.9004 LE
207.114 186.378 LS
206.541 184.615 L
205.041 183.525 L
203.187 183.525 L
201.687 184.615 L
201.114 186.378 L
201.687 188.141 L
203.187 189.231 L
205.041 189.231 L
206.541 188.141 L
207.114 186.378 LE
217.31 199.073 LS
216.737 197.309 L
215.237 196.22 L
213.383 196.22 L
211.883 197.309 L
211.31 199.073 L
211.883 200.836 L
213.383 201.926 L
215.237 201.926 L
216.737 200.836 L
217.31 199.073 LE
266.268 172.142 LS
265.695 170.379 L
264.195 169.289 L
262.341 169.289 L
260.841 170.379 L
260.268 172.142 L
260.841 173.905 L
262.341 174.995 L
264.195 174.995 L
265.695 173.905 L
266.268 172.142 LE
285.713 147.446 LS
285.14 145.683 L
283.64 144.593 L
281.786 144.593 L
280.286 145.683 L
279.713 147.446 L
280.286 149.21 L
281.786 150.299 L
283.64 150.299 L
285.14 149.21 L
285.713 147.446 LE
238.74 81.7376 LS
238.167 79.9742 L
236.667 78.8844 L
234.813 78.8844 L
233.313 79.9742 L
232.74 81.7376 L
233.313 83.5009 L
234.813 84.5908 L
236.667 84.5908 L
238.167 83.5009 L
238.74 81.7376 LE
98.8853 83.3152 LS
98.3124 81.5518 L
96.8124 80.462 L
94.9583 80.462 L
93.4583 81.5518 L
92.8853 83.3152 L
93.4583 85.0785 L
94.9583 86.1683 L
96.8124 86.1683 L
98.3124 85.0785 L
98.8853 83.3152 LE
252.328 167.68 LS
251.755 165.917 L
250.255 164.827 L
248.401 164.827 L
246.901 165.917 L
246.328 167.68 L
246.901 169.443 L
248.401 170.533 L
250.255 170.533 L
251.755 169.443 L
252.328 167.68 LE
239.074 81.2514 LS
238.501 79.488 L
237.001 78.3982 L
235.147 78.3982 L
233.647 79.488 L
233.074 81.2514 L
233.647 83.0147 L
235.147 84.1045 L
237.001 84.1045 L
238.501 83.0147 L
239.074 81.2514 LE
218.864 205.181 LS
218.291 203.418 L
216.791 202.328 L
214.937 202.328 L
213.437 203.418 L
212.864 205.181 L
213.437 206.945 L
214.937 208.035 L
216.791 208.035 L
218.291 206.945 L
218.864 205.181 LE
266.507 151.23 LS
265.934 149.467 L
264.434 148.377 L
262.58 148.377 L
261.08 149.467 L
260.507 151.23 L
261.08 152.993 L
262.58 154.083 L
264.434 154.083 L
265.934 152.993 L
266.507 151.23 LE
80.4824 78.3277 LS
79.9094 76.5644 L
78.4094 75.4745 L
76.5553 75.4745 L
75.0553 76.5644 L
74.4824 78.3277 L
75.0553 80.0911 L
76.5553 81.1809 L
78.4094 81.1809 L
79.9094 80.0911 L
80.4824 78.3277 LE
271.787 229.263 LS
271.214 227.499 L
269.714 226.41 L
267.86 226.41 L
266.36 227.499 L
265.787 229.263 L
266.36 231.026 L
267.86 232.116 L
269.714 232.116 L
271.214 231.026 L
271.787 229.263 LE
325.768 153.34 LS
325.195 151.577 L
323.695 150.487 L
321.841 150.487 L
320.341 151.577 L
319.768 153.34 L
320.341 155.104 L
321.841 156.193 L
323.695 156.193 L
325.195 155.104 L
325.768 153.34 LE
224.084 176.839 LS
223.511 175.076 L
222.011 173.986 L
220.157 173.986 L
218.657 175.076 L
218.084 176.839 L
218.657 178.602 L
220.157 179.692 L
222.011 179.692 L
223.511 178.602 L
224.084 176.839 LE
301.112 133.429 LS
300.54 131.666 L
299.04 130.576 L
297.185 130.576 L
295.685 131.666 L
295.112 133.429 L
295.685 135.192 L
297.185 136.282 L
299.04 136.282 L
300.54 135.192 L
301.112 133.429 LE
123.878 175.209 LS
123.305 173.446 L
121.805 172.356 L
119.951 172.356 L
118.451 173.446 L
117.878 175.209 L
118.451 176.973 L
119.951 178.062 L
121.805 178.062 L
123.305 176.973 L
123.878 175.209 LE
79.6983 164.609 LS
79.1254 162.846 L
77.6254 161.756 L
75.7713 161.756 L
74.2713 162.846 L
73.6983 164.609 L
74.2713 166.372 L
75.7713 167.462 L
77.6254 167.462 L
79.1254 166.372 L
79.6983 164.609 LE
120.581 121.544 LS
120.008 119.78 L
118.508 118.691 L
116.654 118.691 L
115.154 119.78 L
114.581 121.544 L
115.154 123.307 L
116.654 124.397 L
118.508 124.397 L
120.008 123.307 L
120.581 121.544 LE
285.947 86.4933 LS
285.374 84.7299 L
283.874 83.6401 L
282.02 83.6401 L
280.52 84.7299 L
279.947 86.4933 L
280.52 88.2566 L
282.02 89.3464 L
283.874 89.3464 L
285.374 88.2566 L
285.947 86.4933 LE
265.051 159.128 LS
264.478 157.364 L
262.978 156.274 L
261.124 156.274 L
259.624 157.364 L
259.051 159.128 L
259.624 160.891 L
261.124 161.981 L
262.978 161.981 L
264.478 160.891 L
265.051 159.128 LE
130.451 87.874 LS
129.878 86.1106 L
128.378 85.0208 L
126.524 85.0208 L
125.024 86.1106 L
124.451 87.874 L
125.024 89.6373 L
126.524 90.7272 L
128.378 90.7272 L
129.878 89.6373 L
130.451 87.874 LE
258.218 83.3415 LS
257.645 81.5781 L
256.145 80.4883 L
254.291 80.4883 L
252.791 81.5781 L
252.218 83.3415 L
252.791 85.1048 L
254.291 86.1946 L
256.145 86.1946 L
257.645 85.1048 L
258.218 83.3415 LE
209.935 46.3235 LS
209.362 44.5601 L
207.862 43.4703 L
206.008 43.4703 L
204.508 44.5601 L
203.935 46.3235 L
204.508 48.0868 L
206.008 49.1766 L
207.862 49.1766 L
209.362 48.0868 L
209.935 46.3235 LE
193.876 31.9652 LS
193.303 30.2018 L
191.803 29.112 L
189.949 29.112 L
188.449 30.2018 L
187.876 31.9652 L
188.449 33.7285 L
189.949 34.8183 L
191.803 34.8183 L
193.303 33.7285 L
193.876 31.9652 LE
266.823 150.352 LS
266.25 148.589 L
264.75 147.499 L
262.896 147.499 L
261.396 148.589 L
260.823 150.352 L
261.396 152.116 L
262.896 153.206 L
264.75 153.206 L
266.25 152.116 L
266.823 150.352 LE
245.403 90.6678 LS
244.83 88.9045 L
243.33 87.8147 L
241.476 87.8147 L
239.976 88.9045 L
239.403 90.6678 L
239.976 92.4312 L
241.476 93.521 L
243.33 93.521 L
244.83 92.4312 L
245.403 90.6678 LE
162.932 41.1595 LS
162.359 39.3962 L
160.859 38.3064 L
159.005 38.3064 L
157.505 39.3962 L
156.932 41.1595 L
157.505 42.9229 L
159.005 44.0127 L
160.859 44.0127 L
162.359 42.9229 L
162.932 41.1595 LE
109.764 121.981 LS
109.191 120.218 L
107.691 119.128 L
105.837 119.128 L
104.337 120.218 L
103.764 121.981 L
104.337 123.745 L
105.837 124.834 L
107.691 124.834 L
109.191 123.745 L
109.764 121.981 LE
274.07 155.733 LS
273.497 153.969 L
271.997 152.88 L
270.143 152.88 L
268.643 153.969 L
268.07 155.733 L
268.643 157.496 L
270.143 158.586 L
271.997 158.586 L
273.497 157.496 L
274.07 155.733 LE
72.2154 111.913 LS
71.6425 110.15 L
70.1425 109.06 L
68.2884 109.06 L
66.7884 110.15 L
66.2154 111.913 L
66.7884 113.677 L
68.2884 114.766 L
70.1425 114.766 L
71.6425 113.677 L
72.2154 111.913 LE
248.776 157.381 LS
248.203 155.617 L
246.703 154.527 L
244.849 154.527 L
243.349 155.617 L
242.776 157.381 L
243.349 159.144 L
244.849 160.234 L
246.703 160.234 L
248.203 159.144 L
248.776 157.381 LE
261.024 132.384 LS
260.451 130.62 L
258.951 129.53 L
257.097 129.53 L
255.597 130.62 L
255.024 132.384 L
255.597 134.147 L
257.097 135.237 L
258.951 135.237 L
260.451 134.147 L
261.024 132.384 LE
277.327 158.186 LS
276.754 156.422 L
275.254 155.332 L
273.4 155.332 L
271.9 156.422 L
271.327 158.186 L
271.9 159.949 L
273.4 161.039 L
275.254 161.039 L
276.754 159.949 L
277.327 158.186 LE
231.211 202.144 LS
230.638 200.38 L
229.138 199.29 L
227.284 199.29 L
225.784 200.38 L
225.211 202.144 L
225.784 203.907 L
227.284 204.997 L
229.138 204.997 L
230.638 203.907 L
231.211 202.144 LE
275.642 165.185 LS
275.069 163.422 L
273.569 162.332 L
271.715 162.332 L
270.215 163.422 L
269.642 165.185 L
270.215 166.948 L
271.715 168.038 L
273.569 168.038 L
275.069 166.948 L
275.642 165.185 LE
128.042 84.8731 LS
127.469 83.1097 L
125.969 82.0199 L
124.115 82.0199 L
122.615 83.1097 L
122.042 84.8731 L
122.615 86.6364 L
124.115 87.7262 L
125.969 87.7262 L
127.469 86.6364 L
128.042 84.8731 LE
206.662 74.6977 LS
206.089 72.9344 L
204.589 71.8446 L
202.735 71.8446 L
201.235 72.9344 L
200.662 74.6977 L
201.235 76.4611 L
202.735 77.5509 L
204.589 77.5509 L
206.089 76.4611 L
206.662 74.6977 LE
296.773 95.9928 LS
296.2 94.2295 L
294.7 93.1397 L
292.846 93.1397 L
291.346 94.2295 L
290.773 95.9928 L
291.346 97.7562 L
292.846 98.846 L
294.7 98.846 L
296.2 97.7562 L
296.773 95.9928 LE
251.18 156.645 LS
250.607 154.882 L
249.107 153.792 L
247.252 153.792 L
245.752 154.882 L
245.18 156.645 L
245.752 158.409 L
247.252 159.499 L
249.107 159.499 L
250.607 158.409 L
251.18 156.645 LE
87.6559 229.211 LS
87.083 227.447 L
85.583 226.357 L
83.7289 226.357 L
82.2289 227.447 L
81.6559 229.211 L
82.2289 230.974 L
83.7289 232.064 L
85.583 232.064 L
87.083 230.974 L
87.6559 229.211 LE
247.029 89.9774 LS
246.456 88.214 L
244.956 87.1242 L
243.102 87.1242 L
241.602 88.214 L
241.029 89.9774 L
241.602 91.7407 L
243.102 92.8306 L
244.956 92.8306 L
246.456 91.7407 L
247.029 89.9774 LE
171.027 31.0933 LS
170.454 29.3299 L
168.954 28.2401 L
167.1 28.2401 L
165.6 29.3299 L
165.027 31.0933 L
165.6 32.8566 L
167.1 33.9464 L
168.954 33.9464 L
170.454 32.8566 L
171.027 31.0933 LE
249.968 69.3264 LS
249.395 67.563 L
247.895 66.4732 L
246.041 66.4732 L
244.541 67.563 L
243.968 69.3264 L
244.541 71.0897 L
246.041 72.1796 L
247.895 72.1796 L
249.395 71.0897 L
249.968 69.3264 LE
142.463 176.089 LS
141.89 174.326 L
140.39 173.236 L
138.536 173.236 L
137.036 174.326 L
136.463 176.089 L
137.036 177.853 L
138.536 178.943 L
140.39 178.943 L
141.89 177.853 L
142.463 176.089 LE
265.02 95.9442 LS
264.447 94.1809 L
262.947 93.0911 L
261.093 93.0911 L
259.593 94.1809 L
259.02 95.9442 L
259.593 97.7076 L
261.093 98.7974 L
262.947 98.7974 L
264.447 97.7076 L
265.02 95.9442 LE
167.941 54.0663 LS
167.368 52.303 L
165.868 51.2131 L
164.014 51.2131 L
162.514 52.303 L
161.941 54.0663 L
162.514 55.8297 L
164.014 56.9195 L
165.868 56.9195 L
167.368 55.8297 L
167.941 54.0663 LE
148.665 214.398 LS
148.092 212.635 L
146.592 211.545 L
144.738 211.545 L
143.238 212.635 L
142.665 214.398 L
143.238 216.162 L
144.738 217.252 L
146.592 217.252 L
148.092 216.162 L
148.665 214.398 LE
grestore
grestore
showpage
cleartomark
%%PageTrailer
%%Trailer
end
%%EOF
