%!PS-Adobe-3.0 EPSF-3.0
%%Title: gl2ps_renderer figure
%%Creator: GL2PS 1.4.0, (C) 1999-2017 C. Geuzaine
%%For: Octave
%%CreationDate: Sat Feb 23 18:52:02 2019
%%LanguageLevel: 3
%%DocumentData: Clean7Bit
%%Pages: 1
%%BoundingBox: 0 0 360 252
%%EndComments
%%BeginProlog
/gl2psdict 64 dict def gl2psdict begin
/tryPS3shading false def % set to false to force subdivision
/rThreshold 0.064 def % red component subdivision threshold
/gThreshold 0.034 def % green component subdivision threshold
/bThreshold 0.1 def % blue component subdivision threshold
/BD { bind def } bind def
/C  { setrgbcolor } BD
/G  { 0.082 mul exch 0.6094 mul add exch 0.3086 mul add neg 1.0 add setgray } BD
/W  { setlinewidth } BD
/LC  { setlinecap } BD
/LJ  { setlinejoin } BD
/FC { findfont exch /SH exch def SH scalefont setfont } BD
/SW { dup stringwidth pop } BD
/S  { FC moveto show } BD
/SBC{ FC moveto SW -2 div 0 rmoveto show } BD
/SBR{ FC moveto SW neg 0 rmoveto show } BD
/SCL{ FC moveto 0 SH -2 div rmoveto show } BD
/SCC{ FC moveto SW -2 div SH -2 div rmoveto show } BD
/SCR{ FC moveto SW neg SH -2 div rmoveto show } BD
/STL{ FC moveto 0 SH neg rmoveto show } BD
/STC{ FC moveto SW -2 div SH neg rmoveto show } BD
/STR{ FC moveto SW neg SH neg rmoveto show } BD
/FCT { FC translate 0 0 } BD
/SR  { gsave FCT moveto rotate show grestore } BD
/SRX  { gsave FCT moveto rotate xshow grestore } BD
/SBCR{ gsave FCT moveto rotate SW -2 div 0 rmoveto show grestore } BD
/SBRR{ gsave FCT moveto rotate SW neg 0 rmoveto show grestore } BD
/SCLR{ gsave FCT moveto rotate 0 SH -2 div rmoveto show grestore} BD
/SCCR{ gsave FCT moveto rotate SW -2 div SH -2 div rmoveto show grestore} BD
/SCRR{ gsave FCT moveto rotate SW neg SH -2 div rmoveto show grestore} BD
/STLR{ gsave FCT moveto rotate 0 SH neg rmoveto show grestore } BD
/STCR{ gsave FCT moveto rotate SW -2 div SH neg rmoveto show grestore } BD
/STRR{ gsave FCT moveto rotate SW neg SH neg rmoveto show grestore } BD
/P  { newpath 0.0 360.0 arc closepath fill } BD
/LS { newpath moveto } BD
/L  { lineto } BD
/LE { lineto stroke } BD
/T  { newpath moveto lineto lineto closepath fill } BD
/STshfill {
      /b1 exch def /g1 exch def /r1 exch def /y1 exch def /x1 exch def
      /b2 exch def /g2 exch def /r2 exch def /y2 exch def /x2 exch def
      /b3 exch def /g3 exch def /r3 exch def /y3 exch def /x3 exch def
      gsave << /ShadingType 4 /ColorSpace [/DeviceRGB]
      /DataSource [ 0 x1 y1 r1 g1 b1 0 x2 y2 r2 g2 b2 0 x3 y3 r3 g3 b3 ] >>
      shfill grestore } BD
/Tm { 3 -1 roll 8 -1 roll 13 -1 roll add add 3 div
      3 -1 roll 7 -1 roll 11 -1 roll add add 3 div
      3 -1 roll 6 -1 roll 9 -1 roll add add 3 div C T } BD
/STsplit {
      4 index 15 index add 0.5 mul
      4 index 15 index add 0.5 mul
      4 index 15 index add 0.5 mul
      4 index 15 index add 0.5 mul
      4 index 15 index add 0.5 mul
      5 copy 5 copy 25 15 roll
      9 index 30 index add 0.5 mul
      9 index 30 index add 0.5 mul
      9 index 30 index add 0.5 mul
      9 index 30 index add 0.5 mul
      9 index 30 index add 0.5 mul
      5 copy 5 copy 35 5 roll 25 5 roll 15 5 roll
      4 index 10 index add 0.5 mul
      4 index 10 index add 0.5 mul
      4 index 10 index add 0.5 mul
      4 index 10 index add 0.5 mul
      4 index 10 index add 0.5 mul
      5 copy 5 copy 40 5 roll 25 5 roll 15 5 roll 25 5 roll
      STnoshfill STnoshfill STnoshfill STnoshfill } BD
/STnoshfill {
      2 index 8 index sub abs rThreshold gt
      { STsplit }
      { 1 index 7 index sub abs gThreshold gt
        { STsplit }
        { dup 6 index sub abs bThreshold gt
          { STsplit }
          { 2 index 13 index sub abs rThreshold gt
            { STsplit }
            { 1 index 12 index sub abs gThreshold gt
              { STsplit }
              { dup 11 index sub abs bThreshold gt
                { STsplit }
                { 7 index 13 index sub abs rThreshold gt
                  { STsplit }
                  { 6 index 12 index sub abs gThreshold gt
                    { STsplit }
                    { 5 index 11 index sub abs bThreshold gt
                      { STsplit }
                      { Tm }
                      ifelse }
                    ifelse }
                  ifelse }
                ifelse }
              ifelse }
            ifelse }
          ifelse }
        ifelse }
      ifelse } BD
tryPS3shading
{ /shfill where
  { /ST { STshfill } BD }
  { /ST { STnoshfill } BD }
  ifelse }
{ /ST { STnoshfill } BD }
ifelse
end
%%EndProlog
%%BeginSetup
/DeviceRGB setcolorspace
gl2psdict begin
%%EndSetup
%%Page: 1 1
%%BeginPageSetup
%%EndPageSetup
mark
gsave
1.0 1.0 scale
1 1 1 C
newpath 0 0 moveto 360 0 lineto 360 252 lineto 0 252 lineto
closepath fill
gsave
1.0 1.0 scale
1 1 1 C
newpath 0 0 moveto 360 0 lineto 360 252 lineto 0 252 lineto
closepath fill
newpath 0 0 moveto 360 0 lineto 360 252 lineto 0 252 lineto
closepath clip
1 1 1 C
46.8 233.1 325.8 27.72 46.8 27.72 T
46.8 233.1 325.8 233.1 325.8 27.72 T
0.5 W
0.15 0.15 0.15 C
46.8 27.72 LS
46.8 30.5152 LE
46.8 233.1 LS
46.8 230.305 LE
116.55 27.72 LS
116.55 30.5152 LE
116.55 233.1 LS
116.55 230.305 LE
186.3 27.72 LS
186.3 30.5152 LE
186.3 233.1 LS
186.3 230.305 LE
256.05 27.72 LS
256.05 30.5152 LE
256.05 233.1 LS
256.05 230.305 LE
325.8 27.72 LS
325.8 30.5152 LE
325.8 233.1 LS
325.8 230.305 LE
gsave
0.14902 0.14902 0.14902 C
(-2) [3 10] 0 42.3 12.2061 10 /Helvetica SRX
grestore

gsave
0.14902 0.14902 0.14902 C
(-1) [3 10] 0 112.05 12.2061 10 /Helvetica SRX
grestore

gsave
0.14902 0.14902 0.14902 C
(0) [10] 0 183.3 12.2061 10 /Helvetica SRX
grestore

gsave
0.14902 0.14902 0.14902 C
(1) [10] 0 253.05 12.2061 10 /Helvetica SRX
grestore

gsave
0.14902 0.14902 0.14902 C
(2) [10] 0 322.8 12.2061 10 /Helvetica SRX
grestore

46.8 27.72 LS
49.59 27.72 LE
325.8 27.72 LS
323.01 27.72 LE
46.8 61.95 LS
49.59 61.95 LE
325.8 61.95 LS
323.01 61.95 LE
46.8 96.18 LS
49.59 96.18 LE
325.8 96.18 LS
323.01 96.18 LE
46.8 130.41 LS
49.59 130.41 LE
325.8 130.41 LS
323.01 130.41 LE
46.8 164.64 LS
49.59 164.64 LE
325.8 164.64 LS
323.01 164.64 LE
46.8 198.87 LS
49.59 198.87 LE
325.8 198.87 LS
323.01 198.87 LE
46.8 233.1 LS
49.59 233.1 LE
325.8 233.1 LS
323.01 233.1 LE
gsave
0.14902 0.14902 0.14902 C
(-1.5) [3 6 3 10] 0 23.8 23.72 10 /Helvetica SRX
grestore

gsave
0.14902 0.14902 0.14902 C
(-1) [3 10] 0 32.8 57.95 10 /Helvetica SRX
grestore

gsave
0.14902 0.14902 0.14902 C
(-0.5) [3 6 3 10] 0 23.8 92.18 10 /Helvetica SRX
grestore

gsave
0.14902 0.14902 0.14902 C
(0) [10] 0 35.8 126.41 10 /Helvetica SRX
grestore

gsave
0.14902 0.14902 0.14902 C
(0.5) [6 3 10] 0 26.8 160.64 10 /Helvetica SRX
grestore

gsave
0.14902 0.14902 0.14902 C
(1) [10] 0 35.8 194.87 10 /Helvetica SRX
grestore

gsave
0.14902 0.14902 0.14902 C
(1.5) [6 3 10] 0 26.8 229.1 10 /Helvetica SRX
grestore

2 LC
[16 0] 0 setdash
46.8 27.72 LS
325.8 27.72 LE
46.8 233.1 LS
325.8 233.1 LE
46.8 27.72 LS
46.8 233.1 LE
325.8 27.72 LS
325.8 233.1 LE
0 LC
1 LJ
[] 0 setdash
1 0 0 C
46.8 61.95 LS
48.5438 60.5663 L
50.2875 59.2672 L
52.0313 58.0515 L
53.775 56.9182 L
55.5188 55.8661 L
57.2625 54.8943 L
59.0063 54.0017 L
60.75 53.1871 L
62.4938 52.4496 L
64.2375 51.788 L
65.9813 51.2012 L
67.725 50.6883 L
69.4688 50.2481 L
71.2125 49.8796 L
72.9563 49.5817 L
74.7 49.3533 L
76.4438 49.1934 L
78.1875 49.1009 L
79.9313 49.0747 L
81.675 49.1137 L
83.4188 49.217 L
85.1625 49.3833 L
86.9063 49.6117 L
88.65 49.901 L
90.3938 50.2503 L
92.1375 50.6584 L
93.8813 51.1242 L
95.625 51.6467 L
97.3688 52.2249 L
99.1125 52.8576 L
100.856 53.5438 L
102.6 54.2825 L
104.344 55.0724 L
106.088 55.9127 L
107.831 56.8021 L
109.575 57.7397 L
111.319 58.7243 L
113.063 59.755 L
114.806 60.8306 L
116.55 61.95 L
118.294 63.1122 L
120.038 64.3161 L
121.781 65.5607 L
123.525 66.8449 L
125.269 68.1675 L
127.013 69.5277 L
128.756 70.9241 L
130.5 72.3559 L
132.244 73.8219 L
133.988 75.3211 L
135.731 76.8523 L
137.475 78.4146 L
139.219 80.0069 L
140.963 81.628 L
142.706 83.2769 L
144.45 84.9526 L
146.194 86.6539 L
147.938 88.3798 L
149.681 90.1293 L
151.425 91.9012 L
153.169 93.6946 L
154.913 95.5082 L
156.656 97.3411 L
158.4 99.1922 L
160.144 101.06 L
161.888 102.945 L
163.631 104.844 L
165.375 106.757 L
167.119 108.683 L
168.863 110.621 L
170.606 112.569 L
172.35 114.527 L
174.094 116.494 L
175.838 118.468 L
177.581 120.449 L
179.325 122.434 L
181.069 124.425 L
182.813 126.418 L
184.556 128.413 L
186.3 130.41 L
188.044 132.407 L
189.788 134.402 L
191.531 136.395 L
193.275 138.386 L
195.019 140.371 L
196.763 142.352 L
198.506 144.326 L
200.25 146.293 L
201.994 148.251 L
203.738 150.199 L
205.481 152.137 L
207.225 154.063 L
208.969 155.976 L
210.713 157.875 L
212.456 159.76 L
214.2 161.628 L
215.944 163.479 L
217.688 165.312 L
219.431 167.125 L
221.175 168.919 L
222.919 170.691 L
224.663 172.44 L
226.406 174.166 L
228.15 175.867 L
229.894 177.543 L
231.638 179.192 L
233.381 180.813 L
235.125 182.405 L
236.869 183.968 L
238.613 185.499 L
240.356 186.998 L
242.1 188.464 L
243.844 189.896 L
245.588 191.292 L
247.331 192.652 L
249.075 193.975 L
250.819 195.259 L
252.563 196.504 L
254.306 197.708 L
256.05 198.87 L
257.794 199.989 L
259.538 201.065 L
261.281 202.096 L
263.025 203.08 L
264.769 204.018 L
266.513 204.907 L
268.256 205.748 L
270 206.538 L
271.744 207.276 L
273.488 207.962 L
275.231 208.595 L
276.975 209.173 L
278.719 209.696 L
280.463 210.162 L
282.206 210.57 L
283.95 210.919 L
285.694 211.208 L
287.438 211.437 L
289.181 211.603 L
290.925 211.706 L
292.669 211.745 L
294.413 211.719 L
296.156 211.627 L
297.9 211.467 L
299.644 211.238 L
301.388 210.94 L
303.131 210.572 L
304.875 210.132 L
306.619 209.619 L
308.363 209.032 L
310.106 208.37 L
311.85 207.633 L
313.594 206.818 L
315.338 205.926 L
317.081 204.954 L
318.825 203.902 L
320.569 202.768 L
322.313 201.553 L
324.056 200.254 L
325.8 198.87 LE
0 1 0 C
46.8 61.95 LS
48.5438 61.95 L
50.2875 61.95 L
52.0313 61.95 L
53.775 61.95 L
55.5188 61.95 L
57.2625 61.95 L
59.0063 61.95 L
60.75 61.95 L
62.4938 61.95 L
64.2375 61.95 L
65.9813 61.95 L
67.725 61.95 L
69.4688 61.95 L
71.2125 61.95 L
72.9563 61.95 L
74.7 61.95 L
76.4438 61.95 L
78.1875 61.95 L
79.9313 61.95 L
81.675 61.95 L
83.4188 61.95 L
85.1625 61.95 L
86.9063 61.95 L
88.65 61.95 L
90.3938 61.95 L
92.1375 61.95 L
93.8813 61.95 L
95.625 61.95 L
97.3688 61.95 L
99.1125 61.95 L
100.856 61.95 L
102.6 61.95 L
104.344 61.95 L
106.088 61.95 L
107.831 61.95 L
109.575 61.95 L
111.319 61.95 L
113.063 61.95 L
114.806 61.95 L
116.55 61.95 L
118.294 62.0345 L
120.038 62.2837 L
121.781 62.6913 L
123.525 63.2507 L
125.269 63.9557 L
127.013 64.7996 L
128.756 65.7763 L
130.5 66.8791 L
132.244 68.1018 L
133.988 69.4378 L
135.731 70.8808 L
137.475 72.4244 L
139.219 74.0621 L
140.963 75.7875 L
142.706 77.5942 L
144.45 79.4757 L
146.194 81.4258 L
147.938 83.4379 L
149.681 85.5056 L
151.425 87.6225 L
153.169 89.7822 L
154.913 91.9783 L
156.656 94.2043 L
158.4 96.4538 L
160.144 98.7205 L
161.888 100.998 L
163.631 103.28 L
165.375 105.559 L
167.119 107.83 L
168.863 110.086 L
170.606 112.321 L
172.35 114.527 L
174.094 116.7 L
175.838 118.832 L
177.581 120.917 L
179.325 122.948 L
181.069 124.919 L
182.813 126.824 L
184.556 128.657 L
186.3 130.41 L
188.044 132.163 L
189.788 133.996 L
191.531 135.901 L
193.275 137.872 L
195.019 139.903 L
196.763 141.988 L
198.506 144.12 L
200.25 146.293 L
201.994 148.499 L
203.738 150.734 L
205.481 152.99 L
207.225 155.261 L
208.969 157.54 L
210.713 159.822 L
212.456 162.099 L
214.2 164.366 L
215.944 166.616 L
217.688 168.842 L
219.431 171.038 L
221.175 173.198 L
222.919 175.314 L
224.663 177.382 L
226.406 179.394 L
228.15 181.344 L
229.894 183.226 L
231.638 185.033 L
233.381 186.758 L
235.125 188.396 L
236.869 189.939 L
238.613 191.382 L
240.356 192.718 L
242.1 193.941 L
243.844 195.044 L
245.588 196.02 L
247.331 196.864 L
249.075 197.569 L
250.819 198.129 L
252.563 198.536 L
254.306 198.786 L
256.05 198.87 L
257.794 198.87 L
259.538 198.87 L
261.281 198.87 L
263.025 198.87 L
264.769 198.87 L
266.513 198.87 L
268.256 198.87 L
270 198.87 L
271.744 198.87 L
273.488 198.87 L
275.231 198.87 L
276.975 198.87 L
278.719 198.87 L
280.463 198.87 L
282.206 198.87 L
283.95 198.87 L
285.694 198.87 L
287.438 198.87 L
289.181 198.87 L
290.925 198.87 L
292.669 198.87 L
294.413 198.87 L
296.156 198.87 L
297.9 198.87 L
299.644 198.87 L
301.388 198.87 L
303.131 198.87 L
304.875 198.87 L
306.619 198.87 L
308.363 198.87 L
310.106 198.87 L
311.85 198.87 L
313.594 198.87 L
315.338 198.87 L
317.081 198.87 L
318.825 198.87 L
320.569 198.87 L
322.313 198.87 L
324.056 198.87 L
325.8 198.87 LE
grestore
gsave
1.0 1.0 scale
newpath 0 0 moveto 360 0 lineto 360 252 lineto 0 252 lineto
closepath clip
1 1 1 C
262.79 69.0586 315.131 38.3893 262.79 38.3893 T
262.79 69.0586 315.131 69.0586 315.131 38.3893 T
0.5 W
2 LC
[16 0] 0 setdash
0.15 0.15 0.15 C
262.79 38.3893 LS
315.131 38.3893 LE
262.79 69.0586 LS
315.131 69.0586 LE
262.79 38.3893 LS
262.79 69.0586 LE
315.131 38.3893 LS
315.131 69.0586 LE
gsave
0 0 0 C
(spline) [4 5 2 2 5 10] 0 289.019 58.3913 9 /Helvetica SRX
grestore

gsave
0 0 0 C
(pchip) [5 5 5 2 10] 0 289.019 43.0566 9 /Helvetica SRX
grestore

0 LC
1 LJ
[] 0 setdash
1 0 0 C
265.902 61.3913 LS
285.907 61.3913 LE
0 1 0 C
265.902 46.0566 LS
285.907 46.0566 LE
grestore
grestore
showpage
cleartomark
%%PageTrailer
%%Trailer
end
%%EOF
