%!PS-Adobe-3.0 EPSF-3.0
%%Title: gl2ps_renderer figure
%%Creator: GL2PS 1.4.0, (C) 1999-2017 C. Geuzaine
%%For: Octave
%%CreationDate: Sat Feb 23 18:52:03 2019
%%LanguageLevel: 3
%%DocumentData: Clean7Bit
%%Pages: 1
%%BoundingBox: 0 0 360 252
%%EndComments
%%BeginProlog
/gl2psdict 64 dict def gl2psdict begin
/tryPS3shading false def % set to false to force subdivision
/rThreshold 0.064 def % red component subdivision threshold
/gThreshold 0.034 def % green component subdivision threshold
/bThreshold 0.1 def % blue component subdivision threshold
/BD { bind def } bind def
/C  { setrgbcolor } BD
/G  { 0.082 mul exch 0.6094 mul add exch 0.3086 mul add neg 1.0 add setgray } BD
/W  { setlinewidth } BD
/LC  { setlinecap } BD
/LJ  { setlinejoin } BD
/FC { findfont exch /SH exch def SH scalefont setfont } BD
/SW { dup stringwidth pop } BD
/S  { FC moveto show } BD
/SBC{ FC moveto SW -2 div 0 rmoveto show } BD
/SBR{ FC moveto SW neg 0 rmoveto show } BD
/SCL{ FC moveto 0 SH -2 div rmoveto show } BD
/SCC{ FC moveto SW -2 div SH -2 div rmoveto show } BD
/SCR{ FC moveto SW neg SH -2 div rmoveto show } BD
/STL{ FC moveto 0 SH neg rmoveto show } BD
/STC{ FC moveto SW -2 div SH neg rmoveto show } BD
/STR{ FC moveto SW neg SH neg rmoveto show } BD
/FCT { FC translate 0 0 } BD
/SR  { gsave FCT moveto rotate show grestore } BD
/SRX  { gsave FCT moveto rotate xshow grestore } BD
/SBCR{ gsave FCT moveto rotate SW -2 div 0 rmoveto show grestore } BD
/SBRR{ gsave FCT moveto rotate SW neg 0 rmoveto show grestore } BD
/SCLR{ gsave FCT moveto rotate 0 SH -2 div rmoveto show grestore} BD
/SCCR{ gsave FCT moveto rotate SW -2 div SH -2 div rmoveto show grestore} BD
/SCRR{ gsave FCT moveto rotate SW neg SH -2 div rmoveto show grestore} BD
/STLR{ gsave FCT moveto rotate 0 SH neg rmoveto show grestore } BD
/STCR{ gsave FCT moveto rotate SW -2 div SH neg rmoveto show grestore } BD
/STRR{ gsave FCT moveto rotate SW neg SH neg rmoveto show grestore } BD
/P  { newpath 0.0 360.0 arc closepath fill } BD
/LS { newpath moveto } BD
/L  { lineto } BD
/LE { lineto stroke } BD
/T  { newpath moveto lineto lineto closepath fill } BD
/STshfill {
      /b1 exch def /g1 exch def /r1 exch def /y1 exch def /x1 exch def
      /b2 exch def /g2 exch def /r2 exch def /y2 exch def /x2 exch def
      /b3 exch def /g3 exch def /r3 exch def /y3 exch def /x3 exch def
      gsave << /ShadingType 4 /ColorSpace [/DeviceRGB]
      /DataSource [ 0 x1 y1 r1 g1 b1 0 x2 y2 r2 g2 b2 0 x3 y3 r3 g3 b3 ] >>
      shfill grestore } BD
/Tm { 3 -1 roll 8 -1 roll 13 -1 roll add add 3 div
      3 -1 roll 7 -1 roll 11 -1 roll add add 3 div
      3 -1 roll 6 -1 roll 9 -1 roll add add 3 div C T } BD
/STsplit {
      4 index 15 index add 0.5 mul
      4 index 15 index add 0.5 mul
      4 index 15 index add 0.5 mul
      4 index 15 index add 0.5 mul
      4 index 15 index add 0.5 mul
      5 copy 5 copy 25 15 roll
      9 index 30 index add 0.5 mul
      9 index 30 index add 0.5 mul
      9 index 30 index add 0.5 mul
      9 index 30 index add 0.5 mul
      9 index 30 index add 0.5 mul
      5 copy 5 copy 35 5 roll 25 5 roll 15 5 roll
      4 index 10 index add 0.5 mul
      4 index 10 index add 0.5 mul
      4 index 10 index add 0.5 mul
      4 index 10 index add 0.5 mul
      4 index 10 index add 0.5 mul
      5 copy 5 copy 40 5 roll 25 5 roll 15 5 roll 25 5 roll
      STnoshfill STnoshfill STnoshfill STnoshfill } BD
/STnoshfill {
      2 index 8 index sub abs rThreshold gt
      { STsplit }
      { 1 index 7 index sub abs gThreshold gt
        { STsplit }
        { dup 6 index sub abs bThreshold gt
          { STsplit }
          { 2 index 13 index sub abs rThreshold gt
            { STsplit }
            { 1 index 12 index sub abs gThreshold gt
              { STsplit }
              { dup 11 index sub abs bThreshold gt
                { STsplit }
                { 7 index 13 index sub abs rThreshold gt
                  { STsplit }
                  { 6 index 12 index sub abs gThreshold gt
                    { STsplit }
                    { 5 index 11 index sub abs bThreshold gt
                      { STsplit }
                      { Tm }
                      ifelse }
                    ifelse }
                  ifelse }
                ifelse }
              ifelse }
            ifelse }
          ifelse }
        ifelse }
      ifelse } BD
tryPS3shading
{ /shfill where
  { /ST { STshfill } BD }
  { /ST { STnoshfill } BD }
  ifelse }
{ /ST { STnoshfill } BD }
ifelse
end
%%EndProlog
%%BeginSetup
/DeviceRGB setcolorspace
gl2psdict begin
%%EndSetup
%%Page: 1 1
%%BeginPageSetup
%%EndPageSetup
mark
gsave
1.0 1.0 scale
1 1 1 C
newpath 0 0 moveto 360 0 lineto 360 252 lineto 0 252 lineto
closepath fill
gsave
1.0 1.0 scale
1 1 1 C
newpath 0 0 moveto 360 0 lineto 360 252 lineto 0 252 lineto
closepath fill
newpath 0 0 moveto 360 0 lineto 360 252 lineto 0 252 lineto
closepath clip
1 1 1 C
46.8 78.9233 325.8 67.0096 167.934 27.72 T
46.8 78.9233 204.666 118.213 325.8 67.0096 T
297.075 105.66 204.666 230 229.825 219.365 T
297.075 105.661 317.979 70.3155 204.666 118.213 T
204.666 230 297.075 105.661 204.666 118.213 T
46.8 78.9233 204.666 230 176.932 223.098 T
46.8 93.5465 46.8 78.9233 176.932 223.098 T
46.8 78.9233 204.666 118.213 204.666 230 T
gsave
0.14902 0.14902 0.14902 C
(0) [10] 0 29.7529 83.5929 10 /Helvetica SRX
grestore

325.8 67.0096 297.075 105.66 229.825 219.365 T
247.709 211.806 325.8 79.771 325.8 67.0096 T
229.825 219.365 247.709 211.806 325.8 67.0096 T
297.075 105.661 325.8 67.0096 317.979 70.3155 T
gsave
0.14902 0.14902 0.14902 C
(0.2) [6 3 10] 0 20.7529 105.95 10 /Helvetica SRX
grestore

146.558 215.538 46.8 116.225 46.8 93.5465 T
176.932 223.098 146.558 215.538 46.8 93.5465 T
0.5 W
2 LC
[16 0] 0 setdash
0.15 0.15 0.15 C
53.6365 76.0335 LS
46.8 78.9233 LE
0 LC
[] 0 setdash
46.8 78.9233 LS
40.034 77.2393 LE
46.8 78.9233 LS
40.3655 81.6431 LE
2 LC
[16 0] 0 setdash
46.8 87.5926 LS
46.8 78.9233 LE
gsave
0.14902 0.14902 0.14902 C
(1) [10] 0 29.1838 68.0322 10 /Helvetica SRX
grestore

1 1 1 C
283.708 192.016 247.709 211.806 280.102 198.113 T
325.8 79.771 247.709 211.806 283.708 192.016 T
325.8 120.848 325.8 79.771 283.708 192.016 T
gsave
0.14902 0.14902 0.14902 C
(0.4) [6 3 10] 0 20.7529 128.308 10 /Helvetica SRX
grestore

gsave
0.14902 0.14902 0.14902 C
(z) [10] 90 15.7529 136.986 11 /Helvetica SRX
grestore

146.558 215.538 91.5419 201.846 46.8 157.304 T
46.8 116.225 146.558 215.538 46.8 157.304 T
0 LC
[] 0 setdash
0.15 0.15 0.15 C
77.0836 66.1224 LS
70.3176 64.4385 LE
gsave
0.14902 0.14902 0.14902 C
(0.5) [6 3 10] 0 50.4675 55.2314 10 /Helvetica SRX
grestore

2 LC
[16 0] 0 setdash
86.0303 62.3407 LS
53.6365 76.0335 LE
46.8 101.281 LS
46.8 87.5926 LE
0 LC
[] 0 setdash
46.8 101.281 LS
40.3655 104.001 LE
2 LC
[16 0] 0 setdash
46.8 123.638 LS
46.8 101.281 LE
0 LC
[] 0 setdash
46.8 123.638 LS
40.3655 126.358 LE
1 LJ
0 0.447 0.741 C
202.058 106.145 LS
201.109 106.182 LE
0 0.447 0.741 C
198.97 106.188 LS
201.109 106.182 LE
196.758 106.118 LS
198.97 106.188 LE
194.498 105.97 LS
196.758 106.118 LE
192.216 105.746 LS
194.498 105.97 LE
189.936 105.444 LS
192.216 105.746 LE
187.681 105.067 LS
189.936 105.444 LE
185.476 104.617 LS
187.681 105.067 LE
183.343 104.097 LS
185.476 104.617 LE
181.302 103.511 LS
183.343 104.097 LE
179.372 102.863 LS
181.302 103.511 LE
177.571 102.158 LS
179.372 102.863 LE
0 0.447 0.741 C
177.183 101.98 LS
177.571 102.158 LE
0 0.447 0.741 C
152.526 122.17 LS
153.343 122.952 LE
0 0.447 0.741 C
227.184 130.42 LS
226.243 130.814 LE
223.645 131.659 LS
226.243 130.814 LE
220.709 132.406 LS
223.645 131.659 LE
217.47 133.045 LS
220.709 132.406 LE
213.964 133.567 LS
217.47 133.045 LE
210.231 133.966 LS
213.964 133.567 LE
206.312 134.234 LS
210.231 133.966 LE
202.249 134.368 LS
206.312 134.234 LE
198.086 134.365 LS
202.249 134.368 LE
193.865 134.223 LS
198.086 134.365 LE
189.631 133.942 LS
193.865 134.223 LE
185.427 133.523 LS
189.631 133.942 LE
181.295 132.969 LS
185.427 133.523 LE
177.276 132.283 LS
181.295 132.969 LE
173.409 131.473 LS
177.276 132.283 LE
169.73 130.542 LS
173.409 131.473 LE
166.275 129.501 LS
169.73 130.542 LE
160.158 127.118 LS
163.075 128.356 LE
157.55 125.798 LS
160.158 127.118 LE
155.272 124.405 LS
157.55 125.798 LE
153.343 122.952 LS
155.272 124.405 LE
163.075 128.356 LS
166.275 129.501 LE
235.419 159.033 LS
232.259 159.832 LE
227.334 160.812 LS
232.259 159.832 LE
222.048 161.621 LS
227.334 160.812 LE
216.456 162.246 LS
222.048 161.621 LE
210.619 162.682 LS
216.456 162.246 LE
204.597 162.92 LS
210.619 162.682 LE
198.453 162.959 LS
204.597 162.92 LE
192.249 162.795 LS
198.453 162.959 LE
186.05 162.429 LS
192.249 162.795 LE
179.915 161.862 LS
186.05 162.429 LE
173.908 161.1 LS
179.915 161.862 LE
168.086 160.147 LS
173.908 161.1 LE
162.507 159.013 LS
168.086 160.147 LE
157.223 157.706 LS
162.507 159.013 LE
152.286 156.239 LS
157.223 157.706 LE
143.628 152.874 LS
147.74 154.623 LE
139.986 151.006 LS
143.628 152.874 LE
139.199 150.512 LS
139.986 151.006 LE
147.74 154.623 LS
152.286 156.239 LE
240.344 188.07 LS
234.409 189.148 LE
227.182 190.15 LS
234.409 189.148 LE
219.601 190.906 LS
227.182 190.15 LE
211.745 191.407 LS
219.601 190.906 LE
203.696 191.647 LS
211.745 191.407 LE
195.534 191.622 LS
203.696 191.647 LE
187.343 191.33 LS
195.534 191.622 LE
179.205 190.773 LS
187.343 191.33 LE
171.201 189.955 LS
179.205 190.773 LE
163.409 188.882 LS
171.201 189.955 LE
155.908 187.564 LS
163.409 188.882 LE
148.768 186.012 LS
155.908 187.564 LE
142.059 184.241 LS
148.768 186.012 LE
135.845 182.265 LS
142.059 184.241 LE
133.228 181.265 LS
135.845 182.265 LE
2 LC
0 LJ
[16 0] 0 setdash
0.15 0.15 0.15 C
46.8 123.638 LS
46.8 128.671 LE
0 LC
1 LJ
[] 0 setdash
0 0.447 0.741 C
183.734 83.1812 LS
182.412 83.5423 L
181.07 83.9498 L
179.721 84.405 L
178.383 84.9088 L
177.072 85.4614 L
175.805 86.0625 L
174.598 86.7112 L
173.47 87.4058 L
172.436 88.1443 L
171.512 88.9237 L
170.712 89.7406 L
170.052 90.5912 LE
0 0.447 0.741 C
150.12 119.034 LS
150.582 119.916 LE
0 0.447 0.741 C
150.582 119.916 LS
151.776 121.452 LE
0 0.447 0.741 C
152.526 122.17 LS
151.776 121.452 LE
0 0.447 0.741 C
169.544 91.4709 LS
169.199 92.3747 LE
170.052 90.5912 LS
169.544 91.4709 LE
169.199 92.3747 LS
169.027 93.2972 L
169.036 94.2325 L
169.232 95.1745 L
169.619 96.1167 L
170.2 97.0526 L
170.973 97.9754 L
171.937 98.8782 L
173.087 99.7544 L
174.416 100.597 LE
0 0.447 0.741 C
177.183 101.98 LS
175.914 101.4 LE
0 0.447 0.741 C
174.416 100.597 LS
175.914 101.4 LE
186.133 73.4098 LS
186.022 73.8631 LE
186.3 72.9664 LS
186.133 73.4098 LE
0 0.447 0.741 C
185.01 82.8664 LS
183.734 83.1812 LE
0 0.447 0.741 C
186.022 73.8631 LS
185.97 74.3236 LE
0 0.447 0.741 C
186.164 82.6094 LS
185.018 82.8644 LE
0 0.447 0.741 C
185.01 82.8664 LS
185.018 82.8644 LE
0 0.447 0.741 C
185.97 74.3236 LS
185.981 74.7883 LE
0 0.447 0.741 C
187.21 82.3969 LS
186.253 82.5895 LE
186.164 82.6094 LS
186.253 82.5895 LE
0 0.447 0.741 C
185.981 74.7883 LS
186.056 75.2542 LE
188.162 82.2197 LS
187.425 82.3538 LE
0 0.447 0.741 C
187.21 82.3969 LS
187.425 82.3538 LE
0 0.447 0.741 C
186.056 75.2542 LS
186.196 75.7182 LE
189.026 82.0706 LS
188.522 82.1539 LE
188.162 82.2197 LS
188.522 82.1539 LE
186.196 75.7182 LS
186.401 76.1772 LE
191.749 81.6695 LS
191.277 81.7322 L
190.456 81.8471 L
189.536 81.9863 LE
189.026 82.0706 LS
189.536 81.9863 LE
213.357 102.979 LS
213.232 103.301 LE
212.759 103.806 LS
213.232 103.301 LE
212.03 104.281 LS
212.759 103.806 LE
211.056 104.718 LS
212.03 104.281 LE
209.854 105.11 LS
211.056 104.718 LE
208.441 105.45 LS
209.854 105.11 LE
206.839 105.732 LS
208.441 105.45 LE
205.067 105.951 LS
206.839 105.732 LE
203.149 106.102 LS
205.067 105.951 LE
0 0.447 0.741 C
202.058 106.145 LS
203.149 106.102 LE
0 0.447 0.741 C
187.373 77.4935 LS
187.802 77.9027 LE
186.401 76.1772 LS
186.668 76.628 L
186.993 77.0677 L
187.373 77.4935 LE
191.749 81.6695 LS
191.992 81.6373 LE
193.093 81.4901 LS
192.598 81.558 L
191.992 81.6373 LE
193.475 81.429 LS
193.093 81.4901 LE
193.747 81.3705 LS
193.475 81.429 LE
193.909 81.3104 LS
193.747 81.3705 LE
193.967 81.2447 LS
193.909 81.3104 LE
193.924 81.1697 LS
193.967 81.2447 LE
191.495 80.1379 LS
192.005 80.3547 LE
187.802 77.9027 LS
188.273 78.2928 L
188.778 78.6618 L
189.309 79.0077 L
189.857 79.3292 L
190.41 79.6251 L
190.96 79.8947 L
191.495 80.1379 LE
192.005 80.3547 LS
192.477 80.5458 L
192.902 80.7124 L
193.269 80.8558 L
193.567 80.9782 LE
193.789 81.082 LS
193.924 81.1697 LE
193.567 80.9782 LS
193.789 81.082 LE
2 LC
0 LJ
[16 0] 0 setdash
0.15 0.15 0.15 C
307.037 62.3399 LS
325.8 67.0096 LE
0 LC
[] 0 setdash
325.8 67.0096 LS
332.235 64.2898 LE
gsave
0.14902 0.14902 0.14902 C
(1) [10] 0 336.847 54.3401 10 /Helvetica SRX
grestore

1 1 1 C
283.708 192.016 280.102 198.113 317.978 182.103 T
325.8 168.877 283.708 192.016 317.978 182.103 T
325.8 168.877 325.8 120.848 283.708 192.016 T
gsave
0.14902 0.14902 0.14902 C
(0.6) [6 3 10] 0 20.7529 150.665 10 /Helvetica SRX
grestore

gsave
0.14902 0.14902 0.14902 C
(0.8) [6 3 10] 0 20.7529 173.023 10 /Helvetica SRX
grestore

91.5419 201.846 46.8 190.71 46.8 157.304 T
0.15 0.15 0.15 C
107.367 53.3216 LS
100.601 51.6377 LE
gsave
0.14902 0.14902 0.14902 C
(0) [10] 0 89.7511 42.4306 10 /Helvetica SRX
grestore

gsave
0.14902 0.14902 0.14902 C
(r.*cos \(t\)) [4 3 4 6 6 5 3 4 3 10] 0 30.7511 28.4306 11 /Helvetica SRX
grestore

2 LC
[16 0] 0 setdash
86.0303 62.3407 LS
123.906 46.3306 LE
0 LC
1 LJ
[] 0 setdash
0 0.447 0.741 C
211.441 100.642 LS
210.235 100.148 L
208.754 99.6898 L
207.009 99.2758 L
205.011 98.9152 L
202.778 98.6169 L
200.327 98.389 L
197.68 98.2391 L
194.86 98.1741 L
191.894 98.2001 L
188.809 98.3226 L
185.637 98.5458 L
182.408 98.8731 L
179.155 99.3068 L
175.911 99.8483 L
172.712 100.498 LE
0 LJ
0.15 0.15 0.15 C
46.8 145.996 LS
40.3655 148.715 LE
46.8 168.353 LS
40.3655 171.073 LE
2 LC
[16 0] 0 setdash
46.8 128.671 LS
46.8 176.701 LE
0 LC
1 LJ
[] 0 setdash
0 0.447 0.741 C
156.317 106.52 LS
154.346 107.832 LE
172.712 100.498 LS
169.59 101.254 L
166.581 102.114 L
163.717 103.076 L
161.031 104.135 L
158.555 105.285 L
156.317 106.52 LE
154.346 107.832 LS
152.667 109.213 L
151.302 110.652 LE
133.406 129.924 LS
131.735 131.775 LE
117.23 207.481 LS
124.483 210.039 LE
110.712 204.707 LS
117.23 207.481 LE
104.99 201.742 LS
110.712 204.707 LE
100.117 198.614 LS
104.99 201.742 LE
96.1347 195.351 LS
100.117 198.614 LE
93.6579 192.622 LS
96.1347 195.351 LE
110.286 164.41 LS
111.77 167.233 LE
0 0.447 0.741 C
109.608 161.701 LS
110.286 164.41 LE
0 0.447 0.741 C
133.228 181.265 LS
130.184 180.103 LE
125.129 177.774 LS
130.184 180.103 LE
120.724 175.3 LS
125.129 177.774 LE
117.01 172.703 LS
120.724 175.3 LE
114.017 170.006 LS
117.01 172.703 LE
111.77 167.233 LS
114.017 170.006 LE
129.393 138.282 LS
129.745 140.492 LE
131.735 131.775 LS
130.4 133.906 L
129.614 136.081 L
129.393 138.282 LE
129.745 140.492 LS
130.672 142.691 L
132.171 144.86 LE
139.199 150.512 LS
136.846 149.036 LE
134.235 146.981 LS
136.846 149.036 LE
132.171 144.86 LS
134.235 146.981 LE
149.591 113.667 LS
149.274 115.22 LE
151.302 110.652 LS
150.271 112.141 L
149.591 113.667 LE
149.274 115.22 LS
149.331 116.787 L
149.766 118.356 LE
0 0.447 0.741 C
150.12 119.034 LS
149.766 118.356 LE
0 0.447 0.741 C
212.366 101.161 LS
211.441 100.642 LE
213.007 101.696 LS
212.366 101.161 LE
213.362 102.237 LS
213.007 101.696 LE
213.436 102.776 LS
213.362 102.237 LE
213.357 102.979 LS
213.436 102.776 LE
227.387 119.216 LS
228.649 119.783 LE
230.502 120.877 LS
228.649 119.783 LE
231.889 122.015 LS
230.502 120.877 LE
232.801 123.179 LS
231.889 122.015 LE
233.235 124.356 LS
232.801 123.179 LE
233.193 125.529 LS
233.235 124.356 LE
232.682 126.683 LS
233.193 125.529 LE
231.714 127.802 LS
232.682 126.683 LE
230.304 128.873 LS
231.714 127.802 LE
228.472 129.881 LS
230.304 128.873 LE
227.184 130.42 LS
228.472 129.881 LE
0 0.447 0.741 C
253.049 146.705 LS
253.135 147.539 LE
0 0.447 0.741 C
252.653 149.342 LS
253.135 147.539 LE
251.513 151.109 LS
252.653 149.342 LE
249.732 152.818 LS
251.513 151.109 LE
247.335 154.449 LS
249.732 152.818 LE
244.351 155.984 LS
247.335 154.449 LE
240.815 157.403 LS
244.351 155.984 LE
236.77 158.691 LS
240.815 157.403 LE
235.419 159.033 LS
236.77 158.691 LE
0 0.447 0.741 C
270.493 175.235 LS
269.325 176.552 LE
0 0.447 0.741 C
266.426 178.813 LS
269.325 176.552 LE
262.748 180.958 LS
266.426 178.813 LE
258.335 182.962 LS
262.748 180.958 LE
253.235 184.802 LS
258.335 182.962 LE
247.506 186.459 LS
253.235 184.802 LE
241.208 187.913 LS
247.506 186.459 LE
240.344 188.07 LS
241.208 187.913 LE
gsave
0 0 0 C
(plot3 display of 3-D helix) [7 3 7 4 6 3 7 3 6 7 3 6 6 3 7 4 3 6 4 8 3 7 6 3 3 10] 0 120.8 243 11 /Helvetica-Bold SRX
grestore

2 LC
0 LJ
[16 0] 0 setdash
0.15 0.15 0.15 C
307.037 62.3399 LS
242.71 46.3302 LE
0 LC
[] 0 setdash
286.334 57.1872 LS
292.768 54.4674 LE
gsave
0.14902 0.14902 0.14902 C
(0.5) [6 3 10] 0 297.381 44.5176 10 /Helvetica SRX
grestore

249.315 46.3301 LS
246.867 47.3648 LE
gsave
0.14902 0.14902 0.14902 C
(1) [10] 0 29.7529 195.38 10 /Helvetica SRX
grestore

1 1 1 C
317.978 182.103 325.8 178.797 325.8 168.877 T
2 LC
[16 0] 0 setdash
0.15 0.15 0.15 C
123.906 46.3306 LS
132.506 42.6954 LE
242.71 46.3302 LS
228.104 42.6951 LE
0 LC
[] 0 setdash
249.315 46.3301 LS
253.302 44.6449 LE
44.3522 191.745 LS
40.3655 193.43 LE
1 LJ
0 0.447 0.741 C
90.9264 188.403 LS
90.9716 188.541 LE
93.6579 192.622 LS
93.0781 191.983 LE
90.9716 188.541 LS
93.0781 191.983 LE
2 LC
0 LJ
[16 0] 0 setdash
0.15 0.15 0.15 C
46.8 176.701 LS
46.8 187.606 LE
0 LC
1 LJ
[] 0 setdash
0 0.447 0.741 C
227.387 119.216 LS
226.342 118.747 L
223.598 117.785 L
220.441 116.91 LE
219.971 116.808 LS
220.441 116.91 LE
140.158 125.097 LS
138.822 125.822 L
135.974 127.718 L
133.602 129.707 LE
133.406 129.924 LS
133.602 129.707 LE
110.032 157.337 LS
109.631 158.712 L
109.573 161.561 LE
0 0.447 0.741 C
109.608 161.701 LS
109.573 161.561 LE
0 0.447 0.741 C
252.014 143.825 LS
252.087 143.91 LE
252.948 145.721 LS
252.087 143.91 LE
0 0.447 0.741 C
253.049 146.705 LS
252.948 145.721 LE
0 0.447 0.741 C
272.441 172.201 LS
271.411 174.2 LE
0 0.447 0.741 C
270.493 175.235 LS
271.411 174.2 LE
gsave
0.14902 0.14902 0.14902 C
(0) [10] 0 257.914 34.6952 10 /Helvetica SRX
grestore

gsave
0.14902 0.14902 0.14902 C
(r.*sin \(t\)) [4 3 4 5 2 6 3 4 3 10] 0 280.914 20.6952 11 /Helvetica SRX
grestore

0 LJ
0.15 0.15 0.15 C
137.651 40.5208 LS
130.885 38.8369 LE
2 LC
[16 0] 0 setdash
132.506 42.6954 LS
144.49 37.6299 LE
46.8 187.606 LS
46.8 190.71 LE
0 LC
1 LJ
[] 0 setdash
0 0.447 0.741 C
219.971 116.808 LS
216.897 116.138 L
212.997 115.48 L
208.777 114.948 L
204.276 114.553 L
199.536 114.305 LE
197.358 114.263 LS
199.536 114.305 LE
0 0.447 0.741 C
161.815 117.564 LS
158.882 118.213 LE
0 0.447 0.741 C
158.882 118.213 LS
154.238 119.449 L
149.864 120.837 L
145.807 122.369 L
142.113 124.035 LE
140.158 125.097 LS
142.113 124.035 LE
0 0.447 0.741 C
113.64 151.221 LS
112.029 153.112 LE
0 0.447 0.741 C
112.029 153.112 LS
110.455 155.887 LE
110.032 157.337 LS
110.455 155.887 LE
2 LC
0 LJ
[16 0] 0 setdash
0.15 0.15 0.15 C
228.104 42.6951 LS
207.751 37.6296 LE
0 LC
[] 0 setdash
44.3522 191.745 LS
46.8 190.71 LE
1 LJ
0 0.447 0.741 C
89.7071 182.54 LS
89.8303 185.057 LE
90.9264 188.403 LS
89.8303 185.057 LE
252.014 143.825 LS
250.554 142.127 LE
272.772 167.957 LS
273.042 169.332 LE
272.656 171.785 LS
273.042 169.332 LE
272.441 172.201 LS
272.656 171.785 LE
0 0.447 0.741 C
247.416 139.844 LS
248.359 140.395 LE
0 0.447 0.741 C
250.554 142.127 LS
248.359 140.395 LE
gsave
0.14902 0.14902 0.14902 C
(-0.5) [3 6 3 10] 0 108.035 29.6298 10 /Helvetica SRX
grestore

2 LC
0 LJ
[16 0] 0 setdash
0.15 0.15 0.15 C
144.49 37.6299 LS
155.744 32.8728 LE
0 LC
1 LJ
[] 0 setdash
0 0.447 0.741 C
197.358 114.263 LS
194.603 114.21 L
189.524 114.277 L
184.35 114.509 L
179.132 114.911 L
173.923 115.483 L
168.776 116.226 L
163.745 117.137 LE
0 0.447 0.741 C
161.815 117.564 LS
163.745 117.137 LE
0 0.447 0.741 C
245.518 138.735 LS
242.054 137.169 LE
0 0.447 0.741 C
239.335 136.196 LS
242.054 137.169 LE
0 0.447 0.741 C
120.893 145.385 LS
117.334 147.803 LE
0 0.447 0.741 C
117.334 147.803 LS
114.332 150.409 LE
0 0.447 0.741 C
90.9927 177.029 LS
90.4536 178.086 LE
0 0.447 0.741 C
90.4536 178.086 LS
89.6592 181.561 LE
0 0.447 0.741 C
113.64 151.221 LS
114.332 150.409 LE
0 0.447 0.741 C
89.7071 182.54 LS
89.6592 181.561 LE
270.784 163.975 LS
271.205 164.429 LE
272.559 166.87 LS
271.205 164.429 LE
272.772 167.957 LS
272.559 166.87 LE
0 0.447 0.741 C
247.416 139.844 LS
245.518 138.735 LE
2 LC
0 LJ
[16 0] 0 setdash
0.15 0.15 0.15 C
207.751 37.6296 LS
188.638 32.8726 LE
0 LC
[] 0 setdash
207.401 37.5424 LS
213.835 34.8225 LE
gsave
0.14902 0.14902 0.14902 C
(-0.5) [3 6 3 10] 0 218.448 24.8728 10 /Helvetica SRX
grestore

167.934 27.72 LS
161.169 26.0361 LE
167.934 27.72 LS
174.369 25.0001 LE
2 LC
[16 0] 0 setdash
155.744 32.8728 LS
167.934 27.72 LE
0 LC
1 LJ
[] 0 setdash
0 0.447 0.741 C
239.335 136.196 LS
237.995 135.717 LE
0 0.447 0.741 C
237.995 135.717 LS
233.378 134.398 L
228.244 133.23 L
222.641 132.23 L
216.62 131.414 L
210.24 130.794 LE
0 0.447 0.741 C
209.397 130.742 LS
210.24 130.794 LE
0 0.447 0.741 C
149.936 134.786 LS
147.605 135.288 L
141.365 136.917 L
135.525 138.748 L
130.146 140.768 L
125.286 142.963 L
120.999 145.314 LE
0 0.447 0.741 C
120.893 145.385 LS
120.999 145.314 LE
0 0.447 0.741 C
265.922 159.717 LS
262.034 157.503 LE
261.598 157.309 LS
262.034 157.503 LE
99.0868 167.638 LS
98.4415 168.09 L
94.8731 171.32 L
92.1995 174.662 LE
0 0.447 0.741 C
90.9927 177.029 LS
92.1995 174.662 LE
0 0.447 0.741 C
268.987 162.035 LS
265.922 159.717 LE
270.784 163.975 LS
268.987 162.035 LE
2 LC
0 LJ
[16 0] 0 setdash
0.15 0.15 0.15 C
188.638 32.8726 LS
167.934 27.72 LE
gsave
0.14902 0.14902 0.14902 C
(-1) [3 10] 0 147.318 16.829 10 /Helvetica SRX
grestore

0 LC
1 LJ
[] 0 setdash
0 0.447 0.741 C
209.397 130.742 LS
203.56 130.383 LE
0 0.447 0.741 C
203.56 130.383 LS
196.647 130.19 LE
0 0.447 0.741 C
191.258 130.215 LS
196.647 130.19 LE
0 0.447 0.741 C
167.515 131.788 LS
161.013 132.68 L
154.177 133.873 LE
149.936 134.786 LS
154.177 133.873 LE
261.598 157.309 LS
258.348 155.86 LE
99.0868 167.638 LS
102.092 165.537 LE
gsave
0.14902 0.14902 0.14902 C
(-1) [3 10] 0 178.982 15.0504 10 /Helvetica SRX
grestore

0 0.447 0.741 C
191.258 130.215 LS
189.568 130.223 LE
0 0.447 0.741 C
189.568 130.223 LS
182.393 130.486 L
175.193 130.983 L
168.043 131.715 LE
167.515 131.788 LS
168.043 131.715 LE
258.348 155.86 LS
257.357 155.419 L
251.933 153.491 L
245.809 151.742 L
239.044 150.196 L
231.701 148.873 L
223.849 147.792 L
215.565 146.968 L
206.928 146.415 L
198.024 146.144 L
188.94 146.165 L
179.766 146.481 L
170.594 147.096 L
161.517 148.009 L
152.627 149.216 L
144.014 150.711 L
135.768 152.484 L
127.972 154.523 L
120.711 156.813 L
114.059 159.336 L
108.088 162.072 L
102.863 164.998 LE
102.092 165.537 LS
102.863 164.998 LE
grestore
grestore
showpage
cleartomark
%%PageTrailer
%%Trailer
end
%%EOF
