%!PS-Adobe-3.0 EPSF-3.0
%%Title: gl2ps_renderer figure
%%Creator: GL2PS 1.4.0, (C) 1999-2017 C. Geuzaine
%%For: Octave
%%CreationDate: Sat Feb 23 18:52:02 2019
%%LanguageLevel: 3
%%DocumentData: Clean7Bit
%%Pages: 1
%%BoundingBox: 0 0 360 252
%%EndComments
%%BeginProlog
/gl2psdict 64 dict def gl2psdict begin
/tryPS3shading false def % set to false to force subdivision
/rThreshold 0.064 def % red component subdivision threshold
/gThreshold 0.034 def % green component subdivision threshold
/bThreshold 0.1 def % blue component subdivision threshold
/BD { bind def } bind def
/C  { setrgbcolor } BD
/G  { 0.082 mul exch 0.6094 mul add exch 0.3086 mul add neg 1.0 add setgray } BD
/W  { setlinewidth } BD
/LC  { setlinecap } BD
/LJ  { setlinejoin } BD
/FC { findfont exch /SH exch def SH scalefont setfont } BD
/SW { dup stringwidth pop } BD
/S  { FC moveto show } BD
/SBC{ FC moveto SW -2 div 0 rmoveto show } BD
/SBR{ FC moveto SW neg 0 rmoveto show } BD
/SCL{ FC moveto 0 SH -2 div rmoveto show } BD
/SCC{ FC moveto SW -2 div SH -2 div rmoveto show } BD
/SCR{ FC moveto SW neg SH -2 div rmoveto show } BD
/STL{ FC moveto 0 SH neg rmoveto show } BD
/STC{ FC moveto SW -2 div SH neg rmoveto show } BD
/STR{ FC moveto SW neg SH neg rmoveto show } BD
/FCT { FC translate 0 0 } BD
/SR  { gsave FCT moveto rotate show grestore } BD
/SRX  { gsave FCT moveto rotate xshow grestore } BD
/SBCR{ gsave FCT moveto rotate SW -2 div 0 rmoveto show grestore } BD
/SBRR{ gsave FCT moveto rotate SW neg 0 rmoveto show grestore } BD
/SCLR{ gsave FCT moveto rotate 0 SH -2 div rmoveto show grestore} BD
/SCCR{ gsave FCT moveto rotate SW -2 div SH -2 div rmoveto show grestore} BD
/SCRR{ gsave FCT moveto rotate SW neg SH -2 div rmoveto show grestore} BD
/STLR{ gsave FCT moveto rotate 0 SH neg rmoveto show grestore } BD
/STCR{ gsave FCT moveto rotate SW -2 div SH neg rmoveto show grestore } BD
/STRR{ gsave FCT moveto rotate SW neg SH neg rmoveto show grestore } BD
/P  { newpath 0.0 360.0 arc closepath fill } BD
/LS { newpath moveto } BD
/L  { lineto } BD
/LE { lineto stroke } BD
/T  { newpath moveto lineto lineto closepath fill } BD
/STshfill {
      /b1 exch def /g1 exch def /r1 exch def /y1 exch def /x1 exch def
      /b2 exch def /g2 exch def /r2 exch def /y2 exch def /x2 exch def
      /b3 exch def /g3 exch def /r3 exch def /y3 exch def /x3 exch def
      gsave << /ShadingType 4 /ColorSpace [/DeviceRGB]
      /DataSource [ 0 x1 y1 r1 g1 b1 0 x2 y2 r2 g2 b2 0 x3 y3 r3 g3 b3 ] >>
      shfill grestore } BD
/Tm { 3 -1 roll 8 -1 roll 13 -1 roll add add 3 div
      3 -1 roll 7 -1 roll 11 -1 roll add add 3 div
      3 -1 roll 6 -1 roll 9 -1 roll add add 3 div C T } BD
/STsplit {
      4 index 15 index add 0.5 mul
      4 index 15 index add 0.5 mul
      4 index 15 index add 0.5 mul
      4 index 15 index add 0.5 mul
      4 index 15 index add 0.5 mul
      5 copy 5 copy 25 15 roll
      9 index 30 index add 0.5 mul
      9 index 30 index add 0.5 mul
      9 index 30 index add 0.5 mul
      9 index 30 index add 0.5 mul
      9 index 30 index add 0.5 mul
      5 copy 5 copy 35 5 roll 25 5 roll 15 5 roll
      4 index 10 index add 0.5 mul
      4 index 10 index add 0.5 mul
      4 index 10 index add 0.5 mul
      4 index 10 index add 0.5 mul
      4 index 10 index add 0.5 mul
      5 copy 5 copy 40 5 roll 25 5 roll 15 5 roll 25 5 roll
      STnoshfill STnoshfill STnoshfill STnoshfill } BD
/STnoshfill {
      2 index 8 index sub abs rThreshold gt
      { STsplit }
      { 1 index 7 index sub abs gThreshold gt
        { STsplit }
        { dup 6 index sub abs bThreshold gt
          { STsplit }
          { 2 index 13 index sub abs rThreshold gt
            { STsplit }
            { 1 index 12 index sub abs gThreshold gt
              { STsplit }
              { dup 11 index sub abs bThreshold gt
                { STsplit }
                { 7 index 13 index sub abs rThreshold gt
                  { STsplit }
                  { 6 index 12 index sub abs gThreshold gt
                    { STsplit }
                    { 5 index 11 index sub abs bThreshold gt
                      { STsplit }
                      { Tm }
                      ifelse }
                    ifelse }
                  ifelse }
                ifelse }
              ifelse }
            ifelse }
          ifelse }
        ifelse }
      ifelse } BD
tryPS3shading
{ /shfill where
  { /ST { STshfill } BD }
  { /ST { STnoshfill } BD }
  ifelse }
{ /ST { STnoshfill } BD }
ifelse
end
%%EndProlog
%%BeginSetup
/DeviceRGB setcolorspace
gl2psdict begin
%%EndSetup
%%Page: 1 1
%%BeginPageSetup
%%EndPageSetup
mark
gsave
1.0 1.0 scale
1 1 1 C
newpath 0 0 moveto 360 0 lineto 360 252 lineto 0 252 lineto
closepath fill
gsave
1.0 1.0 scale
1 1 1 C
newpath 0 0 moveto 360 0 lineto 360 252 lineto 0 252 lineto
closepath fill
newpath 0 0 moveto 360 0 lineto 360 252 lineto 0 252 lineto
closepath clip
1 1 1 C
46.8 230 325.8 27.72 46.8 27.72 T
46.8 230 325.8 230 325.8 27.72 T
0.5 W
0.15 0.15 0.15 C
46.8 27.72 LS
46.8 30.5139 LE
46.8 230 LS
46.8 227.206 LE
116.55 27.72 LS
116.55 30.5139 LE
116.55 230 LS
116.55 227.206 LE
186.3 27.72 LS
186.3 30.5139 LE
186.3 230 LS
186.3 227.206 LE
256.05 27.72 LS
256.05 30.5139 LE
256.05 230 LS
256.05 227.206 LE
325.8 27.72 LS
325.8 30.5139 LE
325.8 230 LS
325.8 227.206 LE
gsave
0.14902 0.14902 0.14902 C
(-10) [3 6 10] 0 39.3 12.2096 10 /Helvetica SRX
grestore

gsave
0.14902 0.14902 0.14902 C
(-5) [3 10] 0 112.05 12.2096 10 /Helvetica SRX
grestore

gsave
0.14902 0.14902 0.14902 C
(0) [10] 0 183.3 12.2096 10 /Helvetica SRX
grestore

gsave
0.14902 0.14902 0.14902 C
(5) [10] 0 253.05 12.2096 10 /Helvetica SRX
grestore

gsave
0.14902 0.14902 0.14902 C
(10) [6 10] 0 319.8 12.2096 10 /Helvetica SRX
grestore

46.8 27.72 LS
49.59 27.72 LE
325.8 27.72 LS
323.01 27.72 LE
46.8 78.29 LS
49.59 78.29 LE
325.8 78.29 LS
323.01 78.29 LE
46.8 128.86 LS
49.59 128.86 LE
325.8 128.86 LS
323.01 128.86 LE
46.8 179.43 LS
49.59 179.43 LE
325.8 179.43 LS
323.01 179.43 LE
46.8 230 LS
49.59 230 LE
325.8 230 LS
323.01 230 LE
gsave
0.14902 0.14902 0.14902 C
(-1) [3 10] 0 32.8 23.72 10 /Helvetica SRX
grestore

gsave
0.14902 0.14902 0.14902 C
(-0.5) [3 6 3 10] 0 23.8 74.29 10 /Helvetica SRX
grestore

gsave
0.14902 0.14902 0.14902 C
(0) [10] 0 35.8 124.86 10 /Helvetica SRX
grestore

gsave
0.14902 0.14902 0.14902 C
(0.5) [6 3 10] 0 26.8 175.43 10 /Helvetica SRX
grestore

gsave
0.14902 0.14902 0.14902 C
(1) [10] 0 35.8 226 10 /Helvetica SRX
grestore

2 LC
[16 0] 0 setdash
46.8 27.72 LS
325.8 27.72 LE
46.8 230 LS
325.8 230 LE
46.8 27.72 LS
46.8 230 LE
325.8 27.72 LS
325.8 230 LE
gsave
0.14902 0.14902 0.14902 C
(x) [10] 0 183.8 0.209604 11 /Helvetica SRX
grestore

gsave
0.14902 0.14902 0.14902 C
(sin \(x\)) [5 2 6 3 4 5 10] 90 15.8 114.36 11 /Helvetica SRX
grestore

gsave
0 0 0 C
(Simple 2-D Plot) [7 3 10 7 3 6 3 6 4 8 3 7 3 7 10] 0 145.8 243 11 /Helvetica-Bold SRX
grestore

0 LC
1 LJ
[] 0 setdash
0 0.447 0.741 C
46.8 183.882 LS
48.195 175.135 L
49.59 165.926 L
50.985 156.346 L
52.38 146.491 L
53.775 136.461 L
55.17 126.354 L
56.565 116.273 L
57.96 106.317 L
59.355 96.5864 L
60.75 87.1783 L
62.145 78.1867 L
63.54 69.7015 L
64.935 61.8073 L
66.33 54.5831 L
67.725 48.101 L
69.12 42.4259 L
70.515 37.6143 L
71.91 33.7145 L
73.305 30.7653 L
74.7 28.7963 L
76.095 27.8271 L
77.49 27.8673 L
78.885 28.9167 L
80.28 30.9646 L
81.675 33.9907 L
83.07 37.9647 L
84.465 42.8468 L
85.86 48.5884 L
87.255 55.1321 L
88.65 62.4124 L
90.045 70.3566 L
91.44 78.8854 L
92.835 87.9135 L
94.23 97.3507 L
95.625 107.103 L
97.02 117.072 L
98.415 127.159 L
99.81 137.264 L
101.205 147.284 L
102.6 157.12 L
103.995 166.674 L
105.39 175.85 L
106.785 184.556 L
108.18 192.706 L
109.575 200.218 L
110.97 207.017 L
112.365 213.036 L
113.76 218.213 L
115.155 222.497 L
116.55 225.846 L
117.945 228.225 L
119.34 229.612 L
120.735 229.992 L
122.13 229.362 L
123.525 227.727 L
124.92 225.105 L
126.315 221.521 L
127.71 217.011 L
129.105 211.621 L
130.5 205.403 L
131.895 198.421 L
133.29 190.743 L
134.685 182.448 L
136.08 173.617 L
137.475 164.338 L
138.87 154.705 L
140.265 144.814 L
141.66 134.764 L
143.055 124.655 L
144.45 114.587 L
145.845 104.662 L
147.24 94.9793 L
148.635 85.6348 L
150.03 76.7222 L
151.425 68.3305 L
152.82 60.5436 L
154.215 53.4394 L
155.61 47.0887 L
157.005 41.555 L
158.4 36.8937 L
159.795 33.1512 L
161.19 30.365 L
162.585 28.563 L
163.98 27.7631 L
165.375 27.9733 L
166.77 29.1916 L
168.165 31.4057 L
169.56 34.5936 L
170.955 38.7233 L
172.35 43.7536 L
173.745 49.6343 L
175.14 56.3066 L
176.535 63.7038 L
177.93 71.752 L
179.325 80.3709 L
180.72 89.4742 L
182.115 98.9711 L
183.51 108.767 L
184.905 118.763 L
186.3 128.86 L
187.695 138.957 L
189.09 148.953 L
190.485 158.749 L
191.88 168.246 L
193.275 177.349 L
194.67 185.968 L
196.065 194.016 L
197.46 201.413 L
198.855 208.086 L
200.25 213.966 L
201.645 218.997 L
203.04 223.126 L
204.435 226.314 L
205.83 228.528 L
207.225 229.747 L
208.62 229.957 L
210.015 229.157 L
211.41 227.355 L
212.805 224.569 L
214.2 220.826 L
215.595 216.165 L
216.99 210.631 L
218.385 204.281 L
219.78 197.176 L
221.175 189.389 L
222.57 180.998 L
223.965 172.085 L
225.36 162.741 L
226.755 153.058 L
228.15 143.133 L
229.545 133.065 L
230.94 122.956 L
232.335 112.906 L
233.73 103.015 L
235.125 93.3818 L
236.52 84.1035 L
237.915 75.2724 L
239.31 66.9767 L
240.705 59.2993 L
242.1 52.317 L
243.495 46.0994 L
244.89 40.7088 L
246.285 36.199 L
247.68 32.615 L
249.075 29.9926 L
250.47 28.3581 L
251.865 27.7278 L
253.26 28.1079 L
254.655 29.4947 L
256.05 31.8744 L
257.445 35.2231 L
258.84 39.5074 L
260.235 44.6845 L
261.63 50.7026 L
263.025 57.5016 L
264.42 65.0137 L
265.815 73.1637 L
267.21 81.8701 L
268.605 91.0461 L
270 100.6 L
271.395 110.436 L
272.79 120.456 L
274.185 130.561 L
275.58 140.648 L
276.975 150.617 L
278.37 160.369 L
279.765 169.807 L
281.16 178.835 L
282.555 187.363 L
283.95 195.308 L
285.345 202.588 L
286.74 209.132 L
288.135 214.873 L
289.53 219.755 L
290.925 223.729 L
292.32 226.755 L
293.715 228.803 L
295.11 229.853 L
296.505 229.893 L
297.9 228.924 L
299.295 226.955 L
300.69 224.005 L
302.085 220.106 L
303.48 215.294 L
304.875 209.619 L
306.27 203.137 L
307.665 195.913 L
309.06 188.019 L
310.455 179.533 L
311.85 170.542 L
313.245 161.134 L
314.64 151.403 L
316.035 141.447 L
317.43 131.366 L
318.825 121.259 L
320.22 111.229 L
321.615 101.374 L
323.01 91.7943 L
324.405 82.5848 L
325.8 73.8377 LE
grestore
grestore
showpage
cleartomark
%%PageTrailer
%%Trailer
end
%%EOF
