%!PS-Adobe-3.0 EPSF-3.0
%%Title: gl2ps_renderer figure
%%Creator: GL2PS 1.4.0, (C) 1999-2017 C. Geuzaine
%%For: Octave
%%CreationDate: Sat Feb 23 18:52:03 2019
%%LanguageLevel: 3
%%DocumentData: Clean7Bit
%%Pages: 1
%%BoundingBox: 0 0 360 252
%%EndComments
%%BeginProlog
/gl2psdict 64 dict def gl2psdict begin
/tryPS3shading false def % set to false to force subdivision
/rThreshold 0.064 def % red component subdivision threshold
/gThreshold 0.034 def % green component subdivision threshold
/bThreshold 0.1 def % blue component subdivision threshold
/BD { bind def } bind def
/C  { setrgbcolor } BD
/G  { 0.082 mul exch 0.6094 mul add exch 0.3086 mul add neg 1.0 add setgray } BD
/W  { setlinewidth } BD
/LC  { setlinecap } BD
/LJ  { setlinejoin } BD
/FC { findfont exch /SH exch def SH scalefont setfont } BD
/SW { dup stringwidth pop } BD
/S  { FC moveto show } BD
/SBC{ FC moveto SW -2 div 0 rmoveto show } BD
/SBR{ FC moveto SW neg 0 rmoveto show } BD
/SCL{ FC moveto 0 SH -2 div rmoveto show } BD
/SCC{ FC moveto SW -2 div SH -2 div rmoveto show } BD
/SCR{ FC moveto SW neg SH -2 div rmoveto show } BD
/STL{ FC moveto 0 SH neg rmoveto show } BD
/STC{ FC moveto SW -2 div SH neg rmoveto show } BD
/STR{ FC moveto SW neg SH neg rmoveto show } BD
/FCT { FC translate 0 0 } BD
/SR  { gsave FCT moveto rotate show grestore } BD
/SRX  { gsave FCT moveto rotate xshow grestore } BD
/SBCR{ gsave FCT moveto rotate SW -2 div 0 rmoveto show grestore } BD
/SBRR{ gsave FCT moveto rotate SW neg 0 rmoveto show grestore } BD
/SCLR{ gsave FCT moveto rotate 0 SH -2 div rmoveto show grestore} BD
/SCCR{ gsave FCT moveto rotate SW -2 div SH -2 div rmoveto show grestore} BD
/SCRR{ gsave FCT moveto rotate SW neg SH -2 div rmoveto show grestore} BD
/STLR{ gsave FCT moveto rotate 0 SH neg rmoveto show grestore } BD
/STCR{ gsave FCT moveto rotate SW -2 div SH neg rmoveto show grestore } BD
/STRR{ gsave FCT moveto rotate SW neg SH neg rmoveto show grestore } BD
/P  { newpath 0.0 360.0 arc closepath fill } BD
/LS { newpath moveto } BD
/L  { lineto } BD
/LE { lineto stroke } BD
/T  { newpath moveto lineto lineto closepath fill } BD
/STshfill {
      /b1 exch def /g1 exch def /r1 exch def /y1 exch def /x1 exch def
      /b2 exch def /g2 exch def /r2 exch def /y2 exch def /x2 exch def
      /b3 exch def /g3 exch def /r3 exch def /y3 exch def /x3 exch def
      gsave << /ShadingType 4 /ColorSpace [/DeviceRGB]
      /DataSource [ 0 x1 y1 r1 g1 b1 0 x2 y2 r2 g2 b2 0 x3 y3 r3 g3 b3 ] >>
      shfill grestore } BD
/Tm { 3 -1 roll 8 -1 roll 13 -1 roll add add 3 div
      3 -1 roll 7 -1 roll 11 -1 roll add add 3 div
      3 -1 roll 6 -1 roll 9 -1 roll add add 3 div C T } BD
/STsplit {
      4 index 15 index add 0.5 mul
      4 index 15 index add 0.5 mul
      4 index 15 index add 0.5 mul
      4 index 15 index add 0.5 mul
      4 index 15 index add 0.5 mul
      5 copy 5 copy 25 15 roll
      9 index 30 index add 0.5 mul
      9 index 30 index add 0.5 mul
      9 index 30 index add 0.5 mul
      9 index 30 index add 0.5 mul
      9 index 30 index add 0.5 mul
      5 copy 5 copy 35 5 roll 25 5 roll 15 5 roll
      4 index 10 index add 0.5 mul
      4 index 10 index add 0.5 mul
      4 index 10 index add 0.5 mul
      4 index 10 index add 0.5 mul
      4 index 10 index add 0.5 mul
      5 copy 5 copy 40 5 roll 25 5 roll 15 5 roll 25 5 roll
      STnoshfill STnoshfill STnoshfill STnoshfill } BD
/STnoshfill {
      2 index 8 index sub abs rThreshold gt
      { STsplit }
      { 1 index 7 index sub abs gThreshold gt
        { STsplit }
        { dup 6 index sub abs bThreshold gt
          { STsplit }
          { 2 index 13 index sub abs rThreshold gt
            { STsplit }
            { 1 index 12 index sub abs gThreshold gt
              { STsplit }
              { dup 11 index sub abs bThreshold gt
                { STsplit }
                { 7 index 13 index sub abs rThreshold gt
                  { STsplit }
                  { 6 index 12 index sub abs gThreshold gt
                    { STsplit }
                    { 5 index 11 index sub abs bThreshold gt
                      { STsplit }
                      { Tm }
                      ifelse }
                    ifelse }
                  ifelse }
                ifelse }
              ifelse }
            ifelse }
          ifelse }
        ifelse }
      ifelse } BD
tryPS3shading
{ /shfill where
  { /ST { STshfill } BD }
  { /ST { STnoshfill } BD }
  ifelse }
{ /ST { STnoshfill } BD }
ifelse
end
%%EndProlog
%%BeginSetup
/DeviceRGB setcolorspace
gl2psdict begin
%%EndSetup
%%Page: 1 1
%%BeginPageSetup
%%EndPageSetup
mark
gsave
1.0 1.0 scale
1 1 1 C
newpath 0 0 moveto 360 0 lineto 360 252 lineto 0 252 lineto
closepath fill
gsave
1.0 1.0 scale
1 1 1 C
newpath 0 0 moveto 360 0 lineto 360 252 lineto 0 252 lineto
closepath fill
newpath 0 0 moveto 360 0 lineto 360 252 lineto 0 252 lineto
closepath clip
1 1 1 C
94.5435 134.751 94.5435 122.969 96.0501 146.436 T
96.0501 111.284 96.0501 146.436 94.5435 122.969 T
99.0387 99.8872 96.0501 146.436 96.0501 111.284 T
99.0387 157.833 96.0501 146.436 99.0387 99.8872 T
103.46 88.9663 99.0387 157.833 99.0387 99.8872 T
103.46 168.754 99.0387 157.833 103.46 88.9663 T
109.242 78.7005 103.46 168.754 103.46 88.9663 T
109.242 179.019 103.46 168.754 109.242 78.7005 T
116.289 69.2583 109.242 179.019 109.242 78.7005 T
116.289 188.462 109.242 179.019 116.289 69.2583 T
124.485 60.7948 116.289 188.462 116.289 69.2583 T
124.485 196.925 116.289 188.462 124.485 60.7948 T
133.696 53.4489 124.485 196.925 124.485 60.7948 T
133.696 204.271 124.485 196.925 133.696 53.4489 T
143.772 47.3412 133.696 204.271 133.696 53.4489 T
143.772 210.379 133.696 204.271 143.772 47.3412 T
154.545 42.5721 143.772 210.379 143.772 47.3412 T
154.545 215.148 143.772 210.379 154.545 42.5721 T
165.84 39.2198 154.545 215.148 154.545 42.5721 T
165.84 218.5 154.545 215.148 165.84 39.2198 T
177.471 37.3394 165.84 218.5 165.84 39.2198 T
177.471 220.381 165.84 218.5 177.471 37.3394 T
189.247 36.9618 177.471 220.381 177.471 37.3394 T
189.247 220.758 177.471 220.381 189.247 36.9618 T
200.975 38.0931 189.247 220.758 189.247 36.9618 T
200.975 219.627 189.247 220.758 200.975 38.0931 T
212.461 40.7148 200.975 219.627 200.975 38.0931 T
212.461 217.005 200.975 219.627 212.461 40.7148 T
223.518 44.7839 212.461 217.005 212.461 40.7148 T
223.518 212.936 212.461 217.005 223.518 44.7839 T
233.964 50.2335 223.518 212.936 223.518 44.7839 T
233.964 207.486 223.518 212.936 233.964 50.2335 T
243.627 56.9741 233.964 207.486 233.964 50.2335 T
243.627 200.746 233.964 207.486 243.627 56.9741 T
252.349 64.8951 243.627 200.746 243.627 56.9741 T
252.349 192.825 243.627 200.746 252.349 64.8951 T
259.986 73.8664 252.349 192.825 252.349 64.8951 T
259.986 183.854 252.349 192.825 259.986 73.8664 T
266.414 83.7407 259.986 183.854 259.986 73.8664 T
266.414 173.979 259.986 183.854 266.414 83.7407 T
271.526 94.3559 266.414 173.979 266.414 83.7407 T
271.526 163.364 266.414 173.979 271.526 94.3559 T
275.238 105.538 271.526 163.364 271.526 94.3559 T
275.238 152.182 271.526 163.364 275.238 105.538 T
277.491 117.102 275.238 152.182 275.238 105.538 T
277.491 140.618 275.238 152.182 277.491 117.102 T
278.245 128.86 277.491 140.618 277.491 117.102 T
278.245 128.86 278.245 128.86 277.491 117.102 T
0.5 W
0 0 0 C
278.245 128.86 LS
277.491 117.102 L
275.238 105.538 L
271.526 94.3559 L
266.414 83.7407 L
259.986 73.8664 L
252.349 64.8951 L
243.627 56.9741 L
233.964 50.2335 L
223.518 44.7839 L
212.461 40.7148 L
200.975 38.0931 L
189.247 36.9618 L
177.471 37.3394 L
165.84 39.2198 L
154.545 42.5721 L
143.772 47.3412 L
133.696 53.4489 L
124.485 60.7948 L
116.289 69.2583 L
109.242 78.7005 L
103.46 88.9663 L
99.0387 99.8872 L
96.0501 111.284 L
94.5435 122.969 L
94.5435 134.751 L
96.0501 146.436 L
99.0387 157.833 L
103.46 168.754 L
109.242 179.019 L
116.289 188.462 L
124.485 196.925 L
133.696 204.271 L
143.772 210.379 L
154.545 215.148 L
165.84 218.5 L
177.471 220.381 L
189.247 220.758 L
200.975 219.627 L
212.461 217.005 L
223.518 212.936 L
233.964 207.486 L
243.627 200.746 L
252.349 192.825 L
259.986 183.854 L
266.414 173.979 L
271.526 163.364 L
275.238 152.182 L
277.491 140.618 L
278.245 128.86 L
278.245 128.86 LE
1 LJ
0.15 0.15 0.15 C
209.286 128.86 LS
209.098 131.799 L
208.535 134.691 L
207.606 137.486 L
206.328 140.14 L
204.722 142.608 L
202.812 144.851 L
200.632 146.831 L
198.216 148.517 L
195.605 149.879 L
192.84 150.896 L
189.969 151.552 L
187.037 151.835 L
184.093 151.74 L
181.185 151.27 L
178.361 150.432 L
175.668 149.24 L
173.149 147.713 L
170.846 145.876 L
168.797 143.76 L
167.035 141.4 L
165.59 138.833 L
164.485 136.103 L
163.738 133.254 L
163.361 130.333 L
163.361 127.387 L
163.738 124.466 L
164.485 121.617 L
165.59 118.887 L
167.035 116.32 L
168.797 113.96 L
170.846 111.844 L
173.149 110.007 L
175.668 108.48 L
178.361 107.288 L
181.185 106.45 L
184.093 105.98 L
187.037 105.885 L
189.969 106.168 L
192.84 106.824 L
195.605 107.841 L
198.216 109.203 L
200.632 110.889 L
202.812 112.869 L
204.722 115.112 L
206.328 117.58 L
207.606 120.234 L
208.535 123.029 L
209.098 125.921 L
209.286 128.86 LE
232.273 128.86 LS
231.895 134.739 L
230.769 140.521 L
228.913 146.112 L
226.357 151.42 L
223.143 156.357 L
219.324 160.842 L
214.964 164.803 L
210.132 168.173 L
204.909 170.898 L
199.381 172.933 L
193.637 174.243 L
187.774 174.809 L
181.886 174.62 L
176.07 173.68 L
170.423 172.004 L
165.036 169.619 L
159.998 166.566 L
155.393 162.893 L
151.294 158.661 L
147.771 153.94 L
144.88 148.807 L
142.669 143.346 L
141.175 137.648 L
140.422 131.805 L
140.422 125.915 L
141.175 120.072 L
142.669 114.374 L
144.88 108.913 L
147.771 103.78 L
151.294 99.0592 L
155.393 94.8274 L
159.998 91.1544 L
165.036 88.1006 L
170.423 85.716 L
176.07 84.0399 L
181.886 83.0997 L
187.774 82.9109 L
193.637 83.4765 L
199.381 84.7874 L
204.909 86.8219 L
210.132 89.5467 L
214.964 92.9171 L
219.324 96.8776 L
223.143 101.363 L
226.357 106.3 L
228.913 111.608 L
230.769 117.199 L
231.895 122.981 L
232.273 128.86 LE
255.259 128.86 LS
254.693 137.678 L
253.004 146.352 L
250.219 154.738 L
246.385 162.699 L
241.565 170.105 L
235.837 176.834 L
229.295 182.774 L
222.048 187.83 L
214.214 191.917 L
205.921 194.969 L
197.306 196.935 L
188.51 197.784 L
179.678 197.5 L
170.955 196.09 L
162.484 193.576 L
154.404 189.999 L
146.847 185.418 L
139.939 179.909 L
133.791 173.561 L
128.506 166.48 L
124.17 158.78 L
120.854 150.59 L
118.613 142.042 L
117.483 133.278 L
117.483 124.442 L
118.613 115.678 L
120.854 107.13 L
124.17 98.9398 L
128.506 91.2404 L
133.791 84.1588 L
139.939 77.8111 L
146.847 72.3017 L
154.404 67.7209 L
162.484 64.1441 L
170.955 61.6298 L
179.678 60.2196 L
188.51 59.9363 L
197.306 60.7848 L
205.921 62.7511 L
214.214 65.8029 L
222.048 69.8901 L
229.295 74.9456 L
235.837 80.8864 L
241.565 87.6148 L
246.385 95.0206 L
250.219 102.982 L
253.004 111.368 L
254.693 120.042 L
255.259 128.86 LE
278.245 128.86 LS
277.491 140.618 L
275.238 152.182 L
271.526 163.364 L
266.414 173.979 L
259.986 183.854 L
252.349 192.825 L
243.627 200.746 L
233.964 207.486 L
223.518 212.936 L
212.461 217.005 L
200.975 219.627 L
189.247 220.758 L
177.471 220.381 L
165.84 218.5 L
154.545 215.148 L
143.772 210.379 L
133.696 204.271 L
124.485 196.925 L
116.289 188.462 L
109.242 179.019 L
103.46 168.754 L
99.0387 157.833 L
96.0501 146.436 L
94.5435 134.751 L
94.5435 122.969 L
96.0501 111.284 L
99.0387 99.8872 L
103.46 88.9663 L
109.242 78.7005 L
116.289 69.2583 L
124.485 60.7948 L
133.696 53.4489 L
143.772 47.3412 L
154.545 42.5721 L
165.84 39.2198 L
177.471 37.3394 L
189.247 36.9618 L
200.975 38.0931 L
212.461 40.7148 L
223.518 44.7839 L
233.964 50.2335 L
243.627 56.9741 L
252.349 64.8951 L
259.986 73.8664 L
266.414 83.7407 L
271.526 94.3559 L
275.238 105.538 L
277.491 117.102 L
278.245 128.86 LE
gsave
0 0 0 C
(10) [6 10] 0 192.016 151.124 10 /Helvetica SRX
grestore

gsave
0 0 0 C
(20) [6 10] 0 197.733 173.388 10 /Helvetica SRX
grestore

gsave
0 0 0 C
(30) [6 10] 0 203.449 195.653 10 /Helvetica SRX
grestore

gsave
0 0 0 C
(40) [6 10] 0 209.166 217.917 10 /Helvetica SRX
grestore

186.3 128.86 LS
278.245 128.86 LE
186.3 128.86 LS
265.927 174.833 LE
186.3 128.86 LS
232.273 208.487 LE
186.3 128.86 LS
186.3 220.805 LE
186.3 128.86 LS
140.327 208.487 LE
186.3 128.86 LS
106.673 174.833 LE
186.3 128.86 LS
94.3546 128.86 LE
186.3 128.86 LS
106.673 82.8873 LE
186.3 128.86 LS
140.327 49.2329 LE
186.3 128.86 LS
186.3 36.9145 LE
186.3 128.86 LS
232.273 49.2329 LE
186.3 128.86 LS
265.927 82.8873 LE
gsave
0 0 0 C
(0) [10] 0 282.601 124.86 10 /Helvetica SRX
grestore

gsave
0 0 0 C
(30) [6 10] 0 266.297 174.511 10 /Helvetica SRX
grestore

gsave
0 0 0 C
(60) [6 10] 0 229.951 210.857 10 /Helvetica SRX
grestore

gsave
0 0 0 C
(90) [6 10] 0 180.3 224.161 10 /Helvetica SRX
grestore

gsave
0 0 0 C
(120) [6 6 10] 0 127.649 210.857 10 /Helvetica SRX
grestore

gsave
0 0 0 C
(150) [6 6 10] 0 91.3027 174.511 10 /Helvetica SRX
grestore

gsave
0 0 0 C
(180) [6 6 10] 0 77.9989 124.86 10 /Helvetica SRX
grestore

gsave
0 0 0 C
(210) [6 6 10] 0 91.3027 75.2095 10 /Helvetica SRX
grestore

gsave
0 0 0 C
(240) [6 6 10] 0 127.649 38.8627 10 /Helvetica SRX
grestore

gsave
0 0 0 C
(270) [6 6 10] 0 177.3 25.5589 10 /Helvetica SRX
grestore

gsave
0 0 0 C
(300) [6 6 10] 0 226.951 38.8627 10 /Helvetica SRX
grestore

gsave
0 0 0 C
(330) [6 6 10] 0 263.297 75.2095 10 /Helvetica SRX
grestore

gsave
0 0 0 C
(Example polar plot from 0 to 10*pi) [7 6 6 10 7 3 6 3 7 7 3 6 4 3 7 3 7 4 3 4 4 7 10 3 6 3 4 7 3 6 6 4 7 10] 0 96.8 243 11 /Helvetica-Bold SRX
grestore

0 0.447 0.741 C
186.3 128.86 LS
186.529 128.883 L
186.751 128.951 L
186.959 129.064 L
187.147 129.218 L
187.309 129.411 L
187.438 129.639 L
187.531 129.897 L
187.581 130.179 L
187.586 130.481 L
187.542 130.794 L
187.447 131.113 L
187.3 131.431 L
187.099 131.739 L
186.847 132.031 L
186.544 132.299 L
186.193 132.536 L
185.797 132.735 L
185.36 132.889 L
184.888 132.993 L
184.387 133.04 L
183.863 133.027 L
183.324 132.949 L
182.778 132.802 L
182.232 132.586 L
181.696 132.299 L
181.179 131.941 L
180.689 131.512 L
180.236 131.016 L
179.828 130.455 L
179.473 129.833 L
179.18 129.156 L
178.957 128.431 L
178.809 127.663 L
178.744 126.863 L
178.766 126.038 L
178.879 125.198 L
179.087 124.354 L
179.391 123.516 L
179.792 122.694 L
180.29 121.902 L
180.883 121.148 L
181.567 120.446 L
182.338 119.804 L
183.192 119.235 L
184.12 118.749 L
185.114 118.353 L
186.166 118.057 L
187.265 117.869 L
188.401 117.794 L
189.56 117.839 L
190.731 118.007 L
191.9 118.3 L
193.054 118.721 L
194.178 119.268 L
195.259 119.94 L
196.283 120.734 L
197.237 121.645 L
198.106 122.666 L
198.878 123.789 L
199.543 125.006 L
200.087 126.306 L
200.502 127.676 L
200.779 129.103 L
200.911 130.575 L
200.891 132.074 L
200.716 133.586 L
200.382 135.095 L
199.889 136.583 L
199.238 138.034 L
198.431 139.431 L
197.472 140.757 L
196.368 141.995 L
195.128 143.13 L
193.76 144.147 L
192.276 145.031 L
190.689 145.769 L
189.015 146.35 L
187.267 146.763 L
185.465 147 L
183.624 147.053 L
181.765 146.918 L
179.907 146.592 L
178.07 146.072 L
176.273 145.361 L
174.538 144.461 L
172.883 143.378 L
171.328 142.118 L
169.893 140.692 L
168.595 139.11 L
167.451 137.386 L
166.476 135.535 L
165.685 133.574 L
165.089 131.52 L
164.699 129.395 L
164.525 127.219 L
164.571 125.013 L
164.842 122.801 L
165.341 120.604 L
166.065 118.448 L
167.013 116.355 L
168.178 114.348 L
169.553 112.451 L
171.128 110.684 L
172.889 109.07 L
174.823 107.628 L
176.911 106.376 L
179.136 105.331 L
181.476 104.508 L
183.909 103.919 L
186.412 103.575 L
188.96 103.484 L
191.526 103.651 L
194.086 104.08 L
196.611 104.769 L
199.076 105.718 L
201.453 106.92 L
203.717 108.367 L
205.841 110.049 L
207.802 111.952 L
209.577 114.059 L
211.143 116.354 L
212.482 118.814 L
213.576 121.418 L
214.41 124.14 L
214.97 126.954 L
215.246 129.834 L
215.232 132.749 L
214.923 135.672 L
214.317 138.57 L
213.417 141.416 L
212.226 144.177 L
210.752 146.825 L
209.007 149.33 L
207.005 151.665 L
204.761 153.803 L
202.297 155.719 L
199.633 157.39 L
196.794 158.795 L
193.807 159.917 L
190.7 160.739 L
187.504 161.248 L
184.25 161.436 L
180.971 161.296 L
177.7 160.824 L
174.47 160.02 L
171.316 158.889 L
168.27 157.438 L
165.366 155.676 L
162.634 153.618 L
160.106 151.282 L
157.81 148.686 L
155.772 145.854 L
154.017 142.813 L
152.566 139.59 L
151.439 136.216 L
150.65 132.724 L
150.213 129.147 L
150.135 125.522 L
150.424 121.884 L
151.079 118.271 L
152.1 114.72 L
153.48 111.268 L
155.209 107.951 L
157.275 104.805 L
159.66 101.864 L
162.344 99.1601 L
165.303 96.7244 L
168.51 94.5847 L
171.936 92.7663 L
175.548 91.2916 L
179.311 90.1797 L
183.189 89.446 L
187.145 89.1025 L
191.137 89.1573 L
195.127 89.6143 L
199.074 90.4735 L
202.936 91.7308 L
206.674 93.3778 L
210.249 95.4022 L
213.621 97.7876 L
216.755 100.514 L
219.616 103.557 L
222.171 106.889 L
224.393 110.48 L
226.253 114.296 L
227.73 118.301 L
228.805 122.455 L
229.461 126.719 L
229.689 131.051 L
229.481 135.406 L
228.834 139.741 L
227.751 144.012 L
226.239 148.174 L
224.307 152.185 L
221.971 156.002 L
219.251 159.585 L
216.171 162.894 L
212.758 165.893 L
209.043 168.549 L
205.061 170.831 L
200.849 172.712 L
196.449 174.17 L
191.902 175.185 L
187.254 175.742 L
182.551 175.833 L
177.839 175.45 L
173.167 174.593 L
168.581 173.267 L
164.13 171.48 L
159.86 169.247 L
155.816 166.584 L
152.041 163.516 L
148.575 160.069 L
145.457 156.275 L
142.721 152.169 L
140.399 147.789 L
138.519 143.178 L
137.102 138.38 L
136.169 133.442 L
135.732 128.412 L
135.801 123.341 L
136.379 118.28 L
137.466 113.279 L
139.054 108.39 L
141.133 103.664 L
143.686 99.1489 L
146.69 94.8934 L
150.121 90.9424 L
153.945 87.3386 L
158.13 84.1215 L
162.635 81.3269 L
167.417 78.9868 L
172.431 77.1287 L
177.627 75.7757 L
182.956 74.9456 L
188.364 74.6514 L
193.797 74.9006 L
199.201 75.6953 L
204.52 77.032 L
209.701 78.9017 L
214.689 81.2901 L
219.433 84.1773 L
223.883 87.5383 L
227.992 91.343 L
231.714 95.5567 L
235.01 100.14 L
237.843 105.05 L
240.179 110.24 L
241.993 115.659 L
243.26 121.254 L
243.965 126.971 L
244.095 132.753 L
243.644 138.542 L
242.613 144.279 L
241.007 149.906 L
238.837 155.366 L
236.122 160.602 L
232.885 165.56 L
229.154 170.187 L
224.963 174.434 L
220.35 178.255 L
215.36 181.609 L
210.039 184.458 L
204.438 186.77 L
198.613 188.516 L
192.619 189.676 L
186.517 190.233 L
180.367 190.177 L
174.23 189.504 L
168.169 188.216 L
162.245 186.321 L
156.519 183.835 L
151.051 180.777 L
145.896 177.175 L
141.11 173.061 L
136.744 168.472 L
132.844 163.452 L
129.453 158.047 L
126.609 152.31 L
124.345 146.296 L
122.687 140.064 L
121.657 133.674 L
121.27 127.191 L
121.534 120.678 L
122.45 114.202 L
124.015 107.827 L
126.216 101.619 L
129.037 95.6412 L
132.453 89.9557 L
136.434 84.6219 L
140.944 79.6956 L
145.94 75.2295 L
151.377 71.2717 L
157.202 67.8654 L
163.359 65.0489 L
169.788 62.8543 L
176.427 61.3082 L
183.21 60.4304 L
190.069 60.2342 L
196.937 60.7262 L
203.744 61.9061 L
210.421 63.7665 L
216.9 66.2933 L
223.114 69.4654 L
229 73.2551 L
234.495 77.6283 L
239.543 82.5449 L
244.088 87.9589 L
248.083 93.819 L
251.482 100.069 L
254.25 106.649 L
256.352 113.494 L
257.764 120.538 L
258.468 127.711 LE
grestore
grestore
showpage
cleartomark
%%PageTrailer
%%Trailer
end
%%EOF
