%!PS-Adobe-3.0 EPSF-3.0
%%Title: gl2ps_renderer figure
%%Creator: GL2PS 1.4.0, (C) 1999-2017 C. Geuzaine
%%For: Octave
%%CreationDate: Sat Feb 23 18:52:06 2019
%%LanguageLevel: 3
%%DocumentData: Clean7Bit
%%Pages: 1
%%BoundingBox: 0 0 360 252
%%EndComments
%%BeginProlog
/gl2psdict 64 dict def gl2psdict begin
/tryPS3shading false def % set to false to force subdivision
/rThreshold 0.064 def % red component subdivision threshold
/gThreshold 0.034 def % green component subdivision threshold
/bThreshold 0.1 def % blue component subdivision threshold
/BD { bind def } bind def
/C  { setrgbcolor } BD
/G  { 0.082 mul exch 0.6094 mul add exch 0.3086 mul add neg 1.0 add setgray } BD
/W  { setlinewidth } BD
/LC  { setlinecap } BD
/LJ  { setlinejoin } BD
/FC { findfont exch /SH exch def SH scalefont setfont } BD
/SW { dup stringwidth pop } BD
/S  { FC moveto show } BD
/SBC{ FC moveto SW -2 div 0 rmoveto show } BD
/SBR{ FC moveto SW neg 0 rmoveto show } BD
/SCL{ FC moveto 0 SH -2 div rmoveto show } BD
/SCC{ FC moveto SW -2 div SH -2 div rmoveto show } BD
/SCR{ FC moveto SW neg SH -2 div rmoveto show } BD
/STL{ FC moveto 0 SH neg rmoveto show } BD
/STC{ FC moveto SW -2 div SH neg rmoveto show } BD
/STR{ FC moveto SW neg SH neg rmoveto show } BD
/FCT { FC translate 0 0 } BD
/SR  { gsave FCT moveto rotate show grestore } BD
/SRX  { gsave FCT moveto rotate xshow grestore } BD
/SBCR{ gsave FCT moveto rotate SW -2 div 0 rmoveto show grestore } BD
/SBRR{ gsave FCT moveto rotate SW neg 0 rmoveto show grestore } BD
/SCLR{ gsave FCT moveto rotate 0 SH -2 div rmoveto show grestore} BD
/SCCR{ gsave FCT moveto rotate SW -2 div SH -2 div rmoveto show grestore} BD
/SCRR{ gsave FCT moveto rotate SW neg SH -2 div rmoveto show grestore} BD
/STLR{ gsave FCT moveto rotate 0 SH neg rmoveto show grestore } BD
/STCR{ gsave FCT moveto rotate SW -2 div SH neg rmoveto show grestore } BD
/STRR{ gsave FCT moveto rotate SW neg SH neg rmoveto show grestore } BD
/P  { newpath 0.0 360.0 arc closepath fill } BD
/LS { newpath moveto } BD
/L  { lineto } BD
/LE { lineto stroke } BD
/T  { newpath moveto lineto lineto closepath fill } BD
/STshfill {
      /b1 exch def /g1 exch def /r1 exch def /y1 exch def /x1 exch def
      /b2 exch def /g2 exch def /r2 exch def /y2 exch def /x2 exch def
      /b3 exch def /g3 exch def /r3 exch def /y3 exch def /x3 exch def
      gsave << /ShadingType 4 /ColorSpace [/DeviceRGB]
      /DataSource [ 0 x1 y1 r1 g1 b1 0 x2 y2 r2 g2 b2 0 x3 y3 r3 g3 b3 ] >>
      shfill grestore } BD
/Tm { 3 -1 roll 8 -1 roll 13 -1 roll add add 3 div
      3 -1 roll 7 -1 roll 11 -1 roll add add 3 div
      3 -1 roll 6 -1 roll 9 -1 roll add add 3 div C T } BD
/STsplit {
      4 index 15 index add 0.5 mul
      4 index 15 index add 0.5 mul
      4 index 15 index add 0.5 mul
      4 index 15 index add 0.5 mul
      4 index 15 index add 0.5 mul
      5 copy 5 copy 25 15 roll
      9 index 30 index add 0.5 mul
      9 index 30 index add 0.5 mul
      9 index 30 index add 0.5 mul
      9 index 30 index add 0.5 mul
      9 index 30 index add 0.5 mul
      5 copy 5 copy 35 5 roll 25 5 roll 15 5 roll
      4 index 10 index add 0.5 mul
      4 index 10 index add 0.5 mul
      4 index 10 index add 0.5 mul
      4 index 10 index add 0.5 mul
      4 index 10 index add 0.5 mul
      5 copy 5 copy 40 5 roll 25 5 roll 15 5 roll 25 5 roll
      STnoshfill STnoshfill STnoshfill STnoshfill } BD
/STnoshfill {
      2 index 8 index sub abs rThreshold gt
      { STsplit }
      { 1 index 7 index sub abs gThreshold gt
        { STsplit }
        { dup 6 index sub abs bThreshold gt
          { STsplit }
          { 2 index 13 index sub abs rThreshold gt
            { STsplit }
            { 1 index 12 index sub abs gThreshold gt
              { STsplit }
              { dup 11 index sub abs bThreshold gt
                { STsplit }
                { 7 index 13 index sub abs rThreshold gt
                  { STsplit }
                  { 6 index 12 index sub abs gThreshold gt
                    { STsplit }
                    { 5 index 11 index sub abs bThreshold gt
                      { STsplit }
                      { Tm }
                      ifelse }
                    ifelse }
                  ifelse }
                ifelse }
              ifelse }
            ifelse }
          ifelse }
        ifelse }
      ifelse } BD
tryPS3shading
{ /shfill where
  { /ST { STshfill } BD }
  { /ST { STnoshfill } BD }
  ifelse }
{ /ST { STnoshfill } BD }
ifelse
end
%%EndProlog
%%BeginSetup
/DeviceRGB setcolorspace
gl2psdict begin
%%EndSetup
%%Page: 1 1
%%BeginPageSetup
%%EndPageSetup
mark
gsave
1.0 1.0 scale
1 1 1 C
newpath 0 0 moveto 360 0 lineto 360 252 lineto 0 252 lineto
closepath fill
gsave
1.0 1.0 scale
1 1 1 C
newpath 0 0 moveto 360 0 lineto 360 252 lineto 0 252 lineto
closepath fill
newpath 0 0 moveto 360 0 lineto 360 252 lineto 0 252 lineto
closepath clip
1 1 1 C
46.8 233.1 325.8 27.72 46.8 27.72 T
46.8 233.1 325.8 233.1 325.8 27.72 T
0.5 W
0.15 0.15 0.15 C
46.8 27.72 LS
46.8 30.5152 LE
46.8 233.1 LS
46.8 230.305 LE
116.203 27.72 LS
116.203 30.5152 LE
116.203 233.1 LS
116.203 230.305 LE
185.606 27.72 LS
185.606 30.5152 LE
185.606 233.1 LS
185.606 230.305 LE
255.009 27.72 LS
255.009 30.5152 LE
255.009 233.1 LS
255.009 230.305 LE
324.412 27.72 LS
324.412 30.5152 LE
324.412 233.1 LS
324.412 230.305 LE
gsave
0.14902 0.14902 0.14902 C
(0) [10] 0 43.8 12.2061 10 /Helvetica SRX
grestore

gsave
0.14902 0.14902 0.14902 C
(50) [6 10] 0 110.203 12.2061 10 /Helvetica SRX
grestore

gsave
0.14902 0.14902 0.14902 C
(100) [6 6 10] 0 176.606 12.2061 10 /Helvetica SRX
grestore

gsave
0.14902 0.14902 0.14902 C
(150) [6 6 10] 0 246.009 12.2061 10 /Helvetica SRX
grestore

gsave
0.14902 0.14902 0.14902 C
(200) [6 6 10] 0 315.412 12.2061 10 /Helvetica SRX
grestore

46.8 233.1 LS
49.59 233.1 LE
325.8 233.1 LS
323.01 233.1 LE
46.8 182.01 LS
49.59 182.01 LE
325.8 182.01 LS
323.01 182.01 LE
46.8 130.921 LS
49.59 130.921 LE
325.8 130.921 LS
323.01 130.921 LE
46.8 79.8313 LS
49.59 79.8313 LE
325.8 79.8313 LS
323.01 79.8313 LE
46.8 28.7418 LS
49.59 28.7418 LE
325.8 28.7418 LS
323.01 28.7418 LE
gsave
0.14902 0.14902 0.14902 C
(0) [10] 0 35.8 229.1 10 /Helvetica SRX
grestore

gsave
0.14902 0.14902 0.14902 C
(50) [6 10] 0 29.8 178.01 10 /Helvetica SRX
grestore

gsave
0.14902 0.14902 0.14902 C
(100) [6 6 10] 0 23.8 126.921 10 /Helvetica SRX
grestore

gsave
0.14902 0.14902 0.14902 C
(150) [6 6 10] 0 23.8 75.8313 10 /Helvetica SRX
grestore

gsave
0.14902 0.14902 0.14902 C
(200) [6 6 10] 0 23.8 24.7418 10 /Helvetica SRX
grestore

2 LC
[16 0] 0 setdash
46.8 27.72 LS
325.8 27.72 LE
46.8 233.1 LS
325.8 233.1 LE
46.8 27.72 LS
46.8 233.1 LE
325.8 27.72 LS
325.8 233.1 LE
[] 0 setdash
0 0.447 0.741 C
45.1881 232.078 LS
51.1881 232.078 LE
48.1881 235.078 LS
48.1881 229.078 LE
46.0667 234.2 LS
50.3094 229.957 LE
46.0667 229.957 LS
50.3094 234.2 LE
46.5761 231.056 LS
52.5761 231.056 LE
49.5761 234.056 LS
49.5761 228.056 LE
47.4548 233.178 LS
51.6974 228.935 LE
47.4548 228.935 LS
51.6974 233.178 LE
47.9642 232.078 LS
53.9642 232.078 LE
50.9642 235.078 LS
50.9642 229.078 LE
48.8429 234.2 LS
53.0855 229.957 LE
48.8429 229.957 LS
53.0855 234.2 LE
47.9642 231.056 LS
53.9642 231.056 LE
50.9642 234.056 LS
50.9642 228.056 LE
48.8429 233.178 LS
53.0855 228.935 LE
48.8429 228.935 LS
53.0855 233.178 LE
47.9642 230.035 LS
53.9642 230.035 LE
50.9642 233.035 LS
50.9642 227.035 LE
48.8429 232.156 LS
53.0855 227.913 LE
48.8429 227.913 LS
53.0855 232.156 LE
49.3522 229.013 LS
55.3522 229.013 LE
52.3522 232.013 LS
52.3522 226.013 LE
50.2309 231.134 LS
54.4736 226.892 LE
50.2309 226.892 LS
54.4736 231.134 LE
50.7403 227.991 LS
56.7403 227.991 LE
53.7403 230.991 LS
53.7403 224.991 LE
51.619 230.112 LS
55.8616 225.87 LE
51.619 225.87 LS
55.8616 230.112 LE
52.1284 229.013 LS
58.1284 229.013 LE
55.1284 232.013 LS
55.1284 226.013 LE
53.007 231.134 LS
57.2497 226.892 LE
53.007 226.892 LS
57.2497 231.134 LE
52.1284 227.991 LS
58.1284 227.991 LE
55.1284 230.991 LS
55.1284 224.991 LE
53.007 230.112 LS
57.2497 225.87 LE
53.007 225.87 LS
57.2497 230.112 LE
52.1284 226.969 LS
58.1284 226.969 LE
55.1284 229.969 LS
55.1284 223.969 LE
53.007 229.091 LS
57.2497 224.848 LE
53.007 224.848 LS
57.2497 229.091 LE
53.5164 230.035 LS
59.5164 230.035 LE
56.5164 233.035 LS
56.5164 227.035 LE
54.3951 232.156 LS
58.6377 227.913 LE
54.3951 227.913 LS
58.6377 232.156 LE
53.5164 226.969 LS
59.5164 226.969 LE
56.5164 229.969 LS
56.5164 223.969 LE
54.3951 229.091 LS
58.6377 224.848 LE
54.3951 224.848 LS
58.6377 229.091 LE
53.5164 225.947 LS
59.5164 225.947 LE
56.5164 228.947 LS
56.5164 222.947 LE
54.3951 228.069 LS
58.6377 223.826 LE
54.3951 223.826 LS
58.6377 228.069 LE
54.9045 224.926 LS
60.9045 224.926 LE
57.9045 227.926 LS
57.9045 221.926 LE
55.7832 227.047 LS
60.0258 222.804 LE
55.7832 222.804 LS
60.0258 227.047 LE
56.2925 223.904 LS
62.2925 223.904 LE
59.2925 226.904 LS
59.2925 220.904 LE
57.1712 226.025 LS
61.4139 221.783 LE
57.1712 221.783 LS
61.4139 226.025 LE
57.6806 224.926 LS
63.6806 224.926 LE
60.6806 227.926 LS
60.6806 221.926 LE
58.5593 227.047 LS
62.8019 222.804 LE
58.5593 222.804 LS
62.8019 227.047 LE
57.6806 223.904 LS
63.6806 223.904 LE
60.6806 226.904 LS
60.6806 220.904 LE
58.5593 226.025 LS
62.8019 221.783 LE
58.5593 221.783 LS
62.8019 226.025 LE
57.6806 222.882 LS
63.6806 222.882 LE
60.6806 225.882 LS
60.6806 219.882 LE
58.5593 225.003 LS
62.8019 220.761 LE
58.5593 220.761 LS
62.8019 225.003 LE
59.0687 221.86 LS
65.0686 221.86 LE
62.0687 224.86 LS
62.0687 218.86 LE
59.9473 223.982 LS
64.19 219.739 LE
59.9473 219.739 LS
64.19 223.982 LE
60.4567 220.839 LS
66.4567 220.839 LE
63.4567 223.839 LS
63.4567 217.839 LE
61.3354 222.96 LS
65.578 218.717 LE
61.3354 218.717 LS
65.578 222.96 LE
61.8448 221.86 LS
67.8448 221.86 LE
64.8448 224.86 LS
64.8448 218.86 LE
62.7235 223.982 LS
66.9661 219.739 LE
62.7235 219.739 LS
66.9661 223.982 LE
61.8448 220.839 LS
67.8448 220.839 LE
64.8448 223.839 LS
64.8448 217.839 LE
62.7235 222.96 LS
66.9661 218.717 LE
62.7235 218.717 LS
66.9661 222.96 LE
61.8448 219.817 LS
67.8448 219.817 LE
64.8448 222.817 LS
64.8448 216.817 LE
62.7235 221.938 LS
66.9661 217.695 LE
62.7235 217.695 LS
66.9661 221.938 LE
63.2328 222.882 LS
69.2328 222.882 LE
66.2328 225.882 LS
66.2328 219.882 LE
64.1115 225.003 LS
68.3542 220.761 LE
64.1115 220.761 LS
68.3542 225.003 LE
63.2328 219.817 LS
69.2328 219.817 LE
66.2328 222.817 LS
66.2328 216.817 LE
64.1115 221.938 LS
68.3542 217.695 LE
64.1115 217.695 LS
68.3542 221.938 LE
63.2328 218.795 LS
69.2328 218.795 LE
66.2328 221.795 LS
66.2328 215.795 LE
64.1115 220.916 LS
68.3542 216.674 LE
64.1115 216.674 LS
68.3542 220.916 LE
64.6209 225.947 LS
70.6209 225.947 LE
67.6209 228.947 LS
67.6209 222.947 LE
65.4996 228.069 LS
69.7422 223.826 LE
65.4996 223.826 LS
69.7422 228.069 LE
64.6209 218.795 LS
70.6209 218.795 LE
67.6209 221.795 LS
67.6209 215.795 LE
65.4996 220.916 LS
69.7422 216.674 LE
65.4996 216.674 LS
69.7422 220.916 LE
64.6209 217.773 LS
70.6209 217.773 LE
67.6209 220.773 LS
67.6209 214.773 LE
65.4996 219.894 LS
69.7422 215.652 LE
65.4996 215.652 LS
69.7422 219.894 LE
66.009 216.751 LS
72.009 216.751 LE
69.009 219.751 LS
69.009 213.751 LE
66.8876 218.873 LS
71.1303 214.63 LE
66.8876 214.63 LS
71.1303 218.873 LE
67.397 215.73 LS
73.397 215.73 LE
70.397 218.73 LS
70.397 212.73 LE
68.2757 217.851 LS
72.5183 213.608 LE
68.2757 213.608 LS
72.5183 217.851 LE
68.7851 216.751 LS
74.7851 216.751 LE
71.7851 219.751 LS
71.7851 213.751 LE
69.6638 218.873 LS
73.9064 214.63 LE
69.6638 214.63 LS
73.9064 218.873 LE
68.7851 215.73 LS
74.7851 215.73 LE
71.7851 218.73 LS
71.7851 212.73 LE
69.6638 217.851 LS
73.9064 213.608 LE
69.6638 213.608 LS
73.9064 217.851 LE
68.7851 214.708 LS
74.7851 214.708 LE
71.7851 217.708 LS
71.7851 211.708 LE
69.6638 216.829 LS
73.9064 212.586 LE
69.6638 212.586 LS
73.9064 216.829 LE
70.1731 213.686 LS
76.1731 213.686 LE
73.1731 216.686 LS
73.1731 210.686 LE
71.0518 215.807 LS
75.2944 211.565 LE
71.0518 211.565 LS
75.2944 215.807 LE
71.5612 212.664 LS
77.5612 212.664 LE
74.5612 215.664 LS
74.5612 209.664 LE
72.4399 214.785 LS
76.6825 210.543 LE
72.4399 210.543 LS
76.6825 214.785 LE
72.9493 213.686 LS
78.9493 213.686 LE
75.9493 216.686 LS
75.9493 210.686 LE
73.8279 215.807 LS
78.0706 211.565 LE
73.8279 211.565 LS
78.0706 215.807 LE
72.9493 212.664 LS
78.9493 212.664 LE
75.9493 215.664 LS
75.9493 209.664 LE
73.8279 214.785 LS
78.0706 210.543 LE
73.8279 210.543 LS
78.0706 214.785 LE
72.9493 211.642 LS
78.9493 211.642 LE
75.9493 214.642 LS
75.9493 208.642 LE
73.8279 213.764 LS
78.0706 209.521 LE
73.8279 209.521 LS
78.0706 213.764 LE
74.3373 214.708 LS
80.3373 214.708 LE
77.3373 217.708 LS
77.3373 211.708 LE
75.216 216.829 LS
79.4586 212.586 LE
75.216 212.586 LS
79.4586 216.829 LE
74.3373 211.642 LS
80.3373 211.642 LE
77.3373 214.642 LS
77.3373 208.642 LE
75.216 213.764 LS
79.4586 209.521 LE
75.216 209.521 LS
79.4586 213.764 LE
74.3373 210.621 LS
80.3373 210.621 LE
77.3373 213.621 LS
77.3373 207.621 LE
75.216 212.742 LS
79.4586 208.499 LE
75.216 208.499 LS
79.4586 212.742 LE
75.7254 209.599 LS
81.7254 209.599 LE
78.7254 212.599 LS
78.7254 206.599 LE
76.604 211.72 LS
80.8467 207.477 LE
76.604 207.477 LS
80.8467 211.72 LE
77.1134 208.577 LS
83.1134 208.577 LE
80.1134 211.577 LS
80.1134 205.577 LE
77.9921 210.698 LS
82.2348 206.456 LE
77.9921 206.456 LS
82.2348 210.698 LE
78.5015 209.599 LS
84.5015 209.599 LE
81.5015 212.599 LS
81.5015 206.599 LE
79.3802 211.72 LS
83.6228 207.477 LE
79.3802 207.477 LS
83.6228 211.72 LE
78.5015 208.577 LS
84.5015 208.577 LE
81.5015 211.577 LS
81.5015 205.577 LE
79.3802 210.698 LS
83.6228 206.456 LE
79.3802 206.456 LS
83.6228 210.698 LE
78.5015 207.555 LS
84.5015 207.555 LE
81.5015 210.555 LS
81.5015 204.555 LE
79.3802 209.677 LS
83.6228 205.434 LE
79.3802 205.434 LS
83.6228 209.677 LE
79.8895 206.533 LS
85.8895 206.533 LE
82.8895 209.533 LS
82.8895 203.533 LE
80.7682 208.655 LS
85.0109 204.412 LE
80.7682 204.412 LS
85.0109 208.655 LE
81.2776 205.512 LS
87.2776 205.512 LE
84.2776 208.512 LS
84.2776 202.512 LE
82.1563 207.633 LS
86.3989 203.39 LE
82.1563 203.39 LS
86.3989 207.633 LE
82.6657 206.533 LS
88.6657 206.533 LE
85.6657 209.533 LS
85.6657 203.533 LE
83.5444 208.655 LS
87.787 204.412 LE
83.5444 204.412 LS
87.787 208.655 LE
82.6657 205.512 LS
88.6657 205.512 LE
85.6657 208.512 LS
85.6657 202.512 LE
83.5444 207.633 LS
87.787 203.39 LE
83.5444 203.39 LS
87.787 207.633 LE
82.6657 204.49 LS
88.6657 204.49 LE
85.6657 207.49 LS
85.6657 201.49 LE
83.5444 206.611 LS
87.787 202.369 LE
83.5444 202.369 LS
87.787 206.611 LE
84.0537 207.555 LS
90.0537 207.555 LE
87.0537 210.555 LS
87.0537 204.555 LE
84.9324 209.677 LS
89.175 205.434 LE
84.9324 205.434 LS
89.175 209.677 LE
84.0537 204.49 LS
90.0537 204.49 LE
87.0537 207.49 LS
87.0537 201.49 LE
84.9324 206.611 LS
89.175 202.369 LE
84.9324 202.369 LS
89.175 206.611 LE
84.0537 203.468 LS
90.0537 203.468 LE
87.0537 206.468 LS
87.0537 200.468 LE
84.9324 205.589 LS
89.175 201.347 LE
84.9324 201.347 LS
89.175 205.589 LE
85.4418 210.621 LS
91.4418 210.621 LE
88.4418 213.621 LS
88.4418 207.621 LE
86.3205 212.742 LS
90.5631 208.499 LE
86.3205 208.499 LS
90.5631 212.742 LE
85.4418 203.468 LS
91.4418 203.468 LE
88.4418 206.468 LS
88.4418 200.468 LE
86.3205 205.589 LS
90.5631 201.347 LE
86.3205 201.347 LS
90.5631 205.589 LE
85.4418 202.446 LS
91.4418 202.446 LE
88.4418 205.446 LS
88.4418 199.446 LE
86.3205 204.568 LS
90.5631 200.325 LE
86.3205 200.325 LS
90.5631 204.568 LE
86.8299 217.773 LS
92.8299 217.773 LE
89.8298 220.773 LS
89.8298 214.773 LE
87.7085 219.894 LS
91.9512 215.652 LE
87.7085 215.652 LS
91.9512 219.894 LE
86.8299 202.446 LS
92.8299 202.446 LE
89.8298 205.446 LS
89.8298 199.446 LE
87.7085 204.568 LS
91.9512 200.325 LE
87.7085 200.325 LS
91.9512 204.568 LE
86.8299 201.424 LS
92.8299 201.424 LE
89.8298 204.424 LS
89.8298 198.424 LE
87.7085 203.546 LS
91.9512 199.303 LE
87.7085 199.303 LS
91.9512 203.546 LE
88.2179 200.403 LS
94.2179 200.403 LE
91.2179 203.403 LS
91.2179 197.403 LE
89.0966 202.524 LS
93.3392 198.281 LE
89.0966 198.281 LS
93.3392 202.524 LE
89.606 199.381 LS
95.606 199.381 LE
92.606 202.381 LS
92.606 196.381 LE
90.4846 201.502 LS
94.7273 197.26 LE
90.4846 197.26 LS
94.7273 201.502 LE
90.994 200.403 LS
96.994 200.403 LE
93.994 203.403 LS
93.994 197.403 LE
91.8727 202.524 LS
96.1153 198.281 LE
91.8727 198.281 LS
96.1153 202.524 LE
90.994 199.381 LS
96.994 199.381 LE
93.994 202.381 LS
93.994 196.381 LE
91.8727 201.502 LS
96.1153 197.26 LE
91.8727 197.26 LS
96.1153 201.502 LE
90.994 198.359 LS
96.994 198.359 LE
93.994 201.359 LS
93.994 195.359 LE
91.8727 200.48 LS
96.1153 196.238 LE
91.8727 196.238 LS
96.1153 200.48 LE
92.3821 197.337 LS
98.3821 197.337 LE
95.3821 200.337 LS
95.3821 194.337 LE
93.2608 199.459 LS
97.5034 195.216 LE
93.2608 195.216 LS
97.5034 199.459 LE
93.7701 196.316 LS
99.7702 196.316 LE
96.7702 199.316 LS
96.7702 193.316 LE
94.6488 198.437 LS
98.8915 194.194 LE
94.6488 194.194 LS
98.8915 198.437 LE
95.1582 197.337 LS
101.158 197.337 LE
98.1582 200.337 LS
98.1582 194.337 LE
96.0369 199.459 LS
100.28 195.216 LE
96.0369 195.216 LS
100.28 199.459 LE
95.1582 196.316 LS
101.158 196.316 LE
98.1582 199.316 LS
98.1582 193.316 LE
96.0369 198.437 LS
100.28 194.194 LE
96.0369 194.194 LS
100.28 198.437 LE
95.1582 195.294 LS
101.158 195.294 LE
98.1582 198.294 LS
98.1582 192.294 LE
96.0369 197.415 LS
100.28 193.172 LE
96.0369 193.172 LS
100.28 197.415 LE
96.5463 198.359 LS
102.546 198.359 LE
99.5463 201.359 LS
99.5463 195.359 LE
97.4249 200.48 LS
101.668 196.238 LE
97.4249 196.238 LS
101.668 200.48 LE
96.5463 195.294 LS
102.546 195.294 LE
99.5463 198.294 LS
99.5463 192.294 LE
97.4249 197.415 LS
101.668 193.172 LE
97.4249 193.172 LS
101.668 197.415 LE
96.5463 194.272 LS
102.546 194.272 LE
99.5463 197.272 LS
99.5463 191.272 LE
97.4249 196.393 LS
101.668 192.151 LE
97.4249 192.151 LS
101.668 196.393 LE
97.9343 193.25 LS
103.934 193.25 LE
100.934 196.25 LS
100.934 190.25 LE
98.813 195.371 LS
103.056 191.129 LE
98.813 191.129 LS
103.056 195.371 LE
99.3224 192.228 LS
105.322 192.228 LE
102.322 195.228 LS
102.322 189.228 LE
100.201 194.35 LS
104.444 190.107 LE
100.201 190.107 LS
104.444 194.35 LE
100.71 193.25 LS
106.71 193.25 LE
103.71 196.25 LS
103.71 190.25 LE
101.589 195.371 LS
105.832 191.129 LE
101.589 191.129 LS
105.832 195.371 LE
100.71 192.228 LS
106.71 192.228 LE
103.71 195.228 LS
103.71 189.228 LE
101.589 194.35 LS
105.832 190.107 LE
101.589 190.107 LS
105.832 194.35 LE
100.71 191.207 LS
106.71 191.207 LE
103.71 194.207 LS
103.71 188.207 LE
101.589 193.328 LS
105.832 189.085 LE
101.589 189.085 LS
105.832 193.328 LE
102.099 190.185 LS
108.099 190.185 LE
105.099 193.185 LS
105.099 187.185 LE
102.977 192.306 LS
107.22 188.063 LE
102.977 188.063 LS
107.22 192.306 LE
103.487 189.163 LS
109.487 189.163 LE
106.487 192.163 LS
106.487 186.163 LE
104.365 191.284 LS
108.608 187.042 LE
104.365 187.042 LS
108.608 191.284 LE
104.875 190.185 LS
110.875 190.185 LE
107.875 193.185 LS
107.875 187.185 LE
105.753 192.306 LS
109.996 188.063 LE
105.753 188.063 LS
109.996 192.306 LE
104.875 189.163 LS
110.875 189.163 LE
107.875 192.163 LS
107.875 186.163 LE
105.753 191.284 LS
109.996 187.042 LE
105.753 187.042 LS
109.996 191.284 LE
104.875 188.141 LS
110.875 188.141 LE
107.875 191.141 LS
107.875 185.141 LE
105.753 190.263 LS
109.996 186.02 LE
105.753 186.02 LS
109.996 190.263 LE
106.263 191.207 LS
112.263 191.207 LE
109.263 194.207 LS
109.263 188.207 LE
107.141 193.328 LS
111.384 189.085 LE
107.141 189.085 LS
111.384 193.328 LE
106.263 188.141 LS
112.263 188.141 LE
109.263 191.141 LS
109.263 185.141 LE
107.141 190.263 LS
111.384 186.02 LE
107.141 186.02 LS
111.384 190.263 LE
106.263 187.119 LS
112.263 187.119 LE
109.263 190.119 LS
109.263 184.119 LE
107.141 189.241 LS
111.384 184.998 LE
107.141 184.998 LS
111.384 189.241 LE
107.651 194.272 LS
113.651 194.272 LE
110.651 197.272 LS
110.651 191.272 LE
108.529 196.393 LS
112.772 192.151 LE
108.529 192.151 LS
112.772 196.393 LE
107.651 187.119 LS
113.651 187.119 LE
110.651 190.119 LS
110.651 184.119 LE
108.529 189.241 LS
112.772 184.998 LE
108.529 184.998 LS
112.772 189.241 LE
107.651 186.098 LS
113.651 186.098 LE
110.651 189.098 LS
110.651 183.098 LE
108.529 188.219 LS
112.772 183.976 LE
108.529 183.976 LS
112.772 188.219 LE
109.039 185.076 LS
115.039 185.076 LE
112.039 188.076 LS
112.039 182.076 LE
109.917 187.197 LS
114.16 182.954 LE
109.917 182.954 LS
114.16 187.197 LE
110.427 184.054 LS
116.427 184.054 LE
113.427 187.054 LS
113.427 181.054 LE
111.306 186.175 LS
115.548 181.933 LE
111.306 181.933 LS
115.548 186.175 LE
111.815 185.076 LS
117.815 185.076 LE
114.815 188.076 LS
114.815 182.076 LE
112.694 187.197 LS
116.936 182.954 LE
112.694 182.954 LS
116.936 187.197 LE
111.815 184.054 LS
117.815 184.054 LE
114.815 187.054 LS
114.815 181.054 LE
112.694 186.175 LS
116.936 181.933 LE
112.694 181.933 LS
116.936 186.175 LE
111.815 183.032 LS
117.815 183.032 LE
114.815 186.032 LS
114.815 180.032 LE
112.694 185.154 LS
116.936 180.911 LE
112.694 180.911 LS
116.936 185.154 LE
113.203 182.01 LS
119.203 182.01 LE
116.203 185.01 LS
116.203 179.01 LE
114.082 184.132 LS
118.324 179.889 LE
114.082 179.889 LS
118.324 184.132 LE
114.591 180.989 LS
120.591 180.989 LE
117.591 183.989 LS
117.591 177.989 LE
115.47 183.11 LS
119.712 178.867 LE
115.47 178.867 LS
119.712 183.11 LE
115.979 182.01 LS
121.979 182.01 LE
118.979 185.01 LS
118.979 179.01 LE
116.858 184.132 LS
121.1 179.889 LE
116.858 179.889 LS
121.1 184.132 LE
115.979 180.989 LS
121.979 180.989 LE
118.979 183.989 LS
118.979 177.989 LE
116.858 183.11 LS
121.1 178.867 LE
116.858 178.867 LS
121.1 183.11 LE
115.979 179.967 LS
121.979 179.967 LE
118.979 182.967 LS
118.979 176.967 LE
116.858 182.088 LS
121.1 177.846 LE
116.858 177.846 LS
121.1 182.088 LE
117.367 183.032 LS
123.367 183.032 LE
120.367 186.032 LS
120.367 180.032 LE
118.246 185.154 LS
122.488 180.911 LE
118.246 180.911 LS
122.488 185.154 LE
117.367 179.967 LS
123.367 179.967 LE
120.367 182.967 LS
120.367 176.967 LE
118.246 182.088 LS
122.488 177.846 LE
118.246 177.846 LS
122.488 182.088 LE
117.367 178.945 LS
123.367 178.945 LE
120.367 181.945 LS
120.367 175.945 LE
118.246 181.066 LS
122.488 176.824 LE
118.246 176.824 LS
122.488 181.066 LE
118.755 177.923 LS
124.755 177.923 LE
121.755 180.923 LS
121.755 174.923 LE
119.634 180.045 LS
123.877 175.802 LE
119.634 175.802 LS
123.877 180.045 LE
120.143 176.901 LS
126.143 176.901 LE
123.143 179.901 LS
123.143 173.901 LE
121.022 179.023 LS
125.265 174.78 LE
121.022 174.78 LS
125.265 179.023 LE
121.531 177.923 LS
127.531 177.923 LE
124.531 180.923 LS
124.531 174.923 LE
122.41 180.045 LS
126.653 175.802 LE
122.41 175.802 LS
126.653 180.045 LE
121.531 176.901 LS
127.531 176.901 LE
124.531 179.901 LS
124.531 173.901 LE
122.41 179.023 LS
126.653 174.78 LE
122.41 174.78 LS
126.653 179.023 LE
121.531 175.88 LS
127.531 175.88 LE
124.531 178.88 LS
124.531 172.88 LE
122.41 178.001 LS
126.653 173.758 LE
122.41 173.758 LS
126.653 178.001 LE
122.919 174.858 LS
128.919 174.858 LE
125.919 177.858 LS
125.919 171.858 LE
123.798 176.979 LS
128.041 172.737 LE
123.798 172.737 LS
128.041 176.979 LE
124.307 173.836 LS
130.307 173.836 LE
127.307 176.836 LS
127.307 170.836 LE
125.186 175.957 LS
129.429 171.715 LE
125.186 171.715 LS
129.429 175.957 LE
125.696 174.858 LS
131.696 174.858 LE
128.696 177.858 LS
128.696 171.858 LE
126.574 176.979 LS
130.817 172.737 LE
126.574 172.737 LS
130.817 176.979 LE
125.696 173.836 LS
131.696 173.836 LE
128.696 176.836 LS
128.696 170.836 LE
126.574 175.957 LS
130.817 171.715 LE
126.574 171.715 LS
130.817 175.957 LE
125.696 172.814 LS
131.696 172.814 LE
128.696 175.814 LS
128.696 169.814 LE
126.574 174.936 LS
130.817 170.693 LE
126.574 170.693 LS
130.817 174.936 LE
127.084 175.88 LS
133.084 175.88 LE
130.084 178.88 LS
130.084 172.88 LE
127.962 178.001 LS
132.205 173.758 LE
127.962 173.758 LS
132.205 178.001 LE
127.084 172.814 LS
133.084 172.814 LE
130.084 175.814 LS
130.084 169.814 LE
127.962 174.936 LS
132.205 170.693 LE
127.962 170.693 LS
132.205 174.936 LE
127.084 171.793 LS
133.084 171.793 LE
130.084 174.793 LS
130.084 168.793 LE
127.962 173.914 LS
132.205 169.671 LE
127.962 169.671 LS
132.205 173.914 LE
128.472 178.945 LS
134.472 178.945 LE
131.472 181.945 LS
131.472 175.945 LE
129.35 181.066 LS
133.593 176.824 LE
129.35 176.824 LS
133.593 181.066 LE
128.472 171.793 LS
134.472 171.793 LE
131.472 174.793 LS
131.472 168.793 LE
129.35 173.914 LS
133.593 169.671 LE
129.35 169.671 LS
133.593 173.914 LE
128.472 170.771 LS
134.472 170.771 LE
131.472 173.771 LS
131.472 167.771 LE
129.35 172.892 LS
133.593 168.649 LE
129.35 168.649 LS
133.593 172.892 LE
129.86 186.098 LS
135.86 186.098 LE
132.86 189.098 LS
132.86 183.098 LE
130.738 188.219 LS
134.981 183.976 LE
130.738 183.976 LS
134.981 188.219 LE
129.86 170.771 LS
135.86 170.771 LE
132.86 173.771 LS
132.86 167.771 LE
130.738 172.892 LS
134.981 168.649 LE
130.738 168.649 LS
134.981 172.892 LE
129.86 169.749 LS
135.86 169.749 LE
132.86 172.749 LS
132.86 166.749 LE
130.738 171.87 LS
134.981 167.628 LE
130.738 167.628 LS
134.981 171.87 LE
131.248 201.424 LS
137.248 201.424 LE
134.248 204.424 LS
134.248 198.424 LE
132.126 203.546 LS
136.369 199.303 LE
132.126 199.303 LS
136.369 203.546 LE
131.248 169.749 LS
137.248 169.749 LE
134.248 172.749 LS
134.248 166.749 LE
132.126 171.87 LS
136.369 167.628 LE
132.126 167.628 LS
136.369 171.87 LE
131.248 168.727 LS
137.248 168.727 LE
134.248 171.727 LS
134.248 165.727 LE
132.126 170.848 LS
136.369 166.606 LE
132.126 166.606 LS
136.369 170.848 LE
132.636 167.705 LS
138.636 167.705 LE
135.636 170.705 LS
135.636 164.705 LE
133.514 169.827 LS
137.757 165.584 LE
133.514 165.584 LS
137.757 169.827 LE
134.024 166.684 LS
140.024 166.684 LE
137.024 169.684 LS
137.024 163.684 LE
134.903 168.805 LS
139.145 164.562 LE
134.903 164.562 LS
139.145 168.805 LE
135.412 167.705 LS
141.412 167.705 LE
138.412 170.705 LS
138.412 164.705 LE
136.291 169.827 LS
140.533 165.584 LE
136.291 165.584 LS
140.533 169.827 LE
135.412 166.684 LS
141.412 166.684 LE
138.412 169.684 LS
138.412 163.684 LE
136.291 168.805 LS
140.533 164.562 LE
136.291 164.562 LS
140.533 168.805 LE
135.412 165.662 LS
141.412 165.662 LE
138.412 168.662 LS
138.412 162.662 LE
136.291 167.783 LS
140.533 163.54 LE
136.291 163.54 LS
140.533 167.783 LE
136.8 164.64 LS
142.8 164.64 LE
139.8 167.64 LS
139.8 161.64 LE
137.679 166.761 LS
141.921 162.519 LE
137.679 162.519 LS
141.921 166.761 LE
138.188 163.618 LS
144.188 163.618 LE
141.188 166.618 LS
141.188 160.618 LE
139.067 165.74 LS
143.309 161.497 LE
139.067 161.497 LS
143.309 165.74 LE
139.576 164.64 LS
145.576 164.64 LE
142.576 167.64 LS
142.576 161.64 LE
140.455 166.761 LS
144.697 162.519 LE
140.455 162.519 LS
144.697 166.761 LE
139.576 163.618 LS
145.576 163.618 LE
142.576 166.618 LS
142.576 160.618 LE
140.455 165.74 LS
144.697 161.497 LE
140.455 161.497 LS
144.697 165.74 LE
139.576 162.596 LS
145.576 162.596 LE
142.576 165.596 LS
142.576 159.596 LE
140.455 164.718 LS
144.697 160.475 LE
140.455 160.475 LS
144.697 164.718 LE
140.964 165.662 LS
146.964 165.662 LE
143.964 168.662 LS
143.964 162.662 LE
141.843 167.783 LS
146.085 163.54 LE
141.843 163.54 LS
146.085 167.783 LE
140.964 162.596 LS
146.964 162.596 LE
143.964 165.596 LS
143.964 159.596 LE
141.843 164.718 LS
146.085 160.475 LE
141.843 160.475 LS
146.085 164.718 LE
140.964 161.575 LS
146.964 161.575 LE
143.964 164.575 LS
143.964 158.575 LE
141.843 163.696 LS
146.085 159.453 LE
141.843 159.453 LS
146.085 163.696 LE
142.352 160.553 LS
148.352 160.553 LE
145.352 163.553 LS
145.352 157.553 LE
143.231 162.674 LS
147.474 158.432 LE
143.231 158.432 LS
147.474 162.674 LE
143.74 159.531 LS
149.74 159.531 LE
146.74 162.531 LS
146.74 156.531 LE
144.619 161.652 LS
148.862 157.41 LE
144.619 157.41 LS
148.862 161.652 LE
145.128 160.553 LS
151.128 160.553 LE
148.128 163.553 LS
148.128 157.553 LE
146.007 162.674 LS
150.25 158.432 LE
146.007 158.432 LS
150.25 162.674 LE
145.128 159.531 LS
151.128 159.531 LE
148.128 162.531 LS
148.128 156.531 LE
146.007 161.652 LS
150.25 157.41 LE
146.007 157.41 LS
150.25 161.652 LE
145.128 158.509 LS
151.128 158.509 LE
148.128 161.509 LS
148.128 155.509 LE
146.007 160.631 LS
150.25 156.388 LE
146.007 156.388 LS
150.25 160.631 LE
146.516 157.487 LS
152.516 157.487 LE
149.516 160.487 LS
149.516 154.487 LE
147.395 159.609 LS
151.638 155.366 LE
147.395 155.366 LS
151.638 159.609 LE
147.904 156.466 LS
153.904 156.466 LE
150.904 159.466 LS
150.904 153.466 LE
148.783 158.587 LS
153.026 154.344 LE
148.783 154.344 LS
153.026 158.587 LE
149.293 157.487 LS
155.293 157.487 LE
152.293 160.487 LS
152.293 154.487 LE
150.171 159.609 LS
154.414 155.366 LE
150.171 155.366 LS
154.414 159.609 LE
149.293 156.466 LS
155.293 156.466 LE
152.293 159.466 LS
152.293 153.466 LE
150.171 158.587 LS
154.414 154.344 LE
150.171 154.344 LS
154.414 158.587 LE
149.293 155.444 LS
155.293 155.444 LE
152.293 158.444 LS
152.293 152.444 LE
150.171 157.565 LS
154.414 153.323 LE
150.171 153.323 LS
154.414 157.565 LE
150.681 158.509 LS
156.681 158.509 LE
153.681 161.509 LS
153.681 155.509 LE
151.559 160.631 LS
155.802 156.388 LE
151.559 156.388 LS
155.802 160.631 LE
150.681 155.444 LS
156.681 155.444 LE
153.681 158.444 LS
153.681 152.444 LE
151.559 157.565 LS
155.802 153.323 LE
151.559 153.323 LS
155.802 157.565 LE
150.681 154.422 LS
156.681 154.422 LE
153.681 157.422 LS
153.681 151.422 LE
151.559 156.543 LS
155.802 152.301 LE
151.559 152.301 LS
155.802 156.543 LE
152.069 161.575 LS
158.069 161.575 LE
155.069 164.575 LS
155.069 158.575 LE
152.947 163.696 LS
157.19 159.453 LE
152.947 159.453 LS
157.19 163.696 LE
152.069 154.422 LS
158.069 154.422 LE
155.069 157.422 LS
155.069 151.422 LE
152.947 156.543 LS
157.19 152.301 LE
152.947 152.301 LS
157.19 156.543 LE
152.069 153.4 LS
158.069 153.4 LE
155.069 156.4 LS
155.069 150.4 LE
152.947 155.522 LS
157.19 151.279 LE
152.947 151.279 LS
157.19 155.522 LE
153.457 152.379 LS
159.457 152.379 LE
156.457 155.379 LS
156.457 149.379 LE
154.335 154.5 LS
158.578 150.257 LE
154.335 150.257 LS
158.578 154.5 LE
154.845 151.357 LS
160.845 151.357 LE
157.845 154.357 LS
157.845 148.357 LE
155.723 153.478 LS
159.966 149.235 LE
155.723 149.235 LS
159.966 153.478 LE
156.233 152.379 LS
162.233 152.379 LE
159.233 155.379 LS
159.233 149.379 LE
157.112 154.5 LS
161.354 150.257 LE
157.112 150.257 LS
161.354 154.5 LE
156.233 151.357 LS
162.233 151.357 LE
159.233 154.357 LS
159.233 148.357 LE
157.112 153.478 LS
161.354 149.235 LE
157.112 149.235 LS
161.354 153.478 LE
156.233 150.335 LS
162.233 150.335 LE
159.233 153.335 LS
159.233 147.335 LE
157.112 152.456 LS
161.354 148.214 LE
157.112 148.214 LS
161.354 152.456 LE
157.621 149.313 LS
163.621 149.313 LE
160.621 152.313 LS
160.621 146.313 LE
158.5 151.434 LS
162.742 147.192 LE
158.5 147.192 LS
162.742 151.434 LE
159.009 148.291 LS
165.009 148.291 LE
162.009 151.291 LS
162.009 145.291 LE
159.888 150.413 LS
164.13 146.17 LE
159.888 146.17 LS
164.13 150.413 LE
160.397 149.313 LS
166.397 149.313 LE
163.397 152.313 LS
163.397 146.313 LE
161.276 151.434 LS
165.518 147.192 LE
161.276 147.192 LS
165.518 151.434 LE
160.397 148.291 LS
166.397 148.291 LE
163.397 151.291 LS
163.397 145.291 LE
161.276 150.413 LS
165.518 146.17 LE
161.276 146.17 LS
165.518 150.413 LE
160.397 147.27 LS
166.397 147.27 LE
163.397 150.27 LS
163.397 144.27 LE
161.276 149.391 LS
165.518 145.148 LE
161.276 145.148 LS
165.518 149.391 LE
161.785 150.335 LS
167.785 150.335 LE
164.785 153.335 LS
164.785 147.335 LE
162.664 152.456 LS
166.906 148.214 LE
162.664 148.214 LS
166.906 152.456 LE
161.785 147.27 LS
167.785 147.27 LE
164.785 150.27 LS
164.785 144.27 LE
162.664 149.391 LS
166.906 145.148 LE
162.664 145.148 LS
166.906 149.391 LE
161.785 146.248 LS
167.785 146.248 LE
164.785 149.248 LS
164.785 143.248 LE
162.664 148.369 LS
166.906 144.126 LE
162.664 144.126 LS
166.906 148.369 LE
163.173 145.226 LS
169.173 145.226 LE
166.173 148.226 LS
166.173 142.226 LE
164.052 147.347 LS
168.294 143.105 LE
164.052 143.105 LS
168.294 147.347 LE
164.561 144.204 LS
170.561 144.204 LE
167.561 147.204 LS
167.561 141.204 LE
165.44 146.325 LS
169.683 142.083 LE
165.44 142.083 LS
169.683 146.325 LE
165.949 145.226 LS
171.949 145.226 LE
168.949 148.226 LS
168.949 142.226 LE
166.828 147.347 LS
171.071 143.105 LE
166.828 143.105 LS
171.071 147.347 LE
165.949 144.204 LS
171.949 144.204 LE
168.949 147.204 LS
168.949 141.204 LE
166.828 146.325 LS
171.071 142.083 LE
166.828 142.083 LS
171.071 146.325 LE
165.949 143.182 LS
171.949 143.182 LE
168.949 146.182 LS
168.949 140.182 LE
166.828 145.304 LS
171.071 141.061 LE
166.828 141.061 LS
171.071 145.304 LE
167.337 142.161 LS
173.337 142.161 LE
170.337 145.161 LS
170.337 139.161 LE
168.216 144.282 LS
172.459 140.039 LE
168.216 140.039 LS
172.459 144.282 LE
168.725 141.139 LS
174.725 141.139 LE
171.725 144.139 LS
171.725 138.139 LE
169.604 143.26 LS
173.847 139.017 LE
169.604 139.017 LS
173.847 143.26 LE
170.113 142.161 LS
176.113 142.161 LE
173.113 145.161 LS
173.113 139.161 LE
170.992 144.282 LS
175.235 140.039 LE
170.992 140.039 LS
175.235 144.282 LE
170.113 141.139 LS
176.113 141.139 LE
173.113 144.139 LS
173.113 138.139 LE
170.992 143.26 LS
175.235 139.017 LE
170.992 139.017 LS
175.235 143.26 LE
170.113 140.117 LS
176.113 140.117 LE
173.113 143.117 LS
173.113 137.117 LE
170.992 142.238 LS
175.235 137.996 LE
170.992 137.996 LS
175.235 142.238 LE
171.502 143.182 LS
177.502 143.182 LE
174.502 146.182 LS
174.502 140.182 LE
172.38 145.304 LS
176.623 141.061 LE
172.38 141.061 LS
176.623 145.304 LE
171.502 140.117 LS
177.502 140.117 LE
174.502 143.117 LS
174.502 137.117 LE
172.38 142.238 LS
176.623 137.996 LE
172.38 137.996 LS
176.623 142.238 LE
171.502 139.095 LS
177.502 139.095 LE
174.502 142.095 LS
174.502 136.095 LE
172.38 141.217 LS
176.623 136.974 LE
172.38 136.974 LS
176.623 141.217 LE
172.89 146.248 LS
178.89 146.248 LE
175.89 149.248 LS
175.89 143.248 LE
173.768 148.369 LS
178.011 144.126 LE
173.768 144.126 LS
178.011 148.369 LE
172.89 139.095 LS
178.89 139.095 LE
175.89 142.095 LS
175.89 136.095 LE
173.768 141.217 LS
178.011 136.974 LE
173.768 136.974 LS
178.011 141.217 LE
172.89 138.073 LS
178.89 138.073 LE
175.89 141.073 LS
175.89 135.073 LE
173.768 140.195 LS
178.011 135.952 LE
173.768 135.952 LS
178.011 140.195 LE
174.278 153.4 LS
180.278 153.4 LE
177.278 156.4 LS
177.278 150.4 LE
175.156 155.522 LS
179.399 151.279 LE
175.156 151.279 LS
179.399 155.522 LE
174.278 138.073 LS
180.278 138.073 LE
177.278 141.073 LS
177.278 135.073 LE
175.156 140.195 LS
179.399 135.952 LE
175.156 135.952 LS
179.399 140.195 LE
174.278 137.052 LS
180.278 137.052 LE
177.278 140.052 LS
177.278 134.052 LE
175.156 139.173 LS
179.399 134.93 LE
175.156 134.93 LS
179.399 139.173 LE
175.666 136.03 LS
181.666 136.03 LE
178.666 139.03 LS
178.666 133.03 LE
176.544 138.151 LS
180.787 133.909 LE
176.544 133.909 LS
180.787 138.151 LE
177.054 135.008 LS
183.054 135.008 LE
180.054 138.008 LS
180.054 132.008 LE
177.932 137.129 LS
182.175 132.887 LE
177.932 132.887 LS
182.175 137.129 LE
178.442 136.03 LS
184.442 136.03 LE
181.442 139.03 LS
181.442 133.03 LE
179.32 138.151 LS
183.563 133.909 LE
179.32 133.909 LS
183.563 138.151 LE
178.442 135.008 LS
184.442 135.008 LE
181.442 138.008 LS
181.442 132.008 LE
179.32 137.129 LS
183.563 132.887 LE
179.32 132.887 LS
183.563 137.129 LE
178.442 133.986 LS
184.442 133.986 LE
181.442 136.986 LS
181.442 130.986 LE
179.32 136.108 LS
183.563 131.865 LE
179.32 131.865 LS
183.563 136.108 LE
179.83 132.964 LS
185.83 132.964 LE
182.83 135.964 LS
182.83 129.964 LE
180.709 135.086 LS
184.951 130.843 LE
180.709 130.843 LS
184.951 135.086 LE
181.218 131.943 LS
187.218 131.943 LE
184.218 134.943 LS
184.218 128.943 LE
182.097 134.064 LS
186.339 129.821 LE
182.097 129.821 LS
186.339 134.064 LE
182.606 132.964 LS
188.606 132.964 LE
185.606 135.964 LS
185.606 129.964 LE
183.485 135.086 LS
187.727 130.843 LE
183.485 130.843 LS
187.727 135.086 LE
182.606 131.943 LS
188.606 131.943 LE
185.606 134.943 LS
185.606 128.943 LE
183.485 134.064 LS
187.727 129.821 LE
183.485 129.821 LS
187.727 134.064 LE
182.606 130.921 LS
188.606 130.921 LE
185.606 133.921 LS
185.606 127.921 LE
183.485 133.042 LS
187.727 128.8 LE
183.485 128.8 LS
187.727 133.042 LE
183.994 133.986 LS
189.994 133.986 LE
186.994 136.986 LS
186.994 130.986 LE
184.873 136.108 LS
189.115 131.865 LE
184.873 131.865 LS
189.115 136.108 LE
183.994 130.921 LS
189.994 130.921 LE
186.994 133.921 LS
186.994 127.921 LE
184.873 133.042 LS
189.115 128.8 LE
184.873 128.8 LS
189.115 133.042 LE
183.994 129.899 LS
189.994 129.899 LE
186.994 132.899 LS
186.994 126.899 LE
184.873 132.02 LS
189.115 127.778 LE
184.873 127.778 LS
189.115 132.02 LE
185.382 128.877 LS
191.382 128.877 LE
188.382 131.877 LS
188.382 125.877 LE
186.261 130.999 LS
190.503 126.756 LE
186.261 126.756 LS
190.503 130.999 LE
186.77 127.856 LS
192.77 127.856 LE
189.77 130.856 LS
189.77 124.856 LE
187.649 129.977 LS
191.891 125.734 LE
187.649 125.734 LS
191.891 129.977 LE
188.158 128.877 LS
194.158 128.877 LE
191.158 131.877 LS
191.158 125.877 LE
189.037 130.999 LS
193.28 126.756 LE
189.037 126.756 LS
193.28 130.999 LE
188.158 127.856 LS
194.158 127.856 LE
191.158 130.856 LS
191.158 124.856 LE
189.037 129.977 LS
193.28 125.734 LE
189.037 125.734 LS
193.28 129.977 LE
188.158 126.834 LS
194.158 126.834 LE
191.158 129.834 LS
191.158 123.834 LE
189.037 128.955 LS
193.28 124.712 LE
189.037 124.712 LS
193.28 128.955 LE
189.546 125.812 LS
195.546 125.812 LE
192.546 128.812 LS
192.546 122.812 LE
190.425 127.933 LS
194.668 123.691 LE
190.425 123.691 LS
194.668 127.933 LE
190.934 124.79 LS
196.934 124.79 LE
193.934 127.79 LS
193.934 121.79 LE
191.813 126.911 LS
196.056 122.669 LE
191.813 122.669 LS
196.056 126.911 LE
192.322 125.812 LS
198.322 125.812 LE
195.322 128.812 LS
195.322 122.812 LE
193.201 127.933 LS
197.444 123.691 LE
193.201 123.691 LS
197.444 127.933 LE
192.322 124.79 LS
198.322 124.79 LE
195.322 127.79 LS
195.322 121.79 LE
193.201 126.911 LS
197.444 122.669 LE
193.201 122.669 LS
197.444 126.911 LE
192.322 123.768 LS
198.322 123.768 LE
195.322 126.768 LS
195.322 120.768 LE
193.201 125.89 LS
197.444 121.647 LE
193.201 121.647 LS
197.444 125.89 LE
193.71 126.834 LS
199.71 126.834 LE
196.71 129.834 LS
196.71 123.834 LE
194.589 128.955 LS
198.832 124.712 LE
194.589 124.712 LS
198.832 128.955 LE
193.71 123.768 LS
199.71 123.768 LE
196.71 126.768 LS
196.71 120.768 LE
194.589 125.89 LS
198.832 121.647 LE
194.589 121.647 LS
198.832 125.89 LE
193.71 122.747 LS
199.71 122.747 LE
196.71 125.747 LS
196.71 119.747 LE
194.589 124.868 LS
198.832 120.625 LE
194.589 120.625 LS
198.832 124.868 LE
195.099 129.899 LS
201.099 129.899 LE
198.099 132.899 LS
198.099 126.899 LE
195.977 132.02 LS
200.22 127.778 LE
195.977 127.778 LS
200.22 132.02 LE
195.099 122.747 LS
201.099 122.747 LE
198.099 125.747 LS
198.099 119.747 LE
195.977 124.868 LS
200.22 120.625 LE
195.977 120.625 LS
200.22 124.868 LE
195.099 121.725 LS
201.099 121.725 LE
198.099 124.725 LS
198.099 118.725 LE
195.977 123.846 LS
200.22 119.603 LE
195.977 119.603 LS
200.22 123.846 LE
196.487 120.703 LS
202.487 120.703 LE
199.487 123.703 LS
199.487 117.703 LE
197.365 122.824 LS
201.608 118.582 LE
197.365 118.582 LS
201.608 122.824 LE
197.875 119.681 LS
203.875 119.681 LE
200.875 122.681 LS
200.875 116.681 LE
198.753 121.803 LS
202.996 117.56 LE
198.753 117.56 LS
202.996 121.803 LE
199.263 120.703 LS
205.263 120.703 LE
202.263 123.703 LS
202.263 117.703 LE
200.141 122.824 LS
204.384 118.582 LE
200.141 118.582 LS
204.384 122.824 LE
199.263 119.681 LS
205.263 119.681 LE
202.263 122.681 LS
202.263 116.681 LE
200.141 121.803 LS
204.384 117.56 LE
200.141 117.56 LS
204.384 121.803 LE
199.263 118.659 LS
205.263 118.659 LE
202.263 121.659 LS
202.263 115.659 LE
200.141 120.781 LS
204.384 116.538 LE
200.141 116.538 LS
204.384 120.781 LE
200.651 117.638 LS
206.651 117.638 LE
203.651 120.638 LS
203.651 114.638 LE
201.529 119.759 LS
205.772 115.516 LE
201.529 115.516 LS
205.772 119.759 LE
202.039 116.616 LS
208.039 116.616 LE
205.039 119.616 LS
205.039 113.616 LE
202.917 118.737 LS
207.16 114.494 LE
202.917 114.494 LS
207.16 118.737 LE
203.427 117.638 LS
209.427 117.638 LE
206.427 120.638 LS
206.427 114.638 LE
204.306 119.759 LS
208.548 115.516 LE
204.306 115.516 LS
208.548 119.759 LE
203.427 116.616 LS
209.427 116.616 LE
206.427 119.616 LS
206.427 113.616 LE
204.306 118.737 LS
208.548 114.494 LE
204.306 114.494 LS
208.548 118.737 LE
203.427 115.594 LS
209.427 115.594 LE
206.427 118.594 LS
206.427 112.594 LE
204.306 117.715 LS
208.548 113.473 LE
204.306 113.473 LS
208.548 117.715 LE
204.815 118.659 LS
210.815 118.659 LE
207.815 121.659 LS
207.815 115.659 LE
205.694 120.781 LS
209.936 116.538 LE
205.694 116.538 LS
209.936 120.781 LE
204.815 115.594 LS
210.815 115.594 LE
207.815 118.594 LS
207.815 112.594 LE
205.694 117.715 LS
209.936 113.473 LE
205.694 113.473 LS
209.936 117.715 LE
204.815 114.572 LS
210.815 114.572 LE
207.815 117.572 LS
207.815 111.572 LE
205.694 116.694 LS
209.936 112.451 LE
205.694 112.451 LS
209.936 116.694 LE
206.203 113.55 LS
212.203 113.55 LE
209.203 116.55 LS
209.203 110.55 LE
207.082 115.672 LS
211.324 111.429 LE
207.082 111.429 LS
211.324 115.672 LE
207.591 112.529 LS
213.591 112.529 LE
210.591 115.529 LS
210.591 109.529 LE
208.47 114.65 LS
212.712 110.407 LE
208.47 110.407 LS
212.712 114.65 LE
208.979 113.55 LS
214.979 113.55 LE
211.979 116.55 LS
211.979 110.55 LE
209.858 115.672 LS
214.1 111.429 LE
209.858 111.429 LS
214.1 115.672 LE
208.979 112.529 LS
214.979 112.529 LE
211.979 115.529 LS
211.979 109.529 LE
209.858 114.65 LS
214.1 110.407 LE
209.858 110.407 LS
214.1 114.65 LE
208.979 111.507 LS
214.979 111.507 LE
211.979 114.507 LS
211.979 108.507 LE
209.858 113.628 LS
214.1 109.386 LE
209.858 109.386 LS
214.1 113.628 LE
210.367 110.485 LS
216.367 110.485 LE
213.367 113.485 LS
213.367 107.485 LE
211.246 112.606 LS
215.488 108.364 LE
211.246 108.364 LS
215.488 112.606 LE
211.755 109.463 LS
217.755 109.463 LE
214.755 112.463 LS
214.755 106.463 LE
212.634 111.585 LS
216.877 107.342 LE
212.634 107.342 LS
216.877 111.585 LE
213.143 110.485 LS
219.143 110.485 LE
216.143 113.485 LS
216.143 107.485 LE
214.022 112.606 LS
218.265 108.364 LE
214.022 108.364 LS
218.265 112.606 LE
213.143 109.463 LS
219.143 109.463 LE
216.143 112.463 LS
216.143 106.463 LE
214.022 111.585 LS
218.265 107.342 LE
214.022 107.342 LS
218.265 111.585 LE
213.143 108.441 LS
219.143 108.441 LE
216.143 111.441 LS
216.143 105.441 LE
214.022 110.563 LS
218.265 106.32 LE
214.022 106.32 LS
218.265 110.563 LE
214.531 111.507 LS
220.531 111.507 LE
217.531 114.507 LS
217.531 108.507 LE
215.41 113.628 LS
219.653 109.386 LE
215.41 109.386 LS
219.653 113.628 LE
214.531 108.441 LS
220.531 108.441 LE
217.531 111.441 LS
217.531 105.441 LE
215.41 110.563 LS
219.653 106.32 LE
215.41 106.32 LS
219.653 110.563 LE
214.531 107.42 LS
220.531 107.42 LE
217.531 110.42 LS
217.531 104.42 LE
215.41 109.541 LS
219.653 105.298 LE
215.41 105.298 LS
219.653 109.541 LE
215.919 114.572 LS
221.919 114.572 LE
218.919 117.572 LS
218.919 111.572 LE
216.798 116.694 LS
221.041 112.451 LE
216.798 112.451 LS
221.041 116.694 LE
215.919 107.42 LS
221.919 107.42 LE
218.919 110.42 LS
218.919 104.42 LE
216.798 109.541 LS
221.041 105.298 LE
216.798 105.298 LS
221.041 109.541 LE
215.919 106.398 LS
221.919 106.398 LE
218.919 109.398 LS
218.919 103.398 LE
216.798 108.519 LS
221.041 104.277 LE
216.798 104.277 LS
221.041 108.519 LE
217.307 121.725 LS
223.307 121.725 LE
220.307 124.725 LS
220.307 118.725 LE
218.186 123.846 LS
222.429 119.603 LE
218.186 119.603 LS
222.429 123.846 LE
217.307 106.398 LS
223.307 106.398 LE
220.307 109.398 LS
220.307 103.398 LE
218.186 108.519 LS
222.429 104.277 LE
218.186 104.277 LS
222.429 108.519 LE
217.307 105.376 LS
223.307 105.376 LE
220.307 108.376 LS
220.307 102.376 LE
218.186 107.497 LS
222.429 103.255 LE
218.186 103.255 LS
222.429 107.497 LE
218.696 137.052 LS
224.696 137.052 LE
221.696 140.052 LS
221.696 134.052 LE
219.574 139.173 LS
223.817 134.93 LE
219.574 134.93 LS
223.817 139.173 LE
218.696 105.376 LS
224.696 105.376 LE
221.696 108.376 LS
221.696 102.376 LE
219.574 107.497 LS
223.817 103.255 LE
219.574 103.255 LS
223.817 107.497 LE
218.696 104.354 LS
224.696 104.354 LE
221.696 107.354 LS
221.696 101.354 LE
219.574 106.476 LS
223.817 102.233 LE
219.574 102.233 LS
223.817 106.476 LE
220.084 168.727 LS
226.084 168.727 LE
223.084 171.727 LS
223.084 165.727 LE
220.962 170.848 LS
225.205 166.606 LE
220.962 166.606 LS
225.205 170.848 LE
220.084 104.354 LS
226.084 104.354 LE
223.084 107.354 LS
223.084 101.354 LE
220.962 106.476 LS
225.205 102.233 LE
220.962 102.233 LS
225.205 106.476 LE
220.084 103.333 LS
226.084 103.333 LE
223.084 106.333 LS
223.084 100.333 LE
220.962 105.454 LS
225.205 101.211 LE
220.962 101.211 LS
225.205 105.454 LE
221.472 102.311 LS
227.472 102.311 LE
224.472 105.311 LS
224.472 99.3107 LE
222.35 104.432 LS
226.593 100.189 LE
222.35 100.189 LS
226.593 104.432 LE
222.86 101.289 LS
228.86 101.289 LE
225.86 104.289 LS
225.86 98.289 LE
223.738 103.41 LS
227.981 99.1676 LE
223.738 99.1676 LS
227.981 103.41 LE
224.248 102.311 LS
230.248 102.311 LE
227.248 105.311 LS
227.248 99.3107 LE
225.126 104.432 LS
229.369 100.189 LE
225.126 100.189 LS
229.369 104.432 LE
224.248 101.289 LS
230.248 101.289 LE
227.248 104.289 LS
227.248 98.289 LE
225.126 103.41 LS
229.369 99.1676 LE
225.126 99.1676 LS
229.369 103.41 LE
224.248 100.267 LS
230.248 100.267 LE
227.248 103.267 LS
227.248 97.2672 LE
225.126 102.388 LS
229.369 98.1458 LE
225.126 98.1458 LS
229.369 102.388 LE
225.636 99.2454 LS
231.636 99.2454 LE
228.636 102.245 LS
228.636 96.2454 LE
226.515 101.367 LS
230.757 97.1241 LE
226.515 97.1241 LS
230.757 101.367 LE
227.024 98.2236 LS
233.024 98.2236 LE
230.024 101.224 LS
230.024 95.2236 LE
227.903 100.345 LS
232.145 96.1023 LE
227.903 96.1023 LS
232.145 100.345 LE
228.412 99.2454 LS
234.412 99.2454 LE
231.412 102.245 LS
231.412 96.2454 LE
229.291 101.367 LS
233.533 97.1241 LE
229.291 97.1241 LS
233.533 101.367 LE
228.412 98.2236 LS
234.412 98.2236 LE
231.412 101.224 LS
231.412 95.2236 LE
229.291 100.345 LS
233.533 96.1023 LE
229.291 96.1023 LS
233.533 100.345 LE
228.412 97.2018 LS
234.412 97.2018 LE
231.412 100.202 LS
231.412 94.2018 LE
229.291 99.3231 LS
233.533 95.0805 LE
229.291 95.0805 LS
233.533 99.3231 LE
229.8 100.267 LS
235.8 100.267 LE
232.8 103.267 LS
232.8 97.2672 LE
230.679 102.388 LS
234.921 98.1458 LE
230.679 98.1458 LS
234.921 102.388 LE
229.8 97.2018 LS
235.8 97.2018 LE
232.8 100.202 LS
232.8 94.2018 LE
230.679 99.3231 LS
234.921 95.0805 LE
230.679 95.0805 LS
234.921 99.3231 LE
229.8 96.18 LS
235.8 96.18 LE
232.8 99.18 LS
232.8 93.18 LE
230.679 98.3013 LS
234.921 94.0587 LE
230.679 94.0587 LS
234.921 98.3013 LE
231.188 95.1582 LS
237.188 95.1582 LE
234.188 98.1582 LS
234.188 92.1582 LE
232.067 97.2795 LS
236.309 93.0369 LE
232.067 93.0369 LS
236.309 97.2795 LE
232.576 94.1364 LS
238.576 94.1364 LE
235.576 97.1364 LS
235.576 91.1364 LE
233.455 96.2577 LS
237.697 92.0151 LE
233.455 92.0151 LS
237.697 96.2577 LE
233.964 95.1582 LS
239.964 95.1582 LE
236.964 98.1582 LS
236.964 92.1582 LE
234.843 97.2795 LS
239.085 93.0369 LE
234.843 93.0369 LS
239.085 97.2795 LE
233.964 94.1364 LS
239.964 94.1364 LE
236.964 97.1364 LS
236.964 91.1364 LE
234.843 96.2577 LS
239.085 92.0151 LE
234.843 92.0151 LS
239.085 96.2577 LE
233.964 93.1146 LS
239.964 93.1146 LE
236.964 96.1146 LS
236.964 90.1146 LE
234.843 95.2359 LS
239.085 90.9933 LE
234.843 90.9933 LS
239.085 95.2359 LE
235.352 92.0928 LS
241.352 92.0928 LE
238.352 95.0928 LS
238.352 89.0928 LE
236.231 94.2141 LS
240.474 89.9715 LE
236.231 89.9715 LS
240.474 94.2141 LE
236.74 91.071 LS
242.74 91.071 LE
239.74 94.071 LS
239.74 88.071 LE
237.619 93.1924 LS
241.862 88.9497 LE
237.619 88.9497 LS
241.862 93.1924 LE
238.128 92.0928 LS
244.128 92.0928 LE
241.128 95.0928 LS
241.128 89.0928 LE
239.007 94.2141 LS
243.25 89.9715 LE
239.007 89.9715 LS
243.25 94.2141 LE
238.128 91.071 LS
244.128 91.071 LE
241.128 94.071 LS
241.128 88.071 LE
239.007 93.1924 LS
243.25 88.9497 LE
239.007 88.9497 LS
243.25 93.1924 LE
238.128 90.0492 LS
244.128 90.0492 LE
241.128 93.0492 LS
241.128 87.0492 LE
239.007 92.1706 LS
243.25 87.9279 LE
239.007 87.9279 LS
243.25 92.1706 LE
239.516 93.1146 LS
245.516 93.1146 LE
242.516 96.1146 LS
242.516 90.1146 LE
240.395 95.2359 LS
244.638 90.9933 LE
240.395 90.9933 LS
244.638 95.2359 LE
239.516 90.0492 LS
245.516 90.0492 LE
242.516 93.0492 LS
242.516 87.0492 LE
240.395 92.1706 LS
244.638 87.9279 LE
240.395 87.9279 LS
244.638 92.1706 LE
239.516 89.0275 LS
245.516 89.0275 LE
242.516 92.0275 LS
242.516 86.0275 LE
240.395 91.1488 LS
244.638 86.9061 LE
240.395 86.9061 LS
244.638 91.1488 LE
240.904 96.18 LS
246.904 96.18 LE
243.904 99.18 LS
243.904 93.18 LE
241.783 98.3013 LS
246.026 94.0587 LE
241.783 94.0587 LS
246.026 98.3013 LE
240.904 89.0275 LS
246.904 89.0275 LE
243.904 92.0275 LS
243.904 86.0275 LE
241.783 91.1488 LS
246.026 86.9061 LE
241.783 86.9061 LS
246.026 91.1488 LE
240.904 88.0057 LS
246.904 88.0057 LE
243.904 91.0057 LS
243.904 85.0057 LE
241.783 90.127 LS
246.026 85.8844 LE
241.783 85.8844 LS
246.026 90.127 LE
242.293 86.9839 LS
248.293 86.9839 LE
245.293 89.9839 LS
245.293 83.9839 LE
243.171 89.1052 LS
247.414 84.8626 LE
243.171 84.8626 LS
247.414 89.1052 LE
243.681 85.9621 LS
249.681 85.9621 LE
246.681 88.9621 LS
246.681 82.9621 LE
244.559 88.0834 LS
248.802 83.8408 LE
244.559 83.8408 LS
248.802 88.0834 LE
245.069 86.9839 LS
251.069 86.9839 LE
248.069 89.9839 LS
248.069 83.9839 LE
245.947 89.1052 LS
250.19 84.8626 LE
245.947 84.8626 LS
250.19 89.1052 LE
245.069 85.9621 LS
251.069 85.9621 LE
248.069 88.9621 LS
248.069 82.9621 LE
245.947 88.0834 LS
250.19 83.8408 LE
245.947 83.8408 LS
250.19 88.0834 LE
245.069 84.9403 LS
251.069 84.9403 LE
248.069 87.9403 LS
248.069 81.9403 LE
245.947 87.0616 LS
250.19 82.819 LE
245.947 82.819 LS
250.19 87.0616 LE
246.457 83.9185 LS
252.457 83.9185 LE
249.457 86.9185 LS
249.457 80.9185 LE
247.335 86.0398 LS
251.578 81.7972 LE
247.335 81.7972 LS
251.578 86.0398 LE
247.845 82.8967 LS
253.845 82.8967 LE
250.845 85.8967 LS
250.845 79.8967 LE
248.723 85.018 LS
252.966 80.7754 LE
248.723 80.7754 LS
252.966 85.018 LE
249.233 83.9185 LS
255.233 83.9185 LE
252.233 86.9185 LS
252.233 80.9185 LE
250.112 86.0398 LS
254.354 81.7972 LE
250.112 81.7972 LS
254.354 86.0398 LE
249.233 82.8967 LS
255.233 82.8967 LE
252.233 85.8967 LS
252.233 79.8967 LE
250.112 85.018 LS
254.354 80.7754 LE
250.112 80.7754 LS
254.354 85.018 LE
249.233 81.8749 LS
255.233 81.8749 LE
252.233 84.8749 LS
252.233 78.8749 LE
250.112 83.9962 LS
254.354 79.7536 LE
250.112 79.7536 LS
254.354 83.9962 LE
250.621 84.9403 LS
256.621 84.9403 LE
253.621 87.9403 LS
253.621 81.9403 LE
251.5 87.0616 LS
255.742 82.819 LE
251.5 82.819 LS
255.742 87.0616 LE
250.621 81.8749 LS
256.621 81.8749 LE
253.621 84.8749 LS
253.621 78.8749 LE
251.5 83.9962 LS
255.742 79.7536 LE
251.5 79.7536 LS
255.742 83.9962 LE
250.621 80.8531 LS
256.621 80.8531 LE
253.621 83.8531 LS
253.621 77.8531 LE
251.5 82.9744 LS
255.742 78.7318 LE
251.5 78.7318 LS
255.742 82.9744 LE
252.009 79.8313 LS
258.009 79.8313 LE
255.009 82.8313 LS
255.009 76.8313 LE
252.888 81.9527 LS
257.13 77.71 LE
252.888 77.71 LS
257.13 81.9527 LE
253.397 78.8095 LS
259.397 78.8095 LE
256.397 81.8095 LS
256.397 75.8095 LE
254.276 80.9309 LS
258.518 76.6882 LE
254.276 76.6882 LS
258.518 80.9309 LE
254.785 79.8313 LS
260.785 79.8313 LE
257.785 82.8313 LS
257.785 76.8313 LE
255.664 81.9527 LS
259.906 77.71 LE
255.664 77.71 LS
259.906 81.9527 LE
254.785 78.8095 LS
260.785 78.8095 LE
257.785 81.8095 LS
257.785 75.8095 LE
255.664 80.9309 LS
259.906 76.6882 LE
255.664 76.6882 LS
259.906 80.9309 LE
254.785 77.7878 LS
260.785 77.7878 LE
257.785 80.7878 LS
257.785 74.7878 LE
255.664 79.9091 LS
259.906 75.6664 LE
255.664 75.6664 LS
259.906 79.9091 LE
256.173 76.766 LS
262.173 76.766 LE
259.173 79.766 LS
259.173 73.766 LE
257.052 78.8873 LS
261.294 74.6446 LE
257.052 74.6446 LS
261.294 78.8873 LE
257.561 75.7442 LS
263.561 75.7442 LE
260.561 78.7442 LS
260.561 72.7442 LE
258.44 77.8655 LS
262.683 73.6229 LE
258.44 73.6229 LS
262.683 77.8655 LE
258.949 76.766 LS
264.949 76.766 LE
261.949 79.766 LS
261.949 73.766 LE
259.828 78.8873 LS
264.071 74.6446 LE
259.828 74.6446 LS
264.071 78.8873 LE
258.949 75.7442 LS
264.949 75.7442 LE
261.949 78.7442 LS
261.949 72.7442 LE
259.828 77.8655 LS
264.071 73.6229 LE
259.828 73.6229 LS
264.071 77.8655 LE
258.949 74.7224 LS
264.949 74.7224 LE
261.949 77.7224 LS
261.949 71.7224 LE
259.828 76.8437 LS
264.071 72.6011 LE
259.828 72.6011 LS
264.071 76.8437 LE
260.337 77.7878 LS
266.337 77.7878 LE
263.337 80.7878 LS
263.337 74.7878 LE
261.216 79.9091 LS
265.459 75.6664 LE
261.216 75.6664 LS
265.459 79.9091 LE
260.337 74.7224 LS
266.337 74.7224 LE
263.337 77.7224 LS
263.337 71.7224 LE
261.216 76.8437 LS
265.459 72.6011 LE
261.216 72.6011 LS
265.459 76.8437 LE
260.337 73.7006 LS
266.337 73.7006 LE
263.337 76.7006 LS
263.337 70.7006 LE
261.216 75.8219 LS
265.459 71.5793 LE
261.216 71.5793 LS
265.459 75.8219 LE
261.725 80.8531 LS
267.725 80.8531 LE
264.725 83.8531 LS
264.725 77.8531 LE
262.604 82.9744 LS
266.847 78.7318 LE
262.604 78.7318 LS
266.847 82.9744 LE
261.725 73.7006 LS
267.725 73.7006 LE
264.725 76.7006 LS
264.725 70.7006 LE
262.604 75.8219 LS
266.847 71.5793 LE
262.604 71.5793 LS
266.847 75.8219 LE
261.725 72.6788 LS
267.725 72.6788 LE
264.725 75.6788 LS
264.725 69.6788 LE
262.604 74.8001 LS
266.847 70.5575 LE
262.604 70.5575 LS
266.847 74.8001 LE
263.113 88.0057 LS
269.113 88.0057 LE
266.113 91.0057 LS
266.113 85.0057 LE
263.992 90.127 LS
268.235 85.8844 LE
263.992 85.8844 LS
268.235 90.127 LE
263.113 72.6788 LS
269.113 72.6788 LE
266.113 75.6788 LS
266.113 69.6788 LE
263.992 74.8001 LS
268.235 70.5575 LE
263.992 70.5575 LS
268.235 74.8001 LE
263.113 71.657 LS
269.113 71.657 LE
266.113 74.657 LS
266.113 68.657 LE
263.992 73.7783 LS
268.235 69.5357 LE
263.992 69.5357 LS
268.235 73.7783 LE
264.501 70.6352 LS
270.501 70.6352 LE
267.502 73.6352 LS
267.502 67.6352 LE
265.38 72.7565 LS
269.623 68.5139 LE
265.38 68.5139 LS
269.623 72.7565 LE
265.89 69.6134 LS
271.89 69.6134 LE
268.89 72.6134 LS
268.89 66.6134 LE
266.768 71.7347 LS
271.011 67.4921 LE
266.768 67.4921 LS
271.011 71.7347 LE
267.278 70.6352 LS
273.278 70.6352 LE
270.278 73.6352 LS
270.278 67.6352 LE
268.156 72.7565 LS
272.399 68.5139 LE
268.156 68.5139 LS
272.399 72.7565 LE
267.278 69.6134 LS
273.278 69.6134 LE
270.278 72.6134 LS
270.278 66.6134 LE
268.156 71.7347 LS
272.399 67.4921 LE
268.156 67.4921 LS
272.399 71.7347 LE
267.278 68.5916 LS
273.278 68.5916 LE
270.278 71.5916 LS
270.278 65.5916 LE
268.156 70.713 LS
272.399 66.4703 LE
268.156 66.4703 LS
272.399 70.713 LE
268.666 67.5698 LS
274.666 67.5698 LE
271.666 70.5698 LS
271.666 64.5698 LE
269.544 69.6912 LS
273.787 65.4485 LE
269.544 65.4485 LS
273.787 69.6912 LE
270.054 66.548 LS
276.054 66.548 LE
273.054 69.548 LS
273.054 63.5481 LE
270.932 68.6694 LS
275.175 64.4267 LE
270.932 64.4267 LS
275.175 68.6694 LE
271.442 67.5698 LS
277.442 67.5698 LE
274.442 70.5698 LS
274.442 64.5698 LE
272.32 69.6912 LS
276.563 65.4485 LE
272.32 65.4485 LS
276.563 69.6912 LE
271.442 66.548 LS
277.442 66.548 LE
274.442 69.548 LS
274.442 63.5481 LE
272.32 68.6694 LS
276.563 64.4267 LE
272.32 64.4267 LS
276.563 68.6694 LE
271.442 65.5263 LS
277.442 65.5263 LE
274.442 68.5263 LS
274.442 62.5263 LE
272.32 67.6476 LS
276.563 63.4049 LE
272.32 63.4049 LS
276.563 67.6476 LE
272.83 68.5916 LS
278.83 68.5916 LE
275.83 71.5916 LS
275.83 65.5916 LE
273.709 70.713 LS
277.951 66.4703 LE
273.709 66.4703 LS
277.951 70.713 LE
272.83 65.5263 LS
278.83 65.5263 LE
275.83 68.5263 LS
275.83 62.5263 LE
273.709 67.6476 LS
277.951 63.4049 LE
273.709 63.4049 LS
277.951 67.6476 LE
272.83 64.5045 LS
278.83 64.5045 LE
275.83 67.5045 LS
275.83 61.5045 LE
273.709 66.6258 LS
277.951 62.3831 LE
273.709 62.3831 LS
277.951 66.6258 LE
274.218 63.4827 LS
280.218 63.4827 LE
277.218 66.4827 LS
277.218 60.4827 LE
275.097 65.604 LS
279.339 61.3613 LE
275.097 61.3613 LS
279.339 65.604 LE
275.606 62.4609 LS
281.606 62.4609 LE
278.606 65.4609 LS
278.606 59.4609 LE
276.485 64.5822 LS
280.727 60.3396 LE
276.485 60.3396 LS
280.727 64.5822 LE
276.994 63.4827 LS
282.994 63.4827 LE
279.994 66.4827 LS
279.994 60.4827 LE
277.873 65.604 LS
282.115 61.3613 LE
277.873 61.3613 LS
282.115 65.604 LE
276.994 62.4609 LS
282.994 62.4609 LE
279.994 65.4609 LS
279.994 59.4609 LE
277.873 64.5822 LS
282.115 60.3396 LE
277.873 60.3396 LS
282.115 64.5822 LE
276.994 61.4391 LS
282.994 61.4391 LE
279.994 64.4391 LS
279.994 58.4391 LE
277.873 63.5604 LS
282.115 59.3178 LE
277.873 59.3178 LS
282.115 63.5604 LE
278.382 60.4173 LS
284.382 60.4173 LE
281.382 63.4173 LS
281.382 57.4173 LE
279.261 62.5386 LS
283.503 58.296 LE
279.261 58.296 LS
283.503 62.5386 LE
279.77 59.3955 LS
285.77 59.3955 LE
282.77 62.3955 LS
282.77 56.3955 LE
280.649 61.5168 LS
284.891 57.2742 LE
280.649 57.2742 LS
284.891 61.5168 LE
281.158 60.4173 LS
287.158 60.4173 LE
284.158 63.4173 LS
284.158 57.4173 LE
282.037 62.5386 LS
286.28 58.296 LE
282.037 58.296 LS
286.28 62.5386 LE
281.158 59.3955 LS
287.158 59.3955 LE
284.158 62.3955 LS
284.158 56.3955 LE
282.037 61.5168 LS
286.28 57.2742 LE
282.037 57.2742 LS
286.28 61.5168 LE
281.158 58.3737 LS
287.158 58.3737 LE
284.158 61.3737 LS
284.158 55.3737 LE
282.037 60.495 LS
286.28 56.2524 LE
282.037 56.2524 LS
286.28 60.495 LE
282.546 61.4391 LS
288.546 61.4391 LE
285.546 64.4391 LS
285.546 58.4391 LE
283.425 63.5604 LS
287.668 59.3178 LE
283.425 59.3178 LS
287.668 63.5604 LE
282.546 58.3737 LS
288.546 58.3737 LE
285.546 61.3737 LS
285.546 55.3737 LE
283.425 60.495 LS
287.668 56.2524 LE
283.425 56.2524 LS
287.668 60.495 LE
282.546 57.3519 LS
288.546 57.3519 LE
285.546 60.3519 LS
285.546 54.3519 LE
283.425 59.4733 LS
287.668 55.2306 LE
283.425 55.2306 LS
287.668 59.4733 LE
283.934 64.5045 LS
289.934 64.5045 LE
286.934 67.5045 LS
286.934 61.5045 LE
284.813 66.6258 LS
289.056 62.3831 LE
284.813 62.3831 LS
289.056 66.6258 LE
283.934 57.3519 LS
289.934 57.3519 LE
286.934 60.3519 LS
286.934 54.3519 LE
284.813 59.4733 LS
289.056 55.2306 LE
284.813 55.2306 LS
289.056 59.4733 LE
283.934 56.3301 LS
289.934 56.3301 LE
286.934 59.3301 LS
286.934 53.3301 LE
284.813 58.4515 LS
289.056 54.2088 LE
284.813 54.2088 LS
289.056 58.4515 LE
285.322 55.3084 LS
291.322 55.3084 LE
288.322 58.3084 LS
288.322 52.3083 LE
286.201 57.4297 LS
290.444 53.187 LE
286.201 53.187 LS
290.444 57.4297 LE
286.71 54.2865 LS
292.71 54.2865 LE
289.71 57.2866 LS
289.71 51.2865 LE
287.589 56.4079 LS
291.832 52.1652 LE
287.589 52.1652 LS
291.832 56.4079 LE
288.099 55.3084 LS
294.099 55.3084 LE
291.099 58.3084 LS
291.099 52.3083 LE
288.977 57.4297 LS
293.22 53.187 LE
288.977 53.187 LS
293.22 57.4297 LE
288.099 54.2865 LS
294.099 54.2865 LE
291.099 57.2866 LS
291.099 51.2865 LE
288.977 56.4079 LS
293.22 52.1652 LE
288.977 52.1652 LS
293.22 56.4079 LE
288.099 53.2648 LS
294.099 53.2648 LE
291.099 56.2648 LS
291.099 50.2648 LE
288.977 55.3861 LS
293.22 51.1434 LE
288.977 51.1434 LS
293.22 55.3861 LE
289.487 52.243 LS
295.487 52.243 LE
292.487 55.243 LS
292.487 49.243 LE
290.365 54.3643 LS
294.608 50.1216 LE
290.365 50.1216 LS
294.608 54.3643 LE
290.875 51.2212 LS
296.875 51.2212 LE
293.875 54.2212 LS
293.875 48.2212 LE
291.753 53.3425 LS
295.996 49.0999 LE
291.753 49.0999 LS
295.996 53.3425 LE
292.263 52.243 LS
298.263 52.243 LE
295.263 55.243 LS
295.263 49.243 LE
293.141 54.3643 LS
297.384 50.1216 LE
293.141 50.1216 LS
297.384 54.3643 LE
292.263 51.2212 LS
298.263 51.2212 LE
295.263 54.2212 LS
295.263 48.2212 LE
293.141 53.3425 LS
297.384 49.0999 LE
293.141 49.0999 LS
297.384 53.3425 LE
292.263 50.1994 LS
298.263 50.1994 LE
295.263 53.1994 LS
295.263 47.1994 LE
293.141 52.3207 LS
297.384 48.0781 LE
293.141 48.0781 LS
297.384 52.3207 LE
293.651 53.2648 LS
299.651 53.2648 LE
296.651 56.2648 LS
296.651 50.2648 LE
294.529 55.3861 LS
298.772 51.1434 LE
294.529 51.1434 LS
298.772 55.3861 LE
293.651 50.1994 LS
299.651 50.1994 LE
296.651 53.1994 LS
296.651 47.1994 LE
294.529 52.3207 LS
298.772 48.0781 LE
294.529 48.0781 LS
298.772 52.3207 LE
293.651 49.1776 LS
299.651 49.1776 LE
296.651 52.1776 LS
296.651 46.1776 LE
294.529 51.2989 LS
298.772 47.0563 LE
294.529 47.0563 LS
298.772 51.2989 LE
295.039 48.1558 LS
301.039 48.1558 LE
298.039 51.1558 LS
298.039 45.1558 LE
295.918 50.2771 LS
300.16 46.0345 LE
295.918 46.0345 LS
300.16 50.2771 LE
296.427 47.134 LS
302.427 47.134 LE
299.427 50.134 LS
299.427 44.134 LE
297.306 49.2553 LS
301.548 45.0127 LE
297.306 45.0127 LS
301.548 49.2553 LE
297.815 48.1558 LS
303.815 48.1558 LE
300.815 51.1558 LS
300.815 45.1558 LE
298.694 50.2771 LS
302.936 46.0345 LE
298.694 46.0345 LS
302.936 50.2771 LE
297.815 47.134 LS
303.815 47.134 LE
300.815 50.134 LS
300.815 44.134 LE
298.694 49.2553 LS
302.936 45.0127 LE
298.694 45.0127 LS
302.936 49.2553 LE
297.815 46.1122 LS
303.815 46.1122 LE
300.815 49.1122 LS
300.815 43.1122 LE
298.694 48.2336 LS
302.936 43.9909 LE
298.694 43.9909 LS
302.936 48.2336 LE
299.203 45.0904 LS
305.203 45.0904 LE
302.203 48.0905 LS
302.203 42.0904 LE
300.082 47.2118 LS
304.324 42.9691 LE
300.082 42.9691 LS
304.324 47.2118 LE
300.591 44.0686 LS
306.591 44.0686 LE
303.591 47.0686 LS
303.591 41.0686 LE
301.47 46.19 LS
305.712 41.9473 LE
301.47 41.9473 LS
305.712 46.19 LE
301.979 45.0904 LS
307.979 45.0904 LE
304.979 48.0905 LS
304.979 42.0904 LE
302.858 47.2118 LS
307.1 42.9691 LE
302.858 42.9691 LS
307.1 47.2118 LE
301.979 44.0686 LS
307.979 44.0686 LE
304.979 47.0686 LS
304.979 41.0686 LE
302.858 46.19 LS
307.1 41.9473 LE
302.858 41.9473 LS
307.1 46.19 LE
301.979 43.0468 LS
307.979 43.0468 LE
304.979 46.0469 LS
304.979 40.0468 LE
302.858 45.1682 LS
307.1 40.9255 LE
302.858 40.9255 LS
307.1 45.1682 LE
303.367 46.1122 LS
309.367 46.1122 LE
306.367 49.1122 LS
306.367 43.1122 LE
304.246 48.2336 LS
308.488 43.9909 LE
304.246 43.9909 LS
308.488 48.2336 LE
303.367 43.0468 LS
309.367 43.0468 LE
306.367 46.0469 LS
306.367 40.0468 LE
304.246 45.1682 LS
308.488 40.9255 LE
304.246 40.9255 LS
308.488 45.1682 LE
303.367 42.0251 LS
309.367 42.0251 LE
306.367 45.0251 LS
306.367 39.0251 LE
304.246 44.1464 LS
308.488 39.9037 LE
304.246 39.9037 LS
308.488 44.1464 LE
304.755 49.1776 LS
310.755 49.1776 LE
307.755 52.1776 LS
307.755 46.1776 LE
305.634 51.2989 LS
309.877 47.0563 LE
305.634 47.0563 LS
309.877 51.2989 LE
304.755 42.0251 LS
310.755 42.0251 LE
307.755 45.0251 LS
307.755 39.0251 LE
305.634 44.1464 LS
309.877 39.9037 LE
305.634 39.9037 LS
309.877 44.1464 LE
304.755 41.0033 LS
310.755 41.0033 LE
307.755 44.0033 LS
307.755 38.0033 LE
305.634 43.1246 LS
309.877 38.882 LE
305.634 38.882 LS
309.877 43.1246 LE
306.143 39.9815 LS
312.143 39.9815 LE
309.143 42.9815 LS
309.143 36.9815 LE
307.022 42.1028 LS
311.265 37.8602 LE
307.022 37.8602 LS
311.265 42.1028 LE
307.531 38.9597 LS
313.531 38.9597 LE
310.531 41.9597 LS
310.531 35.9597 LE
308.41 41.081 LS
312.653 36.8384 LE
308.41 36.8384 LS
312.653 41.081 LE
308.919 39.9815 LS
314.919 39.9815 LE
311.919 42.9815 LS
311.919 36.9815 LE
309.798 42.1028 LS
314.041 37.8602 LE
309.798 37.8602 LS
314.041 42.1028 LE
308.919 38.9597 LS
314.919 38.9597 LE
311.919 41.9597 LS
311.919 35.9597 LE
309.798 41.081 LS
314.041 36.8384 LE
309.798 36.8384 LS
314.041 41.081 LE
308.919 37.9379 LS
314.919 37.9379 LE
311.919 40.9379 LS
311.919 34.9379 LE
309.798 40.0592 LS
314.041 35.8166 LE
309.798 35.8166 LS
314.041 40.0592 LE
310.307 36.9161 LS
316.307 36.9161 LE
313.307 39.9161 LS
313.307 33.9161 LE
311.186 39.0374 LS
315.429 34.7948 LE
311.186 34.7948 LS
315.429 39.0374 LE
311.696 35.8943 LS
317.696 35.8943 LE
314.696 38.8943 LS
314.696 32.8943 LE
312.574 38.0156 LS
316.817 33.773 LE
312.574 33.773 LS
316.817 38.0156 LE
313.084 36.9161 LS
319.084 36.9161 LE
316.084 39.9161 LS
316.084 33.9161 LE
313.962 39.0374 LS
318.205 34.7948 LE
313.962 34.7948 LS
318.205 39.0374 LE
313.084 35.8943 LS
319.084 35.8943 LE
316.084 38.8943 LS
316.084 32.8943 LE
313.962 38.0156 LS
318.205 33.773 LE
313.962 33.773 LS
318.205 38.0156 LE
313.084 34.8725 LS
319.084 34.8725 LE
316.084 37.8725 LS
316.084 31.8725 LE
313.962 36.9938 LS
318.205 32.7512 LE
313.962 32.7512 LS
318.205 36.9938 LE
314.472 37.9379 LS
320.472 37.9379 LE
317.472 40.9379 LS
317.472 34.9379 LE
315.35 40.0592 LS
319.593 35.8166 LE
315.35 35.8166 LS
319.593 40.0592 LE
314.472 34.8725 LS
320.472 34.8725 LE
317.472 37.8725 LS
317.472 31.8725 LE
315.35 36.9938 LS
319.593 32.7512 LE
315.35 32.7512 LS
319.593 36.9938 LE
314.472 33.8507 LS
320.472 33.8507 LE
317.472 36.8507 LS
317.472 30.8507 LE
315.35 35.9721 LS
319.593 31.7294 LE
315.35 31.7294 LS
319.593 35.9721 LE
315.86 41.0033 LS
321.86 41.0033 LE
318.86 44.0033 LS
318.86 38.0033 LE
316.738 43.1246 LS
320.981 38.882 LE
316.738 38.882 LS
320.981 43.1246 LE
315.86 33.8507 LS
321.86 33.8507 LE
318.86 36.8507 LS
318.86 30.8507 LE
316.738 35.9721 LS
320.981 31.7294 LE
316.738 31.7294 LS
320.981 35.9721 LE
315.86 32.8289 LS
321.86 32.8289 LE
318.86 35.8289 LS
318.86 29.8289 LE
316.738 34.9503 LS
320.981 30.7076 LE
316.738 30.7076 LS
320.981 34.9503 LE
317.248 56.3301 LS
323.248 56.3301 LE
320.248 59.3301 LS
320.248 53.3301 LE
318.126 58.4515 LS
322.369 54.2088 LE
318.126 54.2088 LS
322.369 58.4515 LE
317.248 32.8289 LS
323.248 32.8289 LE
320.248 35.8289 LS
320.248 29.8289 LE
318.126 34.9503 LS
322.369 30.7076 LE
318.126 30.7076 LS
322.369 34.9503 LE
317.248 31.8072 LS
323.248 31.8072 LE
320.248 34.8072 LS
320.248 28.8071 LE
318.126 33.9285 LS
322.369 29.6858 LE
318.126 29.6858 LS
322.369 33.9285 LE
318.636 71.657 LS
324.636 71.657 LE
321.636 74.657 LS
321.636 68.657 LE
319.515 73.7783 LS
323.757 69.5357 LE
319.515 69.5357 LS
323.757 73.7783 LE
318.636 31.8072 LS
324.636 31.8072 LE
321.636 34.8072 LS
321.636 28.8071 LE
319.515 33.9285 LS
323.757 29.6858 LE
319.515 29.6858 LS
323.757 33.9285 LE
318.636 30.7854 LS
324.636 30.7854 LE
321.636 33.7854 LS
321.636 27.7854 LE
319.515 32.9067 LS
323.757 28.664 LE
319.515 28.664 LS
323.757 32.9067 LE
320.024 29.7636 LS
326.024 29.7636 LE
323.024 32.7636 LS
323.024 26.7636 LE
320.903 31.8849 LS
325.145 27.6423 LE
320.903 27.6423 LS
325.145 31.8849 LE
321.412 103.333 LS
327.412 103.333 LE
324.412 106.333 LS
324.412 100.333 LE
322.291 105.454 LS
326.533 101.211 LE
322.291 101.211 LS
326.533 105.454 LE
321.412 30.7854 LS
327.412 30.7854 LE
324.412 33.7854 LS
324.412 27.7854 LE
322.291 32.9067 LS
326.533 28.664 LE
322.291 28.664 LS
326.533 32.9067 LE
321.412 29.7636 LS
327.412 29.7636 LE
324.412 32.7636 LS
324.412 26.7636 LE
322.291 31.8849 LS
326.533 27.6423 LE
322.291 27.6423 LS
326.533 31.8849 LE
321.412 28.7418 LS
327.412 28.7418 LE
324.412 31.7418 LS
324.412 25.7418 LE
322.291 30.8631 LS
326.533 26.6205 LE
322.291 26.6205 LS
326.533 30.8631 LE
grestore
grestore
showpage
cleartomark
%%PageTrailer
%%Trailer
end
%%EOF
