%!PS-Adobe-3.0 EPSF-3.0
%%Title: gl2ps_renderer figure
%%Creator: GL2PS 1.4.0, (C) 1999-2017 C. Geuzaine
%%For: Octave
%%CreationDate: Sat Feb 23 18:52:08 2019
%%LanguageLevel: 3
%%DocumentData: Clean7Bit
%%Pages: 1
%%BoundingBox: 0 0 360 252
%%EndComments
%%BeginProlog
/gl2psdict 64 dict def gl2psdict begin
/tryPS3shading false def % set to false to force subdivision
/rThreshold 0.064 def % red component subdivision threshold
/gThreshold 0.034 def % green component subdivision threshold
/bThreshold 0.1 def % blue component subdivision threshold
/BD { bind def } bind def
/C  { setrgbcolor } BD
/G  { 0.082 mul exch 0.6094 mul add exch 0.3086 mul add neg 1.0 add setgray } BD
/W  { setlinewidth } BD
/LC  { setlinecap } BD
/LJ  { setlinejoin } BD
/FC { findfont exch /SH exch def SH scalefont setfont } BD
/SW { dup stringwidth pop } BD
/S  { FC moveto show } BD
/SBC{ FC moveto SW -2 div 0 rmoveto show } BD
/SBR{ FC moveto SW neg 0 rmoveto show } BD
/SCL{ FC moveto 0 SH -2 div rmoveto show } BD
/SCC{ FC moveto SW -2 div SH -2 div rmoveto show } BD
/SCR{ FC moveto SW neg SH -2 div rmoveto show } BD
/STL{ FC moveto 0 SH neg rmoveto show } BD
/STC{ FC moveto SW -2 div SH neg rmoveto show } BD
/STR{ FC moveto SW neg SH neg rmoveto show } BD
/FCT { FC translate 0 0 } BD
/SR  { gsave FCT moveto rotate show grestore } BD
/SRX  { gsave FCT moveto rotate xshow grestore } BD
/SBCR{ gsave FCT moveto rotate SW -2 div 0 rmoveto show grestore } BD
/SBRR{ gsave FCT moveto rotate SW neg 0 rmoveto show grestore } BD
/SCLR{ gsave FCT moveto rotate 0 SH -2 div rmoveto show grestore} BD
/SCCR{ gsave FCT moveto rotate SW -2 div SH -2 div rmoveto show grestore} BD
/SCRR{ gsave FCT moveto rotate SW neg SH -2 div rmoveto show grestore} BD
/STLR{ gsave FCT moveto rotate 0 SH neg rmoveto show grestore } BD
/STCR{ gsave FCT moveto rotate SW -2 div SH neg rmoveto show grestore } BD
/STRR{ gsave FCT moveto rotate SW neg SH neg rmoveto show grestore } BD
/P  { newpath 0.0 360.0 arc closepath fill } BD
/LS { newpath moveto } BD
/L  { lineto } BD
/LE { lineto stroke } BD
/T  { newpath moveto lineto lineto closepath fill } BD
/STshfill {
      /b1 exch def /g1 exch def /r1 exch def /y1 exch def /x1 exch def
      /b2 exch def /g2 exch def /r2 exch def /y2 exch def /x2 exch def
      /b3 exch def /g3 exch def /r3 exch def /y3 exch def /x3 exch def
      gsave << /ShadingType 4 /ColorSpace [/DeviceRGB]
      /DataSource [ 0 x1 y1 r1 g1 b1 0 x2 y2 r2 g2 b2 0 x3 y3 r3 g3 b3 ] >>
      shfill grestore } BD
/Tm { 3 -1 roll 8 -1 roll 13 -1 roll add add 3 div
      3 -1 roll 7 -1 roll 11 -1 roll add add 3 div
      3 -1 roll 6 -1 roll 9 -1 roll add add 3 div C T } BD
/STsplit {
      4 index 15 index add 0.5 mul
      4 index 15 index add 0.5 mul
      4 index 15 index add 0.5 mul
      4 index 15 index add 0.5 mul
      4 index 15 index add 0.5 mul
      5 copy 5 copy 25 15 roll
      9 index 30 index add 0.5 mul
      9 index 30 index add 0.5 mul
      9 index 30 index add 0.5 mul
      9 index 30 index add 0.5 mul
      9 index 30 index add 0.5 mul
      5 copy 5 copy 35 5 roll 25 5 roll 15 5 roll
      4 index 10 index add 0.5 mul
      4 index 10 index add 0.5 mul
      4 index 10 index add 0.5 mul
      4 index 10 index add 0.5 mul
      4 index 10 index add 0.5 mul
      5 copy 5 copy 40 5 roll 25 5 roll 15 5 roll 25 5 roll
      STnoshfill STnoshfill STnoshfill STnoshfill } BD
/STnoshfill {
      2 index 8 index sub abs rThreshold gt
      { STsplit }
      { 1 index 7 index sub abs gThreshold gt
        { STsplit }
        { dup 6 index sub abs bThreshold gt
          { STsplit }
          { 2 index 13 index sub abs rThreshold gt
            { STsplit }
            { 1 index 12 index sub abs gThreshold gt
              { STsplit }
              { dup 11 index sub abs bThreshold gt
                { STsplit }
                { 7 index 13 index sub abs rThreshold gt
                  { STsplit }
                  { 6 index 12 index sub abs gThreshold gt
                    { STsplit }
                    { 5 index 11 index sub abs bThreshold gt
                      { STsplit }
                      { Tm }
                      ifelse }
                    ifelse }
                  ifelse }
                ifelse }
              ifelse }
            ifelse }
          ifelse }
        ifelse }
      ifelse } BD
tryPS3shading
{ /shfill where
  { /ST { STshfill } BD }
  { /ST { STnoshfill } BD }
  ifelse }
{ /ST { STnoshfill } BD }
ifelse
end
%%EndProlog
%%BeginSetup
/DeviceRGB setcolorspace
gl2psdict begin
%%EndSetup
%%Page: 1 1
%%BeginPageSetup
%%EndPageSetup
mark
gsave
1.0 1.0 scale
1 1 1 C
newpath 0 0 moveto 360 0 lineto 360 252 lineto 0 252 lineto
closepath fill
gsave
1.0 1.0 scale
1 1 1 C
newpath 0 0 moveto 360 0 lineto 360 252 lineto 0 252 lineto
closepath fill
newpath 0 0 moveto 360 0 lineto 360 252 lineto 0 252 lineto
closepath clip
1 1 1 C
46.8 233.1 325.8 27.72 46.8 27.72 T
46.8 233.1 325.8 233.1 325.8 27.72 T
0.5 W
0.15 0.15 0.15 C
46.8 27.72 LS
46.8 30.5152 LE
46.8 233.1 LS
46.8 230.305 LE
91.2042 27.72 LS
91.2042 30.5152 LE
91.2042 233.1 LS
91.2042 230.305 LE
135.608 27.72 LS
135.608 30.5152 LE
135.608 233.1 LS
135.608 230.305 LE
180.013 27.72 LS
180.013 30.5152 LE
180.013 233.1 LS
180.013 230.305 LE
224.417 27.72 LS
224.417 30.5152 LE
224.417 233.1 LS
224.417 230.305 LE
268.821 27.72 LS
268.821 30.5152 LE
268.821 233.1 LS
268.821 230.305 LE
313.225 27.72 LS
313.225 30.5152 LE
313.225 233.1 LS
313.225 230.305 LE
gsave
0.14902 0.14902 0.14902 C
(0) [10] 0 43.8 12.2061 10 /Helvetica SRX
grestore

gsave
0.14902 0.14902 0.14902 C
(1) [10] 0 88.2042 12.2061 10 /Helvetica SRX
grestore

gsave
0.14902 0.14902 0.14902 C
(2) [10] 0 132.608 12.2061 10 /Helvetica SRX
grestore

gsave
0.14902 0.14902 0.14902 C
(3) [10] 0 177.013 12.2061 10 /Helvetica SRX
grestore

gsave
0.14902 0.14902 0.14902 C
(4) [10] 0 221.417 12.2061 10 /Helvetica SRX
grestore

gsave
0.14902 0.14902 0.14902 C
(5) [10] 0 265.821 12.2061 10 /Helvetica SRX
grestore

gsave
0.14902 0.14902 0.14902 C
(6) [10] 0 310.225 12.2061 10 /Helvetica SRX
grestore

46.8 27.72 LS
49.59 27.72 LE
325.8 27.72 LS
323.01 27.72 LE
46.8 79.065 LS
49.59 79.065 LE
325.8 79.065 LS
323.01 79.065 LE
46.8 130.41 LS
49.59 130.41 LE
325.8 130.41 LS
323.01 130.41 LE
46.8 181.755 LS
49.59 181.755 LE
325.8 181.755 LS
323.01 181.755 LE
46.8 233.1 LS
49.59 233.1 LE
325.8 233.1 LS
323.01 233.1 LE
gsave
0.14902 0.14902 0.14902 C
(-2) [3 10] 0 32.8 23.72 10 /Helvetica SRX
grestore

gsave
0.14902 0.14902 0.14902 C
(-1) [3 10] 0 32.8 75.065 10 /Helvetica SRX
grestore

gsave
0.14902 0.14902 0.14902 C
(0) [10] 0 35.8 126.41 10 /Helvetica SRX
grestore

gsave
0.14902 0.14902 0.14902 C
(1) [10] 0 35.8 177.755 10 /Helvetica SRX
grestore

gsave
0.14902 0.14902 0.14902 C
(2) [10] 0 35.8 229.1 10 /Helvetica SRX
grestore

2 LC
[16 0] 0 setdash
46.8 27.72 LS
325.8 27.72 LE
46.8 233.1 LS
325.8 233.1 LE
46.8 27.72 LS
46.8 233.1 LE
325.8 27.72 LS
325.8 233.1 LE
0 0.447 0.741 C
47.8 123.564 46.3 122.698 47.3 122.698 T
47.8 123.564 45.8 123.564 46.3 122.698 T
47.8 123.564 46.3 124.43 45.8 123.564 T
47.8 123.564 47.3 124.43 46.3 124.43 T
47.8 123.564 47.8 123.564 47.3 124.43 T
49.202 133.376 47.702 132.51 48.702 132.51 T
49.202 133.376 47.202 133.376 47.702 132.51 T
49.202 133.376 47.702 134.242 47.202 133.376 T
49.202 133.376 48.702 134.242 47.702 134.242 T
49.202 133.376 49.202 133.376 48.702 134.242 T
50.604 143.989 49.104 143.123 50.104 143.123 T
50.604 143.989 48.604 143.989 49.104 143.123 T
50.604 143.989 49.104 144.855 48.604 143.989 T
50.604 143.989 50.104 144.855 49.104 144.855 T
50.604 143.989 50.604 143.989 50.104 144.855 T
52.006 146.48 50.506 145.614 51.506 145.614 T
52.006 146.48 50.006 146.48 50.506 145.614 T
52.006 146.48 50.506 147.346 50.006 146.48 T
52.006 146.48 51.506 147.346 50.506 147.346 T
52.006 146.48 52.006 146.48 51.506 147.346 T
53.4081 148.552 51.9081 147.686 52.908 147.686 T
53.4081 148.552 51.408 148.552 51.9081 147.686 T
53.4081 148.552 51.9081 149.418 51.408 148.552 T
53.4081 148.552 52.908 149.418 51.9081 149.418 T
53.4081 148.552 53.4081 148.552 52.908 149.418 T
54.8101 152.615 53.3101 151.749 54.31 151.749 T
54.8101 152.615 52.81 152.615 53.3101 151.749 T
54.8101 152.615 53.3101 153.481 52.81 152.615 T
54.8101 152.615 54.31 153.481 53.3101 153.481 T
54.8101 152.615 54.8101 152.615 54.31 153.481 T
56.2121 157.981 54.7121 157.115 55.7121 157.115 T
56.2121 157.981 54.2121 157.981 54.7121 157.115 T
56.2121 157.981 54.7121 158.847 54.2121 157.981 T
56.2121 157.981 55.7121 158.847 54.7121 158.847 T
56.2121 157.981 56.2121 157.981 55.7121 158.847 T
57.6141 165.031 56.1141 164.165 57.1141 164.165 T
57.6141 165.031 55.6141 165.031 56.1141 164.165 T
57.6141 165.031 56.1141 165.897 55.6141 165.031 T
57.6141 165.031 57.1141 165.897 56.1141 165.897 T
57.6141 165.031 57.6141 165.031 57.1141 165.897 T
59.0161 172.433 57.5161 171.567 58.5161 171.567 T
59.0161 172.433 57.0161 172.433 57.5161 171.567 T
59.0161 172.433 57.5161 173.299 57.0161 172.433 T
59.0161 172.433 58.5161 173.299 57.5161 173.299 T
59.0161 172.433 59.0161 172.433 58.5161 173.299 T
60.4181 173.409 58.9181 172.543 59.9181 172.543 T
60.4181 173.409 58.4181 173.409 58.9181 172.543 T
60.4181 173.409 58.9181 174.275 58.4181 173.409 T
60.4181 173.409 59.9181 174.275 58.9181 174.275 T
60.4181 173.409 60.4181 173.409 59.9181 174.275 T
61.8201 176.712 60.3201 175.846 61.3201 175.846 T
61.8201 176.712 59.8201 176.712 60.3201 175.846 T
61.8201 176.712 60.3201 177.578 59.8201 176.712 T
61.8201 176.712 61.3201 177.578 60.3201 177.578 T
61.8201 176.712 61.8201 176.712 61.3201 177.578 T
63.2221 177.763 61.7221 176.897 62.7221 176.897 T
63.2221 177.763 61.2221 177.763 61.7221 176.897 T
63.2221 177.763 61.7221 178.629 61.2221 177.763 T
63.2221 177.763 62.7221 178.629 61.7221 178.629 T
63.2221 177.763 63.2221 177.763 62.7221 178.629 T
64.6241 187.733 63.1241 186.867 64.1241 186.867 T
64.6241 187.733 62.6241 187.733 63.1241 186.867 T
64.6241 187.733 63.1241 188.599 62.6241 187.733 T
64.6241 187.733 64.1241 188.599 63.1241 188.599 T
64.6241 187.733 64.6241 187.733 64.1241 188.599 T
66.0261 185.34 64.5261 184.474 65.5261 184.474 T
66.0261 185.34 64.0261 185.34 64.5261 184.474 T
66.0261 185.34 64.5261 186.206 64.0261 185.34 T
66.0261 185.34 65.5261 186.206 64.5261 186.206 T
66.0261 185.34 66.0261 185.34 65.5261 186.206 T
67.4281 192.356 65.9282 191.49 66.9281 191.49 T
67.4281 192.356 65.4281 192.356 65.9282 191.49 T
67.4281 192.356 65.9282 193.222 65.4281 192.356 T
67.4281 192.356 66.9281 193.222 65.9282 193.222 T
67.4281 192.356 67.4281 192.356 66.9281 193.222 T
68.8302 194.019 67.3302 193.153 68.3302 193.153 T
68.8302 194.019 66.8302 194.019 67.3302 193.153 T
68.8302 194.019 67.3302 194.885 66.8302 194.019 T
68.8302 194.019 68.3302 194.885 67.3302 194.885 T
68.8302 194.019 68.8302 194.019 68.3302 194.885 T
70.2322 200.878 68.7322 200.012 69.7322 200.012 T
70.2322 200.878 68.2322 200.878 68.7322 200.012 T
70.2322 200.878 68.7322 201.744 68.2322 200.878 T
70.2322 200.878 69.7322 201.744 68.7322 201.744 T
70.2322 200.878 70.2322 200.878 69.7322 201.744 T
71.6342 201.578 70.1342 200.712 71.1342 200.712 T
71.6342 201.578 69.6342 201.578 70.1342 200.712 T
71.6342 201.578 70.1342 202.444 69.6342 201.578 T
71.6342 201.578 71.1342 202.444 70.1342 202.444 T
71.6342 201.578 71.6342 201.578 71.1342 202.444 T
73.0362 207.742 71.5362 206.876 72.5362 206.876 T
73.0362 207.742 71.0362 207.742 71.5362 206.876 T
73.0362 207.742 71.5362 208.608 71.0362 207.742 T
73.0362 207.742 72.5362 208.608 71.5362 208.608 T
73.0362 207.742 73.0362 207.742 72.5362 208.608 T
74.4382 206.8 72.9382 205.934 73.9382 205.934 T
74.4382 206.8 72.4382 206.8 72.9382 205.934 T
74.4382 206.8 72.9382 207.666 72.4382 206.8 T
74.4382 206.8 73.9382 207.666 72.9382 207.666 T
74.4382 206.8 74.4382 206.8 73.9382 207.666 T
75.8402 210.326 74.3402 209.46 75.3402 209.46 T
75.8402 210.326 73.8402 210.326 74.3402 209.46 T
75.8402 210.326 74.3402 211.193 73.8402 210.326 T
75.8402 210.326 75.3402 211.193 74.3402 211.193 T
75.8402 210.326 75.8402 210.326 75.3402 211.193 T
77.2422 212.689 75.7422 211.823 76.7422 211.823 T
77.2422 212.689 75.2422 212.689 75.7422 211.823 T
77.2422 212.689 75.7422 213.555 75.2422 212.689 T
77.2422 212.689 76.7422 213.555 75.7422 213.555 T
77.2422 212.689 77.2422 212.689 76.7422 213.555 T
78.6442 207.59 77.1442 206.724 78.1442 206.724 T
78.6442 207.59 76.6442 207.59 77.1442 206.724 T
78.6442 207.59 77.1442 208.456 76.6442 207.59 T
78.6442 207.59 78.1442 208.456 77.1442 208.456 T
78.6442 207.59 78.6442 207.59 78.1442 208.456 T
80.0462 214.404 78.5462 213.538 79.5462 213.538 T
80.0462 214.404 78.0462 214.404 78.5462 213.538 T
80.0462 214.404 78.5462 215.27 78.0462 214.404 T
80.0462 214.404 79.5462 215.27 78.5462 215.27 T
80.0462 214.404 80.0462 214.404 79.5462 215.27 T
81.4482 215.918 79.9482 215.052 80.9482 215.052 T
81.4482 215.918 79.4482 215.918 79.9482 215.052 T
81.4482 215.918 79.9482 216.784 79.4482 215.918 T
81.4482 215.918 80.9482 216.784 79.9482 216.784 T
81.4482 215.918 81.4482 215.918 80.9482 216.784 T
82.8503 216.66 81.3503 215.794 82.3502 215.794 T
82.8503 216.66 80.8502 216.66 81.3503 215.794 T
82.8503 216.66 81.3503 217.526 80.8502 216.66 T
82.8503 216.66 82.3502 217.526 81.3503 217.526 T
82.8503 216.66 82.8503 216.66 82.3502 217.526 T
84.2523 219.082 82.7523 218.216 83.7523 218.216 T
84.2523 219.082 82.2523 219.082 82.7523 218.216 T
84.2523 219.082 82.7523 219.948 82.2523 219.082 T
84.2523 219.082 83.7523 219.948 82.7523 219.948 T
84.2523 219.082 84.2523 219.082 83.7523 219.948 T
85.6543 222.151 84.1543 221.285 85.1543 221.285 T
85.6543 222.151 83.6543 222.151 84.1543 221.285 T
85.6543 222.151 84.1543 223.017 83.6543 222.151 T
85.6543 222.151 85.1543 223.017 84.1543 223.017 T
85.6543 222.151 85.6543 222.151 85.1543 223.017 T
87.0563 220.993 85.5563 220.127 86.5563 220.127 T
87.0563 220.993 85.0563 220.993 85.5563 220.127 T
87.0563 220.993 85.5563 221.859 85.0563 220.993 T
87.0563 220.993 86.5563 221.859 85.5563 221.859 T
87.0563 220.993 87.0563 220.993 86.5563 221.859 T
88.4583 220.068 86.9583 219.202 87.9583 219.202 T
88.4583 220.068 86.4583 220.068 86.9583 219.202 T
88.4583 220.068 86.9583 220.934 86.4583 220.068 T
88.4583 220.068 87.9583 220.934 86.9583 220.934 T
88.4583 220.068 88.4583 220.068 87.9583 220.934 T
89.8603 221.066 88.3603 220.2 89.3603 220.2 T
89.8603 221.066 87.8603 221.066 88.3603 220.2 T
89.8603 221.066 88.3603 221.932 87.8603 221.066 T
89.8603 221.066 89.3603 221.932 88.3603 221.932 T
89.8603 221.066 89.8603 221.066 89.3603 221.932 T
91.2623 222.945 89.7623 222.079 90.7623 222.079 T
91.2623 222.945 89.2623 222.945 89.7623 222.079 T
91.2623 222.945 89.7623 223.811 89.2623 222.945 T
91.2623 222.945 90.7623 223.811 89.7623 223.811 T
91.2623 222.945 91.2623 222.945 90.7623 223.811 T
92.6643 219.284 91.1643 218.418 92.1643 218.418 T
92.6643 219.284 90.6643 219.284 91.1643 218.418 T
92.6643 219.284 91.1643 220.15 90.6643 219.284 T
92.6643 219.284 92.1643 220.15 91.1643 220.15 T
92.6643 219.284 92.6643 219.284 92.1643 220.15 T
94.0663 220.279 92.5663 219.413 93.5663 219.413 T
94.0663 220.279 92.0663 220.279 92.5663 219.413 T
94.0663 220.279 92.5663 221.145 92.0663 220.279 T
94.0663 220.279 93.5663 221.145 92.5663 221.145 T
94.0663 220.279 94.0663 220.279 93.5663 221.145 T
95.4683 217.886 93.9683 217.02 94.9683 217.02 T
95.4683 217.886 93.4683 217.886 93.9683 217.02 T
95.4683 217.886 93.9683 218.752 93.4683 217.886 T
95.4683 217.886 94.9683 218.752 93.9683 218.752 T
95.4683 217.886 95.4683 217.886 94.9683 218.752 T
96.8704 215.609 95.3704 214.743 96.3704 214.743 T
96.8704 215.609 94.8704 215.609 95.3704 214.743 T
96.8704 215.609 95.3704 216.475 94.8704 215.609 T
96.8704 215.609 96.3704 216.475 95.3704 216.475 T
96.8704 215.609 96.8704 215.609 96.3704 216.475 T
98.2724 213.767 96.7724 212.901 97.7724 212.901 T
98.2724 213.767 96.2724 213.767 96.7724 212.901 T
98.2724 213.767 96.7724 214.633 96.2724 213.767 T
98.2724 213.767 97.7724 214.633 96.7724 214.633 T
98.2724 213.767 98.2724 213.767 97.7724 214.633 T
99.6744 214.694 98.1744 213.828 99.1744 213.828 T
99.6744 214.694 97.6744 214.694 98.1744 213.828 T
99.6744 214.694 98.1744 215.56 97.6744 214.694 T
99.6744 214.694 99.1744 215.56 98.1744 215.56 T
99.6744 214.694 99.6744 214.694 99.1744 215.56 T
101.076 211.268 99.5764 210.402 100.576 210.402 T
101.076 211.268 99.0764 211.268 99.5764 210.402 T
101.076 211.268 99.5764 212.134 99.0764 211.268 T
101.076 211.268 100.576 212.134 99.5764 212.134 T
101.076 211.268 101.076 211.268 100.576 212.134 T
102.478 214.8 100.978 213.934 101.978 213.934 T
102.478 214.8 100.478 214.8 100.978 213.934 T
102.478 214.8 100.978 215.666 100.478 214.8 T
102.478 214.8 101.978 215.666 100.978 215.666 T
102.478 214.8 102.478 214.8 101.978 215.666 T
103.88 209.261 102.38 208.395 103.38 208.395 T
103.88 209.261 101.88 209.261 102.38 208.395 T
103.88 209.261 102.38 210.127 101.88 209.261 T
103.88 209.261 103.38 210.127 102.38 210.127 T
103.88 209.261 103.88 209.261 103.38 210.127 T
105.282 210.259 103.782 209.393 104.782 209.393 T
105.282 210.259 103.282 210.259 103.782 209.393 T
105.282 210.259 103.782 211.125 103.282 210.259 T
105.282 210.259 104.782 211.125 103.782 211.125 T
105.282 210.259 105.282 210.259 104.782 211.125 T
106.684 197.744 105.184 196.878 106.184 196.878 T
106.684 197.744 104.684 197.744 105.184 196.878 T
106.684 197.744 105.184 198.611 104.684 197.744 T
106.684 197.744 106.184 198.611 105.184 198.611 T
106.684 197.744 106.684 197.744 106.184 198.611 T
108.086 205.571 106.586 204.705 107.586 204.705 T
108.086 205.571 106.086 205.571 106.586 204.705 T
108.086 205.571 106.586 206.437 106.086 205.571 T
108.086 205.571 107.586 206.437 106.586 206.437 T
108.086 205.571 108.086 205.571 107.586 206.437 T
109.488 196.978 107.988 196.112 108.988 196.112 T
109.488 196.978 107.488 196.978 107.988 196.112 T
109.488 196.978 107.988 197.844 107.488 196.978 T
109.488 196.978 108.988 197.844 107.988 197.844 T
109.488 196.978 109.488 196.978 108.988 197.844 T
110.89 196.317 109.39 195.451 110.39 195.451 T
110.89 196.317 108.89 196.317 109.39 195.451 T
110.89 196.317 109.39 197.183 108.89 196.317 T
110.89 196.317 110.39 197.183 109.39 197.183 T
110.89 196.317 110.89 196.317 110.39 197.183 T
112.292 195.317 110.792 194.451 111.792 194.451 T
112.292 195.317 110.292 195.317 110.792 194.451 T
112.292 195.317 110.792 196.183 110.292 195.317 T
112.292 195.317 111.792 196.183 110.792 196.183 T
112.292 195.317 112.292 195.317 111.792 196.183 T
113.694 186.332 112.194 185.466 113.194 185.466 T
113.694 186.332 111.694 186.332 112.194 185.466 T
113.694 186.332 112.194 187.198 111.694 186.332 T
113.694 186.332 113.194 187.198 112.194 187.198 T
113.694 186.332 113.694 186.332 113.194 187.198 T
115.096 184.807 113.596 183.941 114.596 183.941 T
115.096 184.807 113.096 184.807 113.596 183.941 T
115.096 184.807 113.596 185.673 113.096 184.807 T
115.096 184.807 114.596 185.673 113.596 185.673 T
115.096 184.807 115.096 184.807 114.596 185.673 T
116.498 185.359 114.998 184.493 115.998 184.493 T
116.498 185.359 114.498 185.359 114.998 184.493 T
116.498 185.359 114.998 186.225 114.498 185.359 T
116.498 185.359 115.998 186.225 114.998 186.225 T
116.498 185.359 116.498 185.359 115.998 186.225 T
117.901 179.135 116.401 178.269 117.401 178.269 T
117.901 179.135 115.901 179.135 116.401 178.269 T
117.901 179.135 116.401 180.001 115.901 179.135 T
117.901 179.135 117.401 180.001 116.401 180.001 T
117.901 179.135 117.901 179.135 117.401 180.001 T
119.303 172.719 117.803 171.853 118.803 171.853 T
119.303 172.719 117.303 172.719 117.803 171.853 T
119.303 172.719 117.803 173.585 117.303 172.719 T
119.303 172.719 118.803 173.585 117.803 173.585 T
119.303 172.719 119.303 172.719 118.803 173.585 T
120.705 173.238 119.205 172.372 120.205 172.372 T
120.705 173.238 118.705 173.238 119.205 172.372 T
120.705 173.238 119.205 174.104 118.705 173.238 T
120.705 173.238 120.205 174.104 119.205 174.104 T
120.705 173.238 120.705 173.238 120.205 174.104 T
122.107 167.455 120.607 166.589 121.607 166.589 T
122.107 167.455 120.107 167.455 120.607 166.589 T
122.107 167.455 120.607 168.321 120.107 167.455 T
122.107 167.455 121.607 168.321 120.607 168.321 T
122.107 167.455 122.107 167.455 121.607 168.321 T
123.509 165.542 122.009 164.676 123.009 164.676 T
123.509 165.542 121.509 165.542 122.009 164.676 T
123.509 165.542 122.009 166.408 121.509 165.542 T
123.509 165.542 123.009 166.408 122.009 166.408 T
123.509 165.542 123.509 165.542 123.009 166.408 T
124.911 169.056 123.411 168.19 124.411 168.19 T
124.911 169.056 122.911 169.056 123.411 168.19 T
124.911 169.056 123.411 169.922 122.911 169.056 T
124.911 169.056 124.411 169.922 123.411 169.922 T
124.911 169.056 124.911 169.056 124.411 169.922 T
126.313 157.487 124.813 156.621 125.813 156.621 T
126.313 157.487 124.313 157.487 124.813 156.621 T
126.313 157.487 124.813 158.353 124.313 157.487 T
126.313 157.487 125.813 158.353 124.813 158.353 T
126.313 157.487 126.313 157.487 125.813 158.353 T
127.715 160.561 126.215 159.695 127.215 159.695 T
127.715 160.561 125.715 160.561 126.215 159.695 T
127.715 160.561 126.215 161.427 125.715 160.561 T
127.715 160.561 127.215 161.427 126.215 161.427 T
127.715 160.561 127.715 160.561 127.215 161.427 T
129.117 150.193 127.617 149.327 128.617 149.327 T
129.117 150.193 127.117 150.193 127.617 149.327 T
129.117 150.193 127.617 151.059 127.117 150.193 T
129.117 150.193 128.617 151.059 127.617 151.059 T
129.117 150.193 129.117 150.193 128.617 151.059 T
130.519 149.818 129.019 148.952 130.019 148.952 T
130.519 149.818 128.519 149.818 129.019 148.952 T
130.519 149.818 129.019 150.684 128.519 149.818 T
130.519 149.818 130.019 150.684 129.019 150.684 T
130.519 149.818 130.519 149.818 130.019 150.684 T
131.921 145.707 130.421 144.841 131.421 144.841 T
131.921 145.707 129.921 145.707 130.421 144.841 T
131.921 145.707 130.421 146.573 129.921 145.707 T
131.921 145.707 131.421 146.573 130.421 146.573 T
131.921 145.707 131.921 145.707 131.421 146.573 T
133.323 142.148 131.823 141.282 132.823 141.282 T
133.323 142.148 131.323 142.148 131.823 141.282 T
133.323 142.148 131.823 143.014 131.323 142.148 T
133.323 142.148 132.823 143.014 131.823 143.014 T
133.323 142.148 133.323 142.148 132.823 143.014 T
134.725 143.058 133.225 142.192 134.225 142.192 T
134.725 143.058 132.725 143.058 133.225 142.192 T
134.725 143.058 133.225 143.924 132.725 143.058 T
134.725 143.058 134.225 143.924 133.225 143.924 T
134.725 143.058 134.725 143.058 134.225 143.924 T
136.127 137.059 134.627 136.193 135.627 136.193 T
136.127 137.059 134.127 137.059 134.627 136.193 T
136.127 137.059 134.627 137.925 134.127 137.059 T
136.127 137.059 135.627 137.925 134.627 137.925 T
136.127 137.059 136.127 137.059 135.627 137.925 T
137.529 132.031 136.029 131.165 137.029 131.165 T
137.529 132.031 135.529 132.031 136.029 131.165 T
137.529 132.031 136.029 132.897 135.529 132.031 T
137.529 132.031 137.029 132.897 136.029 132.897 T
137.529 132.031 137.529 132.031 137.029 132.897 T
138.931 134.007 137.431 133.141 138.431 133.141 T
138.931 134.007 136.931 134.007 137.431 133.141 T
138.931 134.007 137.431 134.873 136.931 134.007 T
138.931 134.007 138.431 134.873 137.431 134.873 T
138.931 134.007 138.931 134.007 138.431 134.873 T
140.333 128.736 138.833 127.87 139.833 127.87 T
140.333 128.736 138.333 128.736 138.833 127.87 T
140.333 128.736 138.833 129.602 138.333 128.736 T
140.333 128.736 139.833 129.602 138.833 129.602 T
140.333 128.736 140.333 128.736 139.833 129.602 T
141.735 131.937 140.235 131.071 141.235 131.071 T
141.735 131.937 139.735 131.937 140.235 131.071 T
141.735 131.937 140.235 132.803 139.735 131.937 T
141.735 131.937 141.235 132.803 140.235 132.803 T
141.735 131.937 141.735 131.937 141.235 132.803 T
143.137 129.626 141.637 128.76 142.637 128.76 T
143.137 129.626 141.137 129.626 141.637 128.76 T
143.137 129.626 141.637 130.492 141.137 129.626 T
143.137 129.626 142.637 130.492 141.637 130.492 T
143.137 129.626 143.137 129.626 142.637 130.492 T
144.539 129.839 143.039 128.973 144.039 128.973 T
144.539 129.839 142.539 129.839 143.039 128.973 T
144.539 129.839 143.039 130.705 142.539 129.839 T
144.539 129.839 144.039 130.705 143.039 130.705 T
144.539 129.839 144.539 129.839 144.039 130.705 T
145.941 125.405 144.441 124.539 145.441 124.539 T
145.941 125.405 143.941 125.405 144.441 124.539 T
145.941 125.405 144.441 126.271 143.941 125.405 T
145.941 125.405 145.441 126.271 144.441 126.271 T
145.941 125.405 145.941 125.405 145.441 126.271 T
147.343 118.73 145.843 117.863 146.843 117.863 T
147.343 118.73 145.343 118.73 145.843 117.863 T
147.343 118.73 145.843 119.596 145.343 118.73 T
147.343 118.73 146.843 119.596 145.843 119.596 T
147.343 118.73 147.343 118.73 146.843 119.596 T
148.745 118.677 147.245 117.811 148.245 117.811 T
148.745 118.677 146.745 118.677 147.245 117.811 T
148.745 118.677 147.245 119.543 146.745 118.677 T
148.745 118.677 148.245 119.543 147.245 119.543 T
148.745 118.677 148.745 118.677 148.245 119.543 T
150.147 114.922 148.647 114.056 149.647 114.056 T
150.147 114.922 148.147 114.922 148.647 114.056 T
150.147 114.922 148.647 115.788 148.147 114.922 T
150.147 114.922 149.647 115.788 148.647 115.788 T
150.147 114.922 150.147 114.922 149.647 115.788 T
151.549 119.105 150.049 118.239 151.049 118.239 T
151.549 119.105 149.549 119.105 150.049 118.239 T
151.549 119.105 150.049 119.971 149.549 119.105 T
151.549 119.105 151.049 119.971 150.049 119.971 T
151.549 119.105 151.549 119.105 151.049 119.971 T
152.951 116.321 151.451 115.455 152.451 115.455 T
152.951 116.321 150.951 116.321 151.451 115.455 T
152.951 116.321 151.451 117.187 150.951 116.321 T
152.951 116.321 152.451 117.187 151.451 117.187 T
152.951 116.321 152.951 116.321 152.451 117.187 T
154.353 108.868 152.853 108.002 153.853 108.002 T
154.353 108.868 152.353 108.868 152.853 108.002 T
154.353 108.868 152.853 109.734 152.353 108.868 T
154.353 108.868 153.853 109.734 152.853 109.734 T
154.353 108.868 154.353 108.868 153.853 109.734 T
155.755 111.759 154.255 110.893 155.255 110.893 T
155.755 111.759 153.755 111.759 154.255 110.893 T
155.755 111.759 154.255 112.625 153.755 111.759 T
155.755 111.759 155.255 112.625 154.255 112.625 T
155.755 111.759 155.755 111.759 155.255 112.625 T
157.157 112.028 155.657 111.162 156.657 111.162 T
157.157 112.028 155.157 112.028 155.657 111.162 T
157.157 112.028 155.657 112.894 155.157 112.028 T
157.157 112.028 156.657 112.894 155.657 112.894 T
157.157 112.028 157.157 112.028 156.657 112.894 T
158.559 114.409 157.059 113.543 158.059 113.543 T
158.559 114.409 156.559 114.409 157.059 113.543 T
158.559 114.409 157.059 115.275 156.559 114.409 T
158.559 114.409 158.059 115.275 157.059 115.275 T
158.559 114.409 158.559 114.409 158.059 115.275 T
159.961 111.001 158.461 110.135 159.461 110.135 T
159.961 111.001 157.961 111.001 158.461 110.135 T
159.961 111.001 158.461 111.867 157.961 111.001 T
159.961 111.001 159.461 111.867 158.461 111.867 T
159.961 111.001 159.961 111.001 159.461 111.867 T
161.363 111.347 159.863 110.481 160.863 110.481 T
161.363 111.347 159.363 111.347 159.863 110.481 T
161.363 111.347 159.863 112.213 159.363 111.347 T
161.363 111.347 160.863 112.213 159.863 112.213 T
161.363 111.347 161.363 111.347 160.863 112.213 T
162.765 108.216 161.265 107.35 162.265 107.35 T
162.765 108.216 160.765 108.216 161.265 107.35 T
162.765 108.216 161.265 109.082 160.765 108.216 T
162.765 108.216 162.265 109.082 161.265 109.082 T
162.765 108.216 162.765 108.216 162.265 109.082 T
164.167 113.359 162.667 112.493 163.667 112.493 T
164.167 113.359 162.167 113.359 162.667 112.493 T
164.167 113.359 162.667 114.225 162.167 113.359 T
164.167 113.359 163.667 114.225 162.667 114.225 T
164.167 113.359 164.167 113.359 163.667 114.225 T
165.569 110.88 164.069 110.014 165.069 110.014 T
165.569 110.88 163.569 110.88 164.069 110.014 T
165.569 110.88 164.069 111.746 163.569 110.88 T
165.569 110.88 165.069 111.746 164.069 111.746 T
165.569 110.88 165.569 110.88 165.069 111.746 T
166.971 112.126 165.471 111.26 166.471 111.26 T
166.971 112.126 164.971 112.126 165.471 111.26 T
166.971 112.126 165.471 112.992 164.971 112.126 T
166.971 112.126 166.471 112.992 165.471 112.992 T
166.971 112.126 166.971 112.126 166.471 112.992 T
168.373 114.421 166.873 113.555 167.873 113.555 T
168.373 114.421 166.373 114.421 166.873 113.555 T
168.373 114.421 166.873 115.287 166.373 114.421 T
168.373 114.421 167.873 115.287 166.873 115.287 T
168.373 114.421 168.373 114.421 167.873 115.287 T
169.775 111.12 168.275 110.254 169.275 110.254 T
169.775 111.12 167.775 111.12 168.275 110.254 T
169.775 111.12 168.275 111.986 167.775 111.12 T
169.775 111.12 169.275 111.986 168.275 111.986 T
169.775 111.12 169.775 111.12 169.275 111.986 T
171.177 110.49 169.677 109.624 170.677 109.624 T
171.177 110.49 169.177 110.49 169.677 109.624 T
171.177 110.49 169.677 111.356 169.177 110.49 T
171.177 110.49 170.677 111.356 169.677 111.356 T
171.177 110.49 171.177 110.49 170.677 111.356 T
172.579 113.366 171.079 112.5 172.079 112.5 T
172.579 113.366 170.579 113.366 171.079 112.5 T
172.579 113.366 171.079 114.232 170.579 113.366 T
172.579 113.366 172.079 114.232 171.079 114.232 T
172.579 113.366 172.579 113.366 172.079 114.232 T
173.981 113.939 172.481 113.073 173.481 113.073 T
173.981 113.939 171.981 113.939 172.481 113.073 T
173.981 113.939 172.481 114.805 171.981 113.939 T
173.981 113.939 173.481 114.805 172.481 114.805 T
173.981 113.939 173.981 113.939 173.481 114.805 T
175.383 115.824 173.883 114.958 174.883 114.958 T
175.383 115.824 173.383 115.824 173.883 114.958 T
175.383 115.824 173.883 116.69 173.383 115.824 T
175.383 115.824 174.883 116.69 173.883 116.69 T
175.383 115.824 175.383 115.824 174.883 116.69 T
176.785 114.264 175.285 113.398 176.285 113.398 T
176.785 114.264 174.785 114.264 175.285 113.398 T
176.785 114.264 175.285 115.13 174.785 114.264 T
176.785 114.264 176.285 115.13 175.285 115.13 T
176.785 114.264 176.785 114.264 176.285 115.13 T
178.187 121.698 176.687 120.832 177.687 120.832 T
178.187 121.698 176.187 121.698 176.687 120.832 T
178.187 121.698 176.687 122.564 176.187 121.698 T
178.187 121.698 177.687 122.564 176.687 122.564 T
178.187 121.698 178.187 121.698 177.687 122.564 T
179.589 121.504 178.089 120.638 179.089 120.638 T
179.589 121.504 177.589 121.504 178.089 120.638 T
179.589 121.504 178.089 122.37 177.589 121.504 T
179.589 121.504 179.089 122.37 178.089 122.37 T
179.589 121.504 179.589 121.504 179.089 122.37 T
180.991 124.049 179.491 123.183 180.491 123.183 T
180.991 124.049 178.991 124.049 179.491 123.183 T
180.991 124.049 179.491 124.915 178.991 124.049 T
180.991 124.049 180.491 124.915 179.491 124.915 T
180.991 124.049 180.991 124.049 180.491 124.915 T
182.393 122.367 180.893 121.501 181.893 121.501 T
182.393 122.367 180.393 122.367 180.893 121.501 T
182.393 122.367 180.893 123.233 180.393 122.367 T
182.393 122.367 181.893 123.233 180.893 123.233 T
182.393 122.367 182.393 122.367 181.893 123.233 T
183.795 128.551 182.295 127.685 183.295 127.685 T
183.795 128.551 181.795 128.551 182.295 127.685 T
183.795 128.551 182.295 129.417 181.795 128.551 T
183.795 128.551 183.295 129.417 182.295 129.417 T
183.795 128.551 183.795 128.551 183.295 129.417 T
185.197 129.094 183.697 128.228 184.697 128.228 T
185.197 129.094 183.197 129.094 183.697 128.228 T
185.197 129.094 183.697 129.96 183.197 129.094 T
185.197 129.094 184.697 129.96 183.697 129.96 T
185.197 129.094 185.197 129.094 184.697 129.96 T
186.599 135.625 185.099 134.759 186.099 134.759 T
186.599 135.625 184.599 135.625 185.099 134.759 T
186.599 135.625 185.099 136.491 184.599 135.625 T
186.599 135.625 186.099 136.491 185.099 136.491 T
186.599 135.625 186.599 135.625 186.099 136.491 T
188.001 133.619 186.501 132.753 187.501 132.753 T
188.001 133.619 186.001 133.619 186.501 132.753 T
188.001 133.619 186.501 134.485 186.001 133.619 T
188.001 133.619 187.501 134.485 186.501 134.485 T
188.001 133.619 188.001 133.619 187.501 134.485 T
189.403 132.084 187.903 131.218 188.903 131.218 T
189.403 132.084 187.403 132.084 187.903 131.218 T
189.403 132.084 187.903 132.95 187.403 132.084 T
189.403 132.084 188.903 132.95 187.903 132.95 T
189.403 132.084 189.403 132.084 188.903 132.95 T
190.805 130.423 189.305 129.557 190.305 129.557 T
190.805 130.423 188.805 130.423 189.305 129.557 T
190.805 130.423 189.305 131.289 188.805 130.423 T
190.805 130.423 190.305 131.289 189.305 131.289 T
190.805 130.423 190.805 130.423 190.305 131.289 T
192.207 135.209 190.707 134.343 191.707 134.343 T
192.207 135.209 190.207 135.209 190.707 134.343 T
192.207 135.209 190.707 136.075 190.207 135.209 T
192.207 135.209 191.707 136.075 190.707 136.075 T
192.207 135.209 192.207 135.209 191.707 136.075 T
193.609 138.134 192.109 137.268 193.109 137.268 T
193.609 138.134 191.609 138.134 192.109 137.268 T
193.609 138.134 192.109 139 191.609 138.134 T
193.609 138.134 193.109 139 192.109 139 T
193.609 138.134 193.609 138.134 193.109 139 T
195.011 139.301 193.511 138.435 194.511 138.435 T
195.011 139.301 193.011 139.301 193.511 138.435 T
195.011 139.301 193.511 140.167 193.011 139.301 T
195.011 139.301 194.511 140.167 193.511 140.167 T
195.011 139.301 195.011 139.301 194.511 140.167 T
196.413 139.063 194.913 138.197 195.913 138.197 T
196.413 139.063 194.413 139.063 194.913 138.197 T
196.413 139.063 194.913 139.929 194.413 139.063 T
196.413 139.063 195.913 139.929 194.913 139.929 T
196.413 139.063 196.413 139.063 195.913 139.929 T
197.815 142.178 196.315 141.312 197.315 141.312 T
197.815 142.178 195.815 142.178 196.315 141.312 T
197.815 142.178 196.315 143.044 195.815 142.178 T
197.815 142.178 197.315 143.044 196.315 143.044 T
197.815 142.178 197.815 142.178 197.315 143.044 T
199.217 141.492 197.717 140.626 198.717 140.626 T
199.217 141.492 197.217 141.492 197.717 140.626 T
199.217 141.492 197.717 142.358 197.217 141.492 T
199.217 141.492 198.717 142.358 197.717 142.358 T
199.217 141.492 199.217 141.492 198.717 142.358 T
200.619 146.11 199.119 145.244 200.119 145.244 T
200.619 146.11 198.619 146.11 199.119 145.244 T
200.619 146.11 199.119 146.976 198.619 146.11 T
200.619 146.11 200.119 146.976 199.119 146.976 T
200.619 146.11 200.619 146.11 200.119 146.976 T
202.021 147.989 200.521 147.123 201.521 147.123 T
202.021 147.989 200.021 147.989 200.521 147.123 T
202.021 147.989 200.521 148.855 200.021 147.989 T
202.021 147.989 201.521 148.855 200.521 148.855 T
202.021 147.989 202.021 147.989 201.521 148.855 T
203.423 140.875 201.923 140.009 202.923 140.009 T
203.423 140.875 201.423 140.875 201.923 140.009 T
203.423 140.875 201.923 141.741 201.423 140.875 T
203.423 140.875 202.923 141.741 201.923 141.741 T
203.423 140.875 203.423 140.875 202.923 141.741 T
204.825 146.833 203.325 145.967 204.325 145.967 T
204.825 146.833 202.825 146.833 203.325 145.967 T
204.825 146.833 203.325 147.699 202.825 146.833 T
204.825 146.833 204.325 147.699 203.325 147.699 T
204.825 146.833 204.825 146.833 204.325 147.699 T
206.227 143.225 204.727 142.359 205.727 142.359 T
206.227 143.225 204.227 143.225 204.727 142.359 T
206.227 143.225 204.727 144.091 204.227 143.225 T
206.227 143.225 205.727 144.091 204.727 144.091 T
206.227 143.225 206.227 143.225 205.727 144.091 T
207.629 147.664 206.129 146.798 207.129 146.798 T
207.629 147.664 205.629 147.664 206.129 146.798 T
207.629 147.664 206.129 148.53 205.629 147.664 T
207.629 147.664 207.129 148.53 206.129 148.53 T
207.629 147.664 207.629 147.664 207.129 148.53 T
209.031 154.188 207.531 153.322 208.531 153.322 T
209.031 154.188 207.031 154.188 207.531 153.322 T
209.031 154.188 207.531 155.054 207.031 154.188 T
209.031 154.188 208.531 155.054 207.531 155.054 T
209.031 154.188 209.031 154.188 208.531 155.054 T
210.433 148.787 208.933 147.921 209.933 147.921 T
210.433 148.787 208.433 148.787 208.933 147.921 T
210.433 148.787 208.933 149.653 208.433 148.787 T
210.433 148.787 209.933 149.653 208.933 149.653 T
210.433 148.787 210.433 148.787 209.933 149.653 T
211.835 148.261 210.335 147.395 211.335 147.395 T
211.835 148.261 209.835 148.261 210.335 147.395 T
211.835 148.261 210.335 149.127 209.835 148.261 T
211.835 148.261 211.335 149.127 210.335 149.127 T
211.835 148.261 211.835 148.261 211.335 149.127 T
213.237 150.068 211.737 149.202 212.737 149.202 T
213.237 150.068 211.237 150.068 211.737 149.202 T
213.237 150.068 211.737 150.934 211.237 150.068 T
213.237 150.068 212.737 150.934 211.737 150.934 T
213.237 150.068 213.237 150.068 212.737 150.934 T
214.639 148.604 213.139 147.738 214.139 147.738 T
214.639 148.604 212.639 148.604 213.139 147.738 T
214.639 148.604 213.139 149.47 212.639 148.604 T
214.639 148.604 214.139 149.47 213.139 149.47 T
214.639 148.604 214.639 148.604 214.139 149.47 T
216.041 152.585 214.541 151.719 215.541 151.719 T
216.041 152.585 214.041 152.585 214.541 151.719 T
216.041 152.585 214.541 153.451 214.041 152.585 T
216.041 152.585 215.541 153.451 214.541 153.451 T
216.041 152.585 216.041 152.585 215.541 153.451 T
217.443 150.428 215.943 149.562 216.943 149.562 T
217.443 150.428 215.443 150.428 215.943 149.562 T
217.443 150.428 215.943 151.294 215.443 150.428 T
217.443 150.428 216.943 151.294 215.943 151.294 T
217.443 150.428 217.443 150.428 216.943 151.294 T
218.845 146.04 217.345 145.174 218.345 145.174 T
218.845 146.04 216.845 146.04 217.345 145.174 T
218.845 146.04 217.345 146.906 216.845 146.04 T
218.845 146.04 218.345 146.906 217.345 146.906 T
218.845 146.04 218.845 146.04 218.345 146.906 T
220.247 149.561 218.747 148.695 219.747 148.695 T
220.247 149.561 218.247 149.561 218.747 148.695 T
220.247 149.561 218.747 150.427 218.247 149.561 T
220.247 149.561 219.747 150.427 218.747 150.427 T
220.247 149.561 220.247 149.561 219.747 150.427 T
221.649 145.514 220.149 144.648 221.149 144.648 T
221.649 145.514 219.649 145.514 220.149 144.648 T
221.649 145.514 220.149 146.38 219.649 145.514 T
221.649 145.514 221.149 146.38 220.149 146.38 T
221.649 145.514 221.649 145.514 221.149 146.38 T
223.051 145.667 221.551 144.801 222.551 144.801 T
223.051 145.667 221.051 145.667 221.551 144.801 T
223.051 145.667 221.551 146.533 221.051 145.667 T
223.051 145.667 222.551 146.533 221.551 146.533 T
223.051 145.667 223.051 145.667 222.551 146.533 T
224.453 143.145 222.953 142.279 223.953 142.279 T
224.453 143.145 222.453 143.145 222.953 142.279 T
224.453 143.145 222.953 144.011 222.453 143.145 T
224.453 143.145 223.953 144.011 222.953 144.011 T
224.453 143.145 224.453 143.145 223.953 144.011 T
225.855 140.995 224.355 140.129 225.355 140.129 T
225.855 140.995 223.855 140.995 224.355 140.129 T
225.855 140.995 224.355 141.861 223.855 140.995 T
225.855 140.995 225.355 141.861 224.355 141.861 T
225.855 140.995 225.855 140.995 225.355 141.861 T
227.257 141.615 225.757 140.749 226.757 140.749 T
227.257 141.615 225.257 141.615 225.757 140.749 T
227.257 141.615 225.757 142.481 225.257 141.615 T
227.257 141.615 226.757 142.481 225.757 142.481 T
227.257 141.615 227.257 141.615 226.757 142.481 T
228.659 135.874 227.159 135.008 228.159 135.008 T
228.659 135.874 226.659 135.874 227.159 135.008 T
228.659 135.874 227.159 136.74 226.659 135.874 T
228.659 135.874 228.159 136.74 227.159 136.74 T
228.659 135.874 228.659 135.874 228.159 136.74 T
230.061 139.156 228.561 138.29 229.561 138.29 T
230.061 139.156 228.061 139.156 228.561 138.29 T
230.061 139.156 228.561 140.022 228.061 139.156 T
230.061 139.156 229.561 140.022 228.561 140.022 T
230.061 139.156 230.061 139.156 229.561 140.022 T
231.463 134.817 229.963 133.951 230.963 133.951 T
231.463 134.817 229.463 134.817 229.963 133.951 T
231.463 134.817 229.963 135.683 229.463 134.817 T
231.463 134.817 230.963 135.683 229.963 135.683 T
231.463 134.817 231.463 134.817 230.963 135.683 T
232.865 129.893 231.365 129.027 232.365 129.027 T
232.865 129.893 230.865 129.893 231.365 129.027 T
232.865 129.893 231.365 130.759 230.865 129.893 T
232.865 129.893 232.365 130.759 231.365 130.759 T
232.865 129.893 232.865 129.893 232.365 130.759 T
234.267 134.851 232.767 133.985 233.767 133.985 T
234.267 134.851 232.267 134.851 232.767 133.985 T
234.267 134.851 232.767 135.717 232.267 134.851 T
234.267 134.851 233.767 135.717 232.767 135.717 T
234.267 134.851 234.267 134.851 233.767 135.717 T
235.669 129.559 234.169 128.693 235.169 128.693 T
235.669 129.559 233.669 129.559 234.169 128.693 T
235.669 129.559 234.169 130.425 233.669 129.559 T
235.669 129.559 235.169 130.425 234.169 130.425 T
235.669 129.559 235.669 129.559 235.169 130.425 T
237.071 122.653 235.571 121.787 236.571 121.787 T
237.071 122.653 235.071 122.653 235.571 121.787 T
237.071 122.653 235.571 123.519 235.071 122.653 T
237.071 122.653 236.571 123.519 235.571 123.519 T
237.071 122.653 237.071 122.653 236.571 123.519 T
238.473 118.635 236.973 117.769 237.973 117.769 T
238.473 118.635 236.473 118.635 236.973 117.769 T
238.473 118.635 236.973 119.501 236.473 118.635 T
238.473 118.635 237.973 119.501 236.973 119.501 T
238.473 118.635 238.473 118.635 237.973 119.501 T
239.875 117.493 238.375 116.627 239.375 116.627 T
239.875 117.493 237.875 117.493 238.375 116.627 T
239.875 117.493 238.375 118.359 237.875 117.493 T
239.875 117.493 239.375 118.359 238.375 118.359 T
239.875 117.493 239.875 117.493 239.375 118.359 T
241.277 116.409 239.777 115.543 240.777 115.543 T
241.277 116.409 239.277 116.409 239.777 115.543 T
241.277 116.409 239.777 117.275 239.277 116.409 T
241.277 116.409 240.777 117.275 239.777 117.275 T
241.277 116.409 241.277 116.409 240.777 117.275 T
242.679 111.055 241.179 110.189 242.179 110.189 T
242.679 111.055 240.679 111.055 241.179 110.189 T
242.679 111.055 241.179 111.921 240.679 111.055 T
242.679 111.055 242.179 111.921 241.179 111.921 T
242.679 111.055 242.679 111.055 242.179 111.921 T
244.081 110.254 242.581 109.388 243.581 109.388 T
244.081 110.254 242.081 110.254 242.581 109.388 T
244.081 110.254 242.581 111.12 242.081 110.254 T
244.081 110.254 243.581 111.12 242.581 111.12 T
244.081 110.254 244.081 110.254 243.581 111.12 T
245.483 104.904 243.983 104.038 244.983 104.038 T
245.483 104.904 243.483 104.904 243.983 104.038 T
245.483 104.904 243.983 105.77 243.483 104.904 T
245.483 104.904 244.983 105.77 243.983 105.77 T
245.483 104.904 245.483 104.904 244.983 105.77 T
246.885 99.9898 245.385 99.1237 246.385 99.1237 T
246.885 99.9898 244.885 99.9898 245.385 99.1237 T
246.885 99.9898 245.385 100.856 244.885 99.9898 T
246.885 99.9898 246.385 100.856 245.385 100.856 T
246.885 99.9898 246.885 99.9898 246.385 100.856 T
248.287 101.124 246.787 100.258 247.787 100.258 T
248.287 101.124 246.287 101.124 246.787 100.258 T
248.287 101.124 246.787 101.99 246.287 101.124 T
248.287 101.124 247.787 101.99 246.787 101.99 T
248.287 101.124 248.287 101.124 247.787 101.99 T
249.689 94.1497 248.189 93.2837 249.189 93.2837 T
249.689 94.1497 247.689 94.1497 248.189 93.2837 T
249.689 94.1497 248.189 95.0157 247.689 94.1497 T
249.689 94.1497 249.189 95.0157 248.189 95.0157 T
249.689 94.1497 249.689 94.1497 249.189 95.0157 T
251.091 93.1631 249.591 92.2971 250.591 92.2971 T
251.091 93.1631 249.091 93.1631 249.591 92.2971 T
251.091 93.1631 249.591 94.0291 249.091 93.1631 T
251.091 93.1631 250.591 94.0291 249.591 94.0291 T
251.091 93.1631 251.091 93.1631 250.591 94.0291 T
252.493 93.3756 250.993 92.5095 251.993 92.5095 T
252.493 93.3756 250.493 93.3756 250.993 92.5095 T
252.493 93.3756 250.993 94.2416 250.493 93.3756 T
252.493 93.3756 251.993 94.2416 250.993 94.2416 T
252.493 93.3756 252.493 93.3756 251.993 94.2416 T
253.895 92.1396 252.395 91.2736 253.395 91.2736 T
253.895 92.1396 251.895 92.1396 252.395 91.2736 T
253.895 92.1396 252.395 93.0056 251.895 92.1396 T
253.895 92.1396 253.395 93.0056 252.395 93.0056 T
253.895 92.1396 253.895 92.1396 253.395 93.0056 T
255.297 79.8881 253.797 79.022 254.797 79.022 T
255.297 79.8881 253.297 79.8881 253.797 79.022 T
255.297 79.8881 253.797 80.7541 253.297 79.8881 T
255.297 79.8881 254.797 80.7541 253.797 80.7541 T
255.297 79.8881 255.297 79.8881 254.797 80.7541 T
256.699 80.2873 255.199 79.4213 256.199 79.4213 T
256.699 80.2873 254.699 80.2873 255.199 79.4213 T
256.699 80.2873 255.199 81.1533 254.699 80.2873 T
256.699 80.2873 256.199 81.1533 255.199 81.1533 T
256.699 80.2873 256.699 80.2873 256.199 81.1533 T
258.102 69.9033 256.602 69.0373 257.602 69.0373 T
258.102 69.9033 256.102 69.9033 256.602 69.0373 T
258.102 69.9033 256.602 70.7694 256.102 69.9033 T
258.102 69.9033 257.602 70.7694 256.602 70.7694 T
258.102 69.9033 258.102 69.9033 257.602 70.7694 T
259.504 74.8547 258.004 73.9887 259.004 73.9887 T
259.504 74.8547 257.504 74.8547 258.004 73.9887 T
259.504 74.8547 258.004 75.7208 257.504 74.8547 T
259.504 74.8547 259.004 75.7208 258.004 75.7208 T
259.504 74.8547 259.504 74.8547 259.004 75.7208 T
260.906 71.9966 259.406 71.1305 260.406 71.1305 T
260.906 71.9966 258.906 71.9966 259.406 71.1305 T
260.906 71.9966 259.406 72.8626 258.906 71.9966 T
260.906 71.9966 260.406 72.8626 259.406 72.8626 T
260.906 71.9966 260.906 71.9966 260.406 72.8626 T
262.308 73.6068 260.808 72.7408 261.808 72.7408 T
262.308 73.6068 260.308 73.6068 260.808 72.7408 T
262.308 73.6068 260.808 74.4728 260.308 73.6068 T
262.308 73.6068 261.808 74.4728 260.808 74.4728 T
262.308 73.6068 262.308 73.6068 261.808 74.4728 T
263.71 63.0697 262.21 62.2037 263.21 62.2037 T
263.71 63.0697 261.71 63.0697 262.21 62.2037 T
263.71 63.0697 262.21 63.9357 261.71 63.0697 T
263.71 63.0697 263.21 63.9357 262.21 63.9357 T
263.71 63.0697 263.71 63.0697 263.21 63.9357 T
265.112 59.3282 263.612 58.4622 264.612 58.4622 T
265.112 59.3282 263.112 59.3282 263.612 58.4622 T
265.112 59.3282 263.612 60.1942 263.112 59.3282 T
265.112 59.3282 264.612 60.1942 263.612 60.1942 T
265.112 59.3282 265.112 59.3282 264.612 60.1942 T
266.514 52.1398 265.014 51.2738 266.014 51.2738 T
266.514 52.1398 264.514 52.1398 265.014 51.2738 T
266.514 52.1398 265.014 53.0059 264.514 52.1398 T
266.514 52.1398 266.014 53.0059 265.014 53.0059 T
266.514 52.1398 266.514 52.1398 266.014 53.0059 T
267.916 59.3817 266.416 58.5157 267.416 58.5157 T
267.916 59.3817 265.916 59.3817 266.416 58.5157 T
267.916 59.3817 266.416 60.2477 265.916 59.3817 T
267.916 59.3817 267.416 60.2477 266.416 60.2477 T
267.916 59.3817 267.916 59.3817 267.416 60.2477 T
269.318 50.2658 267.818 49.3998 268.818 49.3998 T
269.318 50.2658 267.318 50.2658 267.818 49.3998 T
269.318 50.2658 267.818 51.1318 267.318 50.2658 T
269.318 50.2658 268.818 51.1318 267.818 51.1318 T
269.318 50.2658 269.318 50.2658 268.818 51.1318 T
270.72 54.7101 269.22 53.8441 270.22 53.8441 T
270.72 54.7101 268.72 54.7101 269.22 53.8441 T
270.72 54.7101 269.22 55.5761 268.72 54.7101 T
270.72 54.7101 270.22 55.5761 269.22 55.5761 T
270.72 54.7101 270.72 54.7101 270.22 55.5761 T
272.122 48.7144 270.622 47.8484 271.622 47.8484 T
272.122 48.7144 270.122 48.7144 270.622 47.8484 T
272.122 48.7144 270.622 49.5804 270.122 48.7144 T
272.122 48.7144 271.622 49.5804 270.622 49.5804 T
272.122 48.7144 272.122 48.7144 271.622 49.5804 T
273.524 47.4121 272.024 46.5461 273.024 46.5461 T
273.524 47.4121 271.524 47.4121 272.024 46.5461 T
273.524 47.4121 272.024 48.2782 271.524 47.4121 T
273.524 47.4121 273.024 48.2782 272.024 48.2782 T
273.524 47.4121 273.524 47.4121 273.024 48.2782 T
274.926 46.9028 273.426 46.0367 274.426 46.0367 T
274.926 46.9028 272.926 46.9028 273.426 46.0367 T
274.926 46.9028 273.426 47.7688 272.926 46.9028 T
274.926 46.9028 274.426 47.7688 273.426 47.7688 T
274.926 46.9028 274.926 46.9028 274.426 47.7688 T
276.328 46.1969 274.828 45.3309 275.828 45.3309 T
276.328 46.1969 274.328 46.1969 274.828 45.3309 T
276.328 46.1969 274.828 47.0629 274.328 46.1969 T
276.328 46.1969 275.828 47.0629 274.828 47.0629 T
276.328 46.1969 276.328 46.1969 275.828 47.0629 T
277.73 44.8931 276.23 44.0271 277.23 44.0271 T
277.73 44.8931 275.73 44.8931 276.23 44.0271 T
277.73 44.8931 276.23 45.7591 275.73 44.8931 T
277.73 44.8931 277.23 45.7591 276.23 45.7591 T
277.73 44.8931 277.73 44.8931 277.23 45.7591 T
279.132 41.796 277.632 40.93 278.632 40.93 T
279.132 41.796 277.132 41.796 277.632 40.93 T
279.132 41.796 277.632 42.6621 277.132 41.796 T
279.132 41.796 278.632 42.6621 277.632 42.6621 T
279.132 41.796 279.132 41.796 278.632 42.6621 T
280.534 39.2461 279.034 38.3801 280.034 38.3801 T
280.534 39.2461 278.534 39.2461 279.034 38.3801 T
280.534 39.2461 279.034 40.1121 278.534 39.2461 T
280.534 39.2461 280.034 40.1121 279.034 40.1121 T
280.534 39.2461 280.534 39.2461 280.034 40.1121 T
281.936 41.5397 280.436 40.6737 281.436 40.6737 T
281.936 41.5397 279.936 41.5397 280.436 40.6737 T
281.936 41.5397 280.436 42.4057 279.936 41.5397 T
281.936 41.5397 281.436 42.4057 280.436 42.4057 T
281.936 41.5397 281.936 41.5397 281.436 42.4057 T
283.338 37.6558 281.838 36.7897 282.838 36.7897 T
283.338 37.6558 281.338 37.6558 281.838 36.7897 T
283.338 37.6558 281.838 38.5218 281.338 37.6558 T
283.338 37.6558 282.838 38.5218 281.838 38.5218 T
283.338 37.6558 283.338 37.6558 282.838 38.5218 T
284.74 41.3223 283.24 40.4563 284.24 40.4563 T
284.74 41.3223 282.74 41.3223 283.24 40.4563 T
284.74 41.3223 283.24 42.1883 282.74 41.3223 T
284.74 41.3223 284.24 42.1883 283.24 42.1883 T
284.74 41.3223 284.74 41.3223 284.24 42.1883 T
286.142 41.7304 284.642 40.8644 285.642 40.8644 T
286.142 41.7304 284.142 41.7304 284.642 40.8644 T
286.142 41.7304 284.642 42.5964 284.142 41.7304 T
286.142 41.7304 285.642 42.5964 284.642 42.5964 T
286.142 41.7304 286.142 41.7304 285.642 42.5964 T
287.544 41.3833 286.044 40.5173 287.044 40.5173 T
287.544 41.3833 285.544 41.3833 286.044 40.5173 T
287.544 41.3833 286.044 42.2493 285.544 41.3833 T
287.544 41.3833 287.044 42.2493 286.044 42.2493 T
287.544 41.3833 287.544 41.3833 287.044 42.2493 T
288.946 40.9812 287.446 40.1152 288.446 40.1152 T
288.946 40.9812 286.946 40.9812 287.446 40.1152 T
288.946 40.9812 287.446 41.8472 286.946 40.9812 T
288.946 40.9812 288.446 41.8472 287.446 41.8472 T
288.946 40.9812 288.946 40.9812 288.446 41.8472 T
290.348 41.59 288.848 40.724 289.848 40.724 T
290.348 41.59 288.348 41.59 288.848 40.724 T
290.348 41.59 288.848 42.456 288.348 41.59 T
290.348 41.59 289.848 42.456 288.848 42.456 T
290.348 41.59 290.348 41.59 289.848 42.456 T
291.75 38.8558 290.25 37.9898 291.25 37.9898 T
291.75 38.8558 289.75 38.8558 290.25 37.9898 T
291.75 38.8558 290.25 39.7218 289.75 38.8558 T
291.75 38.8558 291.25 39.7218 290.25 39.7218 T
291.75 38.8558 291.75 38.8558 291.25 39.7218 T
293.152 45.2781 291.652 44.4121 292.652 44.4121 T
293.152 45.2781 291.152 45.2781 291.652 44.4121 T
293.152 45.2781 291.652 46.1442 291.152 45.2781 T
293.152 45.2781 292.652 46.1442 291.652 46.1442 T
293.152 45.2781 293.152 45.2781 292.652 46.1442 T
294.554 46.0671 293.054 45.2011 294.054 45.2011 T
294.554 46.0671 292.554 46.0671 293.054 45.2011 T
294.554 46.0671 293.054 46.9332 292.554 46.0671 T
294.554 46.0671 294.054 46.9332 293.054 46.9332 T
294.554 46.0671 294.554 46.0671 294.054 46.9332 T
295.956 39.9671 294.456 39.101 295.456 39.101 T
295.956 39.9671 293.956 39.9671 294.456 39.101 T
295.956 39.9671 294.456 40.8331 293.956 39.9671 T
295.956 39.9671 295.456 40.8331 294.456 40.8331 T
295.956 39.9671 295.956 39.9671 295.456 40.8331 T
297.358 53.9511 295.858 53.0851 296.858 53.0851 T
297.358 53.9511 295.358 53.9511 295.858 53.0851 T
297.358 53.9511 295.858 54.8171 295.358 53.9511 T
297.358 53.9511 296.858 54.8171 295.858 54.8171 T
297.358 53.9511 297.358 53.9511 296.858 54.8171 T
298.76 55.4526 297.26 54.5866 298.26 54.5866 T
298.76 55.4526 296.76 55.4526 297.26 54.5866 T
298.76 55.4526 297.26 56.3186 296.76 55.4526 T
298.76 55.4526 298.26 56.3186 297.26 56.3186 T
298.76 55.4526 298.76 55.4526 298.26 56.3186 T
300.162 53.9872 298.662 53.1212 299.662 53.1212 T
300.162 53.9872 298.162 53.9872 298.662 53.1212 T
300.162 53.9872 298.662 54.8532 298.162 53.9872 T
300.162 53.9872 299.662 54.8532 298.662 54.8532 T
300.162 53.9872 300.162 53.9872 299.662 54.8532 T
301.564 58.4281 300.064 57.562 301.064 57.562 T
301.564 58.4281 299.564 58.4281 300.064 57.562 T
301.564 58.4281 300.064 59.2941 299.564 58.4281 T
301.564 58.4281 301.064 59.2941 300.064 59.2941 T
301.564 58.4281 301.564 58.4281 301.064 59.2941 T
302.966 62.6152 301.466 61.7491 302.466 61.7491 T
302.966 62.6152 300.966 62.6152 301.466 61.7491 T
302.966 62.6152 301.466 63.4812 300.966 62.6152 T
302.966 62.6152 302.466 63.4812 301.466 63.4812 T
302.966 62.6152 302.966 62.6152 302.466 63.4812 T
304.368 60.2687 302.868 59.4027 303.868 59.4027 T
304.368 60.2687 302.368 60.2687 302.868 59.4027 T
304.368 60.2687 302.868 61.1348 302.368 60.2687 T
304.368 60.2687 303.868 61.1348 302.868 61.1348 T
304.368 60.2687 304.368 60.2687 303.868 61.1348 T
305.77 68.9454 304.27 68.0794 305.27 68.0794 T
305.77 68.9454 303.77 68.9454 304.27 68.0794 T
305.77 68.9454 304.27 69.8114 303.77 68.9454 T
305.77 68.9454 305.27 69.8114 304.27 69.8114 T
305.77 68.9454 305.77 68.9454 305.27 69.8114 T
307.172 66.6469 305.672 65.7809 306.672 65.7809 T
307.172 66.6469 305.172 66.6469 305.672 65.7809 T
307.172 66.6469 305.672 67.5129 305.172 66.6469 T
307.172 66.6469 306.672 67.5129 305.672 67.5129 T
307.172 66.6469 307.172 66.6469 306.672 67.5129 T
308.574 73.4613 307.074 72.5952 308.074 72.5952 T
308.574 73.4613 306.574 73.4613 307.074 72.5952 T
308.574 73.4613 307.074 74.3273 306.574 73.4613 T
308.574 73.4613 308.074 74.3273 307.074 74.3273 T
308.574 73.4613 308.574 73.4613 308.074 74.3273 T
309.976 76.8951 308.476 76.0291 309.476 76.0291 T
309.976 76.8951 307.976 76.8951 308.476 76.0291 T
309.976 76.8951 308.476 77.7611 307.976 76.8951 T
309.976 76.8951 309.476 77.7611 308.476 77.7611 T
309.976 76.8951 309.976 76.8951 309.476 77.7611 T
311.378 81.1521 309.878 80.286 310.878 80.286 T
311.378 81.1521 309.378 81.1521 309.878 80.286 T
311.378 81.1521 309.878 82.0181 309.378 81.1521 T
311.378 81.1521 310.878 82.0181 309.878 82.0181 T
311.378 81.1521 311.378 81.1521 310.878 82.0181 T
312.78 84.8904 311.28 84.0244 312.28 84.0244 T
312.78 84.8904 310.78 84.8904 311.28 84.0244 T
312.78 84.8904 311.28 85.7564 310.78 84.8904 T
312.78 84.8904 312.28 85.7564 311.28 85.7564 T
312.78 84.8904 312.78 84.8904 312.28 85.7564 T
314.182 88.1062 312.682 87.2402 313.682 87.2402 T
314.182 88.1062 312.182 88.1062 312.682 87.2402 T
314.182 88.1062 312.682 88.9723 312.182 88.1062 T
314.182 88.1062 313.682 88.9723 312.682 88.9723 T
314.182 88.1062 314.182 88.1062 313.682 88.9723 T
315.584 89.0425 314.084 88.1765 315.084 88.1765 T
315.584 89.0425 313.584 89.0425 314.084 88.1765 T
315.584 89.0425 314.084 89.9085 313.584 89.0425 T
315.584 89.0425 315.084 89.9085 314.084 89.9085 T
315.584 89.0425 315.584 89.0425 315.084 89.9085 T
316.986 97.657 315.486 96.791 316.486 96.791 T
316.986 97.657 314.986 97.657 315.486 96.791 T
316.986 97.657 315.486 98.523 314.986 97.657 T
316.986 97.657 316.486 98.523 315.486 98.523 T
316.986 97.657 316.986 97.657 316.486 98.523 T
318.388 99.124 316.888 98.2579 317.888 98.2579 T
318.388 99.124 316.388 99.124 316.888 98.2579 T
318.388 99.124 316.888 99.99 316.388 99.124 T
318.388 99.124 317.888 99.99 316.888 99.99 T
318.388 99.124 318.388 99.124 317.888 99.99 T
319.79 104.445 318.29 103.579 319.29 103.579 T
319.79 104.445 317.79 104.445 318.29 103.579 T
319.79 104.445 318.29 105.311 317.79 104.445 T
319.79 104.445 319.29 105.311 318.29 105.311 T
319.79 104.445 319.79 104.445 319.29 105.311 T
321.192 111.985 319.692 111.119 320.692 111.119 T
321.192 111.985 319.192 111.985 319.692 111.119 T
321.192 111.985 319.692 112.851 319.192 111.985 T
321.192 111.985 320.692 112.851 319.692 112.851 T
321.192 111.985 321.192 111.985 320.692 112.851 T
322.594 113.113 321.094 112.247 322.094 112.247 T
322.594 113.113 320.594 113.113 321.094 112.247 T
322.594 113.113 321.094 113.979 320.594 113.113 T
322.594 113.113 322.094 113.979 321.094 113.979 T
322.594 113.113 322.594 113.113 322.094 113.979 T
323.996 122.52 322.496 121.654 323.496 121.654 T
323.996 122.52 321.996 122.52 322.496 121.654 T
323.996 122.52 322.496 123.386 321.996 122.52 T
323.996 122.52 323.496 123.386 322.496 123.386 T
323.996 122.52 323.996 122.52 323.496 123.386 T
325.398 127.817 323.898 126.951 324.898 126.951 T
325.398 127.817 323.398 127.817 323.898 126.951 T
325.398 127.817 323.898 128.683 323.398 127.817 T
325.398 127.817 324.898 128.683 323.898 128.683 T
325.398 127.817 325.398 127.817 324.898 128.683 T
326.8 130.068 325.3 129.202 326.3 129.202 T
326.8 130.068 324.8 130.068 325.3 129.202 T
326.8 130.068 325.3 130.934 324.8 130.068 T
326.8 130.068 326.3 130.934 325.3 130.934 T
326.8 130.068 326.8 130.068 326.3 130.934 T
47.8 79.065 46.3 78.199 47.3 78.199 T
47.8 79.065 45.8 79.065 46.3 78.199 T
47.8 79.065 46.3 79.931 45.8 79.065 T
47.8 79.065 47.3 79.931 46.3 79.931 T
47.8 79.065 47.8 79.065 47.3 79.931 T
52.5288 79.065 51.0288 78.199 52.0288 78.199 T
52.5288 79.065 50.5288 79.065 51.0288 78.199 T
52.5288 79.065 51.0288 79.931 50.5288 79.065 T
52.5288 79.065 52.0288 79.931 51.0288 79.931 T
52.5288 79.065 52.5288 79.065 52.0288 79.931 T
57.2576 79.065 55.7576 78.199 56.7576 78.199 T
57.2576 79.065 55.2576 79.065 55.7576 78.199 T
57.2576 79.065 55.7576 79.931 55.2576 79.065 T
57.2576 79.065 56.7576 79.931 55.7576 79.931 T
57.2576 79.065 57.2576 79.065 56.7576 79.931 T
61.9864 79.065 60.4864 78.199 61.4864 78.199 T
61.9864 79.065 59.9864 79.065 60.4864 78.199 T
61.9864 79.065 60.4864 79.931 59.9864 79.065 T
61.9864 79.065 61.4864 79.931 60.4864 79.931 T
61.9864 79.065 61.9864 79.065 61.4864 79.931 T
66.7153 79.065 65.2153 78.199 66.2153 78.199 T
66.7153 79.065 64.7153 79.065 65.2153 78.199 T
66.7153 79.065 65.2153 79.931 64.7153 79.065 T
66.7153 79.065 66.2153 79.931 65.2153 79.931 T
66.7153 79.065 66.7153 79.065 66.2153 79.931 T
71.4441 79.065 69.9441 78.199 70.9441 78.199 T
71.4441 79.065 69.4441 79.065 69.9441 78.199 T
71.4441 79.065 69.9441 79.931 69.4441 79.065 T
71.4441 79.065 70.9441 79.931 69.9441 79.931 T
71.4441 79.065 71.4441 79.065 70.9441 79.931 T
76.1729 79.065 74.6729 78.199 75.6729 78.199 T
76.1729 79.065 74.1729 79.065 74.6729 78.199 T
76.1729 79.065 74.6729 79.931 74.1729 79.065 T
76.1729 79.065 75.6729 79.931 74.6729 79.931 T
76.1729 79.065 76.1729 79.065 75.6729 79.931 T
80.9017 79.065 79.4017 78.199 80.4017 78.199 T
80.9017 79.065 78.9017 79.065 79.4017 78.199 T
80.9017 79.065 79.4017 79.931 78.9017 79.065 T
80.9017 79.065 80.4017 79.931 79.4017 79.931 T
80.9017 79.065 80.9017 79.065 80.4017 79.931 T
85.6305 79.065 84.1305 78.199 85.1305 78.199 T
85.6305 79.065 83.6305 79.065 84.1305 78.199 T
85.6305 79.065 84.1305 79.931 83.6305 79.065 T
85.6305 79.065 85.1305 79.931 84.1305 79.931 T
85.6305 79.065 85.6305 79.065 85.1305 79.931 T
90.3593 79.065 88.8593 78.199 89.8593 78.199 T
90.3593 79.065 88.3593 79.065 88.8593 78.199 T
90.3593 79.065 88.8593 79.931 88.3593 79.065 T
90.3593 79.065 89.8593 79.931 88.8593 79.931 T
90.3593 79.065 90.3593 79.065 89.8593 79.931 T
95.0881 79.065 93.5881 78.199 94.5881 78.199 T
95.0881 79.065 93.0881 79.065 93.5881 78.199 T
95.0881 79.065 93.5881 79.931 93.0881 79.065 T
95.0881 79.065 94.5881 79.931 93.5881 79.931 T
95.0881 79.065 95.0881 79.065 94.5881 79.931 T
99.8169 79.065 98.3169 78.199 99.3169 78.199 T
99.8169 79.065 97.8169 79.065 98.3169 78.199 T
99.8169 79.065 98.3169 79.931 97.8169 79.065 T
99.8169 79.065 99.3169 79.931 98.3169 79.931 T
99.8169 79.065 99.8169 79.065 99.3169 79.931 T
104.546 79.065 103.046 78.199 104.046 78.199 T
104.546 79.065 102.546 79.065 103.046 78.199 T
104.546 79.065 103.046 79.931 102.546 79.065 T
104.546 79.065 104.046 79.931 103.046 79.931 T
104.546 79.065 104.546 79.065 104.046 79.931 T
109.275 79.065 107.775 78.199 108.775 78.199 T
109.275 79.065 107.275 79.065 107.775 78.199 T
109.275 79.065 107.775 79.931 107.275 79.065 T
109.275 79.065 108.775 79.931 107.775 79.931 T
109.275 79.065 109.275 79.065 108.775 79.931 T
114.003 79.065 112.503 78.199 113.503 78.199 T
114.003 79.065 112.003 79.065 112.503 78.199 T
114.003 79.065 112.503 79.931 112.003 79.065 T
114.003 79.065 113.503 79.931 112.503 79.931 T
114.003 79.065 114.003 79.065 113.503 79.931 T
118.732 79.065 117.232 78.199 118.232 78.199 T
118.732 79.065 116.732 79.065 117.232 78.199 T
118.732 79.065 117.232 79.931 116.732 79.065 T
118.732 79.065 118.232 79.931 117.232 79.931 T
118.732 79.065 118.732 79.065 118.232 79.931 T
123.461 79.065 121.961 78.199 122.961 78.199 T
123.461 79.065 121.461 79.065 121.961 78.199 T
123.461 79.065 121.961 79.931 121.461 79.065 T
123.461 79.065 122.961 79.931 121.961 79.931 T
123.461 79.065 123.461 79.065 122.961 79.931 T
128.19 79.065 126.69 78.199 127.69 78.199 T
128.19 79.065 126.19 79.065 126.69 78.199 T
128.19 79.065 126.69 79.931 126.19 79.065 T
128.19 79.065 127.69 79.931 126.69 79.931 T
128.19 79.065 128.19 79.065 127.69 79.931 T
132.919 79.065 131.419 78.199 132.419 78.199 T
132.919 79.065 130.919 79.065 131.419 78.199 T
132.919 79.065 131.419 79.931 130.919 79.065 T
132.919 79.065 132.419 79.931 131.419 79.931 T
132.919 79.065 132.919 79.065 132.419 79.931 T
137.647 79.065 136.147 78.199 137.147 78.199 T
137.647 79.065 135.647 79.065 136.147 78.199 T
137.647 79.065 136.147 79.931 135.647 79.065 T
137.647 79.065 137.147 79.931 136.147 79.931 T
137.647 79.065 137.647 79.065 137.147 79.931 T
142.376 79.065 140.876 78.199 141.876 78.199 T
142.376 79.065 140.376 79.065 140.876 78.199 T
142.376 79.065 140.876 79.931 140.376 79.065 T
142.376 79.065 141.876 79.931 140.876 79.931 T
142.376 79.065 142.376 79.065 141.876 79.931 T
147.105 79.065 145.605 78.199 146.605 78.199 T
147.105 79.065 145.105 79.065 145.605 78.199 T
147.105 79.065 145.605 79.931 145.105 79.065 T
147.105 79.065 146.605 79.931 145.605 79.931 T
147.105 79.065 147.105 79.065 146.605 79.931 T
151.834 79.065 150.334 78.199 151.334 78.199 T
151.834 79.065 149.834 79.065 150.334 78.199 T
151.834 79.065 150.334 79.931 149.834 79.065 T
151.834 79.065 151.334 79.931 150.334 79.931 T
151.834 79.065 151.834 79.065 151.334 79.931 T
156.563 79.065 155.063 78.199 156.063 78.199 T
156.563 79.065 154.563 79.065 155.063 78.199 T
156.563 79.065 155.063 79.931 154.563 79.065 T
156.563 79.065 156.063 79.931 155.063 79.931 T
156.563 79.065 156.563 79.065 156.063 79.931 T
161.292 79.065 159.792 78.199 160.792 78.199 T
161.292 79.065 159.292 79.065 159.792 78.199 T
161.292 79.065 159.792 79.931 159.292 79.065 T
161.292 79.065 160.792 79.931 159.792 79.931 T
161.292 79.065 161.292 79.065 160.792 79.931 T
166.02 79.065 164.52 78.199 165.52 78.199 T
166.02 79.065 164.02 79.065 164.52 78.199 T
166.02 79.065 164.52 79.931 164.02 79.065 T
166.02 79.065 165.52 79.931 164.52 79.931 T
166.02 79.065 166.02 79.065 165.52 79.931 T
170.749 79.065 169.249 78.199 170.249 78.199 T
170.749 79.065 168.749 79.065 169.249 78.199 T
170.749 79.065 169.249 79.931 168.749 79.065 T
170.749 79.065 170.249 79.931 169.249 79.931 T
170.749 79.065 170.749 79.065 170.249 79.931 T
175.478 79.065 173.978 78.199 174.978 78.199 T
175.478 79.065 173.478 79.065 173.978 78.199 T
175.478 79.065 173.978 79.931 173.478 79.065 T
175.478 79.065 174.978 79.931 173.978 79.931 T
175.478 79.065 175.478 79.065 174.978 79.931 T
180.207 79.065 178.707 78.199 179.707 78.199 T
180.207 79.065 178.207 79.065 178.707 78.199 T
180.207 79.065 178.707 79.931 178.207 79.065 T
180.207 79.065 179.707 79.931 178.707 79.931 T
180.207 79.065 180.207 79.065 179.707 79.931 T
184.936 79.065 183.436 78.199 184.436 78.199 T
184.936 79.065 182.936 79.065 183.436 78.199 T
184.936 79.065 183.436 79.931 182.936 79.065 T
184.936 79.065 184.436 79.931 183.436 79.931 T
184.936 79.065 184.936 79.065 184.436 79.931 T
189.664 79.065 188.164 78.199 189.164 78.199 T
189.664 79.065 187.664 79.065 188.164 78.199 T
189.664 79.065 188.164 79.931 187.664 79.065 T
189.664 79.065 189.164 79.931 188.164 79.931 T
189.664 79.065 189.664 79.065 189.164 79.931 T
194.393 79.065 192.893 78.199 193.893 78.199 T
194.393 79.065 192.393 79.065 192.893 78.199 T
194.393 79.065 192.893 79.931 192.393 79.065 T
194.393 79.065 193.893 79.931 192.893 79.931 T
194.393 79.065 194.393 79.065 193.893 79.931 T
199.122 79.065 197.622 78.199 198.622 78.199 T
199.122 79.065 197.122 79.065 197.622 78.199 T
199.122 79.065 197.622 79.931 197.122 79.065 T
199.122 79.065 198.622 79.931 197.622 79.931 T
199.122 79.065 199.122 79.065 198.622 79.931 T
203.851 79.065 202.351 78.199 203.351 78.199 T
203.851 79.065 201.851 79.065 202.351 78.199 T
203.851 79.065 202.351 79.931 201.851 79.065 T
203.851 79.065 203.351 79.931 202.351 79.931 T
203.851 79.065 203.851 79.065 203.351 79.931 T
208.58 79.065 207.08 78.199 208.08 78.199 T
208.58 79.065 206.58 79.065 207.08 78.199 T
208.58 79.065 207.08 79.931 206.58 79.065 T
208.58 79.065 208.08 79.931 207.08 79.931 T
208.58 79.065 208.58 79.065 208.08 79.931 T
213.308 79.065 211.808 78.199 212.808 78.199 T
213.308 79.065 211.308 79.065 211.808 78.199 T
213.308 79.065 211.808 79.931 211.308 79.065 T
213.308 79.065 212.808 79.931 211.808 79.931 T
213.308 79.065 213.308 79.065 212.808 79.931 T
218.037 79.065 216.537 78.199 217.537 78.199 T
218.037 79.065 216.037 79.065 216.537 78.199 T
218.037 79.065 216.537 79.931 216.037 79.065 T
218.037 79.065 217.537 79.931 216.537 79.931 T
218.037 79.065 218.037 79.065 217.537 79.931 T
222.766 79.065 221.266 78.199 222.266 78.199 T
222.766 79.065 220.766 79.065 221.266 78.199 T
222.766 79.065 221.266 79.931 220.766 79.065 T
222.766 79.065 222.266 79.931 221.266 79.931 T
222.766 79.065 222.766 79.065 222.266 79.931 T
227.495 79.065 225.995 78.199 226.995 78.199 T
227.495 79.065 225.495 79.065 225.995 78.199 T
227.495 79.065 225.995 79.931 225.495 79.065 T
227.495 79.065 226.995 79.931 225.995 79.931 T
227.495 79.065 227.495 79.065 226.995 79.931 T
232.224 79.065 230.724 78.199 231.724 78.199 T
232.224 79.065 230.224 79.065 230.724 78.199 T
232.224 79.065 230.724 79.931 230.224 79.065 T
232.224 79.065 231.724 79.931 230.724 79.931 T
232.224 79.065 232.224 79.065 231.724 79.931 T
236.953 79.065 235.453 78.199 236.453 78.199 T
236.953 79.065 234.953 79.065 235.453 78.199 T
236.953 79.065 235.453 79.931 234.953 79.065 T
236.953 79.065 236.453 79.931 235.453 79.931 T
236.953 79.065 236.953 79.065 236.453 79.931 T
241.681 79.065 240.181 78.199 241.181 78.199 T
241.681 79.065 239.681 79.065 240.181 78.199 T
241.681 79.065 240.181 79.931 239.681 79.065 T
241.681 79.065 241.181 79.931 240.181 79.931 T
241.681 79.065 241.681 79.065 241.181 79.931 T
246.41 79.065 244.91 78.199 245.91 78.199 T
246.41 79.065 244.41 79.065 244.91 78.199 T
246.41 79.065 244.91 79.931 244.41 79.065 T
246.41 79.065 245.91 79.931 244.91 79.931 T
246.41 79.065 246.41 79.065 245.91 79.931 T
251.139 79.065 249.639 78.199 250.639 78.199 T
251.139 79.065 249.139 79.065 249.639 78.199 T
251.139 79.065 249.639 79.931 249.139 79.065 T
251.139 79.065 250.639 79.931 249.639 79.931 T
251.139 79.065 251.139 79.065 250.639 79.931 T
255.868 79.065 254.368 78.199 255.368 78.199 T
255.868 79.065 253.868 79.065 254.368 78.199 T
255.868 79.065 254.368 79.931 253.868 79.065 T
255.868 79.065 255.368 79.931 254.368 79.931 T
255.868 79.065 255.868 79.065 255.368 79.931 T
260.597 79.065 259.097 78.199 260.097 78.199 T
260.597 79.065 258.597 79.065 259.097 78.199 T
260.597 79.065 259.097 79.931 258.597 79.065 T
260.597 79.065 260.097 79.931 259.097 79.931 T
260.597 79.065 260.597 79.065 260.097 79.931 T
265.325 79.065 263.825 78.199 264.825 78.199 T
265.325 79.065 263.325 79.065 263.825 78.199 T
265.325 79.065 263.825 79.931 263.325 79.065 T
265.325 79.065 264.825 79.931 263.825 79.931 T
265.325 79.065 265.325 79.065 264.825 79.931 T
270.054 79.065 268.554 78.199 269.554 78.199 T
270.054 79.065 268.054 79.065 268.554 78.199 T
270.054 79.065 268.554 79.931 268.054 79.065 T
270.054 79.065 269.554 79.931 268.554 79.931 T
270.054 79.065 270.054 79.065 269.554 79.931 T
274.783 79.065 273.283 78.199 274.283 78.199 T
274.783 79.065 272.783 79.065 273.283 78.199 T
274.783 79.065 273.283 79.931 272.783 79.065 T
274.783 79.065 274.283 79.931 273.283 79.931 T
274.783 79.065 274.783 79.065 274.283 79.931 T
279.512 79.065 278.012 78.199 279.012 78.199 T
279.512 79.065 277.512 79.065 278.012 78.199 T
279.512 79.065 278.012 79.931 277.512 79.065 T
279.512 79.065 279.012 79.931 278.012 79.931 T
279.512 79.065 279.512 79.065 279.012 79.931 T
284.241 79.065 282.741 78.199 283.741 78.199 T
284.241 79.065 282.241 79.065 282.741 78.199 T
284.241 79.065 282.741 79.931 282.241 79.065 T
284.241 79.065 283.741 79.931 282.741 79.931 T
284.241 79.065 284.241 79.065 283.741 79.931 T
288.969 79.065 287.469 78.199 288.469 78.199 T
288.969 79.065 286.969 79.065 287.469 78.199 T
288.969 79.065 287.469 79.931 286.969 79.065 T
288.969 79.065 288.469 79.931 287.469 79.931 T
288.969 79.065 288.969 79.065 288.469 79.931 T
293.698 79.065 292.198 78.199 293.198 78.199 T
293.698 79.065 291.698 79.065 292.198 78.199 T
293.698 79.065 292.198 79.931 291.698 79.065 T
293.698 79.065 293.198 79.931 292.198 79.931 T
293.698 79.065 293.698 79.065 293.198 79.931 T
298.427 79.065 296.927 78.199 297.927 78.199 T
298.427 79.065 296.427 79.065 296.927 78.199 T
298.427 79.065 296.927 79.931 296.427 79.065 T
298.427 79.065 297.927 79.931 296.927 79.931 T
298.427 79.065 298.427 79.065 297.927 79.931 T
303.156 79.065 301.656 78.199 302.656 78.199 T
303.156 79.065 301.156 79.065 301.656 78.199 T
303.156 79.065 301.656 79.931 301.156 79.065 T
303.156 79.065 302.656 79.931 301.656 79.931 T
303.156 79.065 303.156 79.065 302.656 79.931 T
307.885 79.065 306.385 78.199 307.385 78.199 T
307.885 79.065 305.885 79.065 306.385 78.199 T
307.885 79.065 306.385 79.931 305.885 79.065 T
307.885 79.065 307.385 79.931 306.385 79.931 T
307.885 79.065 307.885 79.065 307.385 79.931 T
312.614 79.065 311.114 78.199 312.114 78.199 T
312.614 79.065 310.614 79.065 311.114 78.199 T
312.614 79.065 311.114 79.931 310.614 79.065 T
312.614 79.065 312.114 79.931 311.114 79.931 T
312.614 79.065 312.614 79.065 312.114 79.931 T
317.342 79.065 315.842 78.199 316.842 78.199 T
317.342 79.065 315.342 79.065 315.842 78.199 T
317.342 79.065 315.842 79.931 315.342 79.065 T
317.342 79.065 316.842 79.931 315.842 79.931 T
317.342 79.065 317.342 79.065 316.842 79.931 T
322.071 79.065 320.571 78.199 321.571 78.199 T
322.071 79.065 320.071 79.065 320.571 78.199 T
322.071 79.065 320.571 79.931 320.071 79.065 T
322.071 79.065 321.571 79.931 320.571 79.931 T
322.071 79.065 322.071 79.065 321.571 79.931 T
326.8 79.065 325.3 78.199 326.3 78.199 T
326.8 79.065 324.8 79.065 325.3 78.199 T
326.8 79.065 325.3 79.931 324.8 79.065 T
326.8 79.065 326.3 79.931 325.3 79.931 T
326.8 79.065 326.8 79.065 326.3 79.931 T
0 LC
1 LJ
[] 0 setdash
0.85 0.325 0.098 C
46.8 130.41 LS
47.4993 132.472 L
48.1985 134.558 L
48.8978 136.663 L
49.597 138.788 L
50.2962 140.928 L
50.9955 143.083 L
51.6948 145.25 L
52.394 147.426 L
53.0932 149.611 L
53.7925 151.801 L
54.4917 153.994 L
55.191 156.188 L
55.8902 158.382 L
56.5895 160.572 L
57.2887 162.757 L
57.988 164.934 L
58.6872 167.102 L
59.3865 169.258 L
60.0857 171.401 L
60.785 173.527 L
61.4842 175.635 L
62.1835 177.722 L
62.8827 179.787 L
63.582 181.827 L
64.2812 183.84 L
64.9805 185.824 L
65.6797 187.777 L
66.379 189.697 L
67.0782 191.581 L
67.7775 193.427 L
68.4767 195.234 L
69.1759 196.998 L
69.8752 198.718 L
70.5744 200.392 L
71.2737 202.017 L
71.9729 203.592 L
72.6722 205.114 L
73.3714 206.58 L
74.0707 207.99 L
74.7699 209.34 L
75.4692 210.629 L
76.1684 211.854 L
76.8677 213.014 L
77.5669 214.105 L
78.2662 215.126 L
78.9654 216.075 L
79.6647 216.95 L
80.3639 217.748 L
81.0632 218.467 L
81.7624 219.106 L
82.4617 219.666 L
83.1609 220.148 L
83.8602 220.553 L
84.5594 220.883 L
85.2587 221.14 L
85.9579 221.324 L
86.6572 221.437 L
87.3564 221.48 L
88.0557 221.454 L
88.7549 221.362 L
89.4541 221.203 L
90.1534 220.98 L
90.8526 220.694 L
91.5519 220.346 L
92.2511 219.938 L
92.9504 219.47 L
93.6496 218.945 L
94.3489 218.363 L
95.0481 217.726 L
95.7474 217.035 L
96.4466 216.291 L
97.1459 215.497 L
97.8451 214.652 L
98.5444 213.759 L
99.2436 212.819 L
99.9429 211.833 L
100.642 210.803 L
101.341 209.729 L
102.041 208.613 L
102.74 207.457 L
103.439 206.262 L
104.138 205.029 L
104.838 203.76 L
105.537 202.455 L
106.236 201.117 L
106.935 199.746 L
107.635 198.343 L
108.334 196.911 L
109.033 195.451 L
109.732 193.963 L
110.432 192.45 L
111.131 190.912 L
111.83 189.35 L
112.529 187.767 L
113.229 186.164 L
113.928 184.541 L
114.627 182.9 L
115.326 181.243 L
116.026 179.571 L
116.725 177.885 L
117.424 176.186 L
118.123 174.476 L
118.823 172.757 L
119.522 171.029 L
120.221 169.295 L
120.92 167.555 L
121.62 165.81 L
122.319 164.063 L
123.018 162.315 L
123.717 160.567 L
124.417 158.821 L
125.116 157.077 L
125.815 155.338 L
126.514 153.604 L
127.214 151.878 L
127.913 150.16 L
128.612 148.451 L
129.311 146.755 L
130.011 145.071 L
130.71 143.401 L
131.409 141.746 L
132.108 140.109 L
132.808 138.49 L
133.507 136.89 L
134.206 135.312 L
134.905 133.756 L
135.605 132.224 L
136.304 130.717 L
137.003 129.238 L
137.702 127.786 L
138.402 126.364 L
139.101 124.972 L
139.8 123.613 L
140.499 122.288 L
141.199 120.998 L
141.898 119.744 L
142.597 118.529 L
143.296 117.352 L
143.995 116.216 L
144.695 115.123 L
145.394 114.073 L
146.093 113.068 L
146.792 112.109 L
147.492 111.198 L
148.191 110.336 L
148.89 109.525 L
149.589 108.765 L
150.289 108.059 L
150.988 107.408 L
151.687 106.812 L
152.386 106.271 L
153.086 105.784 L
153.785 105.35 L
154.484 104.968 L
155.183 104.635 L
155.883 104.353 L
156.582 104.118 L
157.281 103.93 L
157.98 103.789 L
158.68 103.692 L
159.379 103.639 L
160.078 103.629 L
160.777 103.66 L
161.477 103.731 L
162.176 103.842 L
162.875 103.991 L
163.574 104.176 L
164.274 104.398 L
164.973 104.654 L
165.672 104.944 L
166.371 105.267 L
167.071 105.62 L
167.77 106.004 L
168.469 106.417 L
169.168 106.859 L
169.868 107.327 L
170.567 107.82 L
171.266 108.339 L
171.965 108.881 L
172.665 109.445 L
173.364 110.03 L
174.063 110.636 L
174.762 111.261 L
175.462 111.903 L
176.161 112.562 L
176.86 113.237 L
177.559 113.927 L
178.259 114.63 L
178.958 115.345 L
179.657 116.071 L
180.356 116.807 L
181.056 117.552 L
181.755 118.305 L
182.454 119.065 L
183.153 119.83 L
183.853 120.599 L
184.552 121.372 L
185.251 122.147 L
185.95 122.923 L
186.65 123.699 L
187.349 124.474 L
188.048 125.246 L
188.747 126.016 L
189.447 126.781 L
190.146 127.54 L
190.845 128.293 L
191.544 129.039 L
192.244 129.777 L
192.943 130.505 L
193.642 131.222 L
194.341 131.928 L
195.041 132.622 L
195.74 133.301 L
196.439 133.966 L
197.138 134.616 L
197.838 135.248 L
198.537 135.863 L
199.236 136.459 L
199.935 137.035 L
200.635 137.59 L
201.334 138.124 L
202.033 138.634 L
202.732 139.12 L
203.432 139.582 L
204.131 140.017 L
204.83 140.425 L
205.529 140.805 L
206.229 141.156 L
206.928 141.476 L
207.627 141.765 L
208.326 142.022 L
209.026 142.246 L
209.725 142.435 L
210.424 142.589 L
211.123 142.706 L
211.823 142.786 L
212.522 142.827 L
213.221 142.829 L
213.92 142.79 L
214.62 142.709 L
215.319 142.586 L
216.018 142.419 L
216.717 142.207 L
217.417 141.949 L
218.116 141.645 L
218.815 141.292 L
219.514 140.891 L
220.214 140.44 L
220.913 139.938 L
221.612 139.383 L
222.311 138.776 L
223.011 138.118 L
223.71 137.409 L
224.409 136.652 L
225.108 135.849 L
225.808 135 L
226.507 134.107 L
227.206 133.172 L
227.905 132.196 L
228.605 131.182 L
229.304 130.13 L
230.003 129.042 L
230.702 127.92 L
231.402 126.765 L
232.101 125.578 L
232.8 124.362 L
233.499 123.119 L
234.199 121.848 L
234.898 120.553 L
235.597 119.234 L
236.296 117.894 L
236.995 116.533 L
237.695 115.154 L
238.394 113.757 L
239.093 112.345 L
239.792 110.919 L
240.492 109.481 L
241.191 108.032 L
241.89 106.573 L
242.589 105.107 L
243.289 103.635 L
243.988 102.158 L
244.687 100.678 L
245.386 99.1972 L
246.086 97.7161 L
246.785 96.2367 L
247.484 94.7606 L
248.183 93.2894 L
248.883 91.8245 L
249.582 90.3676 L
250.281 88.9203 L
250.98 87.4841 L
251.68 86.0605 L
252.379 84.6512 L
253.078 83.2577 L
253.777 81.8815 L
254.477 80.5243 L
255.176 79.1876 L
255.875 77.873 L
256.574 76.5819 L
257.274 75.3152 L
257.973 74.0731 L
258.672 72.8561 L
259.371 71.6646 L
260.071 70.4989 L
260.77 69.3595 L
261.469 68.2466 L
262.168 67.1607 L
262.868 66.1021 L
263.567 65.0713 L
264.266 64.0686 L
264.965 63.0944 L
265.665 62.1491 L
266.364 61.233 L
267.063 60.3465 L
267.762 59.4901 L
268.462 58.6641 L
269.161 57.8688 L
269.86 57.1047 L
270.559 56.3721 L
271.259 55.6714 L
271.958 55.003 L
272.657 54.3673 L
273.356 53.7647 L
274.056 53.1954 L
274.755 52.66 L
275.454 52.1588 L
276.153 51.6921 L
276.853 51.2604 L
277.552 50.8641 L
278.251 50.5034 L
278.95 50.1788 L
279.65 49.8907 L
280.349 49.6394 L
281.048 49.4254 L
281.747 49.249 L
282.447 49.1105 L
283.146 49.0105 L
283.845 48.9491 L
284.544 48.9269 L
285.244 48.9442 L
285.943 49.0014 L
286.642 49.0989 L
287.341 49.237 L
288.041 49.4162 L
288.74 49.6367 L
289.439 49.899 L
290.138 50.2035 L
290.838 50.5505 L
291.537 50.9405 L
292.236 51.3738 L
292.935 51.8507 L
293.635 52.3717 L
294.334 52.9371 L
295.033 53.5474 L
295.732 54.2027 L
296.432 54.9037 L
297.131 55.6505 L
297.83 56.4437 L
298.529 57.2835 L
299.229 58.1703 L
299.928 59.1045 L
300.627 60.0866 L
301.326 61.1168 L
302.026 62.1955 L
302.725 63.3231 L
303.424 64.5 L
304.123 65.7265 L
304.823 67.0031 L
305.522 68.33 L
306.221 69.7077 L
306.92 71.1366 L
307.62 72.617 L
308.319 74.1492 L
309.018 75.7337 L
309.717 77.3709 L
310.417 79.061 L
311.116 80.8046 L
311.815 82.6019 L
312.514 84.4533 L
313.214 86.3592 L
313.913 88.32 L
314.612 90.336 L
315.311 92.4076 L
316.011 94.5353 L
316.71 96.7193 L
317.409 98.96 L
318.108 101.258 L
318.808 103.613 L
319.507 106.026 L
320.206 108.498 L
320.905 111.028 L
321.605 113.617 L
322.304 116.265 L
323.003 118.973 L
323.702 121.741 L
324.402 124.57 L
325.101 127.459 L
325.8 130.41 LE
0.929 0.694 0.125 C
46.8 130.41 LS
47.4993 132.833 L
48.1985 135.251 L
48.8978 137.663 L
49.597 140.068 L
50.2962 142.465 L
50.9955 144.852 L
51.6948 147.227 L
52.394 149.59 L
53.0932 151.938 L
53.7925 154.271 L
54.4917 156.587 L
55.191 158.884 L
55.8902 161.162 L
56.5895 163.419 L
57.2887 165.653 L
57.988 167.862 L
58.6872 170.047 L
59.3865 172.205 L
60.0857 174.334 L
60.785 176.434 L
61.4842 178.503 L
62.1835 180.539 L
62.8827 182.542 L
63.582 184.509 L
64.2812 186.44 L
64.9805 188.332 L
65.6797 190.185 L
66.379 191.998 L
67.0782 193.768 L
67.7775 195.494 L
68.4767 197.176 L
69.1759 198.81 L
69.8752 200.397 L
70.5744 201.935 L
71.2737 203.422 L
71.9729 204.857 L
72.6722 206.239 L
73.3714 207.565 L
74.0707 208.835 L
74.7699 210.048 L
75.4692 211.201 L
76.1684 212.294 L
76.8677 213.325 L
77.5669 214.293 L
78.2662 215.196 L
78.9654 216.033 L
79.6647 216.802 L
80.3639 217.502 L
81.0632 218.132 L
81.7624 218.691 L
82.4617 219.18 L
83.1609 219.599 L
83.8602 219.951 L
84.5594 220.235 L
85.2587 220.454 L
85.9579 220.608 L
86.6572 220.699 L
87.3564 220.727 L
88.0557 220.694 L
88.7549 220.601 L
89.4541 220.45 L
90.1534 220.24 L
90.8526 219.974 L
91.5519 219.652 L
92.2511 219.275 L
92.9504 218.846 L
93.6496 218.364 L
94.3489 217.831 L
95.0481 217.249 L
95.7474 216.617 L
96.4466 215.938 L
97.1459 215.213 L
97.8451 214.442 L
98.5444 213.627 L
99.2436 212.769 L
99.9429 211.869 L
100.642 210.929 L
101.341 209.948 L
102.041 208.93 L
102.74 207.873 L
103.439 206.781 L
104.138 205.653 L
104.838 204.491 L
105.537 203.297 L
106.236 202.071 L
106.935 200.814 L
107.635 199.528 L
108.334 198.213 L
109.033 196.872 L
109.732 195.504 L
110.432 194.111 L
111.131 192.695 L
111.83 191.256 L
112.529 189.795 L
113.229 188.314 L
113.928 186.814 L
114.627 185.296 L
115.326 183.76 L
116.026 182.209 L
116.725 180.643 L
117.424 179.064 L
118.123 177.473 L
118.823 175.87 L
119.522 174.259 L
120.221 172.639 L
120.92 171.013 L
121.62 169.381 L
122.319 167.745 L
123.018 166.107 L
123.717 164.468 L
124.417 162.828 L
125.116 161.19 L
125.815 159.555 L
126.514 157.925 L
127.214 156.299 L
127.913 154.681 L
128.612 153.071 L
129.311 151.471 L
130.011 149.882 L
130.71 148.305 L
131.409 146.742 L
132.108 145.194 L
132.808 143.663 L
133.507 142.149 L
134.206 140.655 L
134.905 139.181 L
135.605 137.729 L
136.304 136.301 L
137.003 134.897 L
137.702 133.52 L
138.402 132.169 L
139.101 130.848 L
139.8 129.556 L
140.499 128.297 L
141.199 127.07 L
141.898 125.877 L
142.597 124.72 L
143.296 123.599 L
143.995 122.517 L
144.695 121.475 L
145.394 120.474 L
146.093 119.515 L
146.792 118.6 L
147.492 117.73 L
148.191 116.907 L
148.89 116.132 L
149.589 115.405 L
150.289 114.73 L
150.988 114.106 L
151.687 113.535 L
152.386 113.017 L
153.086 112.55 L
153.785 112.132 L
154.484 111.764 L
155.183 111.445 L
155.883 111.172 L
156.582 110.945 L
157.281 110.763 L
157.98 110.626 L
158.68 110.531 L
159.379 110.478 L
160.078 110.466 L
160.777 110.494 L
161.477 110.561 L
162.176 110.666 L
162.875 110.807 L
163.574 110.984 L
164.274 111.196 L
164.973 111.442 L
165.672 111.72 L
166.371 112.03 L
167.071 112.37 L
167.77 112.74 L
168.469 113.139 L
169.168 113.565 L
169.868 114.017 L
170.567 114.495 L
171.266 114.997 L
171.965 115.523 L
172.665 116.071 L
173.364 116.64 L
174.063 117.23 L
174.762 117.839 L
175.462 118.466 L
176.161 119.11 L
176.86 119.77 L
177.559 120.446 L
178.259 121.136 L
178.958 121.838 L
179.657 122.553 L
180.356 123.279 L
181.056 124.014 L
181.755 124.759 L
182.454 125.511 L
183.153 126.271 L
183.853 127.036 L
184.552 127.806 L
185.251 128.58 L
185.95 129.356 L
186.65 130.135 L
187.349 130.913 L
188.048 131.692 L
188.747 132.469 L
189.447 133.243 L
190.146 134.013 L
190.845 134.778 L
191.544 135.536 L
192.244 136.288 L
192.943 137.031 L
193.642 137.764 L
194.341 138.487 L
195.041 139.198 L
195.74 139.896 L
196.439 140.579 L
197.138 141.248 L
197.838 141.9 L
198.537 142.534 L
199.236 143.15 L
199.935 143.746 L
200.635 144.321 L
201.334 144.874 L
202.033 145.404 L
202.732 145.909 L
203.432 146.389 L
204.131 146.842 L
204.83 147.267 L
205.529 147.664 L
206.229 148.03 L
206.928 148.365 L
207.627 148.668 L
208.326 148.937 L
209.026 149.172 L
209.725 149.371 L
210.424 149.534 L
211.123 149.658 L
211.823 149.743 L
212.522 149.788 L
213.221 149.791 L
213.92 149.752 L
214.62 149.669 L
215.319 149.541 L
216.018 149.368 L
216.717 149.147 L
217.417 148.878 L
218.116 148.559 L
218.815 148.191 L
219.514 147.77 L
220.214 147.297 L
220.913 146.77 L
221.612 146.187 L
222.311 145.549 L
223.011 144.857 L
223.71 144.111 L
224.409 143.313 L
225.108 142.465 L
225.808 141.569 L
226.507 140.625 L
227.206 139.636 L
227.905 138.603 L
228.605 137.528 L
229.304 136.411 L
230.003 135.255 L
230.702 134.062 L
231.402 132.831 L
232.101 131.566 L
232.8 130.268 L
233.499 128.937 L
234.199 127.577 L
234.898 126.187 L
235.597 124.771 L
236.296 123.328 L
236.995 121.862 L
237.695 120.373 L
238.394 118.862 L
239.093 117.332 L
239.792 115.784 L
240.492 114.22 L
241.191 112.64 L
241.89 111.047 L
242.589 109.442 L
243.289 107.827 L
243.988 106.202 L
244.687 104.57 L
245.386 102.933 L
246.086 101.291 L
246.785 99.6457 L
247.484 97.9996 L
248.183 96.3537 L
248.883 94.7096 L
249.582 93.0687 L
250.281 91.4327 L
250.98 89.803 L
251.68 88.1812 L
252.379 86.5688 L
253.078 84.9673 L
253.777 83.3783 L
254.477 81.8032 L
255.176 80.2437 L
255.875 78.7012 L
256.574 77.1771 L
257.274 75.6727 L
257.973 74.1888 L
258.672 72.7263 L
259.371 71.2861 L
260.071 69.869 L
260.77 68.476 L
261.469 67.108 L
262.168 65.7658 L
262.868 64.4504 L
263.567 63.1626 L
264.266 61.9033 L
264.965 60.6734 L
265.665 59.4738 L
266.364 58.3055 L
267.063 57.1692 L
267.762 56.0659 L
268.462 54.9965 L
269.161 53.9619 L
269.86 52.9629 L
270.559 52.0004 L
271.259 51.0754 L
271.958 50.1888 L
272.657 49.3414 L
273.356 48.534 L
274.056 47.7677 L
274.755 47.0433 L
275.454 46.3617 L
276.153 45.7238 L
276.853 45.1304 L
277.552 44.5825 L
278.251 44.081 L
278.95 43.6267 L
279.65 43.2206 L
280.349 42.8635 L
281.048 42.5563 L
281.747 42.2999 L
282.447 42.0953 L
283.146 41.9432 L
283.845 41.8447 L
284.544 41.8005 L
285.244 41.8116 L
285.943 41.8789 L
286.642 42.0032 L
287.341 42.1855 L
288.041 42.4266 L
288.74 42.7275 L
289.439 43.089 L
290.138 43.512 L
290.838 43.9974 L
291.537 44.5462 L
292.236 45.1589 L
292.935 45.835 L
293.635 46.5735 L
294.334 47.3734 L
295.033 48.2337 L
295.732 49.1533 L
296.432 50.1313 L
297.131 51.1666 L
297.83 52.2582 L
298.529 53.405 L
299.229 54.6062 L
299.928 55.8605 L
300.627 57.1672 L
301.326 58.525 L
302.026 59.933 L
302.725 61.3902 L
303.424 62.8956 L
304.123 64.4481 L
304.823 66.0467 L
305.522 67.6904 L
306.221 69.3783 L
306.92 71.1092 L
307.62 72.8822 L
308.319 74.6962 L
309.018 76.5502 L
309.717 78.4433 L
310.417 80.3743 L
311.116 82.3423 L
311.815 84.3463 L
312.514 86.3852 L
313.214 88.458 L
313.913 90.5638 L
314.612 92.7014 L
315.311 94.8699 L
316.011 97.0682 L
316.71 99.2954 L
317.409 101.55 L
318.108 103.832 L
318.808 106.14 L
319.507 108.472 L
320.206 110.828 L
320.905 113.207 L
321.605 115.608 L
322.304 118.029 L
323.003 120.47 L
323.702 122.929 L
324.402 125.407 L
325.101 127.901 L
325.8 130.41 LE
0.494 0.184 0.556 C
46.8 130.41 LS
47.4993 131.175 L
48.1985 131.996 L
48.8978 132.868 L
49.597 133.79 L
50.2962 134.759 L
50.9955 135.773 L
51.6948 136.829 L
52.394 137.925 L
53.0932 139.058 L
53.7925 140.226 L
54.4917 141.426 L
55.191 142.656 L
55.8902 143.914 L
56.5895 145.196 L
57.2887 146.501 L
57.988 147.825 L
58.6872 149.168 L
59.3865 150.525 L
60.0857 151.894 L
60.785 153.274 L
61.4842 154.661 L
62.1835 156.054 L
62.8827 157.449 L
63.582 158.844 L
64.2812 160.236 L
64.9805 161.624 L
65.6797 163.005 L
66.379 164.376 L
67.0782 165.734 L
67.7775 167.078 L
68.4767 168.404 L
69.1759 169.711 L
69.8752 170.995 L
70.5744 172.255 L
71.2737 173.488 L
71.9729 174.691 L
72.6722 175.862 L
73.3714 176.999 L
74.0707 178.098 L
74.7699 179.158 L
75.4692 180.176 L
76.1684 181.149 L
76.8677 182.076 L
77.5669 182.953 L
78.2662 183.778 L
78.9654 184.548 L
79.6647 185.262 L
80.3639 185.917 L
81.0632 186.509 L
81.7624 187.038 L
82.4617 187.505 L
83.1609 187.91 L
83.8602 188.254 L
84.5594 188.539 L
85.2587 188.766 L
85.9579 188.935 L
86.6572 189.049 L
87.3564 189.108 L
88.0557 189.113 L
88.7549 189.066 L
89.4541 188.967 L
90.1534 188.817 L
90.8526 188.619 L
91.5519 188.372 L
92.2511 188.079 L
92.9504 187.739 L
93.6496 187.355 L
94.3489 186.927 L
95.0481 186.457 L
95.7474 185.946 L
96.4466 185.394 L
97.1459 184.803 L
97.8451 184.174 L
98.5444 183.508 L
99.2436 182.807 L
99.9429 182.071 L
100.642 181.302 L
101.341 180.5 L
102.041 179.667 L
102.74 178.804 L
103.439 177.911 L
104.138 176.992 L
104.838 176.045 L
105.537 175.073 L
106.236 174.076 L
106.935 173.056 L
107.635 172.014 L
108.334 170.95 L
109.033 169.867 L
109.732 168.765 L
110.432 167.645 L
111.131 166.509 L
111.83 165.357 L
112.529 164.19 L
113.229 163.011 L
113.928 161.819 L
114.627 160.617 L
115.326 159.405 L
116.026 158.184 L
116.725 156.955 L
117.424 155.72 L
118.123 154.479 L
118.823 153.233 L
119.522 151.984 L
120.221 150.732 L
120.92 149.478 L
121.62 148.223 L
122.319 146.968 L
123.018 145.714 L
123.717 144.462 L
124.417 143.212 L
125.116 141.966 L
125.815 140.724 L
126.514 139.488 L
127.214 138.258 L
127.913 137.035 L
128.612 135.821 L
129.311 134.615 L
130.011 133.42 L
130.71 132.236 L
131.409 131.063 L
132.108 129.903 L
132.808 128.757 L
133.507 127.626 L
134.206 126.51 L
134.905 125.411 L
135.605 124.328 L
136.304 123.265 L
137.003 122.22 L
137.702 121.195 L
138.402 120.192 L
139.101 119.211 L
139.8 118.252 L
140.499 117.317 L
141.199 116.407 L
141.898 115.523 L
142.597 114.665 L
143.296 113.834 L
143.995 113.032 L
144.695 112.259 L
145.394 111.517 L
146.093 110.805 L
146.792 110.126 L
147.492 109.48 L
148.191 108.867 L
148.89 108.29 L
149.589 107.748 L
150.289 107.243 L
150.988 106.775 L
151.687 106.346 L
152.386 105.954 L
153.086 105.599 L
153.785 105.281 L
154.484 104.998 L
155.183 104.751 L
155.883 104.537 L
156.582 104.357 L
157.281 104.21 L
157.98 104.095 L
158.68 104.011 L
159.379 103.958 L
160.078 103.935 L
160.777 103.941 L
161.477 103.976 L
162.176 104.039 L
162.875 104.129 L
163.574 104.245 L
164.274 104.387 L
164.973 104.554 L
165.672 104.746 L
166.371 104.961 L
167.071 105.199 L
167.77 105.459 L
168.469 105.741 L
169.168 106.043 L
169.868 106.366 L
170.567 106.708 L
171.266 107.069 L
171.965 107.448 L
172.665 107.844 L
173.364 108.256 L
174.063 108.685 L
174.762 109.128 L
175.462 109.586 L
176.161 110.058 L
176.86 110.543 L
177.559 111.04 L
178.259 111.549 L
178.958 112.069 L
179.657 112.599 L
180.356 113.138 L
181.056 113.687 L
181.755 114.243 L
182.454 114.807 L
183.153 115.377 L
183.853 115.954 L
184.552 116.536 L
185.251 117.122 L
185.95 117.712 L
186.65 118.305 L
187.349 118.901 L
188.048 119.498 L
188.747 120.096 L
189.447 120.693 L
190.146 121.288 L
190.845 121.881 L
191.544 122.471 L
192.244 123.057 L
192.943 123.637 L
193.642 124.211 L
194.341 124.778 L
195.041 125.337 L
195.74 125.887 L
196.439 126.427 L
197.138 126.956 L
197.838 127.473 L
198.537 127.977 L
199.236 128.468 L
199.935 128.944 L
200.635 129.404 L
201.334 129.848 L
202.033 130.274 L
202.732 130.682 L
203.432 131.07 L
204.131 131.438 L
204.83 131.784 L
205.529 132.109 L
206.229 132.41 L
206.928 132.687 L
207.627 132.939 L
208.326 133.164 L
209.026 133.363 L
209.725 133.534 L
210.424 133.676 L
211.123 133.788 L
211.823 133.87 L
212.522 133.919 L
213.221 133.936 L
213.92 133.92 L
214.62 133.869 L
215.319 133.782 L
216.018 133.659 L
216.717 133.499 L
217.417 133.3 L
218.116 133.062 L
218.815 132.783 L
219.514 132.464 L
220.214 132.102 L
220.913 131.697 L
221.612 131.249 L
222.311 130.755 L
223.011 130.218 L
223.71 129.638 L
224.409 129.018 L
225.108 128.357 L
225.808 127.657 L
226.507 126.919 L
227.206 126.146 L
227.905 125.337 L
228.605 124.495 L
229.304 123.62 L
230.003 122.713 L
230.702 121.777 L
231.402 120.811 L
232.101 119.818 L
232.8 118.799 L
233.499 117.754 L
234.199 116.686 L
234.898 115.595 L
235.597 114.482 L
236.296 113.35 L
236.995 112.198 L
237.695 111.029 L
238.394 109.843 L
239.093 108.642 L
239.792 107.428 L
240.492 106.2 L
241.191 104.961 L
241.89 103.712 L
242.589 102.454 L
243.289 101.188 L
243.988 99.9154 L
244.687 98.6377 L
245.386 97.3561 L
246.086 96.0716 L
246.785 94.7857 L
247.484 93.4994 L
248.183 92.2141 L
248.883 90.931 L
249.582 89.6514 L
250.281 88.3764 L
250.98 87.1073 L
251.68 85.8455 L
252.379 84.592 L
253.078 83.3482 L
253.777 82.1153 L
254.477 80.8945 L
255.176 79.6871 L
255.875 78.4943 L
256.574 77.3174 L
257.274 76.157 L
257.973 75.0138 L
258.672 73.8884 L
259.371 72.7812 L
260.071 71.693 L
260.77 70.6241 L
261.469 69.5753 L
262.168 68.547 L
262.868 67.5398 L
263.567 66.5544 L
264.266 65.5912 L
264.965 64.6509 L
265.665 63.734 L
266.364 62.841 L
267.063 61.9726 L
267.762 61.1293 L
268.462 60.3116 L
269.161 59.5202 L
269.86 58.7556 L
270.559 58.0183 L
271.259 57.309 L
271.958 56.6282 L
272.657 55.9765 L
273.356 55.3544 L
274.056 54.7625 L
274.755 54.2014 L
275.454 53.6717 L
276.153 53.1738 L
276.853 52.7084 L
277.552 52.276 L
278.251 51.8773 L
278.95 51.5127 L
279.65 51.1829 L
280.349 50.8883 L
281.048 50.6297 L
281.747 50.4074 L
282.447 50.2222 L
283.146 50.0746 L
283.845 49.9651 L
284.544 49.8943 L
285.244 49.8628 L
285.943 49.8711 L
286.642 49.9198 L
287.341 50.0095 L
288.041 50.1408 L
288.74 50.3141 L
289.439 50.5302 L
290.138 50.7894 L
290.838 51.0925 L
291.537 51.44 L
292.236 51.8323 L
292.935 52.27 L
293.635 52.7534 L
294.334 53.2828 L
295.033 53.8585 L
295.732 54.481 L
296.432 55.1505 L
297.131 55.8675 L
297.83 56.6322 L
298.529 57.4451 L
299.229 58.3064 L
299.928 59.2165 L
300.627 60.1758 L
301.326 61.1847 L
302.026 62.2434 L
302.725 63.3523 L
303.424 64.5118 L
304.123 65.7222 L
304.823 66.9839 L
305.522 68.2971 L
306.221 69.6624 L
306.92 71.08 L
307.62 72.5502 L
308.319 74.0735 L
309.018 75.6501 L
309.717 77.2805 L
310.417 78.9649 L
311.116 80.7038 L
311.815 82.4974 L
312.514 84.3461 L
313.214 86.2503 L
313.913 88.2103 L
314.612 90.2265 L
315.311 92.2992 L
316.011 94.4288 L
316.71 96.6156 L
317.409 98.86 L
318.108 101.162 L
318.808 103.523 L
319.507 105.942 L
320.206 108.42 L
320.905 110.958 L
321.605 113.555 L
322.304 116.212 L
323.003 118.929 L
323.702 121.708 L
324.402 124.547 L
325.101 127.448 L
325.8 130.41 LE
grestore
gsave
1.0 1.0 scale
newpath 0 0 moveto 360 0 lineto 360 252 lineto 0 252 lineto
closepath clip
1 1 1 C
211.79 222.431 315.131 161.092 211.79 161.092 T
211.79 222.431 315.131 222.431 315.131 161.092 T
0.5 W
2 LC
[16 0] 0 setdash
0.15 0.15 0.15 C
211.79 161.092 LS
315.131 161.092 LE
211.79 222.431 LS
315.131 222.431 LE
211.79 161.092 LS
211.79 222.431 LE
315.131 161.092 LS
315.131 222.431 LE
gsave
0 0 0 C
(data with outliers) [5 5 3 5 2 7 2 3 5 2 5 5 3 2 2 5 3 10] 0 238.019 211.263 9 /Helvetica SRX
grestore

gsave
0 0 0 C
(robust, beta = 0.25) [3 5 5 5 4 3 3 2 5 5 3 5 2 5 2 5 2 5 10] 0 238.019 196.429 9 /Helvetica SRX
grestore

gsave
0 0 0 C
(robust, beta = 0.75) [3 5 5 5 4 3 3 2 5 5 3 5 2 5 2 5 2 5 10] 0 238.019 181.094 9 /Helvetica SRX
grestore

gsave
0 0 0 C
(no robust fitting) [5 5 2 3 5 5 5 4 3 2 3 2 3 3 2 5 10] 0 238.019 165.759 9 /Helvetica SRX
grestore

0 0.447 0.741 C
225.904 214.763 224.404 213.897 225.404 213.897 T
225.904 214.763 223.904 214.763 224.404 213.897 T
225.904 214.763 224.404 215.629 223.904 214.763 T
225.904 214.763 225.404 215.629 224.404 215.629 T
225.904 214.763 225.904 214.763 225.404 215.629 T
0 LC
1 LJ
[] 0 setdash
0.85 0.325 0.098 C
214.902 199.429 LS
234.907 199.429 LE
0.929 0.694 0.125 C
214.902 184.094 LS
234.907 184.094 LE
0.494 0.184 0.556 C
214.902 168.759 LS
234.907 168.759 LE
grestore
grestore
showpage
cleartomark
%%PageTrailer
%%Trailer
end
%%EOF
