%!PS-Adobe-3.0 EPSF-3.0
%%Title: gl2ps_renderer figure
%%Creator: GL2PS 1.4.0, (C) 1999-2017 C. Geuzaine
%%For: Octave
%%CreationDate: Sat Feb 23 18:52:08 2019
%%LanguageLevel: 3
%%DocumentData: Clean7Bit
%%Pages: 1
%%BoundingBox: 0 0 360 252
%%EndComments
%%BeginProlog
/gl2psdict 64 dict def gl2psdict begin
/tryPS3shading false def % set to false to force subdivision
/rThreshold 0.064 def % red component subdivision threshold
/gThreshold 0.034 def % green component subdivision threshold
/bThreshold 0.1 def % blue component subdivision threshold
/BD { bind def } bind def
/C  { setrgbcolor } BD
/G  { 0.082 mul exch 0.6094 mul add exch 0.3086 mul add neg 1.0 add setgray } BD
/W  { setlinewidth } BD
/LC  { setlinecap } BD
/LJ  { setlinejoin } BD
/FC { findfont exch /SH exch def SH scalefont setfont } BD
/SW { dup stringwidth pop } BD
/S  { FC moveto show } BD
/SBC{ FC moveto SW -2 div 0 rmoveto show } BD
/SBR{ FC moveto SW neg 0 rmoveto show } BD
/SCL{ FC moveto 0 SH -2 div rmoveto show } BD
/SCC{ FC moveto SW -2 div SH -2 div rmoveto show } BD
/SCR{ FC moveto SW neg SH -2 div rmoveto show } BD
/STL{ FC moveto 0 SH neg rmoveto show } BD
/STC{ FC moveto SW -2 div SH neg rmoveto show } BD
/STR{ FC moveto SW neg SH neg rmoveto show } BD
/FCT { FC translate 0 0 } BD
/SR  { gsave FCT moveto rotate show grestore } BD
/SRX  { gsave FCT moveto rotate xshow grestore } BD
/SBCR{ gsave FCT moveto rotate SW -2 div 0 rmoveto show grestore } BD
/SBRR{ gsave FCT moveto rotate SW neg 0 rmoveto show grestore } BD
/SCLR{ gsave FCT moveto rotate 0 SH -2 div rmoveto show grestore} BD
/SCCR{ gsave FCT moveto rotate SW -2 div SH -2 div rmoveto show grestore} BD
/SCRR{ gsave FCT moveto rotate SW neg SH -2 div rmoveto show grestore} BD
/STLR{ gsave FCT moveto rotate 0 SH neg rmoveto show grestore } BD
/STCR{ gsave FCT moveto rotate SW -2 div SH neg rmoveto show grestore } BD
/STRR{ gsave FCT moveto rotate SW neg SH neg rmoveto show grestore } BD
/P  { newpath 0.0 360.0 arc closepath fill } BD
/LS { newpath moveto } BD
/L  { lineto } BD
/LE { lineto stroke } BD
/T  { newpath moveto lineto lineto closepath fill } BD
/STshfill {
      /b1 exch def /g1 exch def /r1 exch def /y1 exch def /x1 exch def
      /b2 exch def /g2 exch def /r2 exch def /y2 exch def /x2 exch def
      /b3 exch def /g3 exch def /r3 exch def /y3 exch def /x3 exch def
      gsave << /ShadingType 4 /ColorSpace [/DeviceRGB]
      /DataSource [ 0 x1 y1 r1 g1 b1 0 x2 y2 r2 g2 b2 0 x3 y3 r3 g3 b3 ] >>
      shfill grestore } BD
/Tm { 3 -1 roll 8 -1 roll 13 -1 roll add add 3 div
      3 -1 roll 7 -1 roll 11 -1 roll add add 3 div
      3 -1 roll 6 -1 roll 9 -1 roll add add 3 div C T } BD
/STsplit {
      4 index 15 index add 0.5 mul
      4 index 15 index add 0.5 mul
      4 index 15 index add 0.5 mul
      4 index 15 index add 0.5 mul
      4 index 15 index add 0.5 mul
      5 copy 5 copy 25 15 roll
      9 index 30 index add 0.5 mul
      9 index 30 index add 0.5 mul
      9 index 30 index add 0.5 mul
      9 index 30 index add 0.5 mul
      9 index 30 index add 0.5 mul
      5 copy 5 copy 35 5 roll 25 5 roll 15 5 roll
      4 index 10 index add 0.5 mul
      4 index 10 index add 0.5 mul
      4 index 10 index add 0.5 mul
      4 index 10 index add 0.5 mul
      4 index 10 index add 0.5 mul
      5 copy 5 copy 40 5 roll 25 5 roll 15 5 roll 25 5 roll
      STnoshfill STnoshfill STnoshfill STnoshfill } BD
/STnoshfill {
      2 index 8 index sub abs rThreshold gt
      { STsplit }
      { 1 index 7 index sub abs gThreshold gt
        { STsplit }
        { dup 6 index sub abs bThreshold gt
          { STsplit }
          { 2 index 13 index sub abs rThreshold gt
            { STsplit }
            { 1 index 12 index sub abs gThreshold gt
              { STsplit }
              { dup 11 index sub abs bThreshold gt
                { STsplit }
                { 7 index 13 index sub abs rThreshold gt
                  { STsplit }
                  { 6 index 12 index sub abs gThreshold gt
                    { STsplit }
                    { 5 index 11 index sub abs bThreshold gt
                      { STsplit }
                      { Tm }
                      ifelse }
                    ifelse }
                  ifelse }
                ifelse }
              ifelse }
            ifelse }
          ifelse }
        ifelse }
      ifelse } BD
tryPS3shading
{ /shfill where
  { /ST { STshfill } BD }
  { /ST { STnoshfill } BD }
  ifelse }
{ /ST { STnoshfill } BD }
ifelse
end
%%EndProlog
%%BeginSetup
/DeviceRGB setcolorspace
gl2psdict begin
%%EndSetup
%%Page: 1 1
%%BeginPageSetup
%%EndPageSetup
mark
gsave
1.0 1.0 scale
1 1 1 C
newpath 0 0 moveto 360 0 lineto 360 252 lineto 0 252 lineto
closepath fill
gsave
1.0 1.0 scale
1 1 1 C
newpath 0 0 moveto 360 0 lineto 360 252 lineto 0 252 lineto
closepath fill
newpath 0 0 moveto 360 0 lineto 360 252 lineto 0 252 lineto
closepath clip
1 1 1 C
46.8 233.1 325.8 27.72 46.8 27.72 T
46.8 233.1 325.8 233.1 325.8 27.72 T
0.5 W
0.15 0.15 0.15 C
46.8 27.72 LS
46.8 30.5152 LE
46.8 233.1 LS
46.8 230.305 LE
91.2042 27.72 LS
91.2042 30.5152 LE
91.2042 233.1 LS
91.2042 230.305 LE
135.608 27.72 LS
135.608 30.5152 LE
135.608 233.1 LS
135.608 230.305 LE
180.013 27.72 LS
180.013 30.5152 LE
180.013 233.1 LS
180.013 230.305 LE
224.417 27.72 LS
224.417 30.5152 LE
224.417 233.1 LS
224.417 230.305 LE
268.821 27.72 LS
268.821 30.5152 LE
268.821 233.1 LS
268.821 230.305 LE
313.225 27.72 LS
313.225 30.5152 LE
313.225 233.1 LS
313.225 230.305 LE
gsave
0.14902 0.14902 0.14902 C
(0) [10] 0 43.8 12.2061 10 /Helvetica SRX
grestore

gsave
0.14902 0.14902 0.14902 C
(1) [10] 0 88.2042 12.2061 10 /Helvetica SRX
grestore

gsave
0.14902 0.14902 0.14902 C
(2) [10] 0 132.608 12.2061 10 /Helvetica SRX
grestore

gsave
0.14902 0.14902 0.14902 C
(3) [10] 0 177.013 12.2061 10 /Helvetica SRX
grestore

gsave
0.14902 0.14902 0.14902 C
(4) [10] 0 221.417 12.2061 10 /Helvetica SRX
grestore

gsave
0.14902 0.14902 0.14902 C
(5) [10] 0 265.821 12.2061 10 /Helvetica SRX
grestore

gsave
0.14902 0.14902 0.14902 C
(6) [10] 0 310.225 12.2061 10 /Helvetica SRX
grestore

46.8 27.72 LS
49.59 27.72 LE
325.8 27.72 LS
323.01 27.72 LE
46.8 61.95 LS
49.59 61.95 LE
325.8 61.95 LS
323.01 61.95 LE
46.8 96.18 LS
49.59 96.18 LE
325.8 96.18 LS
323.01 96.18 LE
46.8 130.41 LS
49.59 130.41 LE
325.8 130.41 LS
323.01 130.41 LE
46.8 164.64 LS
49.59 164.64 LE
325.8 164.64 LS
323.01 164.64 LE
46.8 198.87 LS
49.59 198.87 LE
325.8 198.87 LS
323.01 198.87 LE
46.8 233.1 LS
49.59 233.1 LE
325.8 233.1 LS
323.01 233.1 LE
gsave
0.14902 0.14902 0.14902 C
(-1.5) [3 6 3 10] 0 23.8 23.72 10 /Helvetica SRX
grestore

gsave
0.14902 0.14902 0.14902 C
(-1) [3 10] 0 32.8 57.95 10 /Helvetica SRX
grestore

gsave
0.14902 0.14902 0.14902 C
(-0.5) [3 6 3 10] 0 23.8 92.18 10 /Helvetica SRX
grestore

gsave
0.14902 0.14902 0.14902 C
(0) [10] 0 35.8 126.41 10 /Helvetica SRX
grestore

gsave
0.14902 0.14902 0.14902 C
(0.5) [6 3 10] 0 26.8 160.64 10 /Helvetica SRX
grestore

gsave
0.14902 0.14902 0.14902 C
(1) [10] 0 35.8 194.87 10 /Helvetica SRX
grestore

gsave
0.14902 0.14902 0.14902 C
(1.5) [6 3 10] 0 26.8 229.1 10 /Helvetica SRX
grestore

2 LC
[16 0] 0 setdash
46.8 27.72 LS
325.8 27.72 LE
46.8 233.1 LS
325.8 233.1 LE
46.8 27.72 LS
46.8 233.1 LE
325.8 27.72 LS
325.8 233.1 LE
0 0.447 0.741 C
85.2876 180.142 83.7876 179.276 84.7876 179.276 T
85.2876 180.142 83.2876 180.142 83.7876 179.276 T
85.2876 180.142 83.7876 181.008 83.2876 180.142 T
85.2876 180.142 84.7876 181.008 83.7876 181.008 T
85.2876 180.142 85.2876 180.142 84.7876 181.008 T
284.234 60.9631 282.734 60.0971 283.734 60.0971 T
284.234 60.9631 282.234 60.9631 282.734 60.0971 T
284.234 60.9631 282.734 61.8291 282.234 60.9631 T
284.234 60.9631 283.734 61.8291 282.734 61.8291 T
284.234 60.9631 284.234 60.9631 283.734 61.8291 T
260.893 128.942 259.393 128.076 260.393 128.076 T
260.893 128.942 258.893 128.942 259.393 128.076 T
260.893 128.942 259.393 129.808 258.893 128.942 T
260.893 128.942 260.393 129.808 259.393 129.808 T
260.893 128.942 260.893 128.942 260.393 129.808 T
118.964 130.173 117.464 129.307 118.464 129.307 T
118.964 130.173 116.964 130.173 117.464 129.307 T
118.964 130.173 117.464 131.039 116.964 130.173 T
118.964 130.173 118.464 131.039 117.464 131.039 T
118.964 130.173 118.964 130.173 118.464 131.039 T
186.026 123.4 184.526 122.534 185.526 122.534 T
186.026 123.4 184.026 123.4 184.526 122.534 T
186.026 123.4 184.526 124.266 184.026 123.4 T
186.026 123.4 185.526 124.266 184.526 124.266 T
186.026 123.4 186.026 123.4 185.526 124.266 T
173.208 84.9874 171.708 84.1213 172.708 84.1213 T
173.208 84.9874 171.208 84.9874 171.708 84.1213 T
173.208 84.9874 171.708 85.8534 171.208 84.9874 T
173.208 84.9874 172.708 85.8534 171.708 85.8534 T
173.208 84.9874 173.208 84.9874 172.708 85.8534 T
229.594 192.177 228.094 191.311 229.094 191.311 T
229.594 192.177 227.594 192.177 228.094 191.311 T
229.594 192.177 228.094 193.043 227.594 192.177 T
229.594 192.177 229.094 193.043 228.094 193.043 T
229.594 192.177 229.594 192.177 229.094 193.043 T
267.854 102.132 266.354 101.266 267.354 101.266 T
267.854 102.132 265.854 102.132 266.354 101.266 T
267.854 102.132 266.354 102.998 265.854 102.132 T
267.854 102.132 267.354 102.998 266.354 102.998 T
267.854 102.132 267.854 102.132 267.354 102.998 T
73.9868 205.274 72.4868 204.408 73.4868 204.408 T
73.9868 205.274 71.9868 205.274 72.4868 204.408 T
73.9868 205.274 72.4868 206.14 71.9868 205.274 T
73.9868 205.274 73.4868 206.14 72.4868 206.14 T
73.9868 205.274 73.9868 205.274 73.4868 206.14 T
55.709 156.868 54.209 156.002 55.209 156.002 T
55.709 156.868 53.709 156.868 54.209 156.002 T
55.709 156.868 54.209 157.734 53.709 156.868 T
55.709 156.868 55.209 157.734 54.209 157.734 T
55.709 156.868 55.709 156.868 55.209 157.734 T
280.978 70.2301 279.478 69.3641 280.478 69.3641 T
280.978 70.2301 278.978 70.2301 279.478 69.3641 T
280.978 70.2301 279.478 71.0961 278.978 70.2301 T
280.978 70.2301 280.478 71.0961 279.478 71.0961 T
280.978 70.2301 280.978 70.2301 280.478 71.0961 T
168.542 71.2395 167.042 70.3734 168.042 70.3734 T
168.542 71.2395 166.542 71.2395 167.042 70.3734 T
168.542 71.2395 167.042 72.1055 166.542 71.2395 T
168.542 71.2395 168.042 72.1055 167.042 72.1055 T
168.542 71.2395 168.542 71.2395 168.042 72.1055 T
260.476 127.998 258.976 127.132 259.976 127.132 T
260.476 127.998 258.476 127.998 258.976 127.132 T
260.476 127.998 258.976 128.864 258.476 127.998 T
260.476 127.998 259.976 128.864 258.976 128.864 T
260.476 127.998 260.476 127.998 259.976 128.864 T
48.3876 123.871 46.8876 123.005 47.8876 123.005 T
48.3876 123.871 46.3876 123.871 46.8876 123.005 T
48.3876 123.871 46.8876 124.737 46.3876 123.871 T
48.3876 123.871 47.8876 124.737 46.8876 124.737 T
48.3876 123.871 48.3876 123.871 47.8876 124.737 T
172.063 87.7638 170.563 86.8977 171.563 86.8977 T
172.063 87.7638 170.063 87.7638 170.563 86.8977 T
172.063 87.7638 170.563 88.6298 170.063 87.7638 T
172.063 87.7638 171.563 88.6298 170.563 88.6298 T
172.063 87.7638 172.063 87.7638 171.563 88.6298 T
249.11 150.399 247.61 149.533 248.61 149.533 T
249.11 150.399 247.11 150.399 247.61 149.533 T
249.11 150.399 247.61 151.265 247.11 150.399 T
249.11 150.399 248.61 151.265 247.61 151.265 T
249.11 150.399 249.11 150.399 248.61 151.265 T
111.625 154.14 110.125 153.274 111.125 153.274 T
111.625 154.14 109.625 154.14 110.125 153.274 T
111.625 154.14 110.125 155.006 109.625 154.14 T
111.625 154.14 111.125 155.006 110.125 155.006 T
111.625 154.14 111.625 154.14 111.125 155.006 T
311.531 86.3832 310.031 85.5171 311.031 85.5171 T
311.531 86.3832 309.531 86.3832 310.031 85.5171 T
311.531 86.3832 310.031 87.2492 309.531 86.3832 T
311.531 86.3832 311.031 87.2492 310.031 87.2492 T
311.531 86.3832 311.531 86.3832 311.031 87.2492 T
299.298 73.9974 297.798 73.1314 298.798 73.1314 T
299.298 73.9974 297.298 73.9974 297.798 73.1314 T
299.298 73.9974 297.798 74.8634 297.298 73.9974 T
299.298 73.9974 298.798 74.8634 297.798 74.8634 T
299.298 73.9974 299.298 73.9974 298.798 74.8634 T
56.3346 154.885 54.8346 154.019 55.8346 154.019 T
56.3346 154.885 54.3346 154.885 54.8346 154.019 T
56.3346 154.885 54.8346 155.751 54.3346 154.885 T
56.3346 154.885 55.8346 155.751 54.8346 155.751 T
56.3346 154.885 56.3346 154.885 55.8346 155.751 T
54.8994 153.728 53.3994 152.862 54.3994 152.862 T
54.8994 153.728 52.8994 153.728 53.3994 152.862 T
54.8994 153.728 53.3994 154.594 52.8994 153.728 T
54.8994 153.728 54.3994 154.594 53.3994 154.594 T
54.8994 153.728 54.8994 153.728 54.3994 154.594 T
198.854 166.743 197.354 165.877 198.354 165.877 T
198.854 166.743 196.854 166.743 197.354 165.877 T
198.854 166.743 197.354 167.609 196.854 166.743 T
198.854 166.743 198.354 167.609 197.354 167.609 T
198.854 166.743 198.854 166.743 198.354 167.609 T
309.823 66.5178 308.323 65.6518 309.323 65.6518 T
309.823 66.5178 307.823 66.5178 308.323 65.6518 T
309.823 66.5178 308.323 67.3839 307.823 66.5178 T
309.823 66.5178 309.323 67.3839 308.323 67.3839 T
309.823 66.5178 309.823 66.5178 309.323 67.3839 T
154.156 59.2623 152.656 58.3963 153.656 58.3963 T
154.156 59.2623 152.156 59.2623 152.656 58.3963 T
154.156 59.2623 152.656 60.1284 152.156 59.2623 T
154.156 59.2623 153.656 60.1284 152.656 60.1284 T
154.156 59.2623 154.156 59.2623 153.656 60.1284 T
108.231 155.514 106.731 154.648 107.731 154.648 T
108.231 155.514 106.231 155.514 106.731 154.648 T
108.231 155.514 106.731 156.38 106.231 155.514 T
108.231 155.514 107.731 156.38 106.731 156.38 T
108.231 155.514 108.231 155.514 107.731 156.38 T
165.571 69.4897 164.071 68.6237 165.071 68.6237 T
165.571 69.4897 163.571 69.4897 164.071 68.6237 T
165.571 69.4897 164.071 70.3557 163.571 69.4897 T
165.571 69.4897 165.071 70.3557 164.071 70.3557 T
165.571 69.4897 165.571 69.4897 165.071 70.3557 T
55.9024 154.532 54.4024 153.666 55.4024 153.666 T
55.9024 154.532 53.9024 154.532 54.4024 153.666 T
55.9024 154.532 54.4024 155.398 53.9024 154.532 T
55.9024 154.532 55.4024 155.398 54.4024 155.398 T
55.9024 154.532 55.9024 154.532 55.4024 155.398 T
109.652 160.115 108.152 159.249 109.152 159.249 T
109.652 160.115 107.652 160.115 108.152 159.249 T
109.652 160.115 108.152 160.981 107.652 160.115 T
109.652 160.115 109.152 160.981 108.152 160.981 T
109.652 160.115 109.652 160.115 109.152 160.981 T
169.971 83.6455 168.471 82.7794 169.471 82.7794 T
169.971 83.6455 167.971 83.6455 168.471 82.7794 T
169.971 83.6455 168.471 84.5115 167.971 83.6455 T
169.971 83.6455 169.471 84.5115 168.471 84.5115 T
169.971 83.6455 169.971 83.6455 169.471 84.5115 T
186.132 125.024 184.632 124.158 185.632 124.158 T
186.132 125.024 184.132 125.024 184.632 124.158 T
186.132 125.024 184.632 125.89 184.132 125.024 T
186.132 125.024 185.632 125.89 184.632 125.89 T
186.132 125.024 186.132 125.024 185.632 125.89 T
112.831 145.64 111.331 144.774 112.331 144.774 T
112.831 145.64 110.831 145.64 111.331 144.774 T
112.831 145.64 111.331 146.506 110.831 145.64 T
112.831 145.64 112.331 146.506 111.331 146.506 T
112.831 145.64 112.831 145.64 112.331 146.506 T
112.212 153.047 110.712 152.181 111.712 152.181 T
112.212 153.047 110.212 153.047 110.712 152.181 T
112.212 153.047 110.712 153.913 110.212 153.047 T
112.212 153.047 111.712 153.913 110.712 153.913 T
112.212 153.047 112.212 153.047 111.712 153.913 T
108.84 154.313 107.34 153.447 108.34 153.447 T
108.84 154.313 106.84 154.313 107.34 153.447 T
108.84 154.313 107.34 155.179 106.84 154.313 T
108.84 154.313 108.34 155.179 107.34 155.179 T
108.84 154.313 108.84 154.313 108.34 155.179 T
176.029 99.2765 174.529 98.4105 175.529 98.4105 T
176.029 99.2765 174.029 99.2765 174.529 98.4105 T
176.029 99.2765 174.529 100.143 174.029 99.2765 T
176.029 99.2765 175.529 100.143 174.529 100.143 T
176.029 99.2765 176.029 99.2765 175.529 100.143 T
128.649 95.7162 127.149 94.8502 128.149 94.8502 T
128.649 95.7162 126.649 95.7162 127.149 94.8502 T
128.649 95.7162 127.149 96.5823 126.649 95.7162 T
128.649 95.7162 128.149 96.5823 127.149 96.5823 T
128.649 95.7162 128.649 95.7162 128.149 96.5823 T
53.7956 143.658 52.2956 142.792 53.2956 142.792 T
53.7956 143.658 51.7956 143.658 52.2956 142.792 T
53.7956 143.658 52.2956 144.524 51.7956 143.658 T
53.7956 143.658 53.2956 144.524 52.2956 144.524 T
53.7956 143.658 53.7956 143.658 53.2956 144.524 T
281.484 62.9495 279.984 62.0835 280.984 62.0835 T
281.484 62.9495 279.484 62.9495 279.984 62.0835 T
281.484 62.9495 279.984 63.8155 279.484 62.9495 T
281.484 62.9495 280.984 63.8155 279.984 63.8155 T
281.484 62.9495 281.484 62.9495 280.984 63.8155 T
203.051 175.079 201.551 174.213 202.551 174.213 T
203.051 175.079 201.051 175.079 201.551 174.213 T
203.051 175.079 201.551 175.945 201.051 175.079 T
203.051 175.079 202.551 175.945 201.551 175.945 T
203.051 175.079 203.051 175.079 202.551 175.945 T
227 192.752 225.5 191.886 226.5 191.886 T
227 192.752 225 192.752 225.5 191.886 T
227 192.752 225.5 193.618 225 192.752 T
227 192.752 226.5 193.618 225.5 193.618 T
227 192.752 227 192.752 226.5 193.618 T
99.6679 189.739 98.1678 188.873 99.1678 188.873 T
99.6679 189.739 97.6678 189.739 98.1678 188.873 T
99.6679 189.739 98.1678 190.605 97.6678 189.739 T
99.6679 189.739 99.1678 190.605 98.1678 190.605 T
99.6679 189.739 99.6679 189.739 99.1678 190.605 T
324.72 124.716 323.22 123.85 324.22 123.85 T
324.72 124.716 322.72 124.716 323.22 123.85 T
324.72 124.716 323.22 125.582 322.72 124.716 T
324.72 124.716 324.22 125.582 323.22 125.582 T
324.72 124.716 324.72 124.716 324.22 125.582 T
287.725 72.5108 286.225 71.6448 287.225 71.6448 T
287.725 72.5108 285.725 72.5108 286.225 71.6448 T
287.725 72.5108 286.225 73.3768 285.725 72.5108 T
287.725 72.5108 287.225 73.3768 286.225 73.3768 T
287.725 72.5108 287.725 72.5108 287.225 73.3768 T
81.5283 181.131 80.0283 180.265 81.0283 180.265 T
81.5283 181.131 79.5283 181.131 80.0283 180.265 T
81.5283 181.131 80.0283 181.997 79.5283 181.131 T
81.5283 181.131 81.0283 181.997 80.0283 181.997 T
81.5283 181.131 81.5283 181.131 81.0283 181.997 T
140.622 81.3945 139.122 80.5284 140.122 80.5284 T
140.622 81.3945 138.622 81.3945 139.122 80.5284 T
140.622 81.3945 139.122 82.2605 138.622 81.3945 T
140.622 81.3945 140.122 82.2605 139.122 82.2605 T
140.622 81.3945 140.622 81.3945 140.122 82.2605 T
249.094 148.635 247.594 147.769 248.594 147.769 T
249.094 148.635 247.094 148.635 247.594 147.769 T
249.094 148.635 247.594 149.501 247.094 148.635 T
249.094 148.635 248.594 149.501 247.594 149.501 T
249.094 148.635 249.094 148.635 248.594 149.501 T
246.223 162.4 244.723 161.534 245.723 161.534 T
246.223 162.4 244.223 162.4 244.723 161.534 T
246.223 162.4 244.723 163.266 244.223 162.4 T
246.223 162.4 245.723 163.266 244.723 163.266 T
246.223 162.4 246.223 162.4 245.723 163.266 T
309.067 86.3639 307.567 85.4979 308.567 85.4979 T
309.067 86.3639 307.067 86.3639 307.567 85.4979 T
309.067 86.3639 307.567 87.23 307.067 86.3639 T
309.067 86.3639 308.567 87.23 307.567 87.23 T
309.067 86.3639 309.067 86.3639 308.567 87.23 T
165.568 62.6612 164.068 61.7952 165.068 61.7952 T
165.568 62.6612 163.568 62.6612 164.068 61.7952 T
165.568 62.6612 164.068 63.5272 163.568 62.6612 T
165.568 62.6612 165.068 63.5272 164.068 63.5272 T
165.568 62.6612 165.568 62.6612 165.068 63.5272 T
279.38 65.8396 277.88 64.9736 278.88 64.9736 T
279.38 65.8396 277.38 65.8396 277.88 64.9736 T
279.38 65.8396 277.88 66.7056 277.38 65.8396 T
279.38 65.8396 278.88 66.7056 277.88 66.7056 T
279.38 65.8396 279.38 65.8396 278.88 66.7056 T
234.815 191.238 233.315 190.372 234.315 190.372 T
234.815 191.238 232.815 191.238 233.315 190.372 T
234.815 191.238 233.315 192.104 232.815 191.238 T
234.815 191.238 234.315 192.104 233.315 192.104 T
234.815 191.238 234.815 191.238 234.315 192.104 T
132.44 83.0427 130.94 82.1766 131.94 82.1766 T
132.44 83.0427 130.44 83.0427 130.94 82.1766 T
132.44 83.0427 130.94 83.9087 130.44 83.0427 T
132.44 83.0427 131.94 83.9087 130.94 83.9087 T
132.44 83.0427 132.44 83.0427 131.94 83.9087 T
211.735 178.247 210.235 177.381 211.235 177.381 T
211.735 178.247 209.735 178.247 210.235 177.381 T
211.735 178.247 210.235 179.113 209.735 178.247 T
211.735 178.247 211.235 179.113 210.235 179.113 T
211.735 178.247 211.735 178.247 211.235 179.113 T
294.012 59.2736 292.512 58.4076 293.512 58.4076 T
294.012 59.2736 292.012 59.2736 292.512 58.4076 T
294.012 59.2736 292.512 60.1396 292.012 59.2736 T
294.012 59.2736 293.512 60.1396 292.512 60.1396 T
294.012 59.2736 294.012 59.2736 293.512 60.1396 T
283.889 56.8763 282.389 56.0102 283.389 56.0102 T
283.889 56.8763 281.889 56.8763 282.389 56.0102 T
283.889 56.8763 282.389 57.7423 281.889 56.8763 T
283.889 56.8763 283.389 57.7423 282.389 57.7423 T
283.889 56.8763 283.889 56.8763 283.389 57.7423 T
188.774 129.254 187.274 128.388 188.274 128.388 T
188.774 129.254 186.774 129.254 187.274 128.388 T
188.774 129.254 187.274 130.12 186.774 129.254 T
188.774 129.254 188.274 130.12 187.274 130.12 T
188.774 129.254 188.774 129.254 188.274 130.12 T
212.132 204.563 210.632 203.697 211.632 203.697 T
212.132 204.563 210.132 204.563 210.632 203.697 T
212.132 204.563 210.632 205.429 210.132 204.563 T
212.132 204.563 211.632 205.429 210.632 205.429 T
212.132 204.563 212.132 204.563 211.632 205.429 T
57.4327 149.778 55.9327 148.912 56.9327 148.912 T
57.4327 149.778 55.4327 149.778 55.9327 148.912 T
57.4327 149.778 55.9327 150.644 55.4327 149.778 T
57.4327 149.778 56.9327 150.644 55.9327 150.644 T
57.4327 149.778 57.4327 149.778 56.9327 150.644 T
115.524 144.218 114.024 143.352 115.024 143.352 T
115.524 144.218 113.524 144.218 114.024 143.352 T
115.524 144.218 114.024 145.084 113.524 144.218 T
115.524 144.218 115.024 145.084 114.024 145.084 T
115.524 144.218 115.524 144.218 115.024 145.084 T
270.276 80.5982 268.776 79.7322 269.776 79.7322 T
270.276 80.5982 268.276 80.5982 268.776 79.7322 T
270.276 80.5982 268.776 81.4643 268.276 80.5982 T
270.276 80.5982 269.776 81.4643 268.776 81.4643 T
270.276 80.5982 270.276 80.5982 269.776 81.4643 T
163.394 66.2752 161.894 65.4091 162.894 65.4091 T
163.394 66.2752 161.394 66.2752 161.894 65.4091 T
163.394 66.2752 161.894 67.1412 161.394 66.2752 T
163.394 66.2752 162.894 67.1412 161.894 67.1412 T
163.394 66.2752 163.394 66.2752 162.894 67.1412 T
96.0691 180.328 94.5691 179.462 95.5691 179.462 T
96.0691 180.328 94.0691 180.328 94.5691 179.462 T
96.0691 180.328 94.5691 181.195 94.0691 180.328 T
96.0691 180.328 95.5691 181.195 94.5691 181.195 T
96.0691 180.328 96.0691 180.328 95.5691 181.195 T
200.915 162.03 199.415 161.164 200.415 161.164 T
200.915 162.03 198.915 162.03 199.415 161.164 T
200.915 162.03 199.415 162.896 198.915 162.03 T
200.915 162.03 200.415 162.896 199.415 162.896 T
200.915 162.03 200.915 162.03 200.415 162.896 T
243.948 171.091 242.448 170.225 243.448 170.225 T
243.948 171.091 241.948 171.091 242.448 170.225 T
243.948 171.091 242.448 171.957 241.948 171.091 T
243.948 171.091 243.448 171.957 242.448 171.957 T
243.948 171.091 243.948 171.091 243.448 171.957 T
235.982 180.327 234.482 179.461 235.482 179.461 T
235.982 180.327 233.982 180.327 234.482 179.461 T
235.982 180.327 234.482 181.193 233.982 180.327 T
235.982 180.327 235.482 181.193 234.482 181.193 T
235.982 180.327 235.982 180.327 235.482 181.193 T
152.342 50.2196 150.842 49.3535 151.842 49.3535 T
152.342 50.2196 150.342 50.2196 150.842 49.3535 T
152.342 50.2196 150.842 51.0856 150.342 50.2196 T
152.342 50.2196 151.842 51.0856 150.842 51.0856 T
152.342 50.2196 152.342 50.2196 151.842 51.0856 T
170.27 83.5368 168.77 82.6708 169.77 82.6708 T
170.27 83.5368 168.27 83.5368 168.77 82.6708 T
170.27 83.5368 168.77 84.4029 168.27 83.5368 T
170.27 83.5368 169.77 84.4029 168.77 84.4029 T
170.27 83.5368 170.27 83.5368 169.77 84.4029 T
189.651 131 188.151 130.134 189.151 130.134 T
189.651 131 187.651 131 188.151 130.134 T
189.651 131 188.151 131.866 187.651 131 T
189.651 131 189.151 131.866 188.151 131.866 T
189.651 131 189.651 131 189.151 131.866 T
264.986 114.775 263.486 113.909 264.486 113.909 T
264.986 114.775 262.986 114.775 263.486 113.909 T
264.986 114.775 263.486 115.641 262.986 114.775 T
264.986 114.775 264.486 115.641 263.486 115.641 T
264.986 114.775 264.986 114.775 264.486 115.641 T
193.142 156.426 191.642 155.56 192.642 155.56 T
193.142 156.426 191.142 156.426 191.642 155.56 T
193.142 156.426 191.642 157.292 191.142 156.426 T
193.142 156.426 192.642 157.292 191.642 157.292 T
193.142 156.426 193.142 156.426 192.642 157.292 T
157.518 78.194 156.018 77.328 157.018 77.328 T
157.518 78.194 155.518 78.194 156.018 77.328 T
157.518 78.194 156.018 79.06 155.518 78.194 T
157.518 78.194 157.018 79.06 156.018 79.06 T
157.518 78.194 157.518 78.194 157.018 79.06 T
184.424 129.469 182.924 128.603 183.924 128.603 T
184.424 129.469 182.424 129.469 182.924 128.603 T
184.424 129.469 182.924 130.335 182.424 129.469 T
184.424 129.469 183.924 130.335 182.924 130.335 T
184.424 129.469 184.424 129.469 183.924 130.335 T
56.0514 150.231 54.5514 149.365 55.5514 149.365 T
56.0514 150.231 54.0514 150.231 54.5514 149.365 T
56.0514 150.231 54.5514 151.097 54.0514 150.231 T
56.0514 150.231 55.5514 151.097 54.5514 151.097 T
56.0514 150.231 56.0514 150.231 55.5514 151.097 T
59.933 165.244 58.433 164.378 59.433 164.378 T
59.933 165.244 57.933 165.244 58.433 164.378 T
59.933 165.244 58.433 166.11 57.933 165.244 T
59.933 165.244 59.433 166.11 58.433 166.11 T
59.933 165.244 59.933 165.244 59.433 166.11 T
244.044 161.504 242.544 160.638 243.544 160.638 T
244.044 161.504 242.044 161.504 242.544 160.638 T
244.044 161.504 242.544 162.37 242.044 161.504 T
244.044 161.504 243.544 162.37 242.544 162.37 T
244.044 161.504 244.044 161.504 243.544 162.37 T
322.109 124.012 320.609 123.146 321.609 123.146 T
322.109 124.012 320.109 124.012 320.609 123.146 T
322.109 124.012 320.609 124.878 320.109 124.012 T
322.109 124.012 321.609 124.878 320.609 124.878 T
322.109 124.012 322.109 124.012 321.609 124.878 T
213.298 197.117 211.798 196.251 212.798 196.251 T
213.298 197.117 211.298 197.117 211.798 196.251 T
213.298 197.117 211.798 197.983 211.298 197.117 T
213.298 197.117 212.798 197.983 211.798 197.983 T
213.298 197.117 213.298 197.117 212.798 197.983 T
157.614 50.2455 156.114 49.3795 157.114 49.3795 T
157.614 50.2455 155.614 50.2455 156.114 49.3795 T
157.614 50.2455 156.114 51.1115 155.614 50.2455 T
157.614 50.2455 157.114 51.1115 156.114 51.1115 T
157.614 50.2455 157.614 50.2455 157.114 51.1115 T
95.3274 184.407 93.8274 183.541 94.8274 183.541 T
95.3274 184.407 93.3274 184.407 93.8274 183.541 T
95.3274 184.407 93.8274 185.273 93.3274 184.407 T
95.3274 184.407 94.8274 185.273 93.8274 185.273 T
95.3274 184.407 95.3274 184.407 94.8274 185.273 T
187.925 131.169 186.425 130.303 187.425 130.303 T
187.925 131.169 185.925 131.169 186.425 130.303 T
187.925 131.169 186.425 132.035 185.925 131.169 T
187.925 131.169 187.425 132.035 186.425 132.035 T
187.925 131.169 187.925 131.169 187.425 132.035 T
321.799 121.616 320.299 120.75 321.299 120.75 T
321.799 121.616 319.799 121.616 320.299 120.75 T
321.799 121.616 320.299 122.482 319.799 121.616 T
321.799 121.616 321.299 122.482 320.299 122.482 T
321.799 121.616 321.799 121.616 321.299 122.482 T
262.776 111.226 261.276 110.36 262.276 110.36 T
262.776 111.226 260.776 111.226 261.276 110.36 T
262.776 111.226 261.276 112.092 260.776 111.226 T
262.776 111.226 262.276 112.092 261.276 112.092 T
262.776 111.226 262.776 111.226 262.276 112.092 T
198.353 162.736 196.853 161.87 197.853 161.87 T
198.353 162.736 196.353 162.736 196.853 161.87 T
198.353 162.736 196.853 163.602 196.353 162.736 T
198.353 162.736 197.853 163.602 196.853 163.602 T
198.353 162.736 198.353 162.736 197.853 163.602 T
287.821 54.4077 286.321 53.5417 287.321 53.5417 T
287.821 54.4077 285.821 54.4077 286.321 53.5417 T
287.821 54.4077 286.321 55.2738 285.821 54.4077 T
287.821 54.4077 287.321 55.2738 286.321 55.2738 T
287.821 54.4077 287.821 54.4077 287.321 55.2738 T
112.577 150.212 111.077 149.346 112.077 149.346 T
112.577 150.212 110.577 150.212 111.077 149.346 T
112.577 150.212 111.077 151.078 110.577 150.212 T
112.577 150.212 112.077 151.078 111.077 151.078 T
112.577 150.212 112.577 150.212 112.077 151.078 T
191.142 139.373 189.642 138.507 190.642 138.507 T
191.142 139.373 189.142 139.373 189.642 138.507 T
191.142 139.373 189.642 140.239 189.142 139.373 T
191.142 139.373 190.642 140.239 189.642 140.239 T
191.142 139.373 191.142 139.373 190.642 140.239 T
313.538 91.2031 312.038 90.3371 313.038 90.3371 T
313.538 91.2031 311.538 91.2031 312.038 90.3371 T
313.538 91.2031 312.038 92.0691 311.538 91.2031 T
313.538 91.2031 313.038 92.0691 312.038 92.0691 T
313.538 91.2031 313.538 91.2031 313.038 92.0691 T
209.005 191.017 207.505 190.151 208.505 190.151 T
209.005 191.017 207.005 191.017 207.505 190.151 T
209.005 191.017 207.505 191.883 207.005 191.017 T
209.005 191.017 208.505 191.883 207.505 191.883 T
209.005 191.017 209.005 191.017 208.505 191.883 T
175.898 89.8875 174.398 89.0215 175.398 89.0215 T
175.898 89.8875 173.898 89.8875 174.398 89.0215 T
175.898 89.8875 174.398 90.7536 173.898 89.8875 T
175.898 89.8875 175.398 90.7536 174.398 90.7536 T
175.898 89.8875 175.898 89.8875 175.398 90.7536 T
122.929 103.155 121.429 102.289 122.429 102.289 T
122.929 103.155 120.929 103.155 121.429 102.289 T
122.929 103.155 121.429 104.021 120.929 103.155 T
122.929 103.155 122.429 104.021 121.429 104.021 T
122.929 103.155 122.929 103.155 122.429 104.021 T
200.691 163.505 199.191 162.639 200.191 162.639 T
200.691 163.505 198.691 163.505 199.191 162.639 T
200.691 163.505 199.191 164.371 198.691 163.505 T
200.691 163.505 200.191 164.371 199.191 164.371 T
200.691 163.505 200.691 163.505 200.191 164.371 T
314.835 88.1972 313.335 87.3312 314.335 87.3312 T
314.835 88.1972 312.835 88.1972 313.335 87.3312 T
314.835 88.1972 313.335 89.0632 312.835 88.1972 T
314.835 88.1972 314.335 89.0632 313.335 89.0632 T
314.835 88.1972 314.835 88.1972 314.335 89.0632 T
49.3928 130.128 47.8928 129.262 48.8928 129.262 T
49.3928 130.128 47.3928 130.128 47.8928 129.262 T
49.3928 130.128 47.8928 130.995 47.3928 130.128 T
49.3928 130.128 48.8928 130.995 47.8928 130.995 T
49.3928 130.128 49.3928 130.128 48.8928 130.995 T
266.44 89.5834 264.94 88.7173 265.94 88.7173 T
266.44 89.5834 264.44 89.5834 264.94 88.7173 T
266.44 89.5834 264.94 90.4494 264.44 89.5834 T
266.44 89.5834 265.94 90.4494 264.94 90.4494 T
266.44 89.5834 266.44 89.5834 265.94 90.4494 T
276.716 80.8946 275.216 80.0285 276.216 80.0285 T
276.716 80.8946 274.716 80.8946 275.216 80.0285 T
276.716 80.8946 275.216 81.7606 274.716 80.8946 T
276.716 80.8946 276.216 81.7606 275.216 81.7606 T
276.716 80.8946 276.716 80.8946 276.216 81.7606 T
295.044 61.821 293.544 60.955 294.544 60.955 T
295.044 61.821 293.044 61.821 293.544 60.955 T
295.044 61.821 293.544 62.687 293.044 61.821 T
295.044 61.821 294.544 62.687 293.544 62.687 T
295.044 61.821 295.044 61.821 294.544 62.687 T
254.4 140.596 252.9 139.73 253.9 139.73 T
254.4 140.596 252.4 140.596 252.9 139.73 T
254.4 140.596 252.9 141.462 252.4 140.596 T
254.4 140.596 253.9 141.462 252.9 141.462 T
254.4 140.596 254.4 140.596 253.9 141.462 T
273.55 77.5546 272.05 76.6885 273.05 76.6885 T
273.55 77.5546 271.55 77.5546 272.05 76.6885 T
273.55 77.5546 272.05 78.4206 271.55 77.5546 T
273.55 77.5546 273.05 78.4206 272.05 78.4206 T
273.55 77.5546 273.55 77.5546 273.05 78.4206 T
192.511 152.103 191.011 151.237 192.011 151.237 T
192.511 152.103 190.511 152.103 191.011 151.237 T
192.511 152.103 191.011 152.969 190.511 152.103 T
192.511 152.103 192.011 152.969 191.011 152.969 T
192.511 152.103 192.511 152.103 192.011 152.969 T
204.419 181.078 202.919 180.212 203.919 180.212 T
204.419 181.078 202.419 181.078 202.919 180.212 T
204.419 181.078 202.919 181.944 202.419 181.078 T
204.419 181.078 203.919 181.944 202.919 181.944 T
204.419 181.078 204.419 181.078 203.919 181.944 T
166.679 91.6478 165.179 90.7817 166.179 90.7817 T
166.679 91.6478 164.679 91.6478 165.179 90.7817 T
166.679 91.6478 165.179 92.5138 164.679 91.6478 T
166.679 91.6478 166.179 92.5138 165.179 92.5138 T
166.679 91.6478 166.679 91.6478 166.179 92.5138 T
63.4584 181.183 61.9584 180.317 62.9584 180.317 T
63.4584 181.183 61.4584 181.183 61.9584 180.317 T
63.4584 181.183 61.9584 182.049 61.4584 181.183 T
63.4584 181.183 62.9584 182.049 61.9584 182.049 T
63.4584 181.183 63.4584 181.183 62.9584 182.049 T
290.533 60.0807 289.033 59.2147 290.033 59.2147 T
290.533 60.0807 288.533 60.0807 289.033 59.2147 T
290.533 60.0807 289.033 60.9468 288.533 60.0807 T
290.533 60.0807 290.033 60.9468 289.033 60.9468 T
290.533 60.0807 290.533 60.0807 290.033 60.9468 T
206.83 172.464 205.33 171.598 206.33 171.598 T
206.83 172.464 204.83 172.464 205.33 171.598 T
206.83 172.464 205.33 173.33 204.83 172.464 T
206.83 172.464 206.33 173.33 205.33 173.33 T
206.83 172.464 206.83 172.464 206.33 173.33 T
103.555 168.643 102.055 167.777 103.055 167.777 T
103.555 168.643 101.555 168.643 102.055 167.777 T
103.555 168.643 102.055 169.509 101.555 168.643 T
103.555 168.643 103.055 169.509 102.055 169.509 T
103.555 168.643 103.555 168.643 103.055 169.509 T
188.617 136.068 187.117 135.202 188.117 135.202 T
188.617 136.068 186.617 136.068 187.117 135.202 T
188.617 136.068 187.117 136.934 186.617 136.068 T
188.617 136.068 188.117 136.934 187.117 136.934 T
188.617 136.068 188.617 136.068 188.117 136.934 T
183.094 118.281 181.594 117.415 182.594 117.415 T
183.094 118.281 181.094 118.281 181.594 117.415 T
183.094 118.281 181.594 119.147 181.094 118.281 T
183.094 118.281 182.594 119.147 181.594 119.147 T
183.094 118.281 183.094 118.281 182.594 119.147 T
147.344 60.0784 145.844 59.2124 146.844 59.2124 T
147.344 60.0784 145.344 60.0784 145.844 59.2124 T
147.344 60.0784 145.844 60.9444 145.344 60.0784 T
147.344 60.0784 146.844 60.9444 145.844 60.9444 T
147.344 60.0784 147.344 60.0784 146.844 60.9444 T
144.356 67.4749 142.856 66.6089 143.856 66.6089 T
144.356 67.4749 142.356 67.4749 142.856 66.6089 T
144.356 67.4749 142.856 68.3409 142.356 67.4749 T
144.356 67.4749 143.856 68.3409 142.856 68.3409 T
144.356 67.4749 144.356 67.4749 143.856 68.3409 T
198.036 158.083 196.536 157.217 197.536 157.217 T
198.036 158.083 196.036 158.083 196.536 157.217 T
198.036 158.083 196.536 158.949 196.036 158.083 T
198.036 158.083 197.536 158.949 196.536 158.949 T
198.036 158.083 198.036 158.083 197.536 158.949 T
221.754 203.881 220.254 203.015 221.254 203.015 T
221.754 203.881 219.754 203.881 220.254 203.015 T
221.754 203.881 220.254 204.747 219.754 203.881 T
221.754 203.881 221.254 204.747 220.254 204.747 T
221.754 203.881 221.754 203.881 221.254 204.747 T
218.674 205.187 217.174 204.321 218.174 204.321 T
218.674 205.187 216.674 205.187 217.174 204.321 T
218.674 205.187 217.174 206.053 216.674 205.187 T
218.674 205.187 218.174 206.053 217.174 206.053 T
218.674 205.187 218.674 205.187 218.174 206.053 T
175.623 81.66 174.123 80.7939 175.123 80.7939 T
175.623 81.66 173.623 81.66 174.123 80.7939 T
175.623 81.66 174.123 82.526 173.623 81.66 T
175.623 81.66 175.123 82.526 174.123 82.526 T
175.623 81.66 175.623 81.66 175.123 82.526 T
55.605 153.227 54.105 152.361 55.105 152.361 T
55.605 153.227 53.605 153.227 54.105 152.361 T
55.605 153.227 54.105 154.093 53.605 153.227 T
55.605 153.227 55.105 154.093 54.105 154.093 T
55.605 153.227 55.605 153.227 55.105 154.093 T
111.86 135.458 110.36 134.592 111.36 134.592 T
111.86 135.458 109.86 135.458 110.36 134.592 T
111.86 135.458 110.36 136.324 109.86 135.458 T
111.86 135.458 111.36 136.324 110.36 136.324 T
111.86 135.458 111.86 135.458 111.36 136.324 T
97.242 182.612 95.742 181.746 96.742 181.746 T
97.242 182.612 95.242 182.612 95.742 181.746 T
97.242 182.612 95.742 183.478 95.242 182.612 T
97.242 182.612 96.742 183.478 95.742 183.478 T
97.242 182.612 97.242 182.612 96.742 183.478 T
210.865 204.331 209.365 203.465 210.365 203.465 T
210.865 204.331 208.865 204.331 209.365 203.465 T
210.865 204.331 209.365 205.197 208.865 204.331 T
210.865 204.331 210.365 205.197 209.365 205.197 T
210.865 204.331 210.865 204.331 210.365 205.197 T
288.021 61.9431 286.521 61.0771 287.521 61.0771 T
288.021 61.9431 286.021 61.9431 286.521 61.0771 T
288.021 61.9431 286.521 62.8091 286.021 61.9431 T
288.021 61.9431 287.521 62.8091 286.521 62.8091 T
288.021 61.9431 288.021 61.9431 287.521 62.8091 T
270.564 88.3926 269.064 87.5266 270.064 87.5266 T
270.564 88.3926 268.564 88.3926 269.064 87.5266 T
270.564 88.3926 269.064 89.2586 268.564 88.3926 T
270.564 88.3926 270.064 89.2586 269.064 89.2586 T
270.564 88.3926 270.564 88.3926 270.064 89.2586 T
270.19 94.1689 268.69 93.3029 269.69 93.3029 T
270.19 94.1689 268.19 94.1689 268.69 93.3029 T
270.19 94.1689 268.69 95.0349 268.19 94.1689 T
270.19 94.1689 269.69 95.0349 268.69 95.0349 T
270.19 94.1689 270.19 94.1689 269.69 95.0349 T
275.586 78.1492 274.086 77.2831 275.086 77.2831 T
275.586 78.1492 273.586 78.1492 274.086 77.2831 T
275.586 78.1492 274.086 79.0152 273.586 78.1492 T
275.586 78.1492 275.086 79.0152 274.086 79.0152 T
275.586 78.1492 275.586 78.1492 275.086 79.0152 T
119.027 135.829 117.527 134.963 118.527 134.963 T
119.027 135.829 117.027 135.829 117.527 134.963 T
119.027 135.829 117.527 136.695 117.027 135.829 T
119.027 135.829 118.527 136.695 117.527 136.695 T
119.027 135.829 119.027 135.829 118.527 136.695 T
282.647 73.3716 281.147 72.5056 282.147 72.5056 T
282.647 73.3716 280.647 73.3716 281.147 72.5056 T
282.647 73.3716 281.147 74.2377 280.647 73.3716 T
282.647 73.3716 282.147 74.2377 281.147 74.2377 T
282.647 73.3716 282.647 73.3716 282.147 74.2377 T
235.599 182.321 234.099 181.455 235.099 181.455 T
235.599 182.321 233.599 182.321 234.099 181.455 T
235.599 182.321 234.099 183.187 233.599 182.321 T
235.599 182.321 235.099 183.187 234.099 183.187 T
235.599 182.321 235.599 182.321 235.099 183.187 T
71.0223 196.846 69.5223 195.98 70.5223 195.98 T
71.0223 196.846 69.0223 196.846 69.5223 195.98 T
71.0223 196.846 69.5223 197.712 69.0223 196.846 T
71.0223 196.846 70.5223 197.712 69.5223 197.712 T
71.0223 196.846 71.0223 196.846 70.5223 197.712 T
52.4567 143.723 50.9567 142.857 51.9567 142.857 T
52.4567 143.723 50.4567 143.723 50.9567 142.857 T
52.4567 143.723 50.9567 144.589 50.4567 143.723 T
52.4567 143.723 51.9567 144.589 50.9567 144.589 T
52.4567 143.723 52.4567 143.723 51.9567 144.589 T
51.8622 145.446 50.3622 144.58 51.3622 144.58 T
51.8622 145.446 49.8622 145.446 50.3622 144.58 T
51.8622 145.446 50.3622 146.312 49.8622 145.446 T
51.8622 145.446 51.3622 146.312 50.3622 146.312 T
51.8622 145.446 51.8622 145.446 51.3622 146.312 T
258.609 125.023 257.109 124.157 258.109 124.157 T
258.609 125.023 256.609 125.023 257.109 124.157 T
258.609 125.023 257.109 125.889 256.609 125.023 T
258.609 125.023 258.109 125.889 257.109 125.889 T
258.609 125.023 258.609 125.023 258.109 125.889 T
117.427 128.472 115.927 127.606 116.927 127.606 T
117.427 128.472 115.427 128.472 115.927 127.606 T
117.427 128.472 115.927 129.338 115.427 128.472 T
117.427 128.472 116.927 129.338 115.927 129.338 T
117.427 128.472 117.427 128.472 116.927 129.338 T
78.3473 201.346 76.8473 200.48 77.8473 200.48 T
78.3473 201.346 76.3473 201.346 76.8473 200.48 T
78.3473 201.346 76.8473 202.212 76.3473 201.346 T
78.3473 201.346 77.8473 202.212 76.8473 202.212 T
78.3473 201.346 78.3473 201.346 77.8473 202.212 T
222.12 192.194 220.62 191.328 221.62 191.328 T
222.12 192.194 220.12 192.194 220.62 191.328 T
222.12 192.194 220.62 193.06 220.12 192.194 T
222.12 192.194 221.62 193.06 220.62 193.06 T
222.12 192.194 222.12 192.194 221.62 193.06 T
143.894 74.2909 142.394 73.4249 143.394 73.4249 T
143.894 74.2909 141.894 74.2909 142.394 73.4249 T
143.894 74.2909 142.394 75.1569 141.894 74.2909 T
143.894 74.2909 143.394 75.1569 142.394 75.1569 T
143.894 74.2909 143.894 74.2909 143.394 75.1569 T
67.1948 184.344 65.6948 183.478 66.6948 183.478 T
67.1948 184.344 65.1948 184.344 65.6948 183.478 T
67.1948 184.344 65.6948 185.21 65.1948 184.344 T
67.1948 184.344 66.6948 185.21 65.6948 185.21 T
67.1948 184.344 67.1948 184.344 66.6948 185.21 T
92.3355 186.868 90.8355 186.002 91.8355 186.002 T
92.3355 186.868 90.3355 186.868 90.8355 186.002 T
92.3355 186.868 90.8355 187.734 90.3355 186.868 T
92.3355 186.868 91.8355 187.734 90.8355 187.734 T
92.3355 186.868 92.3355 186.868 91.8355 187.734 T
194.939 167.527 193.439 166.661 194.439 166.661 T
194.939 167.527 192.939 167.527 193.439 166.661 T
194.939 167.527 193.439 168.393 192.939 167.527 T
194.939 167.527 194.439 168.393 193.439 168.393 T
194.939 167.527 194.939 167.527 194.439 168.393 T
94.7124 195.735 93.2124 194.869 94.2124 194.869 T
94.7124 195.735 92.7124 195.735 93.2124 194.869 T
94.7124 195.735 93.2124 196.601 92.7124 195.735 T
94.7124 195.735 94.2124 196.601 93.2124 196.601 T
94.7124 195.735 94.7124 195.735 94.2124 196.601 T
123.943 106.335 122.443 105.469 123.443 105.469 T
123.943 106.335 121.943 106.335 122.443 105.469 T
123.943 106.335 122.443 107.201 121.943 106.335 T
123.943 106.335 123.443 107.201 122.443 107.201 T
123.943 106.335 123.943 106.335 123.443 107.201 T
246.334 154.244 244.834 153.378 245.834 153.378 T
246.334 154.244 244.334 154.244 244.834 153.378 T
246.334 154.244 244.834 155.11 244.334 154.244 T
246.334 154.244 245.834 155.11 244.834 155.11 T
246.334 154.244 246.334 154.244 245.834 155.11 T
174.662 90.2071 173.162 89.3411 174.162 89.3411 T
174.662 90.2071 172.662 90.2071 173.162 89.3411 T
174.662 90.2071 173.162 91.0732 172.662 90.2071 T
174.662 90.2071 174.162 91.0732 173.162 91.0732 T
174.662 90.2071 174.662 90.2071 174.162 91.0732 T
137.639 78.325 136.138 77.459 137.139 77.459 T
137.639 78.325 135.639 78.325 136.138 77.459 T
137.639 78.325 136.138 79.1911 135.639 78.325 T
137.639 78.325 137.139 79.1911 136.138 79.1911 T
137.639 78.325 137.639 78.325 137.139 79.1911 T
179.982 103.886 178.482 103.02 179.482 103.02 T
179.982 103.886 177.982 103.886 178.482 103.02 T
179.982 103.886 178.482 104.752 177.982 103.886 T
179.982 103.886 179.482 104.752 178.482 104.752 T
179.982 103.886 179.982 103.886 179.482 104.752 T
54.3941 152.311 52.8941 151.445 53.894 151.445 T
54.3941 152.311 52.394 152.311 52.8941 151.445 T
54.3941 152.311 52.8941 153.177 52.394 152.311 T
54.3941 152.311 53.894 153.177 52.8941 153.177 T
54.3941 152.311 54.3941 152.311 53.894 153.177 T
155.649 58.8073 154.149 57.9413 155.149 57.9413 T
155.649 58.8073 153.649 58.8073 154.149 57.9413 T
155.649 58.8073 154.149 59.6734 153.649 58.8073 T
155.649 58.8073 155.149 59.6734 154.149 59.6734 T
155.649 58.8073 155.649 58.8073 155.149 59.6734 T
165.236 64.7445 163.736 63.8785 164.736 63.8785 T
165.236 64.7445 163.236 64.7445 163.736 63.8785 T
165.236 64.7445 163.736 65.6106 163.236 64.7445 T
165.236 64.7445 164.736 65.6106 163.736 65.6106 T
165.236 64.7445 165.236 64.7445 164.736 65.6106 T
100.263 182.01 98.763 181.144 99.763 181.144 T
100.263 182.01 98.263 182.01 98.763 181.144 T
100.263 182.01 98.763 182.876 98.263 182.01 T
100.263 182.01 99.763 182.876 98.763 182.876 T
100.263 182.01 100.263 182.01 99.763 182.876 T
78.1445 191.233 76.6445 190.367 77.6445 190.367 T
78.1445 191.233 76.1445 191.233 76.6445 190.367 T
78.1445 191.233 76.6445 192.099 76.1445 191.233 T
78.1445 191.233 77.6445 192.099 76.6445 192.099 T
78.1445 191.233 78.1445 191.233 77.6445 192.099 T
298.849 65.31 297.349 64.444 298.349 64.444 T
298.849 65.31 296.849 65.31 297.349 64.444 T
298.849 65.31 297.349 66.176 296.849 65.31 T
298.849 65.31 298.349 66.176 297.349 66.176 T
298.849 65.31 298.849 65.31 298.349 66.176 T
190.122 148.627 188.622 147.761 189.622 147.761 T
190.122 148.627 188.122 148.627 188.622 147.761 T
190.122 148.627 188.622 149.493 188.122 148.627 T
190.122 148.627 189.622 149.493 188.622 149.493 T
190.122 148.627 190.122 148.627 189.622 149.493 T
106.136 179.206 104.636 178.34 105.636 178.34 T
106.136 179.206 104.136 179.206 104.636 178.34 T
106.136 179.206 104.636 180.072 104.136 179.206 T
106.136 179.206 105.636 180.072 104.636 180.072 T
106.136 179.206 106.136 179.206 105.636 180.072 T
216.776 188.148 215.276 187.282 216.276 187.282 T
216.776 188.148 214.776 188.148 215.276 187.282 T
216.776 188.148 215.276 189.014 214.776 188.148 T
216.776 188.148 216.276 189.014 215.276 189.014 T
216.776 188.148 216.776 188.148 216.276 189.014 T
275.754 80.4139 274.254 79.5479 275.254 79.5479 T
275.754 80.4139 273.754 80.4139 274.254 79.5479 T
275.754 80.4139 274.254 81.28 273.754 80.4139 T
275.754 80.4139 275.254 81.28 274.254 81.28 T
275.754 80.4139 275.754 80.4139 275.254 81.28 T
53.6082 130.129 52.1082 129.263 53.1082 129.263 T
53.6082 130.129 51.6082 130.129 52.1082 129.263 T
53.6082 130.129 52.1082 130.995 51.6082 130.129 T
53.6082 130.129 53.1082 130.995 52.1082 130.995 T
53.6082 130.129 53.6082 130.129 53.1082 130.995 T
52.7842 149.314 51.2842 148.448 52.2842 148.448 T
52.7842 149.314 50.7842 149.314 51.2842 148.448 T
52.7842 149.314 51.2842 150.18 50.7842 149.314 T
52.7842 149.314 52.2842 150.18 51.2842 150.18 T
52.7842 149.314 52.7842 149.314 52.2842 150.18 T
88.6628 200.688 87.1628 199.822 88.1628 199.822 T
88.6628 200.688 86.6628 200.688 87.1628 199.822 T
88.6628 200.688 87.1628 201.554 86.6628 200.688 T
88.6628 200.688 88.1628 201.554 87.1628 201.554 T
88.6628 200.688 88.6628 200.688 88.1628 201.554 T
248.355 173.148 246.855 172.282 247.855 172.282 T
248.355 173.148 246.355 173.148 246.855 172.282 T
248.355 173.148 246.855 174.014 246.355 173.148 T
248.355 173.148 247.855 174.014 246.855 174.014 T
248.355 173.148 248.355 173.148 247.855 174.014 T
92.5035 188.536 91.0035 187.67 92.0035 187.67 T
92.5035 188.536 90.5035 188.536 91.0035 187.67 T
92.5035 188.536 91.0035 189.402 90.5035 188.536 T
92.5035 188.536 92.0035 189.402 91.0035 189.402 T
92.5035 188.536 92.5035 188.536 92.0035 189.402 T
244.385 161.127 242.885 160.261 243.885 160.261 T
244.385 161.127 242.385 161.127 242.885 160.261 T
244.385 161.127 242.885 161.993 242.385 161.127 T
244.385 161.127 243.885 161.993 242.885 161.993 T
244.385 161.127 244.385 161.127 243.885 161.993 T
237.011 165.858 235.511 164.992 236.511 164.992 T
237.011 165.858 235.011 165.858 235.511 164.992 T
237.011 165.858 235.511 166.724 235.011 165.858 T
237.011 165.858 236.511 166.724 235.511 166.724 T
237.011 165.858 237.011 165.858 236.511 166.724 T
199.772 174.674 198.272 173.808 199.272 173.808 T
199.772 174.674 197.772 174.674 198.272 173.808 T
199.772 174.674 198.272 175.54 197.772 174.674 T
199.772 174.674 199.272 175.54 198.272 175.54 T
199.772 174.674 199.772 174.674 199.272 175.54 T
109.347 145.004 107.847 144.138 108.847 144.138 T
109.347 145.004 107.347 145.004 107.847 144.138 T
109.347 145.004 107.847 145.87 107.347 145.004 T
109.347 145.004 108.847 145.87 107.847 145.87 T
109.347 145.004 109.347 145.004 108.847 145.87 T
319.991 117.433 318.491 116.567 319.491 116.567 T
319.991 117.433 317.991 117.433 318.491 116.567 T
319.991 117.433 318.491 118.299 317.991 117.433 T
319.991 117.433 319.491 118.299 318.491 118.299 T
319.991 117.433 319.991 117.433 319.491 118.299 T
270.389 88.9329 268.889 88.0669 269.889 88.0669 T
270.389 88.9329 268.389 88.9329 268.889 88.0669 T
270.389 88.9329 268.889 89.7989 268.389 88.9329 T
270.389 88.9329 269.889 89.7989 268.889 89.7989 T
270.389 88.9329 270.389 88.9329 269.889 89.7989 T
191.931 143.389 190.431 142.523 191.431 142.523 T
191.931 143.389 189.931 143.389 190.431 142.523 T
191.931 143.389 190.431 144.255 189.931 143.389 T
191.931 143.389 191.431 144.255 190.431 144.255 T
191.931 143.389 191.931 143.389 191.431 144.255 T
110.072 155.033 108.572 154.167 109.572 154.167 T
110.072 155.033 108.072 155.033 108.572 154.167 T
110.072 155.033 108.572 155.899 108.072 155.033 T
110.072 155.033 109.572 155.899 108.572 155.899 T
110.072 155.033 110.072 155.033 109.572 155.899 T
228.733 200.055 227.233 199.189 228.233 199.189 T
228.733 200.055 226.733 200.055 227.233 199.189 T
228.733 200.055 227.233 200.921 226.733 200.055 T
228.733 200.055 228.233 200.921 227.233 200.921 T
228.733 200.055 228.733 200.055 228.233 200.921 T
157.977 68.2466 156.477 67.3806 157.477 67.3806 T
157.977 68.2466 155.977 68.2466 156.477 67.3806 T
157.977 68.2466 156.477 69.1127 155.977 68.2466 T
157.977 68.2466 157.477 69.1127 156.477 69.1127 T
157.977 68.2466 157.977 68.2466 157.477 69.1127 T
208.461 185.063 206.961 184.197 207.961 184.197 T
208.461 185.063 206.461 185.063 206.961 184.197 T
208.461 185.063 206.961 185.929 206.461 185.063 T
208.461 185.063 207.961 185.929 206.961 185.929 T
208.461 185.063 208.461 185.063 207.961 185.929 T
137.428 71.3847 135.928 70.5187 136.928 70.5187 T
137.428 71.3847 135.428 71.3847 135.928 70.5187 T
137.428 71.3847 135.928 72.2508 135.428 71.3847 T
137.428 71.3847 136.928 72.2508 135.928 72.2508 T
137.428 71.3847 137.428 71.3847 136.928 72.2508 T
223.834 200.959 222.334 200.093 223.334 200.093 T
223.834 200.959 221.834 200.959 222.334 200.093 T
223.834 200.959 222.334 201.826 221.834 200.959 T
223.834 200.959 223.334 201.826 222.334 201.826 T
223.834 200.959 223.834 200.959 223.334 201.826 T
64.201 169.587 62.701 168.721 63.701 168.721 T
64.201 169.587 62.201 169.587 62.701 168.721 T
64.201 169.587 62.701 170.453 62.201 169.587 T
64.201 169.587 63.701 170.453 62.701 170.453 T
64.201 169.587 64.201 169.587 63.701 170.453 T
131.111 94.542 129.611 93.676 130.611 93.676 T
131.111 94.542 129.111 94.542 129.611 93.676 T
131.111 94.542 129.611 95.4081 129.111 94.542 T
131.111 94.542 130.611 95.4081 129.611 95.4081 T
131.111 94.542 131.111 94.542 130.611 95.4081 T
317.845 107.933 316.345 107.067 317.345 107.067 T
317.845 107.933 315.845 107.933 316.345 107.067 T
317.845 107.933 316.345 108.799 315.845 107.933 T
317.845 107.933 317.345 108.799 316.345 108.799 T
317.845 107.933 317.845 107.933 317.345 108.799 T
292.074 64.6931 290.574 63.8271 291.574 63.8271 T
292.074 64.6931 290.074 64.6931 290.574 63.8271 T
292.074 64.6931 290.574 65.5592 290.074 64.6931 T
292.074 64.6931 291.574 65.5592 290.574 65.5592 T
292.074 64.6931 292.074 64.6931 291.574 65.5592 T
133.282 86.1621 131.782 85.296 132.782 85.296 T
133.282 86.1621 131.282 86.1621 131.782 85.296 T
133.282 86.1621 131.782 87.0281 131.282 86.1621 T
133.282 86.1621 132.782 87.0281 131.782 87.0281 T
133.282 86.1621 133.282 86.1621 132.782 87.0281 T
287.326 63.3294 285.826 62.4634 286.826 62.4634 T
287.326 63.3294 285.326 63.3294 285.826 62.4634 T
287.326 63.3294 285.826 64.1954 285.326 63.3294 T
287.326 63.3294 286.826 64.1954 285.826 64.1954 T
287.326 63.3294 287.326 63.3294 286.826 64.1954 T
134.391 73.288 132.891 72.422 133.891 72.422 T
134.391 73.288 132.391 73.288 132.891 72.422 T
134.391 73.288 132.891 74.154 132.391 73.288 T
134.391 73.288 133.891 74.154 132.891 74.154 T
134.391 73.288 134.391 73.288 133.891 74.154 T
309.862 86.9 308.362 86.034 309.361 86.034 T
309.862 86.9 307.861 86.9 308.362 86.034 T
309.862 86.9 308.362 87.766 307.861 86.9 T
309.862 86.9 309.361 87.766 308.362 87.766 T
309.862 86.9 309.862 86.9 309.361 87.766 T
255.332 137.669 253.832 136.803 254.832 136.803 T
255.332 137.669 253.332 137.669 253.832 136.803 T
255.332 137.669 253.832 138.535 253.332 137.669 T
255.332 137.669 254.832 138.535 253.832 138.535 T
255.332 137.669 255.332 137.669 254.832 138.535 T
163.912 52.0409 162.412 51.1749 163.412 51.1749 T
163.912 52.0409 161.912 52.0409 162.412 51.1749 T
163.912 52.0409 162.412 52.907 161.912 52.0409 T
163.912 52.0409 163.412 52.907 162.412 52.907 T
163.912 52.0409 163.912 52.0409 163.412 52.907 T
118.208 141.61 116.708 140.744 117.708 140.744 T
118.208 141.61 116.208 141.61 116.708 140.744 T
118.208 141.61 116.708 142.476 116.208 141.61 T
118.208 141.61 117.708 142.476 116.708 142.476 T
118.208 141.61 118.208 141.61 117.708 142.476 T
50.166 149.117 48.666 148.251 49.666 148.251 T
50.166 149.117 48.166 149.117 48.666 148.251 T
50.166 149.117 48.666 149.983 48.166 149.117 T
50.166 149.117 49.666 149.983 48.666 149.983 T
50.166 149.117 50.166 149.117 49.666 149.983 T
292.962 63.1354 291.462 62.2694 292.462 62.2694 T
292.962 63.1354 290.962 63.1354 291.462 62.2694 T
292.962 63.1354 291.462 64.0014 290.962 63.1354 T
292.962 63.1354 292.462 64.0014 291.462 64.0014 T
292.962 63.1354 292.962 63.1354 292.462 64.0014 T
58.3787 167.769 56.8787 166.903 57.8787 166.903 T
58.3787 167.769 56.3787 167.769 56.8787 166.903 T
58.3787 167.769 56.8787 168.635 56.3787 167.769 T
58.3787 167.769 57.8787 168.635 56.8787 168.635 T
58.3787 167.769 58.3787 167.769 57.8787 168.635 T
276.417 87.5474 274.917 86.6813 275.917 86.6813 T
276.417 87.5474 274.417 87.5474 274.917 86.6813 T
276.417 87.5474 274.917 88.4134 274.417 87.5474 T
276.417 87.5474 275.917 88.4134 274.917 88.4134 T
276.417 87.5474 276.417 87.5474 275.917 88.4134 T
316.254 94.2967 314.754 93.4307 315.754 93.4307 T
316.254 94.2967 314.254 94.2967 314.754 93.4307 T
316.254 94.2967 314.754 95.1627 314.254 94.2967 T
316.254 94.2967 315.754 95.1627 314.754 95.1627 T
316.254 94.2967 316.254 94.2967 315.754 95.1627 T
206.908 193.007 205.408 192.141 206.408 192.141 T
206.908 193.007 204.908 193.007 205.408 192.141 T
206.908 193.007 205.408 193.873 204.908 193.007 T
206.908 193.007 206.408 193.873 205.408 193.873 T
206.908 193.007 206.908 193.007 206.408 193.873 T
95.6533 181.923 94.1533 181.057 95.1533 181.057 T
95.6533 181.923 93.6533 181.923 94.1533 181.057 T
95.6533 181.923 94.1533 182.789 93.6533 181.923 T
95.6533 181.923 95.1533 182.789 94.1533 182.789 T
95.6533 181.923 95.6533 181.923 95.1533 182.789 T
289.911 65.1978 288.411 64.3317 289.411 64.3317 T
289.911 65.1978 287.911 65.1978 288.411 64.3317 T
289.911 65.1978 288.411 66.0638 287.911 65.1978 T
289.911 65.1978 289.411 66.0638 288.411 66.0638 T
289.911 65.1978 289.911 65.1978 289.411 66.0638 T
319.483 110.299 317.983 109.433 318.983 109.433 T
319.483 110.299 317.483 110.299 317.983 109.433 T
319.483 110.299 317.983 111.165 317.483 110.299 T
319.483 110.299 318.983 111.165 317.983 111.165 T
319.483 110.299 319.483 110.299 318.983 111.165 T
244.222 170.691 242.722 169.825 243.722 169.825 T
244.222 170.691 242.222 170.691 242.722 169.825 T
244.222 170.691 242.722 171.557 242.222 170.691 T
244.222 170.691 243.722 171.557 242.722 171.557 T
244.222 170.691 244.222 170.691 243.722 171.557 T
189.776 139.988 188.276 139.122 189.276 139.122 T
189.776 139.988 187.776 139.988 188.276 139.122 T
189.776 139.988 188.276 140.854 187.776 139.988 T
189.776 139.988 189.276 140.854 188.276 140.854 T
189.776 139.988 189.776 139.988 189.276 140.854 T
153.253 61.2675 151.753 60.4014 152.753 60.4014 T
153.253 61.2675 151.253 61.2675 151.753 60.4014 T
153.253 61.2675 151.753 62.1335 151.253 61.2675 T
153.253 61.2675 152.753 62.1335 151.753 62.1335 T
153.253 61.2675 153.253 61.2675 152.753 62.1335 T
144.594 56.3342 143.094 55.4682 144.094 55.4682 T
144.594 56.3342 142.594 56.3342 143.094 55.4682 T
144.594 56.3342 143.094 57.2002 142.594 56.3342 T
144.594 56.3342 144.094 57.2002 143.094 57.2002 T
144.594 56.3342 144.594 56.3342 144.094 57.2002 T
105.208 167.784 103.708 166.918 104.708 166.918 T
105.208 167.784 103.208 167.784 103.708 166.918 T
105.208 167.784 103.708 168.65 103.208 167.784 T
105.208 167.784 104.708 168.65 103.708 168.65 T
105.208 167.784 105.208 167.784 104.708 168.65 T
235.889 179.219 234.389 178.353 235.389 178.353 T
235.889 179.219 233.889 179.219 234.389 178.353 T
235.889 179.219 234.389 180.085 233.889 179.219 T
235.889 179.219 235.389 180.085 234.389 180.085 T
235.889 179.219 235.889 179.219 235.389 180.085 T
168.593 74.1162 167.093 73.2501 168.093 73.2501 T
168.593 74.1162 166.593 74.1162 167.093 73.2501 T
168.593 74.1162 167.093 74.9822 166.593 74.1162 T
168.593 74.1162 168.093 74.9822 167.093 74.9822 T
168.593 74.1162 168.593 74.1162 168.093 74.9822 T
101.959 176.96 100.459 176.094 101.459 176.094 T
101.959 176.96 99.9591 176.96 100.459 176.094 T
101.959 176.96 100.459 177.826 99.9591 176.96 T
101.959 176.96 101.459 177.826 100.459 177.826 T
101.959 176.96 101.959 176.96 101.459 177.826 T
76.9344 189.202 75.4344 188.336 76.4343 188.336 T
76.9344 189.202 74.9344 189.202 75.4344 188.336 T
76.9344 189.202 75.4344 190.068 74.9344 189.202 T
76.9344 189.202 76.4343 190.068 75.4344 190.068 T
76.9344 189.202 76.9344 189.202 76.4343 190.068 T
233.602 194.847 232.102 193.981 233.102 193.981 T
233.602 194.847 231.602 194.847 232.102 193.981 T
233.602 194.847 232.102 195.713 231.602 194.847 T
233.602 194.847 233.102 195.713 232.102 195.713 T
233.602 194.847 233.602 194.847 233.102 195.713 T
130.404 98.9993 128.904 98.1333 129.904 98.1333 T
130.404 98.9993 128.404 98.9993 128.904 98.1333 T
130.404 98.9993 128.904 99.8653 128.404 98.9993 T
130.404 98.9993 129.904 99.8653 128.904 99.8653 T
130.404 98.9993 130.404 98.9993 129.904 99.8653 T
187.244 129.325 185.744 128.459 186.744 128.459 T
187.244 129.325 185.244 129.325 185.744 128.459 T
187.244 129.325 185.744 130.191 185.244 129.325 T
187.244 129.325 186.744 130.191 185.744 130.191 T
187.244 129.325 187.244 129.325 186.744 130.191 T
0 LC
1 LJ
[] 0 setdash
0.85 0.325 0.098 C
46.8 130.41 LS
47.4993 130.493 L
48.1985 130.737 L
48.8978 131.136 L
49.597 131.682 L
50.2962 132.371 L
50.9955 133.193 L
51.6948 134.144 L
52.394 135.217 L
53.0932 136.404 L
53.7925 137.699 L
54.4917 139.096 L
55.191 140.588 L
55.8902 142.167 L
56.5895 143.829 L
57.2887 145.565 L
57.988 147.37 L
58.6872 149.237 L
59.3865 151.158 L
60.0857 153.128 L
60.785 155.14 L
61.4842 157.187 L
62.1835 159.262 L
62.8827 161.359 L
63.582 163.472 L
64.2812 165.592 L
64.9805 167.715 L
65.6797 169.833 L
66.379 171.94 L
67.0782 174.029 L
67.7775 176.093 L
68.4767 178.126 L
69.1759 180.121 L
69.8752 182.072 L
70.5744 183.971 L
71.2737 185.812 L
71.9729 187.589 L
72.6722 189.295 L
73.3714 190.923 L
74.0707 192.467 L
74.7699 193.92 L
75.4692 195.275 L
76.1684 196.525 L
76.8677 197.665 L
77.5669 198.687 L
78.2662 199.586 L
78.9654 200.36 L
79.6647 201.011 L
80.3639 201.544 L
81.0632 201.959 L
81.7624 202.26 L
82.4617 202.45 L
83.1609 202.53 L
83.8602 202.504 L
84.5594 202.375 L
85.2587 202.144 L
85.9579 201.814 L
86.6572 201.389 L
87.3564 200.87 L
88.0557 200.261 L
88.7549 199.563 L
89.4541 198.78 L
90.1534 197.914 L
90.8526 196.968 L
91.5519 195.944 L
92.2511 194.845 L
92.9504 193.674 L
93.6496 192.433 L
94.3489 191.124 L
95.0481 189.751 L
95.7474 188.316 L
96.4466 186.822 L
97.1459 185.271 L
97.8451 183.665 L
98.5444 182.009 L
99.2436 180.303 L
99.9429 178.551 L
100.642 176.755 L
101.341 174.918 L
102.041 173.043 L
102.74 171.132 L
103.439 169.187 L
104.138 167.212 L
104.838 165.209 L
105.537 163.18 L
106.236 161.129 L
106.935 159.057 L
107.635 156.968 L
108.334 154.864 L
109.033 152.748 L
109.732 150.621 L
110.432 148.486 L
111.131 146.344 L
111.83 144.196 L
112.529 142.044 L
113.229 139.89 L
113.928 137.735 L
114.627 135.58 L
115.326 133.427 L
116.026 131.278 L
116.725 129.134 L
117.424 126.996 L
118.123 124.867 L
118.823 122.747 L
119.522 120.638 L
120.221 118.542 L
120.92 116.46 L
121.62 114.394 L
122.319 112.345 L
123.018 110.314 L
123.717 108.304 L
124.417 106.316 L
125.116 104.351 L
125.815 102.41 L
126.514 100.496 L
127.214 98.6099 L
127.913 96.7529 L
128.612 94.9268 L
129.311 93.1331 L
130.011 91.3733 L
130.71 89.6488 L
131.409 87.9613 L
132.108 86.3121 L
132.808 84.7029 L
133.507 83.1352 L
134.206 81.6105 L
134.905 80.1302 L
135.605 78.696 L
136.304 77.3092 L
137.003 75.9715 L
137.702 74.6844 L
138.402 73.4493 L
139.101 72.2679 L
139.8 71.1415 L
140.499 70.0716 L
141.199 69.0585 L
141.898 68.1026 L
142.597 67.2041 L
143.296 66.3633 L
143.995 65.5804 L
144.695 64.8558 L
145.394 64.1896 L
146.093 63.5821 L
146.792 63.0337 L
147.492 62.5445 L
148.191 62.1148 L
148.89 61.745 L
149.589 61.4352 L
150.289 61.1857 L
150.988 60.9968 L
151.687 60.8687 L
152.386 60.8018 L
153.086 60.7962 L
153.785 60.8523 L
154.484 60.9703 L
155.183 61.1505 L
155.883 61.3931 L
156.582 61.6984 L
157.281 62.0667 L
157.98 62.4982 L
158.68 62.9932 L
159.379 63.552 L
160.078 64.1747 L
160.777 64.8618 L
161.477 65.6134 L
162.176 66.4298 L
162.875 67.3113 L
163.574 68.2582 L
164.274 69.2707 L
164.973 70.349 L
165.672 71.4934 L
166.371 72.7043 L
167.071 73.9818 L
167.77 75.3263 L
168.469 76.738 L
169.168 78.2171 L
169.868 79.7639 L
170.567 81.3787 L
171.266 83.0616 L
171.965 84.8107 L
172.665 86.6229 L
173.364 88.4951 L
174.063 90.4241 L
174.762 92.4067 L
175.462 94.4398 L
176.161 96.5203 L
176.86 98.645 L
177.559 100.811 L
178.259 103.014 L
178.958 105.253 L
179.657 107.523 L
180.356 109.822 L
181.056 112.146 L
181.755 114.492 L
182.454 116.857 L
183.153 119.238 L
183.853 121.632 L
184.552 124.035 L
185.251 126.445 L
185.95 128.858 L
186.65 131.272 L
187.349 133.682 L
188.048 136.086 L
188.747 138.481 L
189.447 140.864 L
190.146 143.231 L
190.845 145.579 L
191.544 147.906 L
192.244 150.207 L
192.943 152.48 L
193.642 154.722 L
194.341 156.93 L
195.041 159.1 L
195.74 161.229 L
196.439 163.314 L
197.138 165.353 L
197.838 167.341 L
198.537 169.276 L
199.236 171.154 L
199.935 172.973 L
200.635 174.729 L
201.334 176.419 L
202.033 178.04 L
202.732 179.59 L
203.432 181.07 L
204.131 182.48 L
204.83 183.82 L
205.529 185.092 L
206.229 186.295 L
206.928 187.431 L
207.627 188.499 L
208.326 189.501 L
209.026 190.436 L
209.725 191.305 L
210.424 192.11 L
211.123 192.85 L
211.823 193.525 L
212.522 194.137 L
213.221 194.686 L
213.92 195.173 L
214.62 195.597 L
215.319 195.96 L
216.018 196.262 L
216.717 196.504 L
217.417 196.686 L
218.116 196.808 L
218.815 196.872 L
219.514 196.877 L
220.214 196.825 L
220.913 196.715 L
221.612 196.549 L
222.311 196.326 L
223.011 196.048 L
223.71 195.715 L
224.409 195.327 L
225.108 194.885 L
225.808 194.389 L
226.507 193.84 L
227.206 193.239 L
227.905 192.586 L
228.605 191.882 L
229.304 191.126 L
230.003 190.32 L
230.702 189.465 L
231.402 188.56 L
232.101 187.606 L
232.8 186.604 L
233.499 185.554 L
234.199 184.458 L
234.898 183.316 L
235.597 182.129 L
236.296 180.899 L
236.995 179.627 L
237.695 178.313 L
238.394 176.959 L
239.093 175.565 L
239.792 174.133 L
240.492 172.664 L
241.191 171.159 L
241.89 169.619 L
242.589 168.045 L
243.289 166.438 L
243.988 164.799 L
244.687 163.129 L
245.386 161.43 L
246.086 159.702 L
246.785 157.946 L
247.484 156.163 L
248.183 154.355 L
248.883 152.523 L
249.582 150.667 L
250.281 148.789 L
250.98 146.889 L
251.68 144.969 L
252.379 143.03 L
253.078 141.073 L
253.777 139.099 L
254.477 137.108 L
255.176 135.103 L
255.875 133.084 L
256.574 131.052 L
257.274 129.008 L
257.973 126.953 L
258.672 124.889 L
259.371 122.816 L
260.071 120.736 L
260.77 118.649 L
261.469 116.556 L
262.168 114.459 L
262.868 112.359 L
263.567 110.257 L
264.266 108.153 L
264.965 106.051 L
265.665 103.953 L
266.364 101.862 L
267.063 99.7812 L
267.762 97.7142 L
268.462 95.6638 L
269.161 93.633 L
269.86 91.6248 L
270.559 89.6425 L
271.259 87.6889 L
271.958 85.7673 L
272.657 83.8807 L
273.356 82.0322 L
274.056 80.2248 L
274.755 78.4616 L
275.454 76.7457 L
276.153 75.0801 L
276.853 73.468 L
277.552 71.9124 L
278.251 70.4164 L
278.95 68.983 L
279.65 67.6154 L
280.349 66.3166 L
281.048 65.0896 L
281.747 63.9377 L
282.447 62.8637 L
283.146 61.8709 L
283.845 60.9622 L
284.544 60.1408 L
285.244 59.4097 L
285.943 58.772 L
286.642 58.2308 L
287.341 57.7892 L
288.041 57.4501 L
288.74 57.2168 L
289.439 57.0923 L
290.138 57.0795 L
290.838 57.1818 L
291.537 57.402 L
292.236 57.7432 L
292.935 58.2087 L
293.635 58.8013 L
294.334 59.5243 L
295.033 60.3805 L
295.732 61.3693 L
296.432 62.4842 L
297.131 63.7182 L
297.83 65.0643 L
298.529 66.5154 L
299.229 68.0646 L
299.928 69.7049 L
300.627 71.4292 L
301.326 73.2306 L
302.026 75.102 L
302.725 77.0365 L
303.424 79.027 L
304.123 81.0666 L
304.823 83.1482 L
305.522 85.2649 L
306.221 87.4096 L
306.92 89.5753 L
307.62 91.755 L
308.319 93.9418 L
309.018 96.1286 L
309.717 98.3084 L
310.417 100.474 L
311.116 102.619 L
311.815 104.736 L
312.514 106.818 L
313.214 108.858 L
313.913 110.849 L
314.612 112.783 L
315.311 114.655 L
316.011 116.457 L
316.71 118.182 L
317.409 119.823 L
318.108 121.373 L
318.808 122.824 L
319.507 124.171 L
320.206 125.406 L
320.905 126.521 L
321.605 127.511 L
322.304 128.368 L
323.003 129.084 L
323.702 129.654 L
324.402 130.069 L
325.101 130.324 L
325.8 130.41 LE
0.929 0.694 0.125 C
46.8 130.41 LS
47.4993 132.485 L
48.1985 134.552 L
48.8978 136.609 L
49.597 138.655 L
50.2962 140.688 L
50.9955 142.708 L
51.6948 144.711 L
52.394 146.698 L
53.0932 148.667 L
53.7925 150.616 L
54.4917 152.543 L
55.191 154.449 L
55.8902 156.33 L
56.5895 158.186 L
57.2887 160.016 L
57.988 161.817 L
58.6872 163.589 L
59.3865 165.33 L
60.0857 167.039 L
60.785 168.714 L
61.4842 170.354 L
62.1835 171.957 L
62.8827 173.522 L
63.582 175.048 L
64.2812 176.534 L
64.9805 177.977 L
65.6797 179.377 L
66.379 180.731 L
67.0782 182.04 L
67.7775 183.3 L
68.4767 184.512 L
69.1759 185.672 L
69.8752 186.781 L
70.5744 187.837 L
71.2737 188.837 L
71.9729 189.782 L
72.6722 190.669 L
73.3714 191.497 L
74.0707 192.264 L
74.7699 192.97 L
75.4692 193.612 L
76.1684 194.19 L
76.8677 194.702 L
77.5669 195.147 L
78.2662 195.522 L
78.9654 195.829 L
79.6647 196.068 L
80.3639 196.24 L
81.0632 196.345 L
81.7624 196.385 L
82.4617 196.359 L
83.1609 196.269 L
83.8602 196.116 L
84.5594 195.9 L
85.2587 195.623 L
85.9579 195.284 L
86.6572 194.885 L
87.3564 194.426 L
88.0557 193.908 L
88.7549 193.333 L
89.4541 192.7 L
90.1534 192.01 L
90.8526 191.265 L
91.5519 190.464 L
92.2511 189.61 L
92.9504 188.702 L
93.6496 187.741 L
94.3489 186.728 L
95.0481 185.664 L
95.7474 184.55 L
96.4466 183.386 L
97.1459 182.173 L
97.8451 180.912 L
98.5444 179.604 L
99.2436 178.249 L
99.9429 176.848 L
100.642 175.402 L
101.341 173.912 L
102.041 172.379 L
102.74 170.802 L
103.439 169.184 L
104.138 167.524 L
104.838 165.824 L
105.537 164.084 L
106.236 162.306 L
106.935 160.489 L
107.635 158.635 L
108.334 156.744 L
109.033 154.817 L
109.732 152.856 L
110.432 150.862 L
111.131 148.839 L
111.83 146.788 L
112.529 144.712 L
113.229 142.613 L
113.928 140.495 L
114.627 138.358 L
115.326 136.205 L
116.026 134.039 L
116.725 131.863 L
117.424 129.678 L
118.123 127.487 L
118.823 125.292 L
119.522 123.095 L
120.221 120.9 L
120.92 118.708 L
121.62 116.522 L
122.319 114.344 L
123.018 112.176 L
123.717 110.021 L
124.417 107.882 L
125.116 105.76 L
125.815 103.658 L
126.514 101.578 L
127.214 99.5231 L
127.913 97.4952 L
128.612 95.4968 L
129.311 93.5303 L
130.011 91.5979 L
130.71 89.702 L
131.409 87.8451 L
132.108 86.0295 L
132.808 84.2576 L
133.507 82.5318 L
134.206 80.8544 L
134.905 79.2277 L
135.605 77.6543 L
136.304 76.1363 L
137.003 74.6763 L
137.702 73.2766 L
138.402 71.9394 L
139.101 70.6674 L
139.8 69.4627 L
140.499 68.3273 L
141.199 67.2615 L
141.898 66.265 L
142.597 65.3376 L
143.296 64.479 L
143.995 63.6891 L
144.695 62.9675 L
145.394 62.3141 L
146.093 61.7287 L
146.792 61.211 L
147.492 60.7608 L
148.191 60.3778 L
148.89 60.0619 L
149.589 59.8128 L
150.289 59.6302 L
150.988 59.514 L
151.687 59.464 L
152.386 59.4798 L
153.086 59.5613 L
153.785 59.7083 L
154.484 59.9204 L
155.183 60.1976 L
155.883 60.5395 L
156.582 60.9459 L
157.281 61.4167 L
157.98 61.9515 L
158.68 62.5502 L
159.379 63.2125 L
160.078 63.9382 L
160.777 64.7271 L
161.477 65.5789 L
162.176 66.4934 L
162.875 67.4704 L
163.574 68.5097 L
164.274 69.611 L
164.973 70.7741 L
165.672 71.9988 L
166.371 73.2848 L
167.071 74.632 L
167.77 76.04 L
168.469 77.5088 L
169.168 79.0379 L
169.868 80.6273 L
170.567 82.2766 L
171.266 83.9856 L
171.965 85.7524 L
172.665 87.5743 L
173.364 89.4485 L
174.063 91.3723 L
174.762 93.3428 L
175.462 95.3574 L
176.161 97.4132 L
176.86 99.5075 L
177.559 101.638 L
178.259 103.801 L
178.958 105.994 L
179.657 108.215 L
180.356 110.46 L
181.056 112.727 L
181.755 115.014 L
182.454 117.317 L
183.153 119.633 L
183.853 121.961 L
184.552 124.296 L
185.251 126.637 L
185.95 128.98 L
186.65 131.324 L
187.349 133.664 L
188.048 135.999 L
188.747 138.325 L
189.447 140.64 L
190.146 142.941 L
190.845 145.225 L
191.544 147.489 L
192.244 149.732 L
192.943 151.949 L
193.642 154.139 L
194.341 156.298 L
195.041 158.423 L
195.74 160.513 L
196.439 162.563 L
197.138 164.573 L
197.838 166.537 L
198.537 168.455 L
199.236 170.322 L
199.935 172.137 L
200.635 173.897 L
201.334 175.598 L
202.033 177.239 L
202.732 178.816 L
203.432 180.331 L
204.131 181.784 L
204.83 183.174 L
205.529 184.501 L
206.229 185.766 L
206.928 186.968 L
207.627 188.108 L
208.326 189.186 L
209.026 190.201 L
209.725 191.154 L
210.424 192.045 L
211.123 192.874 L
211.823 193.641 L
212.522 194.346 L
213.221 194.99 L
213.92 195.571 L
214.62 196.091 L
215.319 196.548 L
216.018 196.945 L
216.717 197.279 L
217.417 197.552 L
218.116 197.764 L
218.815 197.914 L
219.514 198.003 L
220.214 198.031 L
220.913 197.997 L
221.612 197.902 L
222.311 197.746 L
223.011 197.529 L
223.71 197.251 L
224.409 196.912 L
225.108 196.512 L
225.808 196.052 L
226.507 195.53 L
227.206 194.948 L
227.905 194.305 L
228.605 193.602 L
229.304 192.838 L
230.003 192.014 L
230.702 191.129 L
231.402 190.184 L
232.101 189.179 L
232.8 188.113 L
233.499 186.988 L
234.199 185.804 L
234.898 184.564 L
235.597 183.269 L
236.296 181.921 L
236.995 180.522 L
237.695 179.074 L
238.394 177.578 L
239.093 176.037 L
239.792 174.453 L
240.492 172.826 L
241.191 171.16 L
241.89 169.455 L
242.589 167.714 L
243.289 165.938 L
243.988 164.13 L
244.687 162.291 L
245.386 160.423 L
246.086 158.527 L
246.785 156.606 L
247.484 154.662 L
248.183 152.695 L
248.883 150.709 L
249.582 148.705 L
250.281 146.685 L
250.98 144.65 L
251.68 142.602 L
252.379 140.544 L
253.078 138.477 L
253.777 136.403 L
254.477 134.323 L
255.176 132.241 L
255.875 130.156 L
256.574 128.072 L
257.274 125.99 L
257.973 123.911 L
258.672 121.839 L
259.371 119.774 L
260.071 117.718 L
260.77 115.674 L
261.469 113.642 L
262.168 111.626 L
262.868 109.626 L
263.567 107.644 L
264.266 105.683 L
264.965 103.744 L
265.665 101.829 L
266.364 99.9377 L
267.063 98.073 L
267.762 96.2359 L
268.462 94.4279 L
269.161 92.6503 L
269.86 90.9046 L
270.559 89.1923 L
271.259 87.5148 L
271.958 85.8734 L
272.657 84.2697 L
273.356 82.705 L
274.056 81.1808 L
274.755 79.6985 L
275.454 78.2595 L
276.153 76.8653 L
276.853 75.5173 L
277.552 74.2168 L
278.251 72.9654 L
278.95 71.7645 L
279.65 70.6155 L
280.349 69.5197 L
281.048 68.4788 L
281.747 67.494 L
282.447 66.5667 L
283.146 65.6986 L
283.845 64.8909 L
284.544 64.145 L
285.244 63.4625 L
285.943 62.8447 L
286.642 62.2931 L
287.341 61.809 L
288.041 61.394 L
288.74 61.0494 L
289.439 60.7767 L
290.138 60.5773 L
290.838 60.4526 L
291.537 60.404 L
292.236 60.4331 L
292.935 60.5411 L
293.635 60.7296 L
294.334 60.9999 L
295.033 61.3535 L
295.732 61.7905 L
296.432 62.309 L
297.131 62.9069 L
297.83 63.5822 L
298.529 64.3329 L
299.229 65.1567 L
299.928 66.0518 L
300.627 67.016 L
301.326 68.0473 L
302.026 69.1437 L
302.725 70.303 L
303.424 71.5232 L
304.123 72.8022 L
304.823 74.1381 L
305.522 75.5286 L
306.221 76.9719 L
306.92 78.4657 L
307.62 80.0082 L
308.319 81.5971 L
309.018 83.2304 L
309.717 84.9062 L
310.417 86.6222 L
311.116 88.3765 L
311.815 90.1671 L
312.514 91.9917 L
313.214 93.8485 L
313.913 95.7353 L
314.612 97.65 L
315.311 99.5907 L
316.011 101.555 L
316.71 103.542 L
317.409 105.548 L
318.108 107.571 L
318.808 109.611 L
319.507 111.663 L
320.206 113.728 L
320.905 115.802 L
321.605 117.883 L
322.304 119.969 L
323.003 122.059 L
323.702 124.15 L
324.402 126.24 L
325.101 128.328 L
325.8 130.41 LE
grestore
gsave
1.0 1.0 scale
newpath 0 0 moveto 360 0 lineto 360 252 lineto 0 252 lineto
closepath clip
1 1 1 C
224.79 222.431 315.131 176.427 224.79 176.427 T
224.79 222.431 315.131 222.431 315.131 176.427 T
0.5 W
2 LC
[16 0] 0 setdash
0.15 0.15 0.15 C
224.79 176.427 LS
315.131 176.427 LE
224.79 222.431 LS
315.131 222.431 LE
224.79 176.427 LS
224.79 222.431 LE
315.131 176.427 LS
315.131 222.431 LE
gsave
0 0 0 C
(data) [5 5 3 10] 0 251.019 211.263 9 /Helvetica SRX
grestore

gsave
0 0 0 C
(clamped) [5 2 5 7 5 5 10] 0 251.019 196.429 9 /Helvetica SRX
grestore

gsave
0 0 0 C
(hinged periodic) [5 2 5 5 5 5 2 5 5 3 2 5 5 2 10] 0 251.019 181.094 9 /Helvetica SRX
grestore

0 0.447 0.741 C
238.904 214.763 237.404 213.897 238.404 213.897 T
238.904 214.763 236.904 214.763 237.404 213.897 T
238.904 214.763 237.404 215.629 236.904 214.763 T
238.904 214.763 238.404 215.629 237.404 215.629 T
238.904 214.763 238.904 214.763 238.404 215.629 T
0 LC
1 LJ
[] 0 setdash
0.85 0.325 0.098 C
227.902 199.429 LS
247.907 199.429 LE
0.929 0.694 0.125 C
227.902 184.094 LS
247.907 184.094 LE
grestore
grestore
showpage
cleartomark
%%PageTrailer
%%Trailer
end
%%EOF
