%!PS-Adobe-3.0 EPSF-3.0
%%Title: gl2ps_renderer figure
%%Creator: GL2PS 1.4.0, (C) 1999-2017 C. Geuzaine
%%For: Octave
%%CreationDate: Sat Feb 23 18:52:06 2019
%%LanguageLevel: 3
%%DocumentData: Clean7Bit
%%Pages: 1
%%BoundingBox: 0 0 360 252
%%EndComments
%%BeginProlog
/gl2psdict 64 dict def gl2psdict begin
/tryPS3shading false def % set to false to force subdivision
/rThreshold 0.064 def % red component subdivision threshold
/gThreshold 0.034 def % green component subdivision threshold
/bThreshold 0.1 def % blue component subdivision threshold
/BD { bind def } bind def
/C  { setrgbcolor } BD
/G  { 0.082 mul exch 0.6094 mul add exch 0.3086 mul add neg 1.0 add setgray } BD
/W  { setlinewidth } BD
/LC  { setlinecap } BD
/LJ  { setlinejoin } BD
/FC { findfont exch /SH exch def SH scalefont setfont } BD
/SW { dup stringwidth pop } BD
/S  { FC moveto show } BD
/SBC{ FC moveto SW -2 div 0 rmoveto show } BD
/SBR{ FC moveto SW neg 0 rmoveto show } BD
/SCL{ FC moveto 0 SH -2 div rmoveto show } BD
/SCC{ FC moveto SW -2 div SH -2 div rmoveto show } BD
/SCR{ FC moveto SW neg SH -2 div rmoveto show } BD
/STL{ FC moveto 0 SH neg rmoveto show } BD
/STC{ FC moveto SW -2 div SH neg rmoveto show } BD
/STR{ FC moveto SW neg SH neg rmoveto show } BD
/FCT { FC translate 0 0 } BD
/SR  { gsave FCT moveto rotate show grestore } BD
/SRX  { gsave FCT moveto rotate xshow grestore } BD
/SBCR{ gsave FCT moveto rotate SW -2 div 0 rmoveto show grestore } BD
/SBRR{ gsave FCT moveto rotate SW neg 0 rmoveto show grestore } BD
/SCLR{ gsave FCT moveto rotate 0 SH -2 div rmoveto show grestore} BD
/SCCR{ gsave FCT moveto rotate SW -2 div SH -2 div rmoveto show grestore} BD
/SCRR{ gsave FCT moveto rotate SW neg SH -2 div rmoveto show grestore} BD
/STLR{ gsave FCT moveto rotate 0 SH neg rmoveto show grestore } BD
/STCR{ gsave FCT moveto rotate SW -2 div SH neg rmoveto show grestore } BD
/STRR{ gsave FCT moveto rotate SW neg SH neg rmoveto show grestore } BD
/P  { newpath 0.0 360.0 arc closepath fill } BD
/LS { newpath moveto } BD
/L  { lineto } BD
/LE { lineto stroke } BD
/T  { newpath moveto lineto lineto closepath fill } BD
/STshfill {
      /b1 exch def /g1 exch def /r1 exch def /y1 exch def /x1 exch def
      /b2 exch def /g2 exch def /r2 exch def /y2 exch def /x2 exch def
      /b3 exch def /g3 exch def /r3 exch def /y3 exch def /x3 exch def
      gsave << /ShadingType 4 /ColorSpace [/DeviceRGB]
      /DataSource [ 0 x1 y1 r1 g1 b1 0 x2 y2 r2 g2 b2 0 x3 y3 r3 g3 b3 ] >>
      shfill grestore } BD
/Tm { 3 -1 roll 8 -1 roll 13 -1 roll add add 3 div
      3 -1 roll 7 -1 roll 11 -1 roll add add 3 div
      3 -1 roll 6 -1 roll 9 -1 roll add add 3 div C T } BD
/STsplit {
      4 index 15 index add 0.5 mul
      4 index 15 index add 0.5 mul
      4 index 15 index add 0.5 mul
      4 index 15 index add 0.5 mul
      4 index 15 index add 0.5 mul
      5 copy 5 copy 25 15 roll
      9 index 30 index add 0.5 mul
      9 index 30 index add 0.5 mul
      9 index 30 index add 0.5 mul
      9 index 30 index add 0.5 mul
      9 index 30 index add 0.5 mul
      5 copy 5 copy 35 5 roll 25 5 roll 15 5 roll
      4 index 10 index add 0.5 mul
      4 index 10 index add 0.5 mul
      4 index 10 index add 0.5 mul
      4 index 10 index add 0.5 mul
      4 index 10 index add 0.5 mul
      5 copy 5 copy 40 5 roll 25 5 roll 15 5 roll 25 5 roll
      STnoshfill STnoshfill STnoshfill STnoshfill } BD
/STnoshfill {
      2 index 8 index sub abs rThreshold gt
      { STsplit }
      { 1 index 7 index sub abs gThreshold gt
        { STsplit }
        { dup 6 index sub abs bThreshold gt
          { STsplit }
          { 2 index 13 index sub abs rThreshold gt
            { STsplit }
            { 1 index 12 index sub abs gThreshold gt
              { STsplit }
              { dup 11 index sub abs bThreshold gt
                { STsplit }
                { 7 index 13 index sub abs rThreshold gt
                  { STsplit }
                  { 6 index 12 index sub abs gThreshold gt
                    { STsplit }
                    { 5 index 11 index sub abs bThreshold gt
                      { STsplit }
                      { Tm }
                      ifelse }
                    ifelse }
                  ifelse }
                ifelse }
              ifelse }
            ifelse }
          ifelse }
        ifelse }
      ifelse } BD
tryPS3shading
{ /shfill where
  { /ST { STshfill } BD }
  { /ST { STnoshfill } BD }
  ifelse }
{ /ST { STnoshfill } BD }
ifelse
end
%%EndProlog
%%BeginSetup
/DeviceRGB setcolorspace
gl2psdict begin
%%EndSetup
%%Page: 1 1
%%BeginPageSetup
%%EndPageSetup
mark
gsave
1.0 1.0 scale
1 1 1 C
newpath 0 0 moveto 360 0 lineto 360 252 lineto 0 252 lineto
closepath fill
gsave
1.0 1.0 scale
1 1 1 C
newpath 0 0 moveto 360 0 lineto 360 252 lineto 0 252 lineto
closepath fill
newpath 0 0 moveto 360 0 lineto 360 252 lineto 0 252 lineto
closepath clip
1 1 1 C
46.8 233.1 325.8 27.72 46.8 27.72 T
46.8 233.1 325.8 233.1 325.8 27.72 T
0.5 W
0.15 0.15 0.15 C
46.8 27.72 LS
46.8 30.5152 LE
46.8 233.1 LS
46.8 230.305 LE
91.2042 27.72 LS
91.2042 30.5152 LE
91.2042 233.1 LS
91.2042 230.305 LE
135.608 27.72 LS
135.608 30.5152 LE
135.608 233.1 LS
135.608 230.305 LE
180.013 27.72 LS
180.013 30.5152 LE
180.013 233.1 LS
180.013 230.305 LE
224.417 27.72 LS
224.417 30.5152 LE
224.417 233.1 LS
224.417 230.305 LE
268.821 27.72 LS
268.821 30.5152 LE
268.821 233.1 LS
268.821 230.305 LE
313.225 27.72 LS
313.225 30.5152 LE
313.225 233.1 LS
313.225 230.305 LE
gsave
0.14902 0.14902 0.14902 C
(0) [10] 0 43.8 12.2061 10 /Helvetica SRX
grestore

gsave
0.14902 0.14902 0.14902 C
(1) [10] 0 88.2042 12.2061 10 /Helvetica SRX
grestore

gsave
0.14902 0.14902 0.14902 C
(2) [10] 0 132.608 12.2061 10 /Helvetica SRX
grestore

gsave
0.14902 0.14902 0.14902 C
(3) [10] 0 177.013 12.2061 10 /Helvetica SRX
grestore

gsave
0.14902 0.14902 0.14902 C
(4) [10] 0 221.417 12.2061 10 /Helvetica SRX
grestore

gsave
0.14902 0.14902 0.14902 C
(5) [10] 0 265.821 12.2061 10 /Helvetica SRX
grestore

gsave
0.14902 0.14902 0.14902 C
(6) [10] 0 310.225 12.2061 10 /Helvetica SRX
grestore

46.8 48.258 LS
49.59 48.258 LE
325.8 48.258 LS
323.01 48.258 LE
46.8 89.334 LS
49.59 89.334 LE
325.8 89.334 LS
323.01 89.334 LE
46.8 130.41 LS
49.59 130.41 LE
325.8 130.41 LS
323.01 130.41 LE
46.8 171.486 LS
49.59 171.486 LE
325.8 171.486 LS
323.01 171.486 LE
46.8 212.562 LS
49.59 212.562 LE
325.8 212.562 LS
323.01 212.562 LE
gsave
0.14902 0.14902 0.14902 C
(-2) [3 10] 0 32.8 44.258 10 /Helvetica SRX
grestore

gsave
0.14902 0.14902 0.14902 C
(-1) [3 10] 0 32.8 85.334 10 /Helvetica SRX
grestore

gsave
0.14902 0.14902 0.14902 C
(0) [10] 0 35.8 126.41 10 /Helvetica SRX
grestore

gsave
0.14902 0.14902 0.14902 C
(1) [10] 0 35.8 167.486 10 /Helvetica SRX
grestore

gsave
0.14902 0.14902 0.14902 C
(2) [10] 0 35.8 208.562 10 /Helvetica SRX
grestore

2 LC
[16 0] 0 setdash
46.8 27.72 LS
325.8 27.72 LE
46.8 233.1 LS
325.8 233.1 LE
46.8 27.72 LS
46.8 233.1 LE
325.8 27.72 LS
325.8 233.1 LE
0 0.447 0.741 C
85.2876 190.952 83.7876 190.086 84.7876 190.086 T
85.2876 190.952 83.2876 190.952 83.7876 190.086 T
85.2876 190.952 83.7876 191.818 83.2876 190.952 T
85.2876 190.952 84.7876 191.818 83.7876 191.818 T
85.2876 190.952 85.2876 190.952 84.7876 191.818 T
284.234 55.1257 282.734 54.2597 283.734 54.2597 T
284.234 55.1257 282.234 55.1257 282.734 54.2597 T
284.234 55.1257 282.734 55.9917 282.234 55.1257 T
284.234 55.1257 283.734 55.9917 282.734 55.9917 T
284.234 55.1257 284.234 55.1257 283.734 55.9917 T
260.893 88.6069 259.393 87.7409 260.393 87.7409 T
260.893 88.6069 258.893 88.6069 259.393 87.7409 T
260.893 88.6069 259.393 89.4729 258.893 88.6069 T
260.893 88.6069 260.393 89.4729 259.393 89.4729 T
260.893 88.6069 260.893 88.6069 260.393 89.4729 T
118.964 171.323 117.464 170.457 118.464 170.457 T
118.964 171.323 116.964 171.323 117.464 170.457 T
118.964 171.323 117.464 172.189 116.964 171.323 T
118.964 171.323 118.464 172.189 117.464 172.189 T
118.964 171.323 118.964 171.323 118.464 172.189 T
186.026 127.382 184.526 126.516 185.526 126.516 T
186.026 127.382 184.026 127.382 184.526 126.516 T
186.026 127.382 184.526 128.248 184.026 127.382 T
186.026 127.382 185.526 128.248 184.526 128.248 T
186.026 127.382 186.026 127.382 185.526 128.248 T
173.208 115.974 171.708 115.108 172.708 115.108 T
173.208 115.974 171.208 115.974 171.708 115.108 T
173.208 115.974 171.708 116.84 171.208 115.974 T
173.208 115.974 172.708 116.84 171.708 116.84 T
173.208 115.974 173.208 115.974 172.708 116.84 T
229.594 133.999 228.094 133.133 229.094 133.133 T
229.594 133.999 227.594 133.999 228.094 133.133 T
229.594 133.999 228.094 134.865 227.594 133.999 T
229.594 133.999 229.094 134.865 228.094 134.865 T
229.594 133.999 229.594 133.999 229.094 134.865 T
267.854 73.5768 266.354 72.7108 267.354 72.7108 T
267.854 73.5768 265.854 73.5768 266.354 72.7108 T
267.854 73.5768 266.354 74.4428 265.854 73.5768 T
267.854 73.5768 267.354 74.4428 266.354 74.4428 T
267.854 73.5768 267.854 73.5768 267.354 74.4428 T
73.9868 198.172 72.4868 197.306 73.4868 197.306 T
73.9868 198.172 71.9868 198.172 72.4868 197.306 T
73.9868 198.172 72.4868 199.038 71.9868 198.172 T
73.9868 198.172 73.4868 199.038 72.4868 199.038 T
73.9868 198.172 73.9868 198.172 73.4868 199.038 T
55.709 153.562 54.209 152.696 55.209 152.696 T
55.709 153.562 53.709 153.562 54.209 152.696 T
55.709 153.562 54.209 154.428 53.709 153.562 T
55.709 153.562 55.209 154.428 54.209 154.428 T
55.709 153.562 55.709 153.562 55.209 154.428 T
280.978 59.0471 279.478 58.1811 280.478 58.1811 T
280.978 59.0471 278.978 59.0471 279.478 58.1811 T
280.978 59.0471 279.478 59.9132 278.978 59.0471 T
280.978 59.0471 280.478 59.9132 279.478 59.9132 T
280.978 59.0471 280.978 59.0471 280.478 59.9132 T
168.542 111.748 167.042 110.882 168.042 110.882 T
168.542 111.748 166.542 111.748 167.042 110.882 T
168.542 111.748 167.042 112.614 166.542 111.748 T
168.542 111.748 168.042 112.614 167.042 112.614 T
168.542 111.748 168.542 111.748 168.042 112.614 T
260.476 88.0092 258.976 87.1432 259.976 87.1432 T
260.476 88.0092 258.476 88.0092 258.976 87.1432 T
260.476 88.0092 258.976 88.8753 258.476 88.0092 T
260.476 88.0092 259.976 88.8753 258.976 88.8753 T
260.476 88.0092 260.476 88.0092 259.976 88.8753 T
48.3876 127.03 46.8876 126.164 47.8876 126.164 T
48.3876 127.03 46.3876 127.03 46.8876 126.164 T
48.3876 127.03 46.8876 127.896 46.3876 127.03 T
48.3876 127.03 47.8876 127.896 46.8876 127.896 T
48.3876 127.03 48.3876 127.03 47.8876 127.896 T
172.063 118.642 170.563 117.776 171.563 117.776 T
172.063 118.642 170.063 118.642 170.563 117.776 T
172.063 118.642 170.563 119.508 170.063 118.642 T
172.063 118.642 171.563 119.508 170.563 119.508 T
172.063 118.642 172.063 118.642 171.563 119.508 T
249.11 101.983 247.61 101.116 248.61 101.116 T
249.11 101.983 247.11 101.983 247.61 101.116 T
249.11 101.983 247.61 102.849 247.11 101.983 T
249.11 101.983 248.61 102.849 247.61 102.849 T
249.11 101.983 249.11 101.983 248.61 102.849 T
111.625 185.359 110.125 184.493 111.125 184.493 T
111.625 185.359 109.625 185.359 110.125 184.493 T
111.625 185.359 110.125 186.225 109.625 185.359 T
111.625 185.359 111.125 186.225 110.125 186.225 T
111.625 185.359 111.625 185.359 111.125 186.225 T
311.531 90.1457 310.031 89.2796 311.031 89.2796 T
311.531 90.1457 309.531 90.1457 310.031 89.2796 T
311.531 90.1457 310.031 91.0117 309.531 90.1457 T
311.531 90.1457 311.031 91.0117 310.031 91.0117 T
311.531 90.1457 311.531 90.1457 311.031 91.0117 T
299.298 72.7176 297.798 71.8516 298.798 71.8516 T
299.298 72.7176 297.298 72.7176 297.798 71.8516 T
299.298 72.7176 297.798 73.5836 297.298 72.7176 T
299.298 72.7176 298.798 73.5836 297.798 73.5836 T
299.298 72.7176 299.298 72.7176 298.798 73.5836 T
56.3346 152.942 54.8346 152.076 55.8346 152.076 T
56.3346 152.942 54.3346 152.942 54.8346 152.076 T
56.3346 152.942 54.8346 153.808 54.3346 152.942 T
56.3346 152.942 55.8346 153.808 54.8346 153.808 T
56.3346 152.942 56.3346 152.942 55.8346 153.808 T
54.8994 150.94 53.3994 150.074 54.3994 150.074 T
54.8994 150.94 52.8994 150.94 53.3994 150.074 T
54.8994 150.94 53.3994 151.806 52.8994 150.94 T
54.8994 150.94 54.3994 151.806 53.3994 151.806 T
54.8994 150.94 54.8994 150.94 54.3994 151.806 T
198.854 141.642 197.354 140.776 198.354 140.776 T
198.854 141.642 196.854 141.642 197.354 140.776 T
198.854 141.642 197.354 142.508 196.854 141.642 T
198.854 141.642 198.354 142.508 197.354 142.508 T
198.854 141.642 198.854 141.642 198.354 142.508 T
309.823 76.7496 308.323 75.8836 309.323 75.8836 T
309.823 76.7496 307.823 76.7496 308.323 75.8836 T
309.823 76.7496 308.323 77.6157 307.823 76.7496 T
309.823 76.7496 309.323 77.6157 308.323 77.6157 T
309.823 76.7496 309.823 76.7496 309.323 77.6157 T
154.156 115.612 152.656 114.746 153.656 114.746 T
154.156 115.612 152.156 115.612 152.656 114.746 T
154.156 115.612 152.656 116.479 152.156 115.612 T
154.156 115.612 153.656 116.479 152.656 116.479 T
154.156 115.612 154.156 115.612 153.656 116.479 T
108.231 185.647 106.731 184.781 107.731 184.781 T
108.231 185.647 106.231 185.647 106.731 184.781 T
108.231 185.647 106.731 186.513 106.231 185.647 T
108.231 185.647 107.731 186.513 106.731 186.513 T
108.231 185.647 108.231 185.647 107.731 186.513 T
165.571 113.166 164.071 112.3 165.071 112.3 T
165.571 113.166 163.571 113.166 164.071 112.3 T
165.571 113.166 164.071 114.032 163.571 113.166 T
165.571 113.166 165.071 114.032 164.071 114.032 T
165.571 113.166 165.571 113.166 165.071 114.032 T
55.9024 152.337 54.4024 151.471 55.4024 151.471 T
55.9024 152.337 53.9024 152.337 54.4024 151.471 T
55.9024 152.337 54.4024 153.203 53.9024 152.337 T
55.9024 152.337 55.4024 153.203 54.4024 153.203 T
55.9024 152.337 55.9024 152.337 55.4024 153.203 T
109.652 188.661 108.152 187.795 109.152 187.795 T
109.652 188.661 107.652 188.661 108.152 187.795 T
109.652 188.661 108.152 189.527 107.652 188.661 T
109.652 188.661 109.152 189.527 108.152 189.527 T
109.652 188.661 109.652 188.661 109.152 189.527 T
169.971 117.978 168.471 117.112 169.471 117.112 T
169.971 117.978 167.971 117.978 168.471 117.112 T
169.971 117.978 168.471 118.844 167.971 117.978 T
169.971 117.978 169.471 118.844 168.471 118.844 T
169.971 117.978 169.971 117.978 169.471 118.844 T
186.132 128.259 184.632 127.393 185.632 127.393 T
186.132 128.259 184.132 128.259 184.632 127.393 T
186.132 128.259 184.632 129.125 184.132 128.259 T
186.132 128.259 185.632 129.125 184.632 129.125 T
186.132 128.259 186.132 128.259 185.632 129.125 T
112.831 180.392 111.331 179.526 112.331 179.526 T
112.831 180.392 110.831 180.392 111.331 179.526 T
112.831 180.392 111.331 181.258 110.831 180.392 T
112.831 180.392 112.331 181.258 111.331 181.258 T
112.831 180.392 112.831 180.392 112.331 181.258 T
112.212 184.772 110.712 183.906 111.712 183.906 T
112.212 184.772 110.212 184.772 110.712 183.906 T
112.212 184.772 110.712 185.638 110.212 184.772 T
112.212 184.772 111.712 185.638 110.712 185.638 T
112.212 184.772 112.212 184.772 111.712 185.638 T
108.84 185.04 107.34 184.174 108.34 184.174 T
108.84 185.04 106.84 185.04 107.34 184.174 T
108.84 185.04 107.34 185.906 106.84 185.04 T
108.84 185.04 108.34 185.906 107.34 185.906 T
108.84 185.04 108.84 185.04 108.34 185.906 T
176.029 122.044 174.529 121.178 175.529 121.178 T
176.029 122.044 174.029 122.044 174.529 121.178 T
176.029 122.044 174.529 122.91 174.029 122.044 T
176.029 122.044 175.529 122.91 174.529 122.91 T
176.029 122.044 176.029 122.044 175.529 122.91 T
128.649 149.393 127.149 148.527 128.149 148.527 T
128.649 149.393 126.649 149.393 127.149 148.527 T
128.649 149.393 127.149 150.259 126.649 149.393 T
128.649 149.393 128.149 150.259 127.149 150.259 T
128.649 149.393 128.649 149.393 128.149 150.259 T
53.7956 143.888 52.2956 143.022 53.2956 143.022 T
53.7956 143.888 51.7956 143.888 52.2956 143.022 T
53.7956 143.888 52.2956 144.754 51.7956 143.888 T
53.7956 143.888 53.2956 144.754 52.2956 144.754 T
53.7956 143.888 53.7956 143.888 53.2956 144.754 T
281.484 54.9212 279.984 54.0551 280.984 54.0551 T
281.484 54.9212 279.484 54.9212 279.984 54.0551 T
281.484 54.9212 279.984 55.7872 279.484 54.9212 T
281.484 54.9212 280.984 55.7872 279.984 55.7872 T
281.484 54.9212 281.484 54.9212 280.984 55.7872 T
203.051 142.945 201.551 142.079 202.551 142.079 T
203.051 142.945 201.051 142.945 201.551 142.079 T
203.051 142.945 201.551 143.811 201.051 142.945 T
203.051 142.945 202.551 143.811 201.551 143.811 T
203.051 142.945 203.051 142.945 202.551 143.811 T
227 135.791 225.5 134.925 226.5 134.925 T
227 135.791 225 135.791 225.5 134.925 T
227 135.791 225.5 136.657 225 135.791 T
227 135.791 226.5 136.657 225.5 136.657 T
227 135.791 227 135.791 226.5 136.657 T
99.6679 203.797 98.1678 202.931 99.1678 202.931 T
99.6679 203.797 97.6678 203.797 98.1678 202.931 T
99.6679 203.797 98.1678 204.663 97.6678 203.797 T
99.6679 203.797 99.1678 204.663 98.1678 204.663 T
99.6679 203.797 99.6679 203.797 99.1678 204.663 T
324.72 125.07 323.22 124.204 324.22 124.204 T
324.72 125.07 322.72 125.07 323.22 124.204 T
324.72 125.07 323.22 125.936 322.72 125.07 T
324.72 125.07 324.22 125.936 323.22 125.936 T
324.72 125.07 324.72 125.07 324.22 125.936 T
287.725 64.0121 286.225 63.146 287.225 63.146 T
287.725 64.0121 285.725 64.0121 286.225 63.146 T
287.725 64.0121 286.225 64.8781 285.725 64.0121 T
287.725 64.0121 287.225 64.8781 286.225 64.8781 T
287.725 64.0121 287.725 64.0121 287.225 64.8781 T
81.5283 189.128 80.0283 188.262 81.0283 188.262 T
81.5283 189.128 79.5283 189.128 80.0283 188.262 T
81.5283 189.128 80.0283 189.994 79.5283 189.128 T
81.5283 189.128 81.0283 189.994 80.0283 189.994 T
81.5283 189.128 81.5283 189.128 81.0283 189.994 T
140.622 136.656 139.122 135.79 140.122 135.79 T
140.622 136.656 138.622 136.656 139.122 135.79 T
140.622 136.656 139.122 137.522 138.622 136.656 T
140.622 136.656 140.122 137.522 139.122 137.522 T
140.622 136.656 140.622 136.656 140.122 137.522 T
249.094 100.926 247.594 100.06 248.594 100.06 T
249.094 100.926 247.094 100.926 247.594 100.06 T
249.094 100.926 247.594 101.792 247.094 100.926 T
249.094 100.926 248.594 101.792 247.594 101.792 T
249.094 100.926 249.094 100.926 248.594 101.792 T
246.223 109.743 244.723 108.877 245.723 108.877 T
246.223 109.743 244.223 109.743 244.723 108.877 T
246.223 109.743 244.723 110.609 244.223 109.743 T
246.223 109.743 245.723 110.609 244.723 110.609 T
246.223 109.743 246.223 109.743 245.723 110.609 T
309.067 88.011 307.567 87.145 308.567 87.145 T
309.067 88.011 307.067 88.011 307.567 87.145 T
309.067 88.011 307.567 88.877 307.067 88.011 T
309.067 88.011 308.567 88.877 307.567 88.877 T
309.067 88.011 309.067 88.011 308.567 88.877 T
165.568 109.071 164.068 108.205 165.068 108.205 T
165.568 109.071 163.568 109.071 164.068 108.205 T
165.568 109.071 164.068 109.937 163.568 109.071 T
165.568 109.071 165.068 109.937 164.068 109.937 T
165.568 109.071 165.568 109.071 165.068 109.937 T
279.38 55.677 277.88 54.811 278.88 54.811 T
279.38 55.677 277.38 55.677 277.88 54.811 T
279.38 55.677 277.88 56.543 277.38 55.677 T
279.38 55.677 278.88 56.543 277.88 56.543 T
279.38 55.677 279.38 55.677 278.88 56.543 T
234.815 130.874 233.315 130.008 234.315 130.008 T
234.815 130.874 232.815 130.874 233.315 130.008 T
234.815 130.874 233.315 131.74 232.815 130.874 T
234.815 130.874 234.315 131.74 233.315 131.74 T
234.815 130.874 234.815 130.874 234.315 131.74 T
132.44 140.778 130.94 139.912 131.94 139.912 T
132.44 140.778 130.44 140.778 130.94 139.912 T
132.44 140.778 130.94 141.644 130.44 140.778 T
132.44 140.778 131.94 141.644 130.94 141.644 T
132.44 140.778 132.44 140.778 131.94 141.644 T
211.735 137.632 210.235 136.766 211.235 136.766 T
211.735 137.632 209.735 137.632 210.235 136.766 T
211.735 137.632 210.235 138.498 209.735 137.632 T
211.735 137.632 211.235 138.498 210.235 138.498 T
211.735 137.632 211.735 137.632 211.235 138.498 T
294.012 60.0795 292.512 59.2135 293.512 59.2135 T
294.012 60.0795 292.012 60.0795 292.512 59.2135 T
294.012 60.0795 292.512 60.9455 292.012 60.0795 T
294.012 60.0795 293.512 60.9455 292.512 60.9455 T
294.012 60.0795 294.012 60.0795 293.512 60.9455 T
283.889 52.4913 282.389 51.6252 283.389 51.6252 T
283.889 52.4913 281.889 52.4913 282.389 51.6252 T
283.889 52.4913 282.389 53.3573 281.889 52.4913 T
283.889 52.4913 283.389 53.3573 282.389 53.3573 T
283.889 52.4913 283.889 52.4913 283.389 53.3573 T
188.774 128.353 187.274 127.487 188.274 127.487 T
188.774 128.353 186.774 128.353 187.274 127.487 T
188.774 128.353 187.274 129.219 186.774 128.353 T
188.774 128.353 188.274 129.219 187.274 129.219 T
188.774 128.353 188.774 128.353 188.274 129.219 T
212.132 153.11 210.632 152.244 211.632 152.244 T
212.132 153.11 210.132 153.11 210.632 152.244 T
212.132 153.11 210.632 153.976 210.132 153.11 T
212.132 153.11 211.632 153.976 210.632 153.976 T
212.132 153.11 212.132 153.11 211.632 153.976 T
57.4327 150.872 55.9327 150.006 56.9327 150.006 T
57.4327 150.872 55.4327 150.872 55.9327 150.006 T
57.4327 150.872 55.9327 151.738 55.4327 150.872 T
57.4327 150.872 56.9327 151.738 55.9327 151.738 T
57.4327 150.872 57.4327 150.872 56.9327 151.738 T
115.524 179.728 114.024 178.862 115.024 178.862 T
115.524 179.728 113.524 179.728 114.024 178.862 T
115.524 179.728 114.024 180.594 113.524 179.728 T
115.524 179.728 115.024 180.594 114.024 180.594 T
115.524 179.728 115.524 179.728 115.024 180.594 T
270.276 61.2555 268.776 60.3895 269.776 60.3895 T
270.276 61.2555 268.276 61.2555 268.776 60.3895 T
270.276 61.2555 268.776 62.1216 268.276 61.2555 T
270.276 61.2555 269.776 62.1216 268.776 62.1216 T
270.276 61.2555 270.276 61.2555 269.776 62.1216 T
163.394 112.991 161.894 112.125 162.894 112.125 T
163.394 112.991 161.394 112.991 161.894 112.125 T
163.394 112.991 161.894 113.857 161.394 112.991 T
163.394 112.991 162.894 113.857 161.894 113.857 T
163.394 112.991 163.394 112.991 162.894 113.857 T
96.0691 196.724 94.5691 195.858 95.5691 195.858 T
96.0691 196.724 94.0691 196.724 94.5691 195.858 T
96.0691 196.724 94.5691 197.59 94.0691 196.724 T
96.0691 196.724 95.5691 197.59 94.5691 197.59 T
96.0691 196.724 96.0691 196.724 95.5691 197.59 T
200.915 136.984 199.415 136.118 200.415 136.118 T
200.915 136.984 198.915 136.984 199.415 136.118 T
200.915 136.984 199.415 137.85 198.915 136.984 T
200.915 136.984 200.415 137.85 199.415 137.85 T
200.915 136.984 200.915 136.984 200.415 137.85 T
243.948 115.518 242.448 114.652 243.448 114.652 T
243.948 115.518 241.948 115.518 242.448 114.652 T
243.948 115.518 242.448 116.384 241.948 115.518 T
243.948 115.518 243.448 116.384 242.448 116.384 T
243.948 115.518 243.948 115.518 243.448 116.384 T
235.982 123.822 234.482 122.956 235.482 122.956 T
235.982 123.822 233.982 123.822 234.482 122.956 T
235.982 123.822 234.482 124.688 233.982 123.822 T
235.982 123.822 235.482 124.688 234.482 124.688 T
235.982 123.822 235.982 123.822 235.482 124.688 T
152.342 111.395 150.842 110.529 151.842 110.529 T
152.342 111.395 150.342 111.395 150.842 110.529 T
152.342 111.395 150.842 112.261 150.342 111.395 T
152.342 111.395 151.842 112.261 150.842 112.261 T
152.342 111.395 152.342 111.395 151.842 112.261 T
170.27 117.656 168.77 116.79 169.77 116.79 T
170.27 117.656 168.27 117.656 168.77 116.79 T
170.27 117.656 168.77 118.522 168.27 117.656 T
170.27 117.656 169.77 118.522 168.77 118.522 T
170.27 117.656 170.27 117.656 169.77 118.522 T
189.651 128.59 188.151 127.724 189.151 127.724 T
189.651 128.59 187.651 128.59 188.151 127.724 T
189.651 128.59 188.151 129.456 187.651 128.59 T
189.651 128.59 189.151 129.456 188.151 129.456 T
189.651 128.59 189.651 128.59 189.151 129.456 T
264.986 80.6073 263.486 79.7412 264.486 79.7412 T
264.986 80.6073 262.986 80.6073 263.486 79.7412 T
264.986 80.6073 263.486 81.4733 262.986 80.6073 T
264.986 80.6073 264.486 81.4733 263.486 81.4733 T
264.986 80.6073 264.986 80.6073 264.486 81.4733 T
193.142 140.631 191.642 139.765 192.642 139.765 T
193.142 140.631 191.142 140.631 191.642 139.765 T
193.142 140.631 191.642 141.497 191.142 140.631 T
193.142 140.631 192.642 141.497 191.642 141.497 T
193.142 140.631 193.142 140.631 192.642 141.497 T
157.518 124.61 156.018 123.744 157.018 123.744 T
157.518 124.61 155.518 124.61 156.018 123.744 T
157.518 124.61 156.018 125.477 155.518 124.61 T
157.518 124.61 157.018 125.477 156.018 125.477 T
157.518 124.61 157.518 124.61 157.018 125.477 T
184.424 132.504 182.924 131.638 183.924 131.638 T
184.424 132.504 182.424 132.504 182.924 131.638 T
184.424 132.504 182.924 133.37 182.424 132.504 T
184.424 132.504 183.924 133.37 182.924 133.37 T
184.424 132.504 184.424 132.504 183.924 133.37 T
56.0514 149.892 54.5514 149.026 55.5514 149.026 T
56.0514 149.892 54.0514 149.892 54.5514 149.026 T
56.0514 149.892 54.5514 150.758 54.0514 149.892 T
56.0514 149.892 55.5514 150.758 54.5514 150.758 T
56.0514 149.892 56.0514 149.892 55.5514 150.758 T
59.933 162.395 58.433 161.529 59.433 161.529 T
59.933 162.395 57.933 162.395 58.433 161.529 T
59.933 162.395 58.433 163.261 57.933 162.395 T
59.933 162.395 59.433 163.261 58.433 163.261 T
59.933 162.395 59.933 162.395 59.433 163.261 T
244.044 109.74 242.544 108.874 243.544 108.874 T
244.044 109.74 242.044 109.74 242.544 108.874 T
244.044 109.74 242.544 110.606 242.044 109.74 T
244.044 109.74 243.544 110.606 242.544 110.606 T
244.044 109.74 244.044 109.74 243.544 110.606 T
322.109 122.24 320.609 121.374 321.609 121.374 T
322.109 122.24 320.109 122.24 320.609 121.374 T
322.109 122.24 320.609 123.106 320.109 122.24 T
322.109 122.24 321.609 123.106 320.609 123.106 T
322.109 122.24 322.109 122.24 321.609 123.106 T
213.298 147.735 211.798 146.869 212.798 146.869 T
213.298 147.735 211.298 147.735 211.798 146.869 T
213.298 147.735 211.798 148.601 211.298 147.735 T
213.298 147.735 212.798 148.601 211.798 148.601 T
213.298 147.735 213.298 147.735 212.798 148.601 T
157.614 107.772 156.114 106.906 157.114 106.906 T
157.614 107.772 155.614 107.772 156.114 106.906 T
157.614 107.772 156.114 108.638 155.614 107.772 T
157.614 107.772 157.114 108.638 156.114 108.638 T
157.614 107.772 157.614 107.772 157.114 108.638 T
95.3274 198.847 93.8274 197.981 94.8274 197.981 T
95.3274 198.847 93.3274 198.847 93.8274 197.981 T
95.3274 198.847 93.8274 199.713 93.3274 198.847 T
95.3274 198.847 94.8274 199.713 93.8274 199.713 T
95.3274 198.847 95.3274 198.847 94.8274 199.713 T
187.925 130.288 186.425 129.422 187.425 129.422 T
187.925 130.288 185.925 130.288 186.425 129.422 T
187.925 130.288 186.425 131.154 185.925 130.288 T
187.925 130.288 187.425 131.154 186.425 131.154 T
187.925 130.288 187.925 130.288 187.425 131.154 T
321.799 120.517 320.299 119.651 321.299 119.651 T
321.799 120.517 319.799 120.517 320.299 119.651 T
321.799 120.517 320.299 121.383 319.799 120.517 T
321.799 120.517 321.299 121.383 320.299 121.383 T
321.799 120.517 321.799 120.517 321.299 121.383 T
262.776 78.1647 261.276 77.2986 262.276 77.2986 T
262.776 78.1647 260.776 78.1647 261.276 77.2986 T
262.776 78.1647 261.276 79.0307 260.776 78.1647 T
262.776 78.1647 262.276 79.0307 261.276 79.0307 T
262.776 78.1647 262.776 78.1647 262.276 79.0307 T
198.353 139.686 196.853 138.82 197.853 138.82 T
198.353 139.686 196.353 139.686 196.853 138.82 T
198.353 139.686 196.853 140.552 196.353 139.686 T
198.353 139.686 197.853 140.552 196.853 140.552 T
198.353 139.686 198.353 139.686 197.853 140.552 T
287.821 53.2068 286.321 52.3407 287.321 52.3407 T
287.821 53.2068 285.821 53.2068 286.321 52.3407 T
287.821 53.2068 286.321 54.0728 285.821 53.2068 T
287.821 53.2068 287.321 54.0728 286.321 54.0728 T
287.821 53.2068 287.821 53.2068 287.321 54.0728 T
112.577 183.11 111.077 182.244 112.077 182.244 T
112.577 183.11 110.577 183.11 111.077 182.244 T
112.577 183.11 111.077 183.976 110.577 183.11 T
112.577 183.11 112.077 183.976 111.077 183.976 T
112.577 183.11 112.577 183.11 112.077 183.976 T
191.142 132.238 189.642 131.372 190.642 131.372 T
191.142 132.238 189.142 132.238 189.642 131.372 T
191.142 132.238 189.642 133.104 189.142 132.238 T
191.142 132.238 190.642 133.104 189.642 133.104 T
191.142 132.238 191.142 132.238 190.642 133.104 T
313.538 94.7998 312.038 93.9338 313.038 93.9338 T
313.538 94.7998 311.538 94.7998 312.038 93.9338 T
313.538 94.7998 312.038 95.6658 311.538 94.7998 T
313.538 94.7998 313.038 95.6658 312.038 95.6658 T
313.538 94.7998 313.538 94.7998 313.038 95.6658 T
209.005 147.486 207.505 146.62 208.505 146.62 T
209.005 147.486 207.005 147.486 207.505 146.62 T
209.005 147.486 207.505 148.352 207.005 147.486 T
209.005 147.486 208.505 148.352 207.505 148.352 T
209.005 147.486 209.005 147.486 208.505 148.352 T
175.898 116.529 174.398 115.663 175.398 115.663 T
175.898 116.529 173.898 116.529 174.398 115.663 T
175.898 116.529 174.398 117.395 173.898 116.529 T
175.898 116.529 175.398 117.395 174.398 117.395 T
175.898 116.529 175.898 116.529 175.398 117.395 T
122.929 154.832 121.429 153.966 122.429 153.966 T
122.929 154.832 120.929 154.832 121.429 153.966 T
122.929 154.832 121.429 155.698 120.929 154.832 T
122.929 154.832 122.429 155.698 121.429 155.698 T
122.929 154.832 122.929 154.832 122.429 155.698 T
200.691 138.066 199.191 137.2 200.191 137.2 T
200.691 138.066 198.691 138.066 199.191 137.2 T
200.691 138.066 199.191 138.932 198.691 138.066 T
200.691 138.066 200.191 138.932 199.191 138.932 T
200.691 138.066 200.691 138.066 200.191 138.932 T
314.835 94.148 313.335 93.2819 314.335 93.2819 T
314.835 94.148 312.835 94.148 313.335 93.2819 T
314.835 94.148 313.335 95.014 312.835 94.148 T
314.835 94.148 314.335 95.014 313.335 95.014 T
314.835 94.148 314.835 94.148 314.335 95.014 T
49.3928 131.714 47.8928 130.848 48.8928 130.848 T
49.3928 131.714 47.3928 131.714 47.8928 130.848 T
49.3928 131.714 47.8928 132.58 47.3928 131.714 T
49.3928 131.714 48.8928 132.58 47.8928 132.58 T
49.3928 131.714 49.3928 131.714 48.8928 132.58 T
266.44 65.753 264.94 64.8869 265.94 64.8869 T
266.44 65.753 264.44 65.753 264.94 64.8869 T
266.44 65.753 264.94 66.619 264.44 65.753 T
266.44 65.753 265.94 66.619 264.94 66.619 T
266.44 65.753 266.44 65.753 265.94 66.619 T
276.716 63.5876 275.216 62.7216 276.216 62.7216 T
276.716 63.5876 274.716 63.5876 275.216 62.7216 T
276.716 63.5876 275.216 64.4537 274.716 63.5876 T
276.716 63.5876 276.216 64.4537 275.216 64.4537 T
276.716 63.5876 276.716 63.5876 276.216 64.4537 T
295.044 62.3217 293.544 61.4556 294.544 61.4556 T
295.044 62.3217 293.044 62.3217 293.544 61.4556 T
295.044 62.3217 293.544 63.1877 293.044 62.3217 T
295.044 62.3217 294.544 63.1877 293.544 63.1877 T
295.044 62.3217 295.044 62.3217 294.544 63.1877 T
254.4 95.5187 252.9 94.6527 253.9 94.6527 T
254.4 95.5187 252.4 95.5187 252.9 94.6527 T
254.4 95.5187 252.9 96.3848 252.4 95.5187 T
254.4 95.5187 253.9 96.3848 252.9 96.3848 T
254.4 95.5187 254.4 95.5187 253.9 96.3848 T
273.55 60.4241 272.05 59.5581 273.05 59.5581 T
273.55 60.4241 271.55 60.4241 272.05 59.5581 T
273.55 60.4241 272.05 61.2901 271.55 60.4241 T
273.55 60.4241 273.05 61.2901 272.05 61.2901 T
273.55 60.4241 273.55 60.4241 273.05 61.2901 T
192.511 138.616 191.011 137.75 192.011 137.75 T
192.511 138.616 190.511 138.616 191.011 137.75 T
192.511 138.616 191.011 139.482 190.511 138.616 T
192.511 138.616 192.011 139.482 191.011 139.482 T
192.511 138.616 192.511 138.616 192.011 139.482 T
204.419 145.364 202.919 144.498 203.919 144.498 T
204.419 145.364 202.419 145.364 202.919 144.498 T
204.419 145.364 202.919 146.23 202.419 145.364 T
204.419 145.364 203.919 146.23 202.919 146.23 T
204.419 145.364 204.419 145.364 203.919 146.23 T
166.679 125.55 165.179 124.684 166.179 124.684 T
166.679 125.55 164.679 125.55 165.179 124.684 T
166.679 125.55 165.179 126.416 164.679 125.55 T
166.679 125.55 166.179 126.416 165.179 126.416 T
166.679 125.55 166.679 125.55 166.179 126.416 T
63.4584 175.061 61.9584 174.194 62.9584 174.194 T
63.4584 175.061 61.4584 175.061 61.9584 174.194 T
63.4584 175.061 61.9584 175.927 61.4584 175.061 T
63.4584 175.061 62.9584 175.927 61.9584 175.927 T
63.4584 175.061 63.4584 175.061 62.9584 175.927 T
290.533 58.2711 289.033 57.4051 290.033 57.4051 T
290.533 58.2711 288.533 58.2711 289.033 57.4051 T
290.533 58.2711 289.033 59.1371 288.533 58.2711 T
290.533 58.2711 290.033 59.1371 289.033 59.1371 T
290.533 58.2711 290.533 58.2711 290.033 59.1371 T
206.83 138.153 205.33 137.287 206.33 137.287 T
206.83 138.153 204.83 138.153 205.33 137.287 T
206.83 138.153 205.33 139.019 204.83 138.153 T
206.83 138.153 206.33 139.019 205.33 139.019 T
206.83 138.153 206.83 138.153 206.33 139.019 T
103.555 192.403 102.055 191.537 103.055 191.537 T
103.555 192.403 101.555 192.403 102.055 191.537 T
103.555 192.403 102.055 193.269 101.555 192.403 T
103.555 192.403 103.055 193.269 102.055 193.269 T
103.555 192.403 103.555 192.403 103.055 193.269 T
188.617 132.587 187.117 131.721 188.117 131.721 T
188.617 132.587 186.617 132.587 187.117 131.721 T
188.617 132.587 187.117 133.453 186.617 132.587 T
188.617 132.587 188.117 133.453 187.117 133.453 T
188.617 132.587 188.617 132.587 188.117 133.453 T
183.094 127.017 181.594 126.151 182.594 126.151 T
183.094 127.017 181.094 127.017 181.594 126.151 T
183.094 127.017 181.594 127.883 181.094 127.017 T
183.094 127.017 182.594 127.883 181.594 127.883 T
183.094 127.017 183.094 127.017 182.594 127.883 T
147.344 120.382 145.844 119.516 146.844 119.516 T
147.344 120.382 145.344 120.382 145.844 119.516 T
147.344 120.382 145.844 121.248 145.344 120.382 T
147.344 120.382 146.844 121.248 145.844 121.248 T
147.344 120.382 147.344 120.382 146.844 121.248 T
144.356 126.465 142.856 125.599 143.856 125.599 T
144.356 126.465 142.356 126.465 142.856 125.599 T
144.356 126.465 142.856 127.331 142.356 126.465 T
144.356 126.465 143.856 127.331 142.856 127.331 T
144.356 126.465 144.356 126.465 143.856 127.331 T
198.036 137.18 196.536 136.314 197.536 136.314 T
198.036 137.18 196.036 137.18 196.536 136.314 T
198.036 137.18 196.536 138.046 196.036 137.18 T
198.036 137.18 197.536 138.046 196.536 138.046 T
198.036 137.18 198.036 137.18 197.536 138.046 T
221.754 145.724 220.254 144.858 221.254 144.858 T
221.754 145.724 219.754 145.724 220.254 144.858 T
221.754 145.724 220.254 146.59 219.754 145.724 T
221.754 145.724 221.254 146.59 220.254 146.59 T
221.754 145.724 221.754 145.724 221.254 146.59 T
218.674 148.609 217.174 147.742 218.174 147.742 T
218.674 148.609 216.674 148.609 217.174 147.742 T
218.674 148.609 217.174 149.475 216.674 148.609 T
218.674 148.609 218.174 149.475 217.174 149.475 T
218.674 148.609 218.674 148.609 218.174 149.475 T
175.623 111.838 174.123 110.972 175.123 110.972 T
175.623 111.838 173.623 111.838 174.123 110.972 T
175.623 111.838 174.123 112.704 173.623 111.838 T
175.623 111.838 175.123 112.704 174.123 112.704 T
175.623 111.838 175.623 111.838 175.123 112.704 T
55.605 151.283 54.105 150.417 55.105 150.417 T
55.605 151.283 53.605 151.283 54.105 150.417 T
55.605 151.283 54.105 152.149 53.605 151.283 T
55.605 151.283 55.105 152.149 54.105 152.149 T
55.605 151.283 55.605 151.283 55.105 152.149 T
111.86 174.178 110.36 173.312 111.36 173.312 T
111.86 174.178 109.86 174.178 110.36 173.312 T
111.86 174.178 110.36 175.044 109.86 174.178 T
111.86 174.178 111.36 175.044 110.36 175.044 T
111.86 174.178 111.86 174.178 111.36 175.044 T
97.242 198.586 95.742 197.72 96.742 197.72 T
97.242 198.586 95.242 198.586 95.742 197.72 T
97.242 198.586 95.742 199.452 95.242 198.586 T
97.242 198.586 96.742 199.452 95.742 199.452 T
97.242 198.586 97.242 198.586 96.742 199.452 T
210.865 153.973 209.365 153.107 210.365 153.107 T
210.865 153.973 208.865 153.973 209.365 153.107 T
210.865 153.973 209.365 154.839 208.865 153.973 T
210.865 153.973 210.365 154.839 209.365 154.839 T
210.865 153.973 210.865 153.973 210.365 154.839 T
288.021 57.8468 286.521 56.9808 287.521 56.9808 T
288.021 57.8468 286.021 57.8468 286.521 56.9808 T
288.021 57.8468 286.521 58.7129 286.021 57.8468 T
288.021 57.8468 287.521 58.7129 286.521 58.7129 T
288.021 57.8468 288.021 57.8468 287.521 58.7129 T
270.564 66.0113 269.064 65.1453 270.064 65.1453 T
270.564 66.0113 268.564 66.0113 269.064 65.1453 T
270.564 66.0113 269.064 66.8774 268.564 66.0113 T
270.564 66.0113 270.064 66.8774 269.064 66.8774 T
270.564 66.0113 270.564 66.0113 270.064 66.8774 T
270.19 69.3748 268.69 68.5088 269.69 68.5088 T
270.19 69.3748 268.19 69.3748 268.69 68.5088 T
270.19 69.3748 268.69 70.2408 268.19 69.3748 T
270.19 69.3748 269.69 70.2408 268.69 70.2408 T
270.19 69.3748 270.19 69.3748 269.69 70.2408 T
275.586 61.5047 274.086 60.6387 275.086 60.6387 T
275.586 61.5047 273.586 61.5047 274.086 60.6387 T
275.586 61.5047 274.086 62.3707 273.586 61.5047 T
275.586 61.5047 275.086 62.3707 274.086 62.3707 T
275.586 61.5047 275.586 61.5047 275.086 62.3707 T
119.027 174.715 117.527 173.848 118.527 173.848 T
119.027 174.715 117.027 174.715 117.527 173.848 T
119.027 174.715 117.527 175.581 117.027 174.715 T
119.027 174.715 118.527 175.581 117.527 175.581 T
119.027 174.715 119.027 174.715 118.527 175.581 T
282.647 61.7487 281.147 60.8827 282.147 60.8827 T
282.647 61.7487 280.647 61.7487 281.147 60.8827 T
282.647 61.7487 281.147 62.6148 280.647 61.7487 T
282.647 61.7487 282.147 62.6148 281.147 62.6148 T
282.647 61.7487 282.647 61.7487 282.147 62.6148 T
235.599 125.181 234.099 124.315 235.099 124.315 T
235.599 125.181 233.599 125.181 234.099 124.315 T
235.599 125.181 234.099 126.047 233.599 125.181 T
235.599 125.181 235.099 126.047 234.099 126.047 T
235.599 125.181 235.599 125.181 235.099 126.047 T
71.0223 190.787 69.5223 189.921 70.5223 189.921 T
71.0223 190.787 69.0223 190.787 69.5223 189.921 T
71.0223 190.787 69.5223 191.653 69.0223 190.787 T
71.0223 190.787 70.5223 191.653 69.5223 191.653 T
71.0223 190.787 71.0223 190.787 70.5223 191.653 T
52.4567 142.697 50.9567 141.831 51.9567 141.831 T
52.4567 142.697 50.4567 142.697 50.9567 141.831 T
52.4567 142.697 50.9567 143.563 50.4567 142.697 T
52.4567 142.697 51.9567 143.563 50.9567 143.563 T
52.4567 142.697 52.4567 142.697 51.9567 143.563 T
51.8622 143.184 50.3622 142.318 51.3622 142.318 T
51.8622 143.184 49.8622 143.184 50.3622 142.318 T
51.8622 143.184 50.3622 144.05 49.8622 143.184 T
51.8622 143.184 51.3622 144.05 50.3622 144.05 T
51.8622 143.184 51.8622 143.184 51.3622 144.05 T
258.609 86.1268 257.109 85.2608 258.109 85.2608 T
258.609 86.1268 256.609 86.1268 257.109 85.2608 T
258.609 86.1268 257.109 86.9929 256.609 86.1268 T
258.609 86.1268 258.109 86.9929 257.109 86.9929 T
258.609 86.1268 258.609 86.1268 258.109 86.9929 T
117.427 170.323 115.927 169.457 116.927 169.457 T
117.427 170.323 115.427 170.323 115.927 169.457 T
117.427 170.323 115.927 171.189 115.427 170.323 T
117.427 170.323 116.927 171.189 115.927 171.189 T
117.427 170.323 117.427 170.323 116.927 171.189 T
78.3473 199.053 76.8473 198.187 77.8473 198.187 T
78.3473 199.053 76.3473 199.053 76.8473 198.187 T
78.3473 199.053 76.8473 199.919 76.3473 199.053 T
78.3473 199.053 77.8473 199.919 76.8473 199.919 T
78.3473 199.053 78.3473 199.053 77.8473 199.919 T
222.12 138.471 220.62 137.605 221.62 137.605 T
222.12 138.471 220.12 138.471 220.62 137.605 T
222.12 138.471 220.62 139.337 220.12 138.471 T
222.12 138.471 221.62 139.337 220.62 139.337 T
222.12 138.471 222.12 138.471 221.62 139.337 T
143.894 130.795 142.394 129.929 143.394 129.929 T
143.894 130.795 141.894 130.795 142.394 129.929 T
143.894 130.795 142.394 131.661 141.894 130.795 T
143.894 130.795 143.394 131.661 142.394 131.661 T
143.894 130.795 143.894 130.795 143.394 131.661 T
67.1948 180.147 65.6948 179.281 66.6948 179.281 T
67.1948 180.147 65.1948 180.147 65.6948 179.281 T
67.1948 180.147 65.6948 181.013 65.1948 180.147 T
67.1948 180.147 66.6948 181.013 65.6948 181.013 T
67.1948 180.147 67.1948 180.147 66.6948 181.013 T
92.3355 198.915 90.8355 198.049 91.8355 198.049 T
92.3355 198.915 90.3355 198.915 90.8355 198.049 T
92.3355 198.915 90.8355 199.781 90.3355 198.915 T
92.3355 198.915 91.8355 199.781 90.8355 199.781 T
92.3355 198.915 92.3355 198.915 91.8355 199.781 T
194.939 145.649 193.439 144.783 194.439 144.783 T
194.939 145.649 192.939 145.649 193.439 144.783 T
194.939 145.649 193.439 146.515 192.939 145.649 T
194.939 145.649 194.439 146.515 193.439 146.515 T
194.939 145.649 194.939 145.649 194.439 146.515 T
94.7124 205.367 93.2124 204.501 94.2124 204.501 T
94.7124 205.367 92.7124 205.367 93.2124 204.501 T
94.7124 205.367 93.2124 206.233 92.7124 205.367 T
94.7124 205.367 94.2124 206.233 93.2124 206.233 T
94.7124 205.367 94.7124 205.367 94.2124 206.233 T
123.943 156.616 122.443 155.75 123.443 155.75 T
123.943 156.616 121.943 156.616 122.443 155.75 T
123.943 156.616 122.443 157.482 121.943 156.616 T
123.943 156.616 123.443 157.482 122.443 157.482 T
123.943 156.616 123.943 156.616 123.443 157.482 T
246.334 104.825 244.834 103.959 245.834 103.959 T
246.334 104.825 244.334 104.825 244.834 103.959 T
246.334 104.825 244.834 105.691 244.334 104.825 T
246.334 104.825 245.834 105.691 244.834 105.691 T
246.334 104.825 246.334 104.825 245.834 105.691 T
174.662 117.822 173.162 116.956 174.162 116.956 T
174.662 117.822 172.662 117.822 173.162 116.956 T
174.662 117.822 173.162 118.688 172.662 117.822 T
174.662 117.822 174.162 118.688 173.162 118.688 T
174.662 117.822 174.662 117.822 174.162 118.688 T
137.639 136.103 136.138 135.237 137.139 135.237 T
137.639 136.103 135.639 136.103 136.138 135.237 T
137.639 136.103 136.138 136.969 135.639 136.103 T
137.639 136.103 137.139 136.969 136.138 136.969 T
137.639 136.103 137.639 136.103 137.139 136.969 T
179.982 121.235 178.482 120.369 179.482 120.369 T
179.982 121.235 177.982 121.235 178.482 120.369 T
179.982 121.235 178.482 122.101 177.982 121.235 T
179.982 121.235 179.482 122.101 178.482 122.101 T
179.982 121.235 179.982 121.235 179.482 122.101 T
54.3941 149.628 52.8941 148.762 53.894 148.762 T
54.3941 149.628 52.394 149.628 52.8941 148.762 T
54.3941 149.628 52.8941 150.494 52.394 149.628 T
54.3941 149.628 53.894 150.494 52.8941 150.494 T
54.3941 149.628 54.3941 149.628 53.894 150.494 T
155.649 114.31 154.149 113.444 155.149 113.444 T
155.649 114.31 153.649 114.31 154.149 113.444 T
155.649 114.31 154.149 115.176 153.649 114.31 T
155.649 114.31 155.149 115.176 154.149 115.176 T
155.649 114.31 155.649 114.31 155.149 115.176 T
165.236 110.591 163.736 109.725 164.736 109.725 T
165.236 110.591 163.236 110.591 163.736 109.725 T
165.236 110.591 163.736 111.457 163.236 110.591 T
165.236 110.591 164.736 111.457 163.736 111.457 T
165.236 110.591 165.236 110.591 164.736 111.457 T
100.263 199.372 98.763 198.506 99.763 198.506 T
100.263 199.372 98.263 199.372 98.763 198.506 T
100.263 199.372 98.763 200.238 98.263 199.372 T
100.263 199.372 99.763 200.238 98.763 200.238 T
100.263 199.372 100.263 199.372 99.763 200.238 T
78.1445 192.84 76.6445 191.974 77.6445 191.974 T
78.1445 192.84 76.1445 192.84 76.6445 191.974 T
78.1445 192.84 76.6445 193.706 76.1445 192.84 T
78.1445 192.84 77.6445 193.706 76.6445 193.706 T
78.1445 192.84 78.1445 192.84 77.6445 193.706 T
298.849 67.1682 297.349 66.3022 298.349 66.3022 T
298.849 67.1682 296.849 67.1682 297.349 66.3022 T
298.849 67.1682 297.349 68.0343 296.849 67.1682 T
298.849 67.1682 298.349 68.0343 297.349 68.0343 T
298.849 67.1682 298.849 67.1682 298.349 68.0343 T
190.122 138.731 188.622 137.865 189.622 137.865 T
190.122 138.731 188.122 138.731 188.622 137.865 T
190.122 138.731 188.622 139.597 188.122 138.731 T
190.122 138.731 189.622 139.597 188.622 139.597 T
190.122 138.731 190.122 138.731 189.622 139.597 T
106.136 199.414 104.636 198.548 105.636 198.548 T
106.136 199.414 104.136 199.414 104.636 198.548 T
106.136 199.414 104.636 200.28 104.136 199.414 T
106.136 199.414 105.636 200.28 104.636 200.28 T
106.136 199.414 106.136 199.414 105.636 200.28 T
216.776 139.745 215.276 138.879 216.276 138.879 T
216.776 139.745 214.776 139.745 215.276 138.879 T
216.776 139.745 215.276 140.611 214.776 139.745 T
216.776 139.745 216.276 140.611 215.276 140.611 T
216.776 139.745 216.776 139.745 216.276 140.611 T
275.754 62.9268 274.254 62.0608 275.254 62.0608 T
275.754 62.9268 273.754 62.9268 274.254 62.0608 T
275.754 62.9268 274.254 63.7928 273.754 62.9268 T
275.754 62.9268 275.254 63.7928 274.254 63.7928 T
275.754 62.9268 275.754 62.9268 275.254 63.7928 T
53.6082 135.599 52.1082 134.733 53.1082 134.733 T
53.6082 135.599 51.6082 135.599 52.1082 134.733 T
53.6082 135.599 52.1082 136.465 51.6082 135.599 T
53.6082 135.599 53.1082 136.465 52.1082 136.465 T
53.6082 135.599 53.6082 135.599 53.1082 136.465 T
52.7842 146.353 51.2842 145.487 52.2842 145.487 T
52.7842 146.353 50.7842 146.353 51.2842 145.487 T
52.7842 146.353 51.2842 147.219 50.7842 146.353 T
52.7842 146.353 52.2842 147.219 51.2842 147.219 T
52.7842 146.353 52.7842 146.353 52.2842 147.219 T
88.6628 205.263 87.1628 204.397 88.1628 204.397 T
88.6628 205.263 86.6628 205.263 87.1628 204.397 T
88.6628 205.263 87.1628 206.129 86.6628 205.263 T
88.6628 205.263 88.1628 206.129 87.1628 206.129 T
88.6628 205.263 88.6628 205.263 88.1628 206.129 T
248.355 115.762 246.855 114.896 247.855 114.896 T
248.355 115.762 246.355 115.762 246.855 114.896 T
248.355 115.762 246.855 116.628 246.355 115.762 T
248.355 115.762 247.855 116.628 246.855 116.628 T
248.355 115.762 248.355 115.762 247.855 116.628 T
92.5035 199.999 91.0035 199.133 92.0035 199.133 T
92.5035 199.999 90.5035 199.999 91.0035 199.133 T
92.5035 199.999 91.0035 200.865 90.5035 199.999 T
92.5035 199.999 92.0035 200.865 91.0035 200.865 T
92.5035 199.999 92.5035 199.999 92.0035 200.865 T
244.385 109.424 242.885 108.558 243.885 108.558 T
244.385 109.424 242.385 109.424 242.885 108.558 T
244.385 109.424 242.885 110.29 242.385 109.424 T
244.385 109.424 243.885 110.29 242.885 110.29 T
244.385 109.424 244.385 109.424 243.885 110.29 T
237.011 114.715 235.511 113.849 236.511 113.849 T
237.011 114.715 235.011 114.715 235.511 113.849 T
237.011 114.715 235.511 115.581 235.011 114.715 T
237.011 114.715 236.511 115.581 235.511 115.581 T
237.011 114.715 237.011 114.715 236.511 115.581 T
199.772 145.582 198.272 144.716 199.272 144.716 T
199.772 145.582 197.772 145.582 198.272 144.716 T
199.772 145.582 198.272 146.448 197.772 145.582 T
199.772 145.582 199.272 146.448 198.272 146.448 T
199.772 145.582 199.772 145.582 199.272 146.448 T
109.347 179.544 107.847 178.678 108.847 178.678 T
109.347 179.544 107.347 179.544 107.847 178.678 T
109.347 179.544 107.847 180.41 107.347 179.544 T
109.347 179.544 108.847 180.41 107.847 180.41 T
109.347 179.544 109.347 179.544 108.847 180.41 T
319.991 116.35 318.491 115.484 319.491 115.484 T
319.991 116.35 317.991 116.35 318.491 115.484 T
319.991 116.35 318.491 117.216 317.991 116.35 T
319.991 116.35 319.491 117.216 318.491 117.216 T
319.991 116.35 319.991 116.35 319.491 117.216 T
270.389 66.2873 268.889 65.4212 269.889 65.4212 T
270.389 66.2873 268.389 66.2873 268.889 65.4212 T
270.389 66.2873 268.889 67.1533 268.389 66.2873 T
270.389 66.2873 269.889 67.1533 268.889 67.1533 T
270.389 66.2873 270.389 66.2873 269.889 67.1533 T
191.931 133.921 190.431 133.055 191.431 133.055 T
191.931 133.921 189.931 133.921 190.431 133.055 T
191.931 133.921 190.431 134.787 189.931 133.921 T
191.931 133.921 191.431 134.787 190.431 134.787 T
191.931 133.921 191.931 133.921 191.431 134.787 T
110.072 185.679 108.572 184.813 109.572 184.813 T
110.072 185.679 108.072 185.679 108.572 184.813 T
110.072 185.679 108.572 186.545 108.072 185.679 T
110.072 185.679 109.572 186.545 108.572 186.545 T
110.072 185.679 110.072 185.679 109.572 186.545 T
228.733 139.194 227.233 138.328 228.233 138.328 T
228.733 139.194 226.733 139.194 227.233 138.328 T
228.733 139.194 227.233 140.06 226.733 139.194 T
228.733 139.194 228.233 140.06 227.233 140.06 T
228.733 139.194 228.733 139.194 228.233 140.06 T
157.977 118.309 156.477 117.443 157.477 117.443 T
157.977 118.309 155.977 118.309 156.477 117.443 T
157.977 118.309 156.477 119.175 155.977 118.309 T
157.977 118.309 157.477 119.175 156.477 119.175 T
157.977 118.309 157.977 118.309 157.477 119.175 T
208.461 144.36 206.961 143.494 207.961 143.494 T
208.461 144.36 206.461 144.36 206.961 143.494 T
208.461 144.36 206.961 145.226 206.461 144.36 T
208.461 144.36 207.961 145.226 206.961 145.226 T
208.461 144.36 208.461 144.36 207.961 145.226 T
137.428 132.023 135.928 131.157 136.928 131.157 T
137.428 132.023 135.428 132.023 135.928 131.157 T
137.428 132.023 135.928 132.89 135.428 132.023 T
137.428 132.023 136.928 132.89 135.928 132.89 T
137.428 132.023 137.428 132.023 136.928 132.89 T
223.834 142.63 222.334 141.764 223.334 141.764 T
223.834 142.63 221.834 142.63 222.334 141.764 T
223.834 142.63 222.334 143.496 221.834 142.63 T
223.834 142.63 223.334 143.496 222.334 143.496 T
223.834 142.63 223.834 142.63 223.334 143.496 T
64.201 168.745 62.701 167.879 63.701 167.879 T
64.201 168.745 62.201 168.745 62.701 167.879 T
64.201 168.745 62.701 169.611 62.201 168.745 T
64.201 168.745 63.701 169.611 62.701 169.611 T
64.201 168.745 64.201 168.745 63.701 169.611 T
131.111 148.064 129.611 147.198 130.611 147.198 T
131.111 148.064 129.111 148.064 129.611 147.198 T
131.111 148.064 129.611 148.931 129.111 148.064 T
131.111 148.064 130.611 148.931 129.611 148.931 T
131.111 148.064 131.111 148.064 130.611 148.931 T
317.845 108.696 316.345 107.83 317.345 107.83 T
317.845 108.696 315.845 108.696 316.345 107.83 T
317.845 108.696 316.345 109.562 315.845 108.696 T
317.845 108.696 317.345 109.562 316.345 109.562 T
317.845 108.696 317.845 108.696 317.345 109.562 T
292.074 62.0324 290.574 61.1664 291.574 61.1664 T
292.074 62.0324 290.074 62.0324 290.574 61.1664 T
292.074 62.0324 290.574 62.8984 290.074 62.0324 T
292.074 62.0324 291.574 62.8984 290.574 62.8984 T
292.074 62.0324 292.074 62.0324 291.574 62.8984 T
133.282 142.386 131.782 141.52 132.782 141.52 T
133.282 142.386 131.282 142.386 131.782 141.52 T
133.282 142.386 131.782 143.252 131.282 142.386 T
133.282 142.386 132.782 143.252 131.782 143.252 T
133.282 142.386 133.282 142.386 132.782 143.252 T
287.326 58.269 285.826 57.403 286.826 57.403 T
287.326 58.269 285.326 58.269 285.826 57.403 T
287.326 58.269 285.826 59.135 285.326 58.269 T
287.326 58.269 286.826 59.135 285.826 59.135 T
287.326 58.269 287.326 58.269 286.826 59.135 T
134.391 134.294 132.891 133.428 133.891 133.428 T
134.391 134.294 132.391 134.294 132.891 133.428 T
134.391 134.294 132.891 135.16 132.391 134.294 T
134.391 134.294 133.891 135.16 132.891 135.16 T
134.391 134.294 134.391 134.294 133.891 135.16 T
309.862 89.0123 308.362 88.1463 309.361 88.1463 T
309.862 89.0123 307.861 89.0123 308.362 88.1463 T
309.862 89.0123 308.362 89.8783 307.861 89.0123 T
309.862 89.0123 309.361 89.8783 308.362 89.8783 T
309.862 89.0123 309.862 89.0123 309.361 89.8783 T
255.332 93.7199 253.832 92.8538 254.832 92.8538 T
255.332 93.7199 253.332 93.7199 253.832 92.8538 T
255.332 93.7199 253.832 94.5859 253.332 93.7199 T
255.332 93.7199 254.832 94.5859 253.832 94.5859 T
255.332 93.7199 255.332 93.7199 254.832 94.5859 T
163.912 104.037 162.412 103.171 163.412 103.171 T
163.912 104.037 161.912 104.037 162.412 103.171 T
163.912 104.037 162.412 104.903 161.912 104.037 T
163.912 104.037 163.412 104.903 162.412 104.903 T
163.912 104.037 163.912 104.037 163.412 104.903 T
118.208 178.201 116.708 177.335 117.708 177.335 T
118.208 178.201 116.208 178.201 116.708 177.335 T
118.208 178.201 116.708 179.068 116.208 178.201 T
118.208 178.201 117.708 179.068 116.708 179.068 T
118.208 178.201 118.208 178.201 117.708 179.068 T
50.166 143.822 48.666 142.956 49.666 142.956 T
50.166 143.822 48.166 143.822 48.666 142.956 T
50.166 143.822 48.666 144.688 48.166 143.822 T
50.166 143.822 49.666 144.688 48.666 144.688 T
50.166 143.822 50.166 143.822 49.666 144.688 T
292.962 61.6865 291.462 60.8205 292.462 60.8205 T
292.962 61.6865 290.962 61.6865 291.462 60.8205 T
292.962 61.6865 291.462 62.5525 290.962 61.6865 T
292.962 61.6865 292.462 62.5525 291.462 62.5525 T
292.962 61.6865 292.962 61.6865 292.462 62.5525 T
58.3787 162.519 56.8787 161.653 57.8787 161.653 T
58.3787 162.519 56.3787 162.519 56.8787 161.653 T
58.3787 162.519 56.8787 163.385 56.3787 162.519 T
58.3787 162.519 57.8787 163.385 56.8787 163.385 T
58.3787 162.519 58.3787 162.519 57.8787 163.385 T
276.417 67.4616 274.917 66.5956 275.917 66.5956 T
276.417 67.4616 274.417 67.4616 274.917 66.5956 T
276.417 67.4616 274.917 68.3276 274.417 67.4616 T
276.417 67.4616 275.917 68.3276 274.917 68.3276 T
276.417 67.4616 276.417 67.4616 275.917 68.3276 T
316.254 99.078 314.754 98.212 315.754 98.212 T
316.254 99.078 314.254 99.078 314.754 98.212 T
316.254 99.078 314.754 99.944 314.254 99.078 T
316.254 99.078 315.754 99.944 314.754 99.944 T
316.254 99.078 316.254 99.078 315.754 99.944 T
206.908 150.413 205.408 149.547 206.408 149.547 T
206.908 150.413 204.908 150.413 205.408 149.547 T
206.908 150.413 205.408 151.279 204.908 150.413 T
206.908 150.413 206.408 151.279 205.408 151.279 T
206.908 150.413 206.908 150.413 206.408 151.279 T
95.6533 197.5 94.1533 196.634 95.1533 196.634 T
95.6533 197.5 93.6533 197.5 94.1533 196.634 T
95.6533 197.5 94.1533 198.366 93.6533 197.5 T
95.6533 197.5 95.1533 198.366 94.1533 198.366 T
95.6533 197.5 95.6533 197.5 95.1533 198.366 T
289.911 60.9504 288.411 60.0844 289.411 60.0844 T
289.911 60.9504 287.911 60.9504 288.411 60.0844 T
289.911 60.9504 288.411 61.8164 287.911 60.9504 T
289.911 60.9504 289.411 61.8164 288.411 61.8164 T
289.911 60.9504 289.911 60.9504 289.411 61.8164 T
319.483 111.606 317.983 110.74 318.983 110.74 T
319.483 111.606 317.483 111.606 317.983 110.74 T
319.483 111.606 317.983 112.472 317.483 111.606 T
319.483 111.606 318.983 112.472 317.983 112.472 T
319.483 111.606 319.483 111.606 318.983 112.472 T
244.222 115.204 242.722 114.338 243.722 114.338 T
244.222 115.204 242.222 115.204 242.722 114.338 T
244.222 115.204 242.722 116.07 242.222 115.204 T
244.222 115.204 243.722 116.07 242.722 116.07 T
244.222 115.204 244.222 115.204 243.722 116.07 T
189.776 133.868 188.276 133.002 189.276 133.002 T
189.776 133.868 187.776 133.868 188.276 133.002 T
189.776 133.868 188.276 134.734 187.776 133.868 T
189.776 133.868 189.276 134.734 188.276 134.734 T
189.776 133.868 189.776 133.868 189.276 134.734 T
153.253 117.423 151.753 116.557 152.753 116.557 T
153.253 117.423 151.253 117.423 151.753 116.557 T
153.253 117.423 151.753 118.289 151.253 117.423 T
153.253 117.423 152.753 118.289 151.753 118.289 T
153.253 117.423 153.253 117.423 152.753 118.289 T
144.594 119.655 143.094 118.789 144.094 118.789 T
144.594 119.655 142.594 119.655 143.094 118.789 T
144.594 119.655 143.094 120.521 142.594 119.655 T
144.594 119.655 144.094 120.521 143.094 120.521 T
144.594 119.655 144.594 119.655 144.094 120.521 T
105.208 192.334 103.708 191.468 104.708 191.468 T
105.208 192.334 103.208 192.334 103.708 191.468 T
105.208 192.334 103.708 193.2 103.208 192.334 T
105.208 192.334 104.708 193.2 103.708 193.2 T
105.208 192.334 105.208 192.334 104.708 193.2 T
235.889 123.196 234.389 122.33 235.389 122.33 T
235.889 123.196 233.889 123.196 234.389 122.33 T
235.889 123.196 234.389 124.062 233.889 123.196 T
235.889 123.196 235.389 124.062 234.389 124.062 T
235.889 123.196 235.889 123.196 235.389 124.062 T
168.593 113.431 167.093 112.565 168.093 112.565 T
168.593 113.431 166.593 113.431 167.093 112.565 T
168.593 113.431 167.093 114.297 166.593 113.431 T
168.593 113.431 168.093 114.297 167.093 114.297 T
168.593 113.431 168.593 113.431 168.093 114.297 T
101.959 196.91 100.459 196.044 101.459 196.044 T
101.959 196.91 99.9591 196.91 100.459 196.044 T
101.959 196.91 100.459 197.776 99.9591 196.91 T
101.959 196.91 101.459 197.776 100.459 197.776 T
101.959 196.91 101.959 196.91 101.459 197.776 T
76.9344 190.743 75.4344 189.877 76.4343 189.877 T
76.9344 190.743 74.9344 190.743 75.4344 189.877 T
76.9344 190.743 75.4344 191.61 74.9344 190.743 T
76.9344 190.743 76.4343 191.61 75.4344 191.61 T
76.9344 190.743 76.9344 190.743 76.4343 191.61 T
233.602 133.591 232.102 132.725 233.102 132.725 T
233.602 133.591 231.602 133.591 232.102 132.725 T
233.602 133.591 232.102 134.457 231.602 133.591 T
233.602 133.591 233.102 134.457 232.102 134.457 T
233.602 133.591 233.602 133.591 233.102 134.457 T
130.404 150.93 128.904 150.064 129.904 150.064 T
130.404 150.93 128.404 150.93 128.904 150.064 T
130.404 150.93 128.904 151.796 128.404 150.93 T
130.404 150.93 129.904 151.796 128.904 151.796 T
130.404 150.93 130.404 150.93 129.904 151.796 T
187.244 129.811 185.744 128.945 186.744 128.945 T
187.244 129.811 185.244 129.811 185.744 128.945 T
187.244 129.811 185.744 130.677 185.244 129.811 T
187.244 129.811 186.744 130.677 185.744 130.677 T
187.244 129.811 187.244 129.811 186.744 130.677 T
0 LC
1 LJ
[] 0 setdash
0.85 0.325 0.098 C
46.8 157.886 LS
47.4993 157.886 L
48.1985 157.886 L
48.8978 157.886 L
49.597 157.886 L
50.2962 157.886 L
50.9955 157.886 L
51.6948 157.886 L
52.394 157.886 L
53.0932 157.886 L
53.7925 157.886 L
54.4917 157.886 L
55.191 157.886 L
55.8902 157.886 L
56.5895 157.886 L
57.2887 157.886 L
57.988 157.886 L
58.6872 157.886 L
59.3865 157.886 L
60.0857 157.886 L
60.785 157.886 L
61.4842 157.886 L
62.1835 157.886 L
62.8827 157.886 L
63.582 157.886 L
64.2812 157.886 L
64.9805 157.886 L
65.6797 157.886 L
66.379 157.886 L
67.0782 157.886 L
67.7775 157.886 L
68.4767 157.886 L
69.1759 157.886 L
69.8752 157.886 L
70.5744 157.886 L
71.2737 157.886 L
71.9729 157.886 L
72.6722 157.886 L
73.3714 157.886 L
74.0707 157.886 L
74.7699 157.886 L
75.4692 157.886 L
76.1684 157.886 L
76.8677 157.886 L
77.5669 193.338 L
78.2662 193.338 L
78.9654 193.338 L
79.6647 193.338 L
80.3639 193.338 L
81.0632 193.338 L
81.7624 193.338 L
82.4617 193.338 L
83.1609 193.338 L
83.8602 193.338 L
84.5594 193.338 L
85.2587 193.338 L
85.9579 193.338 L
86.6572 193.338 L
87.3564 193.338 L
88.0557 193.338 L
88.7549 193.338 L
89.4541 193.338 L
90.1534 193.338 L
90.8526 193.338 L
91.5519 193.338 L
92.2511 193.338 L
92.9504 193.338 L
93.6496 193.338 L
94.3489 193.338 L
95.0481 193.338 L
95.7474 193.338 L
96.4466 193.338 L
97.1459 193.338 L
97.8451 193.338 L
98.5444 193.338 L
99.2436 193.338 L
99.9429 193.338 L
100.642 193.338 L
101.341 193.338 L
102.041 193.338 L
102.74 193.338 L
103.439 193.338 L
104.138 193.338 L
104.838 193.338 L
105.537 193.338 L
106.236 193.338 L
106.935 193.338 L
107.635 193.338 L
108.334 193.338 L
109.033 193.338 L
109.732 193.338 L
110.432 193.338 L
111.131 193.338 L
111.83 146.464 L
112.529 146.464 L
113.229 146.464 L
113.928 146.464 L
114.627 146.464 L
115.326 146.464 L
116.026 146.464 L
116.725 146.464 L
117.424 146.464 L
118.123 146.464 L
118.823 146.464 L
119.522 146.464 L
120.221 146.464 L
120.92 146.464 L
121.62 146.464 L
122.319 146.464 L
123.018 146.464 L
123.717 146.464 L
124.417 146.464 L
125.116 146.464 L
125.815 146.464 L
126.514 146.464 L
127.214 146.464 L
127.913 146.464 L
128.612 146.464 L
129.311 146.464 L
130.011 146.464 L
130.71 146.464 L
131.409 146.464 L
132.108 146.464 L
132.808 146.464 L
133.507 146.464 L
134.206 146.464 L
134.905 146.464 L
135.605 146.464 L
136.304 146.464 L
137.003 146.464 L
137.702 146.464 L
138.402 146.464 L
139.101 146.464 L
139.8 146.464 L
140.499 146.464 L
141.199 146.464 L
141.898 146.464 L
142.597 146.464 L
143.296 146.464 L
143.995 146.464 L
144.695 146.464 L
145.394 146.464 L
146.093 146.464 L
146.792 146.464 L
147.492 146.464 L
148.191 146.464 L
148.89 146.464 L
149.589 146.464 L
150.289 146.464 L
150.988 146.464 L
151.687 146.464 L
152.386 146.464 L
153.086 146.464 L
153.785 146.464 L
154.484 117.619 L
155.183 117.619 L
155.883 117.619 L
156.582 117.619 L
157.281 117.619 L
157.98 117.619 L
158.68 117.619 L
159.379 117.619 L
160.078 117.619 L
160.777 117.619 L
161.477 117.619 L
162.176 117.619 L
162.875 117.619 L
163.574 117.619 L
164.274 117.619 L
164.973 117.619 L
165.672 117.619 L
166.371 117.619 L
167.071 117.619 L
167.77 117.619 L
168.469 117.619 L
169.168 117.619 L
169.868 117.619 L
170.567 117.619 L
171.266 117.619 L
171.965 117.619 L
172.665 117.619 L
173.364 117.619 L
174.063 117.619 L
174.762 117.619 L
175.462 117.619 L
176.161 117.619 L
176.86 117.619 L
177.559 117.619 L
178.259 117.619 L
178.958 117.619 L
179.657 117.619 L
180.356 117.619 L
181.056 117.619 L
181.755 117.619 L
182.454 117.619 L
183.153 117.619 L
183.853 117.619 L
184.552 117.619 L
185.251 117.619 L
185.95 139.005 L
186.65 139.005 L
187.349 139.005 L
188.048 139.005 L
188.747 139.005 L
189.447 139.005 L
190.146 139.005 L
190.845 139.005 L
191.544 139.005 L
192.244 139.005 L
192.943 139.005 L
193.642 139.005 L
194.341 139.005 L
195.041 139.005 L
195.74 139.005 L
196.439 139.005 L
197.138 139.005 L
197.838 139.005 L
198.537 139.005 L
199.236 139.005 L
199.935 139.005 L
200.635 139.005 L
201.334 139.005 L
202.033 139.005 L
202.732 139.005 L
203.432 139.005 L
204.131 139.005 L
204.83 139.005 L
205.529 139.005 L
206.229 139.005 L
206.928 139.005 L
207.627 139.005 L
208.326 139.005 L
209.026 139.005 L
209.725 139.005 L
210.424 127.806 L
211.123 127.806 L
211.823 127.806 L
212.522 127.806 L
213.221 127.806 L
213.92 127.806 L
214.62 127.806 L
215.319 127.806 L
216.018 127.806 L
216.717 127.806 L
217.417 127.806 L
218.116 127.806 L
218.815 127.806 L
219.514 127.806 L
220.214 127.806 L
220.913 127.806 L
221.612 127.806 L
222.311 127.806 L
223.011 127.806 L
223.71 127.806 L
224.409 127.806 L
225.108 127.806 L
225.808 127.806 L
226.507 127.806 L
227.206 127.806 L
227.905 127.806 L
228.605 127.806 L
229.304 127.806 L
230.003 127.806 L
230.702 127.806 L
231.402 127.806 L
232.101 127.806 L
232.8 127.806 L
233.499 127.806 L
234.199 127.806 L
234.898 127.806 L
235.597 127.806 L
236.296 127.806 L
236.995 127.806 L
237.695 127.806 L
238.394 127.806 L
239.093 127.806 L
239.792 127.806 L
240.492 127.806 L
241.191 127.806 L
241.89 127.806 L
242.589 127.806 L
243.289 127.806 L
243.988 127.806 L
244.687 127.806 L
245.386 127.806 L
246.086 127.806 L
246.785 127.806 L
247.484 127.806 L
248.183 70.7964 L
248.883 70.7964 L
249.582 70.7964 L
250.281 70.7964 L
250.98 70.7964 L
251.68 70.7964 L
252.379 70.7964 L
253.078 70.7964 L
253.777 70.7964 L
254.477 70.7964 L
255.176 70.7964 L
255.875 70.7964 L
256.574 70.7964 L
257.274 70.7964 L
257.973 70.7964 L
258.672 70.7964 L
259.371 70.7964 L
260.071 70.7964 L
260.77 70.7964 L
261.469 70.7964 L
262.168 70.7964 L
262.868 70.7964 L
263.567 70.7964 L
264.266 70.7964 L
264.965 70.7964 L
265.665 70.7964 L
266.364 70.7964 L
267.063 70.7964 L
267.762 70.7964 L
268.462 70.7964 L
269.161 70.7964 L
269.86 70.7964 L
270.559 70.7964 L
271.259 70.7964 L
271.958 70.7964 L
272.657 70.7964 L
273.356 70.7964 L
274.056 70.7964 L
274.755 70.7964 L
275.454 70.7964 L
276.153 70.7964 L
276.853 70.7964 L
277.552 70.7964 L
278.251 70.7964 L
278.95 70.7964 L
279.65 70.7964 L
280.349 70.7964 L
281.048 70.7964 L
281.747 70.7964 L
282.447 70.7964 L
283.146 70.7964 L
283.845 82.9994 L
284.544 82.9994 L
285.244 82.9994 L
285.943 82.9994 L
286.642 82.9994 L
287.341 82.9994 L
288.041 82.9994 L
288.74 82.9994 L
289.439 82.9994 L
290.138 82.9994 L
290.838 82.9994 L
291.537 82.9994 L
292.236 82.9994 L
292.935 82.9994 L
293.635 82.9994 L
294.334 82.9994 L
295.033 82.9994 L
295.732 82.9994 L
296.432 82.9994 L
297.131 82.9994 L
297.83 82.9994 L
298.529 82.9994 L
299.229 82.9994 L
299.928 82.9994 L
300.627 82.9994 L
301.326 82.9994 L
302.026 82.9994 L
302.725 82.9994 L
303.424 82.9994 L
304.123 82.9994 L
304.823 82.9994 L
305.522 82.9994 L
306.221 82.9994 L
306.92 82.9994 L
307.62 82.9994 L
308.319 82.9994 L
309.018 82.9994 L
309.717 82.9994 L
310.417 82.9994 L
311.116 82.9994 L
311.815 82.9994 L
312.514 82.9994 L
313.214 82.9994 L
313.913 82.9994 L
314.612 82.9994 L
315.311 82.9994 L
316.011 82.9994 L
316.71 82.9994 L
317.409 82.9994 L
318.108 82.9994 L
318.808 82.9994 L
319.507 82.9994 L
320.206 82.9994 L
320.905 82.9994 L
321.605 82.9994 L
322.304 82.9994 L
323.003 82.9994 L
323.702 82.9994 L
324.402 82.9994 L
325.101 82.9994 L
325.8 82.9994 LE
0.929 0.694 0.125 C
46.8 131.999 LS
47.4993 133.658 L
48.1985 135.317 L
48.8978 136.975 L
49.597 138.634 L
50.2962 140.292 L
50.9955 141.951 L
51.6948 143.61 L
52.394 145.268 L
53.0932 146.927 L
53.7925 148.585 L
54.4917 150.244 L
55.191 151.903 L
55.8902 153.561 L
56.5895 155.22 L
57.2887 156.878 L
57.988 158.537 L
58.6872 160.196 L
59.3865 161.854 L
60.0857 163.513 L
60.785 165.171 L
61.4842 166.83 L
62.1835 168.489 L
62.8827 170.147 L
63.582 171.806 L
64.2812 173.464 L
64.9805 175.123 L
65.6797 176.782 L
66.379 178.44 L
67.0782 180.099 L
67.7775 181.757 L
68.4767 183.416 L
69.1759 185.074 L
69.8752 186.733 L
70.5744 188.392 L
71.2737 190.05 L
71.9729 191.709 L
72.6722 193.367 L
73.3714 195.026 L
74.0707 196.685 L
74.7699 198.343 L
75.4692 200.002 L
76.1684 201.66 L
76.8677 203.319 L
77.5669 204.251 L
78.2662 203.835 L
78.9654 203.419 L
79.6647 203.003 L
80.3639 202.587 L
81.0632 202.171 L
81.7624 201.754 L
82.4617 201.338 L
83.1609 200.922 L
83.8602 200.506 L
84.5594 200.09 L
85.2587 199.674 L
85.9579 199.258 L
86.6572 198.842 L
87.3564 198.426 L
88.0557 198.01 L
88.7549 197.594 L
89.4541 197.178 L
90.1534 196.762 L
90.8526 196.346 L
91.5519 195.93 L
92.2511 195.514 L
92.9504 195.098 L
93.6496 194.681 L
94.3489 194.265 L
95.0481 193.849 L
95.7474 193.433 L
96.4466 193.017 L
97.1459 192.601 L
97.8451 192.185 L
98.5444 191.769 L
99.2436 191.353 L
99.9429 190.937 L
100.642 190.521 L
101.341 190.105 L
102.041 189.689 L
102.74 189.273 L
103.439 188.857 L
104.138 188.441 L
104.838 188.024 L
105.537 187.608 L
106.236 187.192 L
106.935 186.776 L
107.635 186.36 L
108.334 185.944 L
109.033 185.528 L
109.732 185.112 L
110.432 184.696 L
111.131 184.28 L
111.83 183.447 L
112.529 182.183 L
113.229 180.919 L
113.928 179.655 L
114.627 178.392 L
115.326 177.128 L
116.026 175.864 L
116.725 174.6 L
117.424 173.337 L
118.123 172.073 L
118.823 170.809 L
119.522 169.545 L
120.221 168.282 L
120.92 167.018 L
121.62 165.754 L
122.319 164.49 L
123.018 163.227 L
123.717 161.963 L
124.417 160.699 L
125.116 159.436 L
125.815 158.172 L
126.514 156.908 L
127.214 155.644 L
127.913 154.381 L
128.612 153.117 L
129.311 151.853 L
130.011 150.589 L
130.71 149.326 L
131.409 148.062 L
132.108 146.798 L
132.808 145.534 L
133.507 144.271 L
134.206 143.007 L
134.905 141.743 L
135.605 140.48 L
136.304 139.216 L
137.003 137.952 L
137.702 136.688 L
138.402 135.425 L
139.101 134.161 L
139.8 132.897 L
140.499 131.633 L
141.199 130.37 L
141.898 129.106 L
142.597 127.842 L
143.296 126.578 L
143.995 125.315 L
144.695 124.051 L
145.394 122.787 L
146.093 121.523 L
146.792 120.26 L
147.492 118.996 L
148.191 117.732 L
148.89 116.469 L
149.589 115.205 L
150.289 113.941 L
150.988 112.677 L
151.687 111.414 L
152.386 110.15 L
153.086 108.886 L
153.785 107.622 L
154.484 107.343 L
155.183 107.823 L
155.883 108.302 L
156.582 108.782 L
157.281 109.261 L
157.98 109.741 L
158.68 110.221 L
159.379 110.7 L
160.078 111.18 L
160.777 111.66 L
161.477 112.139 L
162.176 112.619 L
162.875 113.098 L
163.574 113.578 L
164.274 114.058 L
164.973 114.537 L
165.672 115.017 L
166.371 115.497 L
167.071 115.976 L
167.77 116.456 L
168.469 116.935 L
169.168 117.415 L
169.868 117.895 L
170.567 118.374 L
171.266 118.854 L
171.965 119.334 L
172.665 119.813 L
173.364 120.293 L
174.063 120.772 L
174.762 121.252 L
175.462 121.732 L
176.161 122.211 L
176.86 122.691 L
177.559 123.171 L
178.259 123.65 L
178.958 124.13 L
179.657 124.609 L
180.356 125.089 L
181.056 125.569 L
181.755 126.048 L
182.454 126.528 L
183.153 127.008 L
183.853 127.487 L
184.552 127.967 L
185.251 128.446 L
185.95 128.998 L
186.65 129.669 L
187.349 130.34 L
188.048 131.011 L
188.747 131.682 L
189.447 132.354 L
190.146 133.025 L
190.845 133.696 L
191.544 134.367 L
192.244 135.038 L
192.943 135.709 L
193.642 136.38 L
194.341 137.051 L
195.041 137.723 L
195.74 138.394 L
196.439 139.065 L
197.138 139.736 L
197.838 140.407 L
198.537 141.078 L
199.236 141.749 L
199.935 142.42 L
200.635 143.091 L
201.334 143.763 L
202.033 144.434 L
202.732 145.105 L
203.432 145.776 L
204.131 146.447 L
204.83 147.118 L
205.529 147.789 L
206.229 148.46 L
206.928 149.132 L
207.627 149.803 L
208.326 150.474 L
209.026 151.145 L
209.725 151.816 L
210.424 151.976 L
211.123 151.115 L
211.823 150.254 L
212.522 149.393 L
213.221 148.532 L
213.92 147.671 L
214.62 146.81 L
215.319 145.948 L
216.018 145.087 L
216.717 144.226 L
217.417 143.365 L
218.116 142.504 L
218.815 141.643 L
219.514 140.781 L
220.214 139.92 L
220.913 139.059 L
221.612 138.198 L
222.311 137.337 L
223.011 136.476 L
223.71 135.615 L
224.409 134.753 L
225.108 133.892 L
225.808 133.031 L
226.507 132.17 L
227.206 131.309 L
227.905 130.448 L
228.605 129.587 L
229.304 128.725 L
230.003 127.864 L
230.702 127.003 L
231.402 126.142 L
232.101 125.281 L
232.8 124.42 L
233.499 123.559 L
234.199 122.697 L
234.898 121.836 L
235.597 120.975 L
236.296 120.114 L
236.995 119.253 L
237.695 118.392 L
238.394 117.53 L
239.093 116.669 L
239.792 115.808 L
240.492 114.947 L
241.191 114.086 L
241.89 113.225 L
242.589 112.364 L
243.289 111.502 L
243.988 110.641 L
244.687 109.78 L
245.386 108.919 L
246.086 108.058 L
246.785 107.197 L
247.484 106.336 L
248.183 105.442 L
248.883 104.315 L
249.582 103.187 L
250.281 102.06 L
250.98 100.933 L
251.68 99.8058 L
252.379 98.6785 L
253.078 97.5513 L
253.777 96.4241 L
254.477 95.2969 L
255.176 94.1696 L
255.875 93.0424 L
256.574 91.9152 L
257.274 90.7879 L
257.973 89.6607 L
258.672 88.5335 L
259.371 87.4063 L
260.071 86.279 L
260.77 85.1518 L
261.469 84.0246 L
262.168 82.8974 L
262.868 81.7701 L
263.567 80.6429 L
264.266 79.5157 L
264.965 78.3885 L
265.665 77.2612 L
266.364 76.134 L
267.063 75.0068 L
267.762 73.8795 L
268.462 72.7523 L
269.161 71.6251 L
269.86 70.4979 L
270.559 69.3706 L
271.259 68.2434 L
271.958 67.1162 L
272.657 65.989 L
273.356 64.8617 L
274.056 63.7345 L
274.755 62.6073 L
275.454 61.48 L
276.153 60.3528 L
276.853 59.2256 L
277.552 58.0984 L
278.251 56.9711 L
278.95 55.8439 L
279.65 54.7167 L
280.349 53.5895 L
281.048 52.4622 L
281.747 51.335 L
282.447 50.2078 L
283.146 49.0805 L
283.845 48.7072 L
284.544 49.9263 L
285.244 51.1455 L
285.943 52.3646 L
286.642 53.5838 L
287.341 54.8029 L
288.041 56.0221 L
288.74 57.2412 L
289.439 58.4604 L
290.138 59.6795 L
290.838 60.8987 L
291.537 62.1178 L
292.236 63.337 L
292.935 64.5562 L
293.635 65.7753 L
294.334 66.9945 L
295.033 68.2136 L
295.732 69.4327 L
296.432 70.6519 L
297.131 71.871 L
297.83 73.0902 L
298.529 74.3093 L
299.229 75.5285 L
299.928 76.7477 L
300.627 77.9668 L
301.326 79.186 L
302.026 80.4051 L
302.725 81.6243 L
303.424 82.8434 L
304.123 84.0626 L
304.823 85.2817 L
305.522 86.5009 L
306.221 87.72 L
306.92 88.9392 L
307.62 90.1583 L
308.319 91.3775 L
309.018 92.5966 L
309.717 93.8158 L
310.417 95.0349 L
311.116 96.2541 L
311.815 97.4732 L
312.514 98.6924 L
313.214 99.9115 L
313.913 101.131 L
314.612 102.35 L
315.311 103.569 L
316.011 104.788 L
316.71 106.007 L
317.409 107.226 L
318.108 108.446 L
318.808 109.665 L
319.507 110.884 L
320.206 112.103 L
320.905 113.322 L
321.605 114.541 L
322.304 115.76 L
323.003 116.98 L
323.702 118.199 L
324.402 119.418 L
325.101 120.637 L
325.8 121.856 LE
0.494 0.184 0.556 C
46.8 128.336 LS
47.4993 130.557 L
48.1985 132.747 L
48.8978 134.905 L
49.597 137.03 L
50.2962 139.123 L
50.9955 141.185 L
51.6948 143.214 L
52.394 145.211 L
53.0932 147.176 L
53.7925 149.109 L
54.4917 151.01 L
55.191 152.879 L
55.8902 154.716 L
56.5895 156.521 L
57.2887 158.293 L
57.988 160.034 L
58.6872 161.742 L
59.3865 163.419 L
60.0857 165.063 L
60.785 166.676 L
61.4842 168.256 L
62.1835 169.804 L
62.8827 171.32 L
63.582 172.804 L
64.2812 174.256 L
64.9805 175.676 L
65.6797 177.064 L
66.379 178.42 L
67.0782 179.744 L
67.7775 181.035 L
68.4767 182.295 L
69.1759 183.523 L
69.8752 184.718 L
70.5744 185.881 L
71.2737 187.013 L
71.9729 188.112 L
72.6722 189.179 L
73.3714 190.214 L
74.0707 191.217 L
74.7699 192.188 L
75.4692 193.127 L
76.1684 194.034 L
76.8677 194.909 L
77.5669 195.75 L
78.2662 196.548 L
78.9654 197.298 L
79.6647 198 L
80.3639 198.655 L
81.0632 199.263 L
81.7624 199.823 L
82.4617 200.335 L
83.1609 200.8 L
83.8602 201.217 L
84.5594 201.587 L
85.2587 201.909 L
85.9579 202.184 L
86.6572 202.411 L
87.3564 202.591 L
88.0557 202.723 L
88.7549 202.808 L
89.4541 202.845 L
90.1534 202.835 L
90.8526 202.777 L
91.5519 202.672 L
92.2511 202.519 L
92.9504 202.319 L
93.6496 202.071 L
94.3489 201.775 L
95.0481 201.432 L
95.7474 201.042 L
96.4466 200.604 L
97.1459 200.118 L
97.8451 199.585 L
98.5444 199.005 L
99.2436 198.377 L
99.9429 197.701 L
100.642 196.978 L
101.341 196.207 L
102.041 195.389 L
102.74 194.523 L
103.439 193.61 L
104.138 192.65 L
104.838 191.641 L
105.537 190.586 L
106.236 189.482 L
106.935 188.332 L
107.635 187.133 L
108.334 185.888 L
109.033 184.594 L
109.732 183.253 L
110.432 181.865 L
111.131 180.429 L
111.83 178.953 L
112.529 177.485 L
113.229 176.031 L
113.928 174.593 L
114.627 173.171 L
115.326 171.763 L
116.026 170.371 L
116.725 168.994 L
117.424 167.632 L
118.123 166.286 L
118.823 164.955 L
119.522 163.639 L
120.221 162.338 L
120.92 161.053 L
121.62 159.783 L
122.319 158.528 L
123.018 157.289 L
123.717 156.064 L
124.417 154.855 L
125.116 153.662 L
125.815 152.483 L
126.514 151.32 L
127.214 150.172 L
127.913 149.04 L
128.612 147.922 L
129.311 146.82 L
130.011 145.734 L
130.71 144.662 L
131.409 143.606 L
132.108 142.565 L
132.808 141.539 L
133.507 140.529 L
134.206 139.534 L
134.905 138.554 L
135.605 137.59 L
136.304 136.64 L
137.003 135.706 L
137.702 134.787 L
138.402 133.884 L
139.101 132.996 L
139.8 132.123 L
140.499 131.265 L
141.199 130.423 L
141.898 129.596 L
142.597 128.784 L
143.296 127.987 L
143.995 127.206 L
144.695 126.44 L
145.394 125.689 L
146.093 124.954 L
146.792 124.234 L
147.492 123.529 L
148.191 122.839 L
148.89 122.165 L
149.589 121.506 L
150.289 120.862 L
150.988 120.234 L
151.687 119.62 L
152.386 119.022 L
153.086 118.44 L
153.785 117.872 L
154.484 117.323 L
155.183 116.808 L
155.883 116.328 L
156.582 115.883 L
157.281 115.474 L
157.98 115.1 L
158.68 114.762 L
159.379 114.459 L
160.078 114.192 L
160.777 113.96 L
161.477 113.763 L
162.176 113.602 L
162.875 113.477 L
163.574 113.386 L
164.274 113.331 L
164.973 113.312 L
165.672 113.328 L
166.371 113.379 L
167.071 113.466 L
167.77 113.589 L
168.469 113.746 L
169.168 113.94 L
169.868 114.168 L
170.567 114.432 L
171.266 114.732 L
171.965 115.067 L
172.665 115.437 L
173.364 115.843 L
174.063 116.284 L
174.762 116.76 L
175.462 117.273 L
176.161 117.82 L
176.86 118.403 L
177.559 119.021 L
178.259 119.675 L
178.958 120.364 L
179.657 121.089 L
180.356 121.849 L
181.056 122.644 L
181.755 123.475 L
182.454 124.342 L
183.153 125.243 L
183.853 126.181 L
184.552 127.153 L
185.251 128.161 L
185.95 129.2 L
186.65 130.22 L
187.349 131.209 L
188.048 132.166 L
188.747 133.091 L
189.447 133.985 L
190.146 134.847 L
190.845 135.678 L
191.544 136.477 L
192.244 137.244 L
192.943 137.98 L
193.642 138.684 L
194.341 139.357 L
195.041 139.998 L
195.74 140.607 L
196.439 141.185 L
197.138 141.731 L
197.838 142.246 L
198.537 142.729 L
199.236 143.18 L
199.935 143.6 L
200.635 143.988 L
201.334 144.344 L
202.033 144.669 L
202.732 144.962 L
203.432 145.224 L
204.131 145.454 L
204.83 145.653 L
205.529 145.819 L
206.229 145.955 L
206.928 146.058 L
207.627 146.13 L
208.326 146.171 L
209.026 146.18 L
209.725 146.157 L
210.424 146.103 L
211.123 146.02 L
211.823 145.911 L
212.522 145.774 L
213.221 145.609 L
213.92 145.417 L
214.62 145.198 L
215.319 144.952 L
216.018 144.678 L
216.717 144.377 L
217.417 144.049 L
218.116 143.693 L
218.815 143.31 L
219.514 142.9 L
220.214 142.462 L
220.913 141.997 L
221.612 141.505 L
222.311 140.985 L
223.011 140.438 L
223.71 139.864 L
224.409 139.262 L
225.108 138.633 L
225.808 137.977 L
226.507 137.293 L
227.206 136.582 L
227.905 135.844 L
228.605 135.078 L
229.304 134.285 L
230.003 133.465 L
230.702 132.618 L
231.402 131.743 L
232.101 130.84 L
232.8 129.911 L
233.499 128.954 L
234.199 127.97 L
234.898 126.958 L
235.597 125.919 L
236.296 124.853 L
236.995 123.759 L
237.695 122.639 L
238.394 121.49 L
239.093 120.315 L
239.792 119.112 L
240.492 117.882 L
241.191 116.624 L
241.89 115.339 L
242.589 114.027 L
243.289 112.688 L
243.988 111.321 L
244.687 109.927 L
245.386 108.505 L
246.086 107.056 L
246.785 105.58 L
247.484 104.077 L
248.183 102.546 L
248.883 101.022 L
249.582 99.5242 L
250.281 98.0531 L
250.98 96.6088 L
251.68 95.1911 L
252.379 93.8002 L
253.078 92.436 L
253.777 91.0985 L
254.477 89.7877 L
255.176 88.5036 L
255.875 87.2462 L
256.574 86.0156 L
257.274 84.8116 L
257.973 83.6344 L
258.672 82.4839 L
259.371 81.3601 L
260.071 80.263 L
260.77 79.1926 L
261.469 78.1489 L
262.168 77.132 L
262.868 76.1418 L
263.567 75.1782 L
264.266 74.2414 L
264.965 73.3313 L
265.665 72.4479 L
266.364 71.5913 L
267.063 70.7613 L
267.762 69.9581 L
268.462 69.1815 L
269.161 68.4317 L
269.86 67.7086 L
270.559 67.0122 L
271.259 66.3425 L
271.958 65.6995 L
272.657 65.0833 L
273.356 64.4937 L
274.056 63.9309 L
274.755 63.3948 L
275.454 62.8854 L
276.153 62.4027 L
276.853 61.9467 L
277.552 61.5174 L
278.251 61.1149 L
278.95 60.739 L
279.65 60.3899 L
280.349 60.0675 L
281.048 59.7718 L
281.747 59.5028 L
282.447 59.2605 L
283.146 59.045 L
283.845 58.8573 L
284.544 58.7142 L
285.244 58.6209 L
285.943 58.5774 L
286.642 58.5839 L
287.341 58.6401 L
288.041 58.7462 L
288.74 58.9022 L
289.439 59.108 L
290.138 59.3637 L
290.838 59.6692 L
291.537 60.0246 L
292.236 60.4298 L
292.935 60.8849 L
293.635 61.3898 L
294.334 61.9445 L
295.033 62.5492 L
295.732 63.2036 L
296.432 63.9079 L
297.131 64.6621 L
297.83 65.4661 L
298.529 66.32 L
299.229 67.2237 L
299.928 68.1773 L
300.627 69.1807 L
301.326 70.234 L
302.026 71.3371 L
302.725 72.4901 L
303.424 73.6929 L
304.123 74.9455 L
304.823 76.2481 L
305.522 77.6004 L
306.221 79.0026 L
306.92 80.4547 L
307.62 81.9566 L
308.319 83.5084 L
309.018 85.11 L
309.717 86.7615 L
310.417 88.4628 L
311.116 90.214 L
311.815 92.015 L
312.514 93.8659 L
313.214 95.7666 L
313.913 97.7172 L
314.612 99.7176 L
315.311 101.768 L
316.011 103.868 L
316.71 106.018 L
317.409 108.218 L
318.108 110.467 L
318.808 112.767 L
319.507 115.116 L
320.206 117.516 L
320.905 119.965 L
321.605 122.464 L
322.304 125.012 L
323.003 127.611 L
323.702 130.259 L
324.402 132.958 L
325.101 135.706 L
325.8 138.504 LE
0.466 0.674 0.188 C
46.8 128.232 LS
47.4993 130.419 L
48.1985 132.585 L
48.8978 134.729 L
49.597 136.851 L
50.2962 138.95 L
50.9955 141.025 L
51.6948 143.076 L
52.394 145.102 L
53.0932 147.103 L
53.7925 149.077 L
54.4917 151.025 L
55.191 152.945 L
55.8902 154.837 L
56.5895 156.7 L
57.2887 158.533 L
57.988 160.337 L
58.6872 162.11 L
59.3865 163.852 L
60.0857 165.562 L
60.785 167.239 L
61.4842 168.883 L
62.1835 170.493 L
62.8827 172.069 L
63.582 173.609 L
64.2812 175.114 L
64.9805 176.582 L
65.6797 178.014 L
66.379 179.407 L
67.0782 180.763 L
67.7775 182.079 L
68.4767 183.356 L
69.1759 184.592 L
69.8752 185.788 L
70.5744 186.942 L
71.2737 188.054 L
71.9729 189.123 L
72.6722 190.149 L
73.3714 191.131 L
74.0707 192.068 L
74.7699 192.96 L
75.4692 193.805 L
76.1684 194.604 L
76.8677 195.356 L
77.5669 196.06 L
78.2662 196.716 L
78.9654 197.324 L
79.6647 197.885 L
80.3639 198.4 L
81.0632 198.868 L
81.7624 199.29 L
82.4617 199.668 L
83.1609 200 L
83.8602 200.288 L
84.5594 200.532 L
85.2587 200.733 L
85.9579 200.891 L
86.6572 201.006 L
87.3564 201.08 L
88.0557 201.112 L
88.7549 201.104 L
89.4541 201.054 L
90.1534 200.965 L
90.8526 200.836 L
91.5519 200.668 L
92.2511 200.462 L
92.9504 200.217 L
93.6496 199.935 L
94.3489 199.616 L
95.0481 199.26 L
95.7474 198.867 L
96.4466 198.439 L
97.1459 197.976 L
97.8451 197.478 L
98.5444 196.946 L
99.2436 196.38 L
99.9429 195.781 L
100.642 195.148 L
101.341 194.484 L
102.041 193.787 L
102.74 193.059 L
103.439 192.301 L
104.138 191.511 L
104.838 190.692 L
105.537 189.843 L
106.236 188.965 L
106.935 188.059 L
107.635 187.125 L
108.334 186.162 L
109.033 185.173 L
109.732 184.157 L
110.432 183.116 L
111.131 182.048 L
111.83 180.955 L
112.529 179.838 L
113.229 178.697 L
113.928 177.535 L
114.627 176.352 L
115.326 175.149 L
116.026 173.928 L
116.725 172.69 L
117.424 171.436 L
118.123 170.167 L
118.823 168.885 L
119.522 167.59 L
120.221 166.284 L
120.92 164.969 L
121.62 163.644 L
122.319 162.312 L
123.018 160.974 L
123.717 159.631 L
124.417 158.283 L
125.116 156.934 L
125.815 155.582 L
126.514 154.231 L
127.214 152.88 L
127.913 151.531 L
128.612 150.186 L
129.311 148.846 L
130.011 147.511 L
130.71 146.183 L
131.409 144.863 L
132.108 143.553 L
132.808 142.253 L
133.507 140.965 L
134.206 139.69 L
134.905 138.429 L
135.605 137.183 L
136.304 135.954 L
137.003 134.743 L
137.702 133.551 L
138.402 132.379 L
139.101 131.229 L
139.8 130.101 L
140.499 128.997 L
141.199 127.918 L
141.898 126.866 L
142.597 125.84 L
143.296 124.844 L
143.995 123.877 L
144.695 122.941 L
145.394 122.038 L
146.093 121.168 L
146.792 120.333 L
147.492 119.534 L
148.191 118.771 L
148.89 118.047 L
149.589 117.363 L
150.289 116.719 L
150.988 116.117 L
151.687 115.558 L
152.386 115.044 L
153.086 114.575 L
153.785 114.153 L
154.484 113.779 L
155.183 113.452 L
155.883 113.172 L
156.582 112.938 L
157.281 112.749 L
157.98 112.603 L
158.68 112.5 L
159.379 112.438 L
160.078 112.416 L
160.777 112.434 L
161.477 112.489 L
162.176 112.582 L
162.875 112.711 L
163.574 112.875 L
164.274 113.072 L
164.973 113.303 L
165.672 113.565 L
166.371 113.857 L
167.071 114.179 L
167.77 114.53 L
168.469 114.908 L
169.168 115.313 L
169.868 115.742 L
170.567 116.196 L
171.266 116.673 L
171.965 117.172 L
172.665 117.691 L
173.364 118.231 L
174.063 118.789 L
174.762 119.365 L
175.462 119.958 L
176.161 120.566 L
176.86 121.189 L
177.559 121.825 L
178.259 122.473 L
178.958 123.133 L
179.657 123.803 L
180.356 124.481 L
181.056 125.168 L
181.755 125.862 L
182.454 126.562 L
183.153 127.266 L
183.853 127.974 L
184.552 128.685 L
185.251 129.397 L
185.95 130.11 L
186.65 130.822 L
187.349 131.532 L
188.048 132.239 L
188.747 132.942 L
189.447 133.64 L
190.146 134.332 L
190.845 135.016 L
191.544 135.691 L
192.244 136.357 L
192.943 137.012 L
193.642 137.654 L
194.341 138.283 L
195.041 138.898 L
195.74 139.498 L
196.439 140.08 L
197.138 140.645 L
197.838 141.191 L
198.537 141.717 L
199.236 142.221 L
199.935 142.704 L
200.635 143.162 L
201.334 143.596 L
202.033 144.004 L
202.732 144.385 L
203.432 144.738 L
204.131 145.061 L
204.83 145.354 L
205.529 145.616 L
206.229 145.845 L
206.928 146.04 L
207.627 146.2 L
208.326 146.323 L
209.026 146.41 L
209.725 146.458 L
210.424 146.466 L
211.123 146.435 L
211.823 146.364 L
212.522 146.253 L
213.221 146.105 L
213.92 145.919 L
214.62 145.696 L
215.319 145.437 L
216.018 145.142 L
216.717 144.811 L
217.417 144.447 L
218.116 144.048 L
218.815 143.616 L
219.514 143.152 L
220.214 142.655 L
220.913 142.128 L
221.612 141.569 L
222.311 140.98 L
223.011 140.362 L
223.71 139.715 L
224.409 139.04 L
225.108 138.337 L
225.808 137.608 L
226.507 136.852 L
227.206 136.07 L
227.905 135.263 L
228.605 134.432 L
229.304 133.577 L
230.003 132.699 L
230.702 131.798 L
231.402 130.875 L
232.101 129.931 L
232.8 128.966 L
233.499 127.982 L
234.199 126.977 L
234.898 125.954 L
235.597 124.913 L
236.296 123.855 L
236.995 122.779 L
237.695 121.687 L
238.394 120.58 L
239.093 119.457 L
239.792 118.32 L
240.492 117.17 L
241.191 116.006 L
241.89 114.83 L
242.589 113.642 L
243.289 112.442 L
243.988 111.232 L
244.687 110.012 L
245.386 108.783 L
246.086 107.545 L
246.785 106.298 L
247.484 105.045 L
248.183 103.784 L
248.883 102.518 L
249.582 101.246 L
250.281 99.9706 L
250.98 98.6925 L
251.68 97.4131 L
252.379 96.1334 L
253.078 94.8546 L
253.777 93.5779 L
254.477 92.3045 L
255.176 91.0356 L
255.875 89.7722 L
256.574 88.5158 L
257.274 87.2673 L
257.973 86.0279 L
258.672 84.799 L
259.371 83.5815 L
260.071 82.3768 L
260.77 81.186 L
261.469 80.0102 L
262.168 78.8507 L
262.868 77.7087 L
263.567 76.5852 L
264.266 75.4815 L
264.965 74.3988 L
265.665 73.3383 L
266.364 72.301 L
267.063 71.2883 L
267.762 70.3013 L
268.462 69.3411 L
269.161 68.409 L
269.86 67.506 L
270.559 66.6335 L
271.259 65.7926 L
271.958 64.9844 L
272.657 64.2102 L
273.356 63.471 L
274.056 62.7682 L
274.755 62.1029 L
275.454 61.4762 L
276.153 60.8893 L
276.853 60.3435 L
277.552 59.8398 L
278.251 59.3795 L
278.95 58.9638 L
279.65 58.5938 L
280.349 58.2707 L
281.048 57.9957 L
281.747 57.77 L
282.447 57.5947 L
283.146 57.471 L
283.845 57.4002 L
284.544 57.3827 L
285.244 57.4182 L
285.943 57.5062 L
286.642 57.6464 L
287.341 57.8381 L
288.041 58.0811 L
288.74 58.3748 L
289.439 58.7187 L
290.138 59.1124 L
290.838 59.5555 L
291.537 60.0475 L
292.236 60.5879 L
292.935 61.1763 L
293.635 61.8122 L
294.334 62.4952 L
295.033 63.2248 L
295.732 64.0006 L
296.432 64.8221 L
297.131 65.6888 L
297.83 66.6002 L
298.529 67.556 L
299.229 68.5557 L
299.928 69.5988 L
300.627 70.6849 L
301.326 71.8134 L
302.026 72.984 L
302.725 74.1962 L
303.424 75.4495 L
304.123 76.7435 L
304.823 78.0778 L
305.522 79.4518 L
306.221 80.865 L
306.92 82.3172 L
307.62 83.8077 L
308.319 85.3362 L
309.018 86.9021 L
309.717 88.5051 L
310.417 90.1446 L
311.116 91.8203 L
311.815 93.5316 L
312.514 95.2781 L
313.214 97.0594 L
313.913 98.8749 L
314.612 100.724 L
315.311 102.607 L
316.011 104.523 L
316.71 106.471 L
317.409 108.451 L
318.108 110.462 L
318.808 112.505 L
319.507 114.579 L
320.206 116.682 L
320.905 118.815 L
321.605 120.978 L
322.304 123.169 L
323.003 125.389 L
323.702 127.637 L
324.402 129.912 L
325.101 132.214 L
325.8 134.542 LE
0.301 0.745 0.933 C
46.8 127.293 LS
47.4993 129.747 L
48.1985 132.144 L
48.8978 134.484 L
49.597 136.769 L
50.2962 139.001 L
50.9955 141.181 L
51.6948 143.311 L
52.394 145.393 L
53.0932 147.427 L
53.7925 149.416 L
54.4917 151.359 L
55.191 153.26 L
55.8902 155.118 L
56.5895 156.935 L
57.2887 158.712 L
57.988 160.449 L
58.6872 162.149 L
59.3865 163.81 L
60.0857 165.435 L
60.785 167.024 L
61.4842 168.577 L
62.1835 170.096 L
62.8827 171.58 L
63.582 173.031 L
64.2812 174.448 L
64.9805 175.832 L
65.6797 177.183 L
66.379 178.501 L
67.0782 179.786 L
67.7775 181.04 L
68.4767 182.26 L
69.1759 183.449 L
69.8752 184.604 L
70.5744 185.727 L
71.2737 186.817 L
71.9729 187.874 L
72.6722 188.897 L
73.3714 189.886 L
74.0707 190.84 L
74.7699 191.759 L
75.4692 192.642 L
76.1684 193.489 L
76.8677 194.299 L
77.5669 195.071 L
78.2662 195.804 L
78.9654 196.498 L
79.6647 197.151 L
80.3639 197.763 L
81.0632 198.333 L
81.7624 198.861 L
82.4617 199.346 L
83.1609 199.787 L
83.8602 200.185 L
84.5594 200.537 L
85.2587 200.845 L
85.9579 201.108 L
86.6572 201.326 L
87.3564 201.497 L
88.0557 201.623 L
88.7549 201.703 L
89.4541 201.737 L
90.1534 201.725 L
90.8526 201.667 L
91.5519 201.562 L
92.2511 201.412 L
92.9504 201.216 L
93.6496 200.974 L
94.3489 200.688 L
95.0481 200.356 L
95.7474 199.98 L
96.4466 199.559 L
97.1459 199.095 L
97.8451 198.588 L
98.5444 198.038 L
99.2436 197.446 L
99.9429 196.812 L
100.642 196.138 L
101.341 195.424 L
102.041 194.671 L
102.74 193.88 L
103.439 193.051 L
104.138 192.186 L
104.838 191.286 L
105.537 190.351 L
106.236 189.384 L
106.935 188.384 L
107.635 187.353 L
108.334 186.293 L
109.033 185.204 L
109.732 184.089 L
110.432 182.948 L
111.131 181.783 L
111.83 180.596 L
112.529 179.387 L
113.229 178.159 L
113.928 176.913 L
114.627 175.651 L
115.326 174.373 L
116.026 173.082 L
116.725 171.779 L
117.424 170.466 L
118.123 169.142 L
118.823 167.811 L
119.522 166.474 L
120.221 165.131 L
120.92 163.784 L
121.62 162.435 L
122.319 161.084 L
123.018 159.733 L
123.717 158.383 L
124.417 157.035 L
125.116 155.691 L
125.815 154.351 L
126.514 153.017 L
127.214 151.69 L
127.913 150.372 L
128.612 149.062 L
129.311 147.762 L
130.011 146.474 L
130.71 145.198 L
131.409 143.935 L
132.108 142.686 L
132.808 141.453 L
133.507 140.235 L
134.206 139.035 L
134.905 137.853 L
135.605 136.689 L
136.304 135.546 L
137.003 134.422 L
137.702 133.32 L
138.402 132.241 L
139.101 131.184 L
139.8 130.151 L
140.499 129.142 L
141.199 128.159 L
141.898 127.201 L
142.597 126.27 L
143.296 125.366 L
143.995 124.49 L
144.695 123.643 L
145.394 122.824 L
146.093 122.035 L
146.792 121.277 L
147.492 120.549 L
148.191 119.852 L
148.89 119.187 L
149.589 118.554 L
150.289 117.954 L
150.988 117.387 L
151.687 116.853 L
152.386 116.353 L
153.086 115.888 L
153.785 115.457 L
154.484 115.061 L
155.183 114.701 L
155.883 114.376 L
156.582 114.086 L
157.281 113.833 L
157.98 113.615 L
158.68 113.434 L
159.379 113.289 L
160.078 113.18 L
160.777 113.106 L
161.477 113.069 L
162.176 113.068 L
162.875 113.102 L
163.574 113.171 L
164.274 113.275 L
164.973 113.413 L
165.672 113.586 L
166.371 113.793 L
167.071 114.032 L
167.77 114.304 L
168.469 114.608 L
169.168 114.944 L
169.868 115.31 L
170.567 115.706 L
171.266 116.131 L
171.965 116.585 L
172.665 117.065 L
173.364 117.573 L
174.063 118.105 L
174.762 118.662 L
175.462 119.242 L
176.161 119.845 L
176.86 120.468 L
177.559 121.111 L
178.259 121.773 L
178.958 122.452 L
179.657 123.146 L
180.356 123.855 L
181.056 124.577 L
181.755 125.31 L
182.454 126.052 L
183.153 126.803 L
183.853 127.561 L
184.552 128.323 L
185.251 129.088 L
185.95 129.855 L
186.65 130.621 L
187.349 131.384 L
188.048 132.143 L
188.747 132.896 L
189.447 133.642 L
190.146 134.379 L
190.845 135.104 L
191.544 135.818 L
192.244 136.517 L
192.943 137.202 L
193.642 137.87 L
194.341 138.52 L
195.041 139.151 L
195.74 139.762 L
196.439 140.351 L
197.138 140.918 L
197.838 141.462 L
198.537 141.981 L
199.236 142.474 L
199.935 142.941 L
200.635 143.381 L
201.334 143.793 L
202.033 144.176 L
202.732 144.53 L
203.432 144.853 L
204.131 145.146 L
204.83 145.408 L
205.529 145.638 L
206.229 145.836 L
206.928 146.002 L
207.627 146.135 L
208.326 146.235 L
209.026 146.301 L
209.725 146.335 L
210.424 146.334 L
211.123 146.3 L
211.823 146.233 L
212.522 146.131 L
213.221 145.996 L
213.92 145.828 L
214.62 145.626 L
215.319 145.39 L
216.018 145.121 L
216.717 144.819 L
217.417 144.483 L
218.116 144.115 L
218.815 143.714 L
219.514 143.28 L
220.214 142.814 L
220.913 142.316 L
221.612 141.786 L
222.311 141.225 L
223.011 140.633 L
223.71 140.01 L
224.409 139.356 L
225.108 138.673 L
225.808 137.96 L
226.507 137.218 L
227.206 136.448 L
227.905 135.649 L
228.605 134.823 L
229.304 133.969 L
230.003 133.09 L
230.702 132.184 L
231.402 131.253 L
232.101 130.297 L
232.8 129.318 L
233.499 128.315 L
234.199 127.289 L
234.898 126.242 L
235.597 125.173 L
236.296 124.084 L
236.995 122.976 L
237.695 121.849 L
238.394 120.704 L
239.093 119.542 L
239.792 118.364 L
240.492 117.17 L
241.191 115.963 L
241.89 114.742 L
242.589 113.509 L
243.289 112.264 L
243.988 111.009 L
244.687 109.745 L
245.386 108.473 L
246.086 107.194 L
246.785 105.909 L
247.484 104.619 L
248.183 103.325 L
248.883 102.029 L
249.582 100.732 L
250.281 99.435 L
250.98 98.139 L
251.68 96.8453 L
252.379 95.555 L
253.078 94.2693 L
253.777 92.9894 L
254.477 91.7163 L
255.176 90.4513 L
255.875 89.1953 L
256.574 87.9495 L
257.274 86.715 L
257.973 85.4928 L
258.672 84.284 L
259.371 83.0897 L
260.071 81.9109 L
260.77 80.7487 L
261.469 79.604 L
262.168 78.4779 L
262.868 77.3714 L
263.567 76.2854 L
264.266 75.221 L
264.965 74.1792 L
265.665 73.1609 L
266.364 72.167 L
267.063 71.1985 L
267.762 70.2563 L
268.462 69.3414 L
269.161 68.4546 L
269.86 67.597 L
270.559 66.7692 L
271.259 65.9724 L
271.958 65.2072 L
272.657 64.4746 L
273.356 63.7755 L
274.056 63.1106 L
274.755 62.4808 L
275.454 61.887 L
276.153 61.3298 L
276.853 60.8103 L
277.552 60.329 L
278.251 59.8869 L
278.95 59.4846 L
279.65 59.123 L
280.349 58.8028 L
281.048 58.5247 L
281.747 58.2895 L
282.447 58.0979 L
283.146 57.9506 L
283.845 57.8483 L
284.544 57.7917 L
285.244 57.7814 L
285.943 57.818 L
286.642 57.9021 L
287.341 58.0343 L
288.041 58.2149 L
288.74 58.4443 L
289.439 58.723 L
290.138 59.0513 L
290.838 59.4294 L
291.537 59.8576 L
292.236 60.336 L
292.935 60.8648 L
293.635 61.4441 L
294.334 62.0738 L
295.033 62.7541 L
295.732 63.4847 L
296.432 64.2657 L
297.131 65.0969 L
297.83 65.978 L
298.529 66.9089 L
299.229 67.8892 L
299.928 68.9186 L
300.627 69.9968 L
301.326 71.1232 L
302.026 72.2974 L
302.725 73.5188 L
303.424 74.787 L
304.123 76.1012 L
304.823 77.4609 L
305.522 78.8652 L
306.221 80.3134 L
306.92 81.8048 L
307.62 83.3384 L
308.319 84.9134 L
309.018 86.5288 L
309.717 88.1835 L
310.417 89.8766 L
311.116 91.607 L
311.815 93.3735 L
312.514 95.175 L
313.214 97.0101 L
313.913 98.8777 L
314.612 100.776 L
315.311 102.705 L
316.011 104.661 L
316.71 106.645 L
317.409 108.654 L
318.108 110.686 L
318.808 112.741 L
319.507 114.816 L
320.206 116.91 L
320.905 119.02 L
321.605 121.146 L
322.304 123.286 L
323.003 125.437 L
323.702 127.597 L
324.402 129.765 L
325.101 131.939 L
325.8 134.116 LE
grestore
gsave
1.0 1.0 scale
newpath 0 0 moveto 360 0 lineto 360 252 lineto 0 252 lineto
closepath clip
1 1 1 C
257.79 222.431 315.131 136.423 257.79 136.423 T
257.79 222.431 315.131 222.431 315.131 136.423 T
0.5 W
2 LC
[16 0] 0 setdash
0.15 0.15 0.15 C
257.79 136.423 LS
315.131 136.423 LE
257.79 222.431 LS
315.131 222.431 LE
257.79 136.423 LS
257.79 222.431 LE
315.131 136.423 LS
315.131 222.431 LE
gsave
0 0 0 C
(data) [5 5 3 10] 0 284.019 211.763 9 /Helvetica SRX
grestore

gsave
0 0 0 C
(order 0) [5 3 5 5 3 2 10] 0 284.019 197.429 9 /Helvetica SRX
grestore

gsave
0 0 0 C
(order 1) [5 3 5 5 3 2 10] 0 284.019 183.094 9 /Helvetica SRX
grestore

gsave
0 0 0 C
(order 2) [5 3 5 5 3 2 10] 0 284.019 168.759 9 /Helvetica SRX
grestore

gsave
0 0 0 C
(order 3) [5 3 5 5 3 2 10] 0 284.019 154.425 9 /Helvetica SRX
grestore

gsave
0 0 0 C
(order 4) [5 3 5 5 3 2 10] 0 284.019 140.09 9 /Helvetica SRX
grestore

0 0.447 0.741 C
271.904 215.263 270.404 214.397 271.404 214.397 T
271.904 215.263 269.904 215.263 270.404 214.397 T
271.904 215.263 270.404 216.129 269.904 215.263 T
271.904 215.263 271.404 216.129 270.404 216.129 T
271.904 215.263 271.904 215.263 271.404 216.129 T
0 LC
1 LJ
[] 0 setdash
0.85 0.325 0.098 C
260.902 200.929 LS
280.907 200.929 LE
0.929 0.694 0.125 C
260.902 186.594 LS
280.907 186.594 LE
0.494 0.184 0.556 C
260.902 172.259 LS
280.907 172.259 LE
0.466 0.674 0.188 C
260.902 157.925 LS
280.907 157.925 LE
0.301 0.745 0.933 C
260.902 143.59 LS
280.907 143.59 LE
grestore
grestore
showpage
cleartomark
%%PageTrailer
%%Trailer
end
%%EOF
