%!PS-Adobe-3.0 EPSF-3.0
%%Title: gl2ps_renderer figure
%%Creator: GL2PS 1.4.0, (C) 1999-2017 C. Geuzaine
%%For: Octave
%%CreationDate: Sat Feb 23 18:52:06 2019
%%LanguageLevel: 3
%%DocumentData: Clean7Bit
%%Pages: 1
%%BoundingBox: 0 0 360 252
%%EndComments
%%BeginProlog
/gl2psdict 64 dict def gl2psdict begin
/tryPS3shading false def % set to false to force subdivision
/rThreshold 0.064 def % red component subdivision threshold
/gThreshold 0.034 def % green component subdivision threshold
/bThreshold 0.1 def % blue component subdivision threshold
/BD { bind def } bind def
/C  { setrgbcolor } BD
/G  { 0.082 mul exch 0.6094 mul add exch 0.3086 mul add neg 1.0 add setgray } BD
/W  { setlinewidth } BD
/LC  { setlinecap } BD
/LJ  { setlinejoin } BD
/FC { findfont exch /SH exch def SH scalefont setfont } BD
/SW { dup stringwidth pop } BD
/S  { FC moveto show } BD
/SBC{ FC moveto SW -2 div 0 rmoveto show } BD
/SBR{ FC moveto SW neg 0 rmoveto show } BD
/SCL{ FC moveto 0 SH -2 div rmoveto show } BD
/SCC{ FC moveto SW -2 div SH -2 div rmoveto show } BD
/SCR{ FC moveto SW neg SH -2 div rmoveto show } BD
/STL{ FC moveto 0 SH neg rmoveto show } BD
/STC{ FC moveto SW -2 div SH neg rmoveto show } BD
/STR{ FC moveto SW neg SH neg rmoveto show } BD
/FCT { FC translate 0 0 } BD
/SR  { gsave FCT moveto rotate show grestore } BD
/SRX  { gsave FCT moveto rotate xshow grestore } BD
/SBCR{ gsave FCT moveto rotate SW -2 div 0 rmoveto show grestore } BD
/SBRR{ gsave FCT moveto rotate SW neg 0 rmoveto show grestore } BD
/SCLR{ gsave FCT moveto rotate 0 SH -2 div rmoveto show grestore} BD
/SCCR{ gsave FCT moveto rotate SW -2 div SH -2 div rmoveto show grestore} BD
/SCRR{ gsave FCT moveto rotate SW neg SH -2 div rmoveto show grestore} BD
/STLR{ gsave FCT moveto rotate 0 SH neg rmoveto show grestore } BD
/STCR{ gsave FCT moveto rotate SW -2 div SH neg rmoveto show grestore } BD
/STRR{ gsave FCT moveto rotate SW neg SH neg rmoveto show grestore } BD
/P  { newpath 0.0 360.0 arc closepath fill } BD
/LS { newpath moveto } BD
/L  { lineto } BD
/LE { lineto stroke } BD
/T  { newpath moveto lineto lineto closepath fill } BD
/STshfill {
      /b1 exch def /g1 exch def /r1 exch def /y1 exch def /x1 exch def
      /b2 exch def /g2 exch def /r2 exch def /y2 exch def /x2 exch def
      /b3 exch def /g3 exch def /r3 exch def /y3 exch def /x3 exch def
      gsave << /ShadingType 4 /ColorSpace [/DeviceRGB]
      /DataSource [ 0 x1 y1 r1 g1 b1 0 x2 y2 r2 g2 b2 0 x3 y3 r3 g3 b3 ] >>
      shfill grestore } BD
/Tm { 3 -1 roll 8 -1 roll 13 -1 roll add add 3 div
      3 -1 roll 7 -1 roll 11 -1 roll add add 3 div
      3 -1 roll 6 -1 roll 9 -1 roll add add 3 div C T } BD
/STsplit {
      4 index 15 index add 0.5 mul
      4 index 15 index add 0.5 mul
      4 index 15 index add 0.5 mul
      4 index 15 index add 0.5 mul
      4 index 15 index add 0.5 mul
      5 copy 5 copy 25 15 roll
      9 index 30 index add 0.5 mul
      9 index 30 index add 0.5 mul
      9 index 30 index add 0.5 mul
      9 index 30 index add 0.5 mul
      9 index 30 index add 0.5 mul
      5 copy 5 copy 35 5 roll 25 5 roll 15 5 roll
      4 index 10 index add 0.5 mul
      4 index 10 index add 0.5 mul
      4 index 10 index add 0.5 mul
      4 index 10 index add 0.5 mul
      4 index 10 index add 0.5 mul
      5 copy 5 copy 40 5 roll 25 5 roll 15 5 roll 25 5 roll
      STnoshfill STnoshfill STnoshfill STnoshfill } BD
/STnoshfill {
      2 index 8 index sub abs rThreshold gt
      { STsplit }
      { 1 index 7 index sub abs gThreshold gt
        { STsplit }
        { dup 6 index sub abs bThreshold gt
          { STsplit }
          { 2 index 13 index sub abs rThreshold gt
            { STsplit }
            { 1 index 12 index sub abs gThreshold gt
              { STsplit }
              { dup 11 index sub abs bThreshold gt
                { STsplit }
                { 7 index 13 index sub abs rThreshold gt
                  { STsplit }
                  { 6 index 12 index sub abs gThreshold gt
                    { STsplit }
                    { 5 index 11 index sub abs bThreshold gt
                      { STsplit }
                      { Tm }
                      ifelse }
                    ifelse }
                  ifelse }
                ifelse }
              ifelse }
            ifelse }
          ifelse }
        ifelse }
      ifelse } BD
tryPS3shading
{ /shfill where
  { /ST { STshfill } BD }
  { /ST { STnoshfill } BD }
  ifelse }
{ /ST { STnoshfill } BD }
ifelse
end
%%EndProlog
%%BeginSetup
/DeviceRGB setcolorspace
gl2psdict begin
%%EndSetup
%%Page: 1 1
%%BeginPageSetup
%%EndPageSetup
mark
gsave
1.0 1.0 scale
1 1 1 C
newpath 0 0 moveto 360 0 lineto 360 252 lineto 0 252 lineto
closepath fill
gsave
1.0 1.0 scale
1 1 1 C
newpath 0 0 moveto 360 0 lineto 360 252 lineto 0 252 lineto
closepath fill
newpath 0 0 moveto 360 0 lineto 360 252 lineto 0 252 lineto
closepath clip
1 1 1 C
46.8 233.1 325.8 27.72 46.8 27.72 T
46.8 233.1 325.8 233.1 325.8 27.72 T
0.5 W
0.15 0.15 0.15 C
46.8 27.72 LS
46.8 30.5152 LE
46.8 233.1 LS
46.8 230.305 LE
116.203 27.72 LS
116.203 30.5152 LE
116.203 233.1 LS
116.203 230.305 LE
185.606 27.72 LS
185.606 30.5152 LE
185.606 233.1 LS
185.606 230.305 LE
255.009 27.72 LS
255.009 30.5152 LE
255.009 233.1 LS
255.009 230.305 LE
324.412 27.72 LS
324.412 30.5152 LE
324.412 233.1 LS
324.412 230.305 LE
gsave
0.14902 0.14902 0.14902 C
(0) [10] 0 43.8 12.2061 10 /Helvetica SRX
grestore

gsave
0.14902 0.14902 0.14902 C
(50) [6 10] 0 110.203 12.2061 10 /Helvetica SRX
grestore

gsave
0.14902 0.14902 0.14902 C
(100) [6 6 10] 0 176.606 12.2061 10 /Helvetica SRX
grestore

gsave
0.14902 0.14902 0.14902 C
(150) [6 6 10] 0 246.009 12.2061 10 /Helvetica SRX
grestore

gsave
0.14902 0.14902 0.14902 C
(200) [6 6 10] 0 315.412 12.2061 10 /Helvetica SRX
grestore

46.8 233.1 LS
49.59 233.1 LE
325.8 233.1 LS
323.01 233.1 LE
46.8 182.01 LS
49.59 182.01 LE
325.8 182.01 LS
323.01 182.01 LE
46.8 130.921 LS
49.59 130.921 LE
325.8 130.921 LS
323.01 130.921 LE
46.8 79.8313 LS
49.59 79.8313 LE
325.8 79.8313 LS
323.01 79.8313 LE
46.8 28.7418 LS
49.59 28.7418 LE
325.8 28.7418 LS
323.01 28.7418 LE
gsave
0.14902 0.14902 0.14902 C
(0) [10] 0 35.8 229.1 10 /Helvetica SRX
grestore

gsave
0.14902 0.14902 0.14902 C
(50) [6 10] 0 29.8 178.01 10 /Helvetica SRX
grestore

gsave
0.14902 0.14902 0.14902 C
(100) [6 6 10] 0 23.8 126.921 10 /Helvetica SRX
grestore

gsave
0.14902 0.14902 0.14902 C
(150) [6 6 10] 0 23.8 75.8313 10 /Helvetica SRX
grestore

gsave
0.14902 0.14902 0.14902 C
(200) [6 6 10] 0 23.8 24.7418 10 /Helvetica SRX
grestore

2 LC
[16 0] 0 setdash
46.8 27.72 LS
325.8 27.72 LE
46.8 233.1 LS
325.8 233.1 LE
46.8 27.72 LS
46.8 233.1 LE
325.8 27.72 LS
325.8 233.1 LE
[] 0 setdash
0 0.447 0.741 C
45.1881 232.078 LS
51.1881 232.078 LE
48.1881 235.078 LS
48.1881 229.078 LE
46.0667 234.2 LS
50.3094 229.957 LE
46.0667 229.957 LS
50.3094 234.2 LE
45.1881 231.056 LS
51.1881 231.056 LE
48.1881 234.056 LS
48.1881 228.056 LE
46.0667 233.178 LS
50.3094 228.935 LE
46.0667 228.935 LS
50.3094 233.178 LE
46.5761 232.078 LS
52.5761 232.078 LE
49.5761 235.078 LS
49.5761 229.078 LE
47.4548 234.2 LS
51.6974 229.957 LE
47.4548 229.957 LS
51.6974 234.2 LE
46.5761 231.056 LS
52.5761 231.056 LE
49.5761 234.056 LS
49.5761 228.056 LE
47.4548 233.178 LS
51.6974 228.935 LE
47.4548 228.935 LS
51.6974 233.178 LE
46.5761 230.035 LS
52.5761 230.035 LE
49.5761 233.035 LS
49.5761 227.035 LE
47.4548 232.156 LS
51.6974 227.913 LE
47.4548 227.913 LS
51.6974 232.156 LE
46.5761 229.013 LS
52.5761 229.013 LE
49.5761 232.013 LS
49.5761 226.013 LE
47.4548 231.134 LS
51.6974 226.892 LE
47.4548 226.892 LS
51.6974 231.134 LE
47.9642 231.056 LS
53.9642 231.056 LE
50.9642 234.056 LS
50.9642 228.056 LE
48.8429 233.178 LS
53.0855 228.935 LE
48.8429 228.935 LS
53.0855 233.178 LE
47.9642 230.035 LS
53.9642 230.035 LE
50.9642 233.035 LS
50.9642 227.035 LE
48.8429 232.156 LS
53.0855 227.913 LE
48.8429 227.913 LS
53.0855 232.156 LE
47.9642 227.991 LS
53.9642 227.991 LE
50.9642 230.991 LS
50.9642 224.991 LE
48.8429 230.112 LS
53.0855 225.87 LE
48.8429 225.87 LS
53.0855 230.112 LE
47.9642 226.969 LS
53.9642 226.969 LE
50.9642 229.969 LS
50.9642 223.969 LE
48.8429 229.091 LS
53.0855 224.848 LE
48.8429 224.848 LS
53.0855 229.091 LE
49.3522 231.056 LS
55.3522 231.056 LE
52.3522 234.056 LS
52.3522 228.056 LE
50.2309 233.178 LS
54.4736 228.935 LE
50.2309 228.935 LS
54.4736 233.178 LE
49.3522 229.013 LS
55.3522 229.013 LE
52.3522 232.013 LS
52.3522 226.013 LE
50.2309 231.134 LS
54.4736 226.892 LE
50.2309 226.892 LS
54.4736 231.134 LE
49.3522 225.947 LS
55.3522 225.947 LE
52.3522 228.947 LS
52.3522 222.947 LE
50.2309 228.069 LS
54.4736 223.826 LE
50.2309 223.826 LS
54.4736 228.069 LE
49.3522 224.926 LS
55.3522 224.926 LE
52.3522 227.926 LS
52.3522 221.926 LE
50.2309 227.047 LS
54.4736 222.804 LE
50.2309 222.804 LS
54.4736 227.047 LE
50.7403 230.035 LS
56.7403 230.035 LE
53.7403 233.035 LS
53.7403 227.035 LE
51.619 232.156 LS
55.8616 227.913 LE
51.619 227.913 LS
55.8616 232.156 LE
50.7403 227.991 LS
56.7403 227.991 LE
53.7403 230.991 LS
53.7403 224.991 LE
51.619 230.112 LS
55.8616 225.87 LE
51.619 225.87 LS
55.8616 230.112 LE
50.7403 223.904 LS
56.7403 223.904 LE
53.7403 226.904 LS
53.7403 220.904 LE
51.619 226.025 LS
55.8616 221.783 LE
51.619 221.783 LS
55.8616 226.025 LE
50.7403 222.882 LS
56.7403 222.882 LE
53.7403 225.882 LS
53.7403 219.882 LE
51.619 225.003 LS
55.8616 220.761 LE
51.619 220.761 LS
55.8616 225.003 LE
52.1284 230.035 LS
58.1284 230.035 LE
55.1284 233.035 LS
55.1284 227.035 LE
53.007 232.156 LS
57.2497 227.913 LE
53.007 227.913 LS
57.2497 232.156 LE
52.1284 226.969 LS
58.1284 226.969 LE
55.1284 229.969 LS
55.1284 223.969 LE
53.007 229.091 LS
57.2497 224.848 LE
53.007 224.848 LS
57.2497 229.091 LE
52.1284 221.86 LS
58.1284 221.86 LE
55.1284 224.86 LS
55.1284 218.86 LE
53.007 223.982 LS
57.2497 219.739 LE
53.007 219.739 LS
57.2497 223.982 LE
52.1284 220.839 LS
58.1284 220.839 LE
55.1284 223.839 LS
55.1284 217.839 LE
53.007 222.96 LS
57.2497 218.717 LE
53.007 218.717 LS
57.2497 222.96 LE
53.5164 229.013 LS
59.5164 229.013 LE
56.5164 232.013 LS
56.5164 226.013 LE
54.3951 231.134 LS
58.6377 226.892 LE
54.3951 226.892 LS
58.6377 231.134 LE
53.5164 225.947 LS
59.5164 225.947 LE
56.5164 228.947 LS
56.5164 222.947 LE
54.3951 228.069 LS
58.6377 223.826 LE
54.3951 223.826 LS
58.6377 228.069 LE
53.5164 219.817 LS
59.5164 219.817 LE
56.5164 222.817 LS
56.5164 216.817 LE
54.3951 221.938 LS
58.6377 217.695 LE
54.3951 217.695 LS
58.6377 221.938 LE
53.5164 218.795 LS
59.5164 218.795 LE
56.5164 221.795 LS
56.5164 215.795 LE
54.3951 220.916 LS
58.6377 216.674 LE
54.3951 216.674 LS
58.6377 220.916 LE
54.9045 229.013 LS
60.9045 229.013 LE
57.9045 232.013 LS
57.9045 226.013 LE
55.7832 231.134 LS
60.0258 226.892 LE
55.7832 226.892 LS
60.0258 231.134 LE
54.9045 224.926 LS
60.9045 224.926 LE
57.9045 227.926 LS
57.9045 221.926 LE
55.7832 227.047 LS
60.0258 222.804 LE
55.7832 222.804 LS
60.0258 227.047 LE
54.9045 217.773 LS
60.9045 217.773 LE
57.9045 220.773 LS
57.9045 214.773 LE
55.7832 219.894 LS
60.0258 215.652 LE
55.7832 215.652 LS
60.0258 219.894 LE
54.9045 216.751 LS
60.9045 216.751 LE
57.9045 219.751 LS
57.9045 213.751 LE
55.7832 218.873 LS
60.0258 214.63 LE
55.7832 214.63 LS
60.0258 218.873 LE
56.2925 227.991 LS
62.2925 227.991 LE
59.2925 230.991 LS
59.2925 224.991 LE
57.1712 230.112 LS
61.4139 225.87 LE
57.1712 225.87 LS
61.4139 230.112 LE
56.2925 223.904 LS
62.2925 223.904 LE
59.2925 226.904 LS
59.2925 220.904 LE
57.1712 226.025 LS
61.4139 221.783 LE
57.1712 221.783 LS
61.4139 226.025 LE
56.2925 215.73 LS
62.2925 215.73 LE
59.2925 218.73 LS
59.2925 212.73 LE
57.1712 217.851 LS
61.4139 213.608 LE
57.1712 213.608 LS
61.4139 217.851 LE
56.2925 214.708 LS
62.2925 214.708 LE
59.2925 217.708 LS
59.2925 211.708 LE
57.1712 216.829 LS
61.4139 212.586 LE
57.1712 212.586 LS
61.4139 216.829 LE
57.6806 227.991 LS
63.6806 227.991 LE
60.6806 230.991 LS
60.6806 224.991 LE
58.5593 230.112 LS
62.8019 225.87 LE
58.5593 225.87 LS
62.8019 230.112 LE
57.6806 222.882 LS
63.6806 222.882 LE
60.6806 225.882 LS
60.6806 219.882 LE
58.5593 225.003 LS
62.8019 220.761 LE
58.5593 220.761 LS
62.8019 225.003 LE
57.6806 213.686 LS
63.6806 213.686 LE
60.6806 216.686 LS
60.6806 210.686 LE
58.5593 215.807 LS
62.8019 211.565 LE
58.5593 211.565 LS
62.8019 215.807 LE
57.6806 212.664 LS
63.6806 212.664 LE
60.6806 215.664 LS
60.6806 209.664 LE
58.5593 214.785 LS
62.8019 210.543 LE
58.5593 210.543 LS
62.8019 214.785 LE
59.0687 226.969 LS
65.0686 226.969 LE
62.0687 229.969 LS
62.0687 223.969 LE
59.9473 229.091 LS
64.19 224.848 LE
59.9473 224.848 LS
64.19 229.091 LE
59.0687 221.86 LS
65.0686 221.86 LE
62.0687 224.86 LS
62.0687 218.86 LE
59.9473 223.982 LS
64.19 219.739 LE
59.9473 219.739 LS
64.19 223.982 LE
59.0687 211.642 LS
65.0686 211.642 LE
62.0687 214.642 LS
62.0687 208.642 LE
59.9473 213.764 LS
64.19 209.521 LE
59.9473 209.521 LS
64.19 213.764 LE
59.0687 210.621 LS
65.0686 210.621 LE
62.0687 213.621 LS
62.0687 207.621 LE
59.9473 212.742 LS
64.19 208.499 LE
59.9473 208.499 LS
64.19 212.742 LE
60.4567 226.969 LS
66.4567 226.969 LE
63.4567 229.969 LS
63.4567 223.969 LE
61.3354 229.091 LS
65.578 224.848 LE
61.3354 224.848 LS
65.578 229.091 LE
60.4567 220.839 LS
66.4567 220.839 LE
63.4567 223.839 LS
63.4567 217.839 LE
61.3354 222.96 LS
65.578 218.717 LE
61.3354 218.717 LS
65.578 222.96 LE
60.4567 209.599 LS
66.4567 209.599 LE
63.4567 212.599 LS
63.4567 206.599 LE
61.3354 211.72 LS
65.578 207.477 LE
61.3354 207.477 LS
65.578 211.72 LE
60.4567 208.577 LS
66.4567 208.577 LE
63.4567 211.577 LS
63.4567 205.577 LE
61.3354 210.698 LS
65.578 206.456 LE
61.3354 206.456 LS
65.578 210.698 LE
61.8448 225.947 LS
67.8448 225.947 LE
64.8448 228.947 LS
64.8448 222.947 LE
62.7235 228.069 LS
66.9661 223.826 LE
62.7235 223.826 LS
66.9661 228.069 LE
61.8448 219.817 LS
67.8448 219.817 LE
64.8448 222.817 LS
64.8448 216.817 LE
62.7235 221.938 LS
66.9661 217.695 LE
62.7235 217.695 LS
66.9661 221.938 LE
61.8448 207.555 LS
67.8448 207.555 LE
64.8448 210.555 LS
64.8448 204.555 LE
62.7235 209.677 LS
66.9661 205.434 LE
62.7235 205.434 LS
66.9661 209.677 LE
61.8448 206.533 LS
67.8448 206.533 LE
64.8448 209.533 LS
64.8448 203.533 LE
62.7235 208.655 LS
66.9661 204.412 LE
62.7235 204.412 LS
66.9661 208.655 LE
63.2328 225.947 LS
69.2328 225.947 LE
66.2328 228.947 LS
66.2328 222.947 LE
64.1115 228.069 LS
68.3542 223.826 LE
64.1115 223.826 LS
68.3542 228.069 LE
63.2328 218.795 LS
69.2328 218.795 LE
66.2328 221.795 LS
66.2328 215.795 LE
64.1115 220.916 LS
68.3542 216.674 LE
64.1115 216.674 LS
68.3542 220.916 LE
63.2328 205.512 LS
69.2328 205.512 LE
66.2328 208.512 LS
66.2328 202.512 LE
64.1115 207.633 LS
68.3542 203.39 LE
64.1115 203.39 LS
68.3542 207.633 LE
63.2328 204.49 LS
69.2328 204.49 LE
66.2328 207.49 LS
66.2328 201.49 LE
64.1115 206.611 LS
68.3542 202.369 LE
64.1115 202.369 LS
68.3542 206.611 LE
64.6209 224.926 LS
70.6209 224.926 LE
67.6209 227.926 LS
67.6209 221.926 LE
65.4996 227.047 LS
69.7422 222.804 LE
65.4996 222.804 LS
69.7422 227.047 LE
64.6209 217.773 LS
70.6209 217.773 LE
67.6209 220.773 LS
67.6209 214.773 LE
65.4996 219.894 LS
69.7422 215.652 LE
65.4996 215.652 LS
69.7422 219.894 LE
64.6209 203.468 LS
70.6209 203.468 LE
67.6209 206.468 LS
67.6209 200.468 LE
65.4996 205.589 LS
69.7422 201.347 LE
65.4996 201.347 LS
69.7422 205.589 LE
64.6209 202.446 LS
70.6209 202.446 LE
67.6209 205.446 LS
67.6209 199.446 LE
65.4996 204.568 LS
69.7422 200.325 LE
65.4996 200.325 LS
69.7422 204.568 LE
66.009 224.926 LS
72.009 224.926 LE
69.009 227.926 LS
69.009 221.926 LE
66.8876 227.047 LS
71.1303 222.804 LE
66.8876 222.804 LS
71.1303 227.047 LE
66.009 216.751 LS
72.009 216.751 LE
69.009 219.751 LS
69.009 213.751 LE
66.8876 218.873 LS
71.1303 214.63 LE
66.8876 214.63 LS
71.1303 218.873 LE
66.009 201.424 LS
72.009 201.424 LE
69.009 204.424 LS
69.009 198.424 LE
66.8876 203.546 LS
71.1303 199.303 LE
66.8876 199.303 LS
71.1303 203.546 LE
66.009 200.403 LS
72.009 200.403 LE
69.009 203.403 LS
69.009 197.403 LE
66.8876 202.524 LS
71.1303 198.281 LE
66.8876 198.281 LS
71.1303 202.524 LE
67.397 223.904 LS
73.397 223.904 LE
70.397 226.904 LS
70.397 220.904 LE
68.2757 226.025 LS
72.5183 221.783 LE
68.2757 221.783 LS
72.5183 226.025 LE
67.397 215.73 LS
73.397 215.73 LE
70.397 218.73 LS
70.397 212.73 LE
68.2757 217.851 LS
72.5183 213.608 LE
68.2757 213.608 LS
72.5183 217.851 LE
67.397 199.381 LS
73.397 199.381 LE
70.397 202.381 LS
70.397 196.381 LE
68.2757 201.502 LS
72.5183 197.26 LE
68.2757 197.26 LS
72.5183 201.502 LE
67.397 198.359 LS
73.397 198.359 LE
70.397 201.359 LS
70.397 195.359 LE
68.2757 200.48 LS
72.5183 196.238 LE
68.2757 196.238 LS
72.5183 200.48 LE
68.7851 223.904 LS
74.7851 223.904 LE
71.7851 226.904 LS
71.7851 220.904 LE
69.6638 226.025 LS
73.9064 221.783 LE
69.6638 221.783 LS
73.9064 226.025 LE
68.7851 214.708 LS
74.7851 214.708 LE
71.7851 217.708 LS
71.7851 211.708 LE
69.6638 216.829 LS
73.9064 212.586 LE
69.6638 212.586 LS
73.9064 216.829 LE
68.7851 197.337 LS
74.7851 197.337 LE
71.7851 200.337 LS
71.7851 194.337 LE
69.6638 199.459 LS
73.9064 195.216 LE
69.6638 195.216 LS
73.9064 199.459 LE
68.7851 196.316 LS
74.7851 196.316 LE
71.7851 199.316 LS
71.7851 193.316 LE
69.6638 198.437 LS
73.9064 194.194 LE
69.6638 194.194 LS
73.9064 198.437 LE
70.1731 222.882 LS
76.1731 222.882 LE
73.1731 225.882 LS
73.1731 219.882 LE
71.0518 225.003 LS
75.2944 220.761 LE
71.0518 220.761 LS
75.2944 225.003 LE
70.1731 213.686 LS
76.1731 213.686 LE
73.1731 216.686 LS
73.1731 210.686 LE
71.0518 215.807 LS
75.2944 211.565 LE
71.0518 211.565 LS
75.2944 215.807 LE
70.1731 195.294 LS
76.1731 195.294 LE
73.1731 198.294 LS
73.1731 192.294 LE
71.0518 197.415 LS
75.2944 193.172 LE
71.0518 193.172 LS
75.2944 197.415 LE
70.1731 194.272 LS
76.1731 194.272 LE
73.1731 197.272 LS
73.1731 191.272 LE
71.0518 196.393 LS
75.2944 192.151 LE
71.0518 192.151 LS
75.2944 196.393 LE
71.5612 222.882 LS
77.5612 222.882 LE
74.5612 225.882 LS
74.5612 219.882 LE
72.4399 225.003 LS
76.6825 220.761 LE
72.4399 220.761 LS
76.6825 225.003 LE
71.5612 212.664 LS
77.5612 212.664 LE
74.5612 215.664 LS
74.5612 209.664 LE
72.4399 214.785 LS
76.6825 210.543 LE
72.4399 210.543 LS
76.6825 214.785 LE
71.5612 193.25 LS
77.5612 193.25 LE
74.5612 196.25 LS
74.5612 190.25 LE
72.4399 195.371 LS
76.6825 191.129 LE
72.4399 191.129 LS
76.6825 195.371 LE
71.5612 192.228 LS
77.5612 192.228 LE
74.5612 195.228 LS
74.5612 189.228 LE
72.4399 194.35 LS
76.6825 190.107 LE
72.4399 190.107 LS
76.6825 194.35 LE
72.9493 221.86 LS
78.9493 221.86 LE
75.9493 224.86 LS
75.9493 218.86 LE
73.8279 223.982 LS
78.0706 219.739 LE
73.8279 219.739 LS
78.0706 223.982 LE
72.9493 211.642 LS
78.9493 211.642 LE
75.9493 214.642 LS
75.9493 208.642 LE
73.8279 213.764 LS
78.0706 209.521 LE
73.8279 209.521 LS
78.0706 213.764 LE
72.9493 191.207 LS
78.9493 191.207 LE
75.9493 194.207 LS
75.9493 188.207 LE
73.8279 193.328 LS
78.0706 189.085 LE
73.8279 189.085 LS
78.0706 193.328 LE
72.9493 190.185 LS
78.9493 190.185 LE
75.9493 193.185 LS
75.9493 187.185 LE
73.8279 192.306 LS
78.0706 188.063 LE
73.8279 188.063 LS
78.0706 192.306 LE
74.3373 221.86 LS
80.3373 221.86 LE
77.3373 224.86 LS
77.3373 218.86 LE
75.216 223.982 LS
79.4586 219.739 LE
75.216 219.739 LS
79.4586 223.982 LE
74.3373 210.621 LS
80.3373 210.621 LE
77.3373 213.621 LS
77.3373 207.621 LE
75.216 212.742 LS
79.4586 208.499 LE
75.216 208.499 LS
79.4586 212.742 LE
74.3373 189.163 LS
80.3373 189.163 LE
77.3373 192.163 LS
77.3373 186.163 LE
75.216 191.284 LS
79.4586 187.042 LE
75.216 187.042 LS
79.4586 191.284 LE
74.3373 188.141 LS
80.3373 188.141 LE
77.3373 191.141 LS
77.3373 185.141 LE
75.216 190.263 LS
79.4586 186.02 LE
75.216 186.02 LS
79.4586 190.263 LE
75.7254 220.839 LS
81.7254 220.839 LE
78.7254 223.839 LS
78.7254 217.839 LE
76.604 222.96 LS
80.8467 218.717 LE
76.604 218.717 LS
80.8467 222.96 LE
75.7254 209.599 LS
81.7254 209.599 LE
78.7254 212.599 LS
78.7254 206.599 LE
76.604 211.72 LS
80.8467 207.477 LE
76.604 207.477 LS
80.8467 211.72 LE
75.7254 187.119 LS
81.7254 187.119 LE
78.7254 190.119 LS
78.7254 184.119 LE
76.604 189.241 LS
80.8467 184.998 LE
76.604 184.998 LS
80.8467 189.241 LE
75.7254 186.098 LS
81.7254 186.098 LE
78.7254 189.098 LS
78.7254 183.098 LE
76.604 188.219 LS
80.8467 183.976 LE
76.604 183.976 LS
80.8467 188.219 LE
77.1134 220.839 LS
83.1134 220.839 LE
80.1134 223.839 LS
80.1134 217.839 LE
77.9921 222.96 LS
82.2348 218.717 LE
77.9921 218.717 LS
82.2348 222.96 LE
77.1134 208.577 LS
83.1134 208.577 LE
80.1134 211.577 LS
80.1134 205.577 LE
77.9921 210.698 LS
82.2348 206.456 LE
77.9921 206.456 LS
82.2348 210.698 LE
77.1134 185.076 LS
83.1134 185.076 LE
80.1134 188.076 LS
80.1134 182.076 LE
77.9921 187.197 LS
82.2348 182.954 LE
77.9921 182.954 LS
82.2348 187.197 LE
77.1134 184.054 LS
83.1134 184.054 LE
80.1134 187.054 LS
80.1134 181.054 LE
77.9921 186.175 LS
82.2348 181.933 LE
77.9921 181.933 LS
82.2348 186.175 LE
78.5015 219.817 LS
84.5015 219.817 LE
81.5015 222.817 LS
81.5015 216.817 LE
79.3802 221.938 LS
83.6228 217.695 LE
79.3802 217.695 LS
83.6228 221.938 LE
78.5015 207.555 LS
84.5015 207.555 LE
81.5015 210.555 LS
81.5015 204.555 LE
79.3802 209.677 LS
83.6228 205.434 LE
79.3802 205.434 LS
83.6228 209.677 LE
78.5015 183.032 LS
84.5015 183.032 LE
81.5015 186.032 LS
81.5015 180.032 LE
79.3802 185.154 LS
83.6228 180.911 LE
79.3802 180.911 LS
83.6228 185.154 LE
78.5015 182.01 LS
84.5015 182.01 LE
81.5015 185.01 LS
81.5015 179.01 LE
79.3802 184.132 LS
83.6228 179.889 LE
79.3802 179.889 LS
83.6228 184.132 LE
79.8895 219.817 LS
85.8895 219.817 LE
82.8895 222.817 LS
82.8895 216.817 LE
80.7682 221.938 LS
85.0109 217.695 LE
80.7682 217.695 LS
85.0109 221.938 LE
79.8895 206.533 LS
85.8895 206.533 LE
82.8895 209.533 LS
82.8895 203.533 LE
80.7682 208.655 LS
85.0109 204.412 LE
80.7682 204.412 LS
85.0109 208.655 LE
79.8895 180.989 LS
85.8895 180.989 LE
82.8895 183.989 LS
82.8895 177.989 LE
80.7682 183.11 LS
85.0109 178.867 LE
80.7682 178.867 LS
85.0109 183.11 LE
79.8895 179.967 LS
85.8895 179.967 LE
82.8895 182.967 LS
82.8895 176.967 LE
80.7682 182.088 LS
85.0109 177.846 LE
80.7682 177.846 LS
85.0109 182.088 LE
81.2776 218.795 LS
87.2776 218.795 LE
84.2776 221.795 LS
84.2776 215.795 LE
82.1563 220.916 LS
86.3989 216.674 LE
82.1563 216.674 LS
86.3989 220.916 LE
81.2776 205.512 LS
87.2776 205.512 LE
84.2776 208.512 LS
84.2776 202.512 LE
82.1563 207.633 LS
86.3989 203.39 LE
82.1563 203.39 LS
86.3989 207.633 LE
81.2776 178.945 LS
87.2776 178.945 LE
84.2776 181.945 LS
84.2776 175.945 LE
82.1563 181.066 LS
86.3989 176.824 LE
82.1563 176.824 LS
86.3989 181.066 LE
81.2776 177.923 LS
87.2776 177.923 LE
84.2776 180.923 LS
84.2776 174.923 LE
82.1563 180.045 LS
86.3989 175.802 LE
82.1563 175.802 LS
86.3989 180.045 LE
82.6657 218.795 LS
88.6657 218.795 LE
85.6657 221.795 LS
85.6657 215.795 LE
83.5444 220.916 LS
87.787 216.674 LE
83.5444 216.674 LS
87.787 220.916 LE
82.6657 204.49 LS
88.6657 204.49 LE
85.6657 207.49 LS
85.6657 201.49 LE
83.5444 206.611 LS
87.787 202.369 LE
83.5444 202.369 LS
87.787 206.611 LE
82.6657 176.901 LS
88.6657 176.901 LE
85.6657 179.901 LS
85.6657 173.901 LE
83.5444 179.023 LS
87.787 174.78 LE
83.5444 174.78 LS
87.787 179.023 LE
82.6657 175.88 LS
88.6657 175.88 LE
85.6657 178.88 LS
85.6657 172.88 LE
83.5444 178.001 LS
87.787 173.758 LE
83.5444 173.758 LS
87.787 178.001 LE
84.0537 217.773 LS
90.0537 217.773 LE
87.0537 220.773 LS
87.0537 214.773 LE
84.9324 219.894 LS
89.175 215.652 LE
84.9324 215.652 LS
89.175 219.894 LE
84.0537 203.468 LS
90.0537 203.468 LE
87.0537 206.468 LS
87.0537 200.468 LE
84.9324 205.589 LS
89.175 201.347 LE
84.9324 201.347 LS
89.175 205.589 LE
84.0537 174.858 LS
90.0537 174.858 LE
87.0537 177.858 LS
87.0537 171.858 LE
84.9324 176.979 LS
89.175 172.737 LE
84.9324 172.737 LS
89.175 176.979 LE
84.0537 173.836 LS
90.0537 173.836 LE
87.0537 176.836 LS
87.0537 170.836 LE
84.9324 175.957 LS
89.175 171.715 LE
84.9324 171.715 LS
89.175 175.957 LE
85.4418 217.773 LS
91.4418 217.773 LE
88.4418 220.773 LS
88.4418 214.773 LE
86.3205 219.894 LS
90.5631 215.652 LE
86.3205 215.652 LS
90.5631 219.894 LE
85.4418 202.446 LS
91.4418 202.446 LE
88.4418 205.446 LS
88.4418 199.446 LE
86.3205 204.568 LS
90.5631 200.325 LE
86.3205 200.325 LS
90.5631 204.568 LE
85.4418 172.814 LS
91.4418 172.814 LE
88.4418 175.814 LS
88.4418 169.814 LE
86.3205 174.936 LS
90.5631 170.693 LE
86.3205 170.693 LS
90.5631 174.936 LE
85.4418 171.793 LS
91.4418 171.793 LE
88.4418 174.793 LS
88.4418 168.793 LE
86.3205 173.914 LS
90.5631 169.671 LE
86.3205 169.671 LS
90.5631 173.914 LE
86.8299 216.751 LS
92.8299 216.751 LE
89.8298 219.751 LS
89.8298 213.751 LE
87.7085 218.873 LS
91.9512 214.63 LE
87.7085 214.63 LS
91.9512 218.873 LE
86.8299 201.424 LS
92.8299 201.424 LE
89.8298 204.424 LS
89.8298 198.424 LE
87.7085 203.546 LS
91.9512 199.303 LE
87.7085 199.303 LS
91.9512 203.546 LE
86.8299 170.771 LS
92.8299 170.771 LE
89.8298 173.771 LS
89.8298 167.771 LE
87.7085 172.892 LS
91.9512 168.649 LE
87.7085 168.649 LS
91.9512 172.892 LE
86.8299 169.749 LS
92.8299 169.749 LE
89.8298 172.749 LS
89.8298 166.749 LE
87.7085 171.87 LS
91.9512 167.628 LE
87.7085 167.628 LS
91.9512 171.87 LE
88.2179 216.751 LS
94.2179 216.751 LE
91.2179 219.751 LS
91.2179 213.751 LE
89.0966 218.873 LS
93.3392 214.63 LE
89.0966 214.63 LS
93.3392 218.873 LE
88.2179 200.403 LS
94.2179 200.403 LE
91.2179 203.403 LS
91.2179 197.403 LE
89.0966 202.524 LS
93.3392 198.281 LE
89.0966 198.281 LS
93.3392 202.524 LE
88.2179 168.727 LS
94.2179 168.727 LE
91.2179 171.727 LS
91.2179 165.727 LE
89.0966 170.848 LS
93.3392 166.606 LE
89.0966 166.606 LS
93.3392 170.848 LE
88.2179 167.705 LS
94.2179 167.705 LE
91.2179 170.705 LS
91.2179 164.705 LE
89.0966 169.827 LS
93.3392 165.584 LE
89.0966 165.584 LS
93.3392 169.827 LE
89.606 215.73 LS
95.606 215.73 LE
92.606 218.73 LS
92.606 212.73 LE
90.4846 217.851 LS
94.7273 213.608 LE
90.4846 213.608 LS
94.7273 217.851 LE
89.606 199.381 LS
95.606 199.381 LE
92.606 202.381 LS
92.606 196.381 LE
90.4846 201.502 LS
94.7273 197.26 LE
90.4846 197.26 LS
94.7273 201.502 LE
89.606 166.684 LS
95.606 166.684 LE
92.606 169.684 LS
92.606 163.684 LE
90.4846 168.805 LS
94.7273 164.562 LE
90.4846 164.562 LS
94.7273 168.805 LE
89.606 165.662 LS
95.606 165.662 LE
92.606 168.662 LS
92.606 162.662 LE
90.4846 167.783 LS
94.7273 163.54 LE
90.4846 163.54 LS
94.7273 167.783 LE
90.994 215.73 LS
96.994 215.73 LE
93.994 218.73 LS
93.994 212.73 LE
91.8727 217.851 LS
96.1153 213.608 LE
91.8727 213.608 LS
96.1153 217.851 LE
90.994 198.359 LS
96.994 198.359 LE
93.994 201.359 LS
93.994 195.359 LE
91.8727 200.48 LS
96.1153 196.238 LE
91.8727 196.238 LS
96.1153 200.48 LE
90.994 164.64 LS
96.994 164.64 LE
93.994 167.64 LS
93.994 161.64 LE
91.8727 166.761 LS
96.1153 162.519 LE
91.8727 162.519 LS
96.1153 166.761 LE
90.994 163.618 LS
96.994 163.618 LE
93.994 166.618 LS
93.994 160.618 LE
91.8727 165.74 LS
96.1153 161.497 LE
91.8727 161.497 LS
96.1153 165.74 LE
92.3821 214.708 LS
98.3821 214.708 LE
95.3821 217.708 LS
95.3821 211.708 LE
93.2608 216.829 LS
97.5034 212.586 LE
93.2608 212.586 LS
97.5034 216.829 LE
92.3821 197.337 LS
98.3821 197.337 LE
95.3821 200.337 LS
95.3821 194.337 LE
93.2608 199.459 LS
97.5034 195.216 LE
93.2608 195.216 LS
97.5034 199.459 LE
92.3821 162.596 LS
98.3821 162.596 LE
95.3821 165.596 LS
95.3821 159.596 LE
93.2608 164.718 LS
97.5034 160.475 LE
93.2608 160.475 LS
97.5034 164.718 LE
92.3821 161.575 LS
98.3821 161.575 LE
95.3821 164.575 LS
95.3821 158.575 LE
93.2608 163.696 LS
97.5034 159.453 LE
93.2608 159.453 LS
97.5034 163.696 LE
93.7701 214.708 LS
99.7702 214.708 LE
96.7702 217.708 LS
96.7702 211.708 LE
94.6488 216.829 LS
98.8915 212.586 LE
94.6488 212.586 LS
98.8915 216.829 LE
93.7701 196.316 LS
99.7702 196.316 LE
96.7702 199.316 LS
96.7702 193.316 LE
94.6488 198.437 LS
98.8915 194.194 LE
94.6488 194.194 LS
98.8915 198.437 LE
93.7701 160.553 LS
99.7702 160.553 LE
96.7702 163.553 LS
96.7702 157.553 LE
94.6488 162.674 LS
98.8915 158.432 LE
94.6488 158.432 LS
98.8915 162.674 LE
93.7701 159.531 LS
99.7702 159.531 LE
96.7702 162.531 LS
96.7702 156.531 LE
94.6488 161.652 LS
98.8915 157.41 LE
94.6488 157.41 LS
98.8915 161.652 LE
95.1582 213.686 LS
101.158 213.686 LE
98.1582 216.686 LS
98.1582 210.686 LE
96.0369 215.807 LS
100.28 211.565 LE
96.0369 211.565 LS
100.28 215.807 LE
95.1582 195.294 LS
101.158 195.294 LE
98.1582 198.294 LS
98.1582 192.294 LE
96.0369 197.415 LS
100.28 193.172 LE
96.0369 193.172 LS
100.28 197.415 LE
95.1582 158.509 LS
101.158 158.509 LE
98.1582 161.509 LS
98.1582 155.509 LE
96.0369 160.631 LS
100.28 156.388 LE
96.0369 156.388 LS
100.28 160.631 LE
95.1582 157.487 LS
101.158 157.487 LE
98.1582 160.487 LS
98.1582 154.487 LE
96.0369 159.609 LS
100.28 155.366 LE
96.0369 155.366 LS
100.28 159.609 LE
96.5463 213.686 LS
102.546 213.686 LE
99.5463 216.686 LS
99.5463 210.686 LE
97.4249 215.807 LS
101.668 211.565 LE
97.4249 211.565 LS
101.668 215.807 LE
96.5463 194.272 LS
102.546 194.272 LE
99.5463 197.272 LS
99.5463 191.272 LE
97.4249 196.393 LS
101.668 192.151 LE
97.4249 192.151 LS
101.668 196.393 LE
96.5463 156.466 LS
102.546 156.466 LE
99.5463 159.466 LS
99.5463 153.466 LE
97.4249 158.587 LS
101.668 154.344 LE
97.4249 154.344 LS
101.668 158.587 LE
96.5463 155.444 LS
102.546 155.444 LE
99.5463 158.444 LS
99.5463 152.444 LE
97.4249 157.565 LS
101.668 153.323 LE
97.4249 153.323 LS
101.668 157.565 LE
97.9343 212.664 LS
103.934 212.664 LE
100.934 215.664 LS
100.934 209.664 LE
98.813 214.785 LS
103.056 210.543 LE
98.813 210.543 LS
103.056 214.785 LE
97.9343 193.25 LS
103.934 193.25 LE
100.934 196.25 LS
100.934 190.25 LE
98.813 195.371 LS
103.056 191.129 LE
98.813 191.129 LS
103.056 195.371 LE
97.9343 154.422 LS
103.934 154.422 LE
100.934 157.422 LS
100.934 151.422 LE
98.813 156.543 LS
103.056 152.301 LE
98.813 152.301 LS
103.056 156.543 LE
97.9343 153.4 LS
103.934 153.4 LE
100.934 156.4 LS
100.934 150.4 LE
98.813 155.522 LS
103.056 151.279 LE
98.813 151.279 LS
103.056 155.522 LE
99.3224 212.664 LS
105.322 212.664 LE
102.322 215.664 LS
102.322 209.664 LE
100.201 214.785 LS
104.444 210.543 LE
100.201 210.543 LS
104.444 214.785 LE
99.3224 192.228 LS
105.322 192.228 LE
102.322 195.228 LS
102.322 189.228 LE
100.201 194.35 LS
104.444 190.107 LE
100.201 190.107 LS
104.444 194.35 LE
99.3224 152.379 LS
105.322 152.379 LE
102.322 155.379 LS
102.322 149.379 LE
100.201 154.5 LS
104.444 150.257 LE
100.201 150.257 LS
104.444 154.5 LE
99.3224 151.357 LS
105.322 151.357 LE
102.322 154.357 LS
102.322 148.357 LE
100.201 153.478 LS
104.444 149.235 LE
100.201 149.235 LS
104.444 153.478 LE
100.71 211.642 LS
106.71 211.642 LE
103.71 214.642 LS
103.71 208.642 LE
101.589 213.764 LS
105.832 209.521 LE
101.589 209.521 LS
105.832 213.764 LE
100.71 191.207 LS
106.71 191.207 LE
103.71 194.207 LS
103.71 188.207 LE
101.589 193.328 LS
105.832 189.085 LE
101.589 189.085 LS
105.832 193.328 LE
100.71 150.335 LS
106.71 150.335 LE
103.71 153.335 LS
103.71 147.335 LE
101.589 152.456 LS
105.832 148.214 LE
101.589 148.214 LS
105.832 152.456 LE
100.71 149.313 LS
106.71 149.313 LE
103.71 152.313 LS
103.71 146.313 LE
101.589 151.434 LS
105.832 147.192 LE
101.589 147.192 LS
105.832 151.434 LE
102.099 211.642 LS
108.099 211.642 LE
105.099 214.642 LS
105.099 208.642 LE
102.977 213.764 LS
107.22 209.521 LE
102.977 209.521 LS
107.22 213.764 LE
102.099 190.185 LS
108.099 190.185 LE
105.099 193.185 LS
105.099 187.185 LE
102.977 192.306 LS
107.22 188.063 LE
102.977 188.063 LS
107.22 192.306 LE
102.099 148.291 LS
108.099 148.291 LE
105.099 151.291 LS
105.099 145.291 LE
102.977 150.413 LS
107.22 146.17 LE
102.977 146.17 LS
107.22 150.413 LE
102.099 147.27 LS
108.099 147.27 LE
105.099 150.27 LS
105.099 144.27 LE
102.977 149.391 LS
107.22 145.148 LE
102.977 145.148 LS
107.22 149.391 LE
103.487 210.621 LS
109.487 210.621 LE
106.487 213.621 LS
106.487 207.621 LE
104.365 212.742 LS
108.608 208.499 LE
104.365 208.499 LS
108.608 212.742 LE
103.487 189.163 LS
109.487 189.163 LE
106.487 192.163 LS
106.487 186.163 LE
104.365 191.284 LS
108.608 187.042 LE
104.365 187.042 LS
108.608 191.284 LE
103.487 146.248 LS
109.487 146.248 LE
106.487 149.248 LS
106.487 143.248 LE
104.365 148.369 LS
108.608 144.126 LE
104.365 144.126 LS
108.608 148.369 LE
103.487 145.226 LS
109.487 145.226 LE
106.487 148.226 LS
106.487 142.226 LE
104.365 147.347 LS
108.608 143.105 LE
104.365 143.105 LS
108.608 147.347 LE
104.875 210.621 LS
110.875 210.621 LE
107.875 213.621 LS
107.875 207.621 LE
105.753 212.742 LS
109.996 208.499 LE
105.753 208.499 LS
109.996 212.742 LE
104.875 188.141 LS
110.875 188.141 LE
107.875 191.141 LS
107.875 185.141 LE
105.753 190.263 LS
109.996 186.02 LE
105.753 186.02 LS
109.996 190.263 LE
104.875 144.204 LS
110.875 144.204 LE
107.875 147.204 LS
107.875 141.204 LE
105.753 146.325 LS
109.996 142.083 LE
105.753 142.083 LS
109.996 146.325 LE
104.875 143.182 LS
110.875 143.182 LE
107.875 146.182 LS
107.875 140.182 LE
105.753 145.304 LS
109.996 141.061 LE
105.753 141.061 LS
109.996 145.304 LE
106.263 209.599 LS
112.263 209.599 LE
109.263 212.599 LS
109.263 206.599 LE
107.141 211.72 LS
111.384 207.477 LE
107.141 207.477 LS
111.384 211.72 LE
106.263 187.119 LS
112.263 187.119 LE
109.263 190.119 LS
109.263 184.119 LE
107.141 189.241 LS
111.384 184.998 LE
107.141 184.998 LS
111.384 189.241 LE
106.263 142.161 LS
112.263 142.161 LE
109.263 145.161 LS
109.263 139.161 LE
107.141 144.282 LS
111.384 140.039 LE
107.141 140.039 LS
111.384 144.282 LE
106.263 141.139 LS
112.263 141.139 LE
109.263 144.139 LS
109.263 138.139 LE
107.141 143.26 LS
111.384 139.017 LE
107.141 139.017 LS
111.384 143.26 LE
107.651 209.599 LS
113.651 209.599 LE
110.651 212.599 LS
110.651 206.599 LE
108.529 211.72 LS
112.772 207.477 LE
108.529 207.477 LS
112.772 211.72 LE
107.651 186.098 LS
113.651 186.098 LE
110.651 189.098 LS
110.651 183.098 LE
108.529 188.219 LS
112.772 183.976 LE
108.529 183.976 LS
112.772 188.219 LE
107.651 140.117 LS
113.651 140.117 LE
110.651 143.117 LS
110.651 137.117 LE
108.529 142.238 LS
112.772 137.996 LE
108.529 137.996 LS
112.772 142.238 LE
107.651 139.095 LS
113.651 139.095 LE
110.651 142.095 LS
110.651 136.095 LE
108.529 141.217 LS
112.772 136.974 LE
108.529 136.974 LS
112.772 141.217 LE
109.039 208.577 LS
115.039 208.577 LE
112.039 211.577 LS
112.039 205.577 LE
109.917 210.698 LS
114.16 206.456 LE
109.917 206.456 LS
114.16 210.698 LE
109.039 185.076 LS
115.039 185.076 LE
112.039 188.076 LS
112.039 182.076 LE
109.917 187.197 LS
114.16 182.954 LE
109.917 182.954 LS
114.16 187.197 LE
109.039 138.073 LS
115.039 138.073 LE
112.039 141.073 LS
112.039 135.073 LE
109.917 140.195 LS
114.16 135.952 LE
109.917 135.952 LS
114.16 140.195 LE
109.039 137.052 LS
115.039 137.052 LE
112.039 140.052 LS
112.039 134.052 LE
109.917 139.173 LS
114.16 134.93 LE
109.917 134.93 LS
114.16 139.173 LE
110.427 208.577 LS
116.427 208.577 LE
113.427 211.577 LS
113.427 205.577 LE
111.306 210.698 LS
115.548 206.456 LE
111.306 206.456 LS
115.548 210.698 LE
110.427 184.054 LS
116.427 184.054 LE
113.427 187.054 LS
113.427 181.054 LE
111.306 186.175 LS
115.548 181.933 LE
111.306 181.933 LS
115.548 186.175 LE
110.427 136.03 LS
116.427 136.03 LE
113.427 139.03 LS
113.427 133.03 LE
111.306 138.151 LS
115.548 133.909 LE
111.306 133.909 LS
115.548 138.151 LE
110.427 135.008 LS
116.427 135.008 LE
113.427 138.008 LS
113.427 132.008 LE
111.306 137.129 LS
115.548 132.887 LE
111.306 132.887 LS
115.548 137.129 LE
111.815 207.555 LS
117.815 207.555 LE
114.815 210.555 LS
114.815 204.555 LE
112.694 209.677 LS
116.936 205.434 LE
112.694 205.434 LS
116.936 209.677 LE
111.815 183.032 LS
117.815 183.032 LE
114.815 186.032 LS
114.815 180.032 LE
112.694 185.154 LS
116.936 180.911 LE
112.694 180.911 LS
116.936 185.154 LE
111.815 133.986 LS
117.815 133.986 LE
114.815 136.986 LS
114.815 130.986 LE
112.694 136.108 LS
116.936 131.865 LE
112.694 131.865 LS
116.936 136.108 LE
111.815 132.964 LS
117.815 132.964 LE
114.815 135.964 LS
114.815 129.964 LE
112.694 135.086 LS
116.936 130.843 LE
112.694 130.843 LS
116.936 135.086 LE
113.203 207.555 LS
119.203 207.555 LE
116.203 210.555 LS
116.203 204.555 LE
114.082 209.677 LS
118.324 205.434 LE
114.082 205.434 LS
118.324 209.677 LE
113.203 182.01 LS
119.203 182.01 LE
116.203 185.01 LS
116.203 179.01 LE
114.082 184.132 LS
118.324 179.889 LE
114.082 179.889 LS
118.324 184.132 LE
113.203 131.943 LS
119.203 131.943 LE
116.203 134.943 LS
116.203 128.943 LE
114.082 134.064 LS
118.324 129.821 LE
114.082 129.821 LS
118.324 134.064 LE
113.203 130.921 LS
119.203 130.921 LE
116.203 133.921 LS
116.203 127.921 LE
114.082 133.042 LS
118.324 128.8 LE
114.082 128.8 LS
118.324 133.042 LE
114.591 206.533 LS
120.591 206.533 LE
117.591 209.533 LS
117.591 203.533 LE
115.47 208.655 LS
119.712 204.412 LE
115.47 204.412 LS
119.712 208.655 LE
114.591 180.989 LS
120.591 180.989 LE
117.591 183.989 LS
117.591 177.989 LE
115.47 183.11 LS
119.712 178.867 LE
115.47 178.867 LS
119.712 183.11 LE
114.591 129.899 LS
120.591 129.899 LE
117.591 132.899 LS
117.591 126.899 LE
115.47 132.02 LS
119.712 127.778 LE
115.47 127.778 LS
119.712 132.02 LE
114.591 128.877 LS
120.591 128.877 LE
117.591 131.877 LS
117.591 125.877 LE
115.47 130.999 LS
119.712 126.756 LE
115.47 126.756 LS
119.712 130.999 LE
115.979 206.533 LS
121.979 206.533 LE
118.979 209.533 LS
118.979 203.533 LE
116.858 208.655 LS
121.1 204.412 LE
116.858 204.412 LS
121.1 208.655 LE
115.979 179.967 LS
121.979 179.967 LE
118.979 182.967 LS
118.979 176.967 LE
116.858 182.088 LS
121.1 177.846 LE
116.858 177.846 LS
121.1 182.088 LE
115.979 127.856 LS
121.979 127.856 LE
118.979 130.856 LS
118.979 124.856 LE
116.858 129.977 LS
121.1 125.734 LE
116.858 125.734 LS
121.1 129.977 LE
115.979 126.834 LS
121.979 126.834 LE
118.979 129.834 LS
118.979 123.834 LE
116.858 128.955 LS
121.1 124.712 LE
116.858 124.712 LS
121.1 128.955 LE
117.367 205.512 LS
123.367 205.512 LE
120.367 208.512 LS
120.367 202.512 LE
118.246 207.633 LS
122.488 203.39 LE
118.246 203.39 LS
122.488 207.633 LE
117.367 178.945 LS
123.367 178.945 LE
120.367 181.945 LS
120.367 175.945 LE
118.246 181.066 LS
122.488 176.824 LE
118.246 176.824 LS
122.488 181.066 LE
117.367 125.812 LS
123.367 125.812 LE
120.367 128.812 LS
120.367 122.812 LE
118.246 127.933 LS
122.488 123.691 LE
118.246 123.691 LS
122.488 127.933 LE
117.367 124.79 LS
123.367 124.79 LE
120.367 127.79 LS
120.367 121.79 LE
118.246 126.911 LS
122.488 122.669 LE
118.246 122.669 LS
122.488 126.911 LE
118.755 205.512 LS
124.755 205.512 LE
121.755 208.512 LS
121.755 202.512 LE
119.634 207.633 LS
123.877 203.39 LE
119.634 203.39 LS
123.877 207.633 LE
118.755 177.923 LS
124.755 177.923 LE
121.755 180.923 LS
121.755 174.923 LE
119.634 180.045 LS
123.877 175.802 LE
119.634 175.802 LS
123.877 180.045 LE
118.755 123.768 LS
124.755 123.768 LE
121.755 126.768 LS
121.755 120.768 LE
119.634 125.89 LS
123.877 121.647 LE
119.634 121.647 LS
123.877 125.89 LE
118.755 122.747 LS
124.755 122.747 LE
121.755 125.747 LS
121.755 119.747 LE
119.634 124.868 LS
123.877 120.625 LE
119.634 120.625 LS
123.877 124.868 LE
120.143 204.49 LS
126.143 204.49 LE
123.143 207.49 LS
123.143 201.49 LE
121.022 206.611 LS
125.265 202.369 LE
121.022 202.369 LS
125.265 206.611 LE
120.143 176.901 LS
126.143 176.901 LE
123.143 179.901 LS
123.143 173.901 LE
121.022 179.023 LS
125.265 174.78 LE
121.022 174.78 LS
125.265 179.023 LE
120.143 121.725 LS
126.143 121.725 LE
123.143 124.725 LS
123.143 118.725 LE
121.022 123.846 LS
125.265 119.603 LE
121.022 119.603 LS
125.265 123.846 LE
120.143 120.703 LS
126.143 120.703 LE
123.143 123.703 LS
123.143 117.703 LE
121.022 122.824 LS
125.265 118.582 LE
121.022 118.582 LS
125.265 122.824 LE
121.531 204.49 LS
127.531 204.49 LE
124.531 207.49 LS
124.531 201.49 LE
122.41 206.611 LS
126.653 202.369 LE
122.41 202.369 LS
126.653 206.611 LE
121.531 175.88 LS
127.531 175.88 LE
124.531 178.88 LS
124.531 172.88 LE
122.41 178.001 LS
126.653 173.758 LE
122.41 173.758 LS
126.653 178.001 LE
121.531 119.681 LS
127.531 119.681 LE
124.531 122.681 LS
124.531 116.681 LE
122.41 121.803 LS
126.653 117.56 LE
122.41 117.56 LS
126.653 121.803 LE
121.531 118.659 LS
127.531 118.659 LE
124.531 121.659 LS
124.531 115.659 LE
122.41 120.781 LS
126.653 116.538 LE
122.41 116.538 LS
126.653 120.781 LE
122.919 203.468 LS
128.919 203.468 LE
125.919 206.468 LS
125.919 200.468 LE
123.798 205.589 LS
128.041 201.347 LE
123.798 201.347 LS
128.041 205.589 LE
122.919 174.858 LS
128.919 174.858 LE
125.919 177.858 LS
125.919 171.858 LE
123.798 176.979 LS
128.041 172.737 LE
123.798 172.737 LS
128.041 176.979 LE
122.919 117.638 LS
128.919 117.638 LE
125.919 120.638 LS
125.919 114.638 LE
123.798 119.759 LS
128.041 115.516 LE
123.798 115.516 LS
128.041 119.759 LE
122.919 116.616 LS
128.919 116.616 LE
125.919 119.616 LS
125.919 113.616 LE
123.798 118.737 LS
128.041 114.494 LE
123.798 114.494 LS
128.041 118.737 LE
124.307 203.468 LS
130.307 203.468 LE
127.307 206.468 LS
127.307 200.468 LE
125.186 205.589 LS
129.429 201.347 LE
125.186 201.347 LS
129.429 205.589 LE
124.307 173.836 LS
130.307 173.836 LE
127.307 176.836 LS
127.307 170.836 LE
125.186 175.957 LS
129.429 171.715 LE
125.186 171.715 LS
129.429 175.957 LE
124.307 115.594 LS
130.307 115.594 LE
127.307 118.594 LS
127.307 112.594 LE
125.186 117.715 LS
129.429 113.473 LE
125.186 113.473 LS
129.429 117.715 LE
124.307 114.572 LS
130.307 114.572 LE
127.307 117.572 LS
127.307 111.572 LE
125.186 116.694 LS
129.429 112.451 LE
125.186 112.451 LS
129.429 116.694 LE
125.696 202.446 LS
131.696 202.446 LE
128.696 205.446 LS
128.696 199.446 LE
126.574 204.568 LS
130.817 200.325 LE
126.574 200.325 LS
130.817 204.568 LE
125.696 172.814 LS
131.696 172.814 LE
128.696 175.814 LS
128.696 169.814 LE
126.574 174.936 LS
130.817 170.693 LE
126.574 170.693 LS
130.817 174.936 LE
125.696 113.55 LS
131.696 113.55 LE
128.696 116.55 LS
128.696 110.55 LE
126.574 115.672 LS
130.817 111.429 LE
126.574 111.429 LS
130.817 115.672 LE
125.696 112.529 LS
131.696 112.529 LE
128.696 115.529 LS
128.696 109.529 LE
126.574 114.65 LS
130.817 110.407 LE
126.574 110.407 LS
130.817 114.65 LE
127.084 202.446 LS
133.084 202.446 LE
130.084 205.446 LS
130.084 199.446 LE
127.962 204.568 LS
132.205 200.325 LE
127.962 200.325 LS
132.205 204.568 LE
127.084 171.793 LS
133.084 171.793 LE
130.084 174.793 LS
130.084 168.793 LE
127.962 173.914 LS
132.205 169.671 LE
127.962 169.671 LS
132.205 173.914 LE
127.084 111.507 LS
133.084 111.507 LE
130.084 114.507 LS
130.084 108.507 LE
127.962 113.628 LS
132.205 109.386 LE
127.962 109.386 LS
132.205 113.628 LE
127.084 110.485 LS
133.084 110.485 LE
130.084 113.485 LS
130.084 107.485 LE
127.962 112.606 LS
132.205 108.364 LE
127.962 108.364 LS
132.205 112.606 LE
128.472 201.424 LS
134.472 201.424 LE
131.472 204.424 LS
131.472 198.424 LE
129.35 203.546 LS
133.593 199.303 LE
129.35 199.303 LS
133.593 203.546 LE
128.472 170.771 LS
134.472 170.771 LE
131.472 173.771 LS
131.472 167.771 LE
129.35 172.892 LS
133.593 168.649 LE
129.35 168.649 LS
133.593 172.892 LE
128.472 109.463 LS
134.472 109.463 LE
131.472 112.463 LS
131.472 106.463 LE
129.35 111.585 LS
133.593 107.342 LE
129.35 107.342 LS
133.593 111.585 LE
128.472 108.441 LS
134.472 108.441 LE
131.472 111.441 LS
131.472 105.441 LE
129.35 110.563 LS
133.593 106.32 LE
129.35 106.32 LS
133.593 110.563 LE
129.86 201.424 LS
135.86 201.424 LE
132.86 204.424 LS
132.86 198.424 LE
130.738 203.546 LS
134.981 199.303 LE
130.738 199.303 LS
134.981 203.546 LE
129.86 169.749 LS
135.86 169.749 LE
132.86 172.749 LS
132.86 166.749 LE
130.738 171.87 LS
134.981 167.628 LE
130.738 167.628 LS
134.981 171.87 LE
129.86 107.42 LS
135.86 107.42 LE
132.86 110.42 LS
132.86 104.42 LE
130.738 109.541 LS
134.981 105.298 LE
130.738 105.298 LS
134.981 109.541 LE
129.86 106.398 LS
135.86 106.398 LE
132.86 109.398 LS
132.86 103.398 LE
130.738 108.519 LS
134.981 104.277 LE
130.738 104.277 LS
134.981 108.519 LE
131.248 200.403 LS
137.248 200.403 LE
134.248 203.403 LS
134.248 197.403 LE
132.126 202.524 LS
136.369 198.281 LE
132.126 198.281 LS
136.369 202.524 LE
131.248 168.727 LS
137.248 168.727 LE
134.248 171.727 LS
134.248 165.727 LE
132.126 170.848 LS
136.369 166.606 LE
132.126 166.606 LS
136.369 170.848 LE
131.248 105.376 LS
137.248 105.376 LE
134.248 108.376 LS
134.248 102.376 LE
132.126 107.497 LS
136.369 103.255 LE
132.126 103.255 LS
136.369 107.497 LE
131.248 104.354 LS
137.248 104.354 LE
134.248 107.354 LS
134.248 101.354 LE
132.126 106.476 LS
136.369 102.233 LE
132.126 102.233 LS
136.369 106.476 LE
132.636 200.403 LS
138.636 200.403 LE
135.636 203.403 LS
135.636 197.403 LE
133.514 202.524 LS
137.757 198.281 LE
133.514 198.281 LS
137.757 202.524 LE
132.636 167.705 LS
138.636 167.705 LE
135.636 170.705 LS
135.636 164.705 LE
133.514 169.827 LS
137.757 165.584 LE
133.514 165.584 LS
137.757 169.827 LE
132.636 103.333 LS
138.636 103.333 LE
135.636 106.333 LS
135.636 100.333 LE
133.514 105.454 LS
137.757 101.211 LE
133.514 101.211 LS
137.757 105.454 LE
132.636 102.311 LS
138.636 102.311 LE
135.636 105.311 LS
135.636 99.3107 LE
133.514 104.432 LS
137.757 100.189 LE
133.514 100.189 LS
137.757 104.432 LE
134.024 199.381 LS
140.024 199.381 LE
137.024 202.381 LS
137.024 196.381 LE
134.903 201.502 LS
139.145 197.26 LE
134.903 197.26 LS
139.145 201.502 LE
134.024 166.684 LS
140.024 166.684 LE
137.024 169.684 LS
137.024 163.684 LE
134.903 168.805 LS
139.145 164.562 LE
134.903 164.562 LS
139.145 168.805 LE
134.024 101.289 LS
140.024 101.289 LE
137.024 104.289 LS
137.024 98.289 LE
134.903 103.41 LS
139.145 99.1676 LE
134.903 99.1676 LS
139.145 103.41 LE
134.024 100.267 LS
140.024 100.267 LE
137.024 103.267 LS
137.024 97.2672 LE
134.903 102.388 LS
139.145 98.1458 LE
134.903 98.1458 LS
139.145 102.388 LE
135.412 199.381 LS
141.412 199.381 LE
138.412 202.381 LS
138.412 196.381 LE
136.291 201.502 LS
140.533 197.26 LE
136.291 197.26 LS
140.533 201.502 LE
135.412 165.662 LS
141.412 165.662 LE
138.412 168.662 LS
138.412 162.662 LE
136.291 167.783 LS
140.533 163.54 LE
136.291 163.54 LS
140.533 167.783 LE
135.412 99.2454 LS
141.412 99.2454 LE
138.412 102.245 LS
138.412 96.2454 LE
136.291 101.367 LS
140.533 97.1241 LE
136.291 97.1241 LS
140.533 101.367 LE
135.412 98.2236 LS
141.412 98.2236 LE
138.412 101.224 LS
138.412 95.2236 LE
136.291 100.345 LS
140.533 96.1023 LE
136.291 96.1023 LS
140.533 100.345 LE
136.8 198.359 LS
142.8 198.359 LE
139.8 201.359 LS
139.8 195.359 LE
137.679 200.48 LS
141.921 196.238 LE
137.679 196.238 LS
141.921 200.48 LE
136.8 164.64 LS
142.8 164.64 LE
139.8 167.64 LS
139.8 161.64 LE
137.679 166.761 LS
141.921 162.519 LE
137.679 162.519 LS
141.921 166.761 LE
136.8 97.2018 LS
142.8 97.2018 LE
139.8 100.202 LS
139.8 94.2018 LE
137.679 99.3231 LS
141.921 95.0805 LE
137.679 95.0805 LS
141.921 99.3231 LE
136.8 96.18 LS
142.8 96.18 LE
139.8 99.18 LS
139.8 93.18 LE
137.679 98.3013 LS
141.921 94.0587 LE
137.679 94.0587 LS
141.921 98.3013 LE
138.188 198.359 LS
144.188 198.359 LE
141.188 201.359 LS
141.188 195.359 LE
139.067 200.48 LS
143.309 196.238 LE
139.067 196.238 LS
143.309 200.48 LE
138.188 163.618 LS
144.188 163.618 LE
141.188 166.618 LS
141.188 160.618 LE
139.067 165.74 LS
143.309 161.497 LE
139.067 161.497 LS
143.309 165.74 LE
138.188 95.1582 LS
144.188 95.1582 LE
141.188 98.1582 LS
141.188 92.1582 LE
139.067 97.2795 LS
143.309 93.0369 LE
139.067 93.0369 LS
143.309 97.2795 LE
138.188 94.1364 LS
144.188 94.1364 LE
141.188 97.1364 LS
141.188 91.1364 LE
139.067 96.2577 LS
143.309 92.0151 LE
139.067 92.0151 LS
143.309 96.2577 LE
139.576 197.337 LS
145.576 197.337 LE
142.576 200.337 LS
142.576 194.337 LE
140.455 199.459 LS
144.697 195.216 LE
140.455 195.216 LS
144.697 199.459 LE
139.576 162.596 LS
145.576 162.596 LE
142.576 165.596 LS
142.576 159.596 LE
140.455 164.718 LS
144.697 160.475 LE
140.455 160.475 LS
144.697 164.718 LE
139.576 93.1146 LS
145.576 93.1146 LE
142.576 96.1146 LS
142.576 90.1146 LE
140.455 95.2359 LS
144.697 90.9933 LE
140.455 90.9933 LS
144.697 95.2359 LE
139.576 92.0928 LS
145.576 92.0928 LE
142.576 95.0928 LS
142.576 89.0928 LE
140.455 94.2141 LS
144.697 89.9715 LE
140.455 89.9715 LS
144.697 94.2141 LE
140.964 197.337 LS
146.964 197.337 LE
143.964 200.337 LS
143.964 194.337 LE
141.843 199.459 LS
146.085 195.216 LE
141.843 195.216 LS
146.085 199.459 LE
140.964 161.575 LS
146.964 161.575 LE
143.964 164.575 LS
143.964 158.575 LE
141.843 163.696 LS
146.085 159.453 LE
141.843 159.453 LS
146.085 163.696 LE
140.964 91.071 LS
146.964 91.071 LE
143.964 94.071 LS
143.964 88.071 LE
141.843 93.1924 LS
146.085 88.9497 LE
141.843 88.9497 LS
146.085 93.1924 LE
140.964 90.0492 LS
146.964 90.0492 LE
143.964 93.0492 LS
143.964 87.0492 LE
141.843 92.1706 LS
146.085 87.9279 LE
141.843 87.9279 LS
146.085 92.1706 LE
142.352 196.316 LS
148.352 196.316 LE
145.352 199.316 LS
145.352 193.316 LE
143.231 198.437 LS
147.474 194.194 LE
143.231 194.194 LS
147.474 198.437 LE
142.352 160.553 LS
148.352 160.553 LE
145.352 163.553 LS
145.352 157.553 LE
143.231 162.674 LS
147.474 158.432 LE
143.231 158.432 LS
147.474 162.674 LE
142.352 89.0275 LS
148.352 89.0275 LE
145.352 92.0275 LS
145.352 86.0275 LE
143.231 91.1488 LS
147.474 86.9061 LE
143.231 86.9061 LS
147.474 91.1488 LE
142.352 88.0057 LS
148.352 88.0057 LE
145.352 91.0057 LS
145.352 85.0057 LE
143.231 90.127 LS
147.474 85.8844 LE
143.231 85.8844 LS
147.474 90.127 LE
143.74 196.316 LS
149.74 196.316 LE
146.74 199.316 LS
146.74 193.316 LE
144.619 198.437 LS
148.862 194.194 LE
144.619 194.194 LS
148.862 198.437 LE
143.74 159.531 LS
149.74 159.531 LE
146.74 162.531 LS
146.74 156.531 LE
144.619 161.652 LS
148.862 157.41 LE
144.619 157.41 LS
148.862 161.652 LE
143.74 86.9839 LS
149.74 86.9839 LE
146.74 89.9839 LS
146.74 83.9839 LE
144.619 89.1052 LS
148.862 84.8626 LE
144.619 84.8626 LS
148.862 89.1052 LE
143.74 85.9621 LS
149.74 85.9621 LE
146.74 88.9621 LS
146.74 82.9621 LE
144.619 88.0834 LS
148.862 83.8408 LE
144.619 83.8408 LS
148.862 88.0834 LE
145.128 195.294 LS
151.128 195.294 LE
148.128 198.294 LS
148.128 192.294 LE
146.007 197.415 LS
150.25 193.172 LE
146.007 193.172 LS
150.25 197.415 LE
145.128 158.509 LS
151.128 158.509 LE
148.128 161.509 LS
148.128 155.509 LE
146.007 160.631 LS
150.25 156.388 LE
146.007 156.388 LS
150.25 160.631 LE
145.128 84.9403 LS
151.128 84.9403 LE
148.128 87.9403 LS
148.128 81.9403 LE
146.007 87.0616 LS
150.25 82.819 LE
146.007 82.819 LS
150.25 87.0616 LE
145.128 83.9185 LS
151.128 83.9185 LE
148.128 86.9185 LS
148.128 80.9185 LE
146.007 86.0398 LS
150.25 81.7972 LE
146.007 81.7972 LS
150.25 86.0398 LE
146.516 195.294 LS
152.516 195.294 LE
149.516 198.294 LS
149.516 192.294 LE
147.395 197.415 LS
151.638 193.172 LE
147.395 193.172 LS
151.638 197.415 LE
146.516 157.487 LS
152.516 157.487 LE
149.516 160.487 LS
149.516 154.487 LE
147.395 159.609 LS
151.638 155.366 LE
147.395 155.366 LS
151.638 159.609 LE
146.516 82.8967 LS
152.516 82.8967 LE
149.516 85.8967 LS
149.516 79.8967 LE
147.395 85.018 LS
151.638 80.7754 LE
147.395 80.7754 LS
151.638 85.018 LE
146.516 81.8749 LS
152.516 81.8749 LE
149.516 84.8749 LS
149.516 78.8749 LE
147.395 83.9962 LS
151.638 79.7536 LE
147.395 79.7536 LS
151.638 83.9962 LE
147.904 194.272 LS
153.904 194.272 LE
150.904 197.272 LS
150.904 191.272 LE
148.783 196.393 LS
153.026 192.151 LE
148.783 192.151 LS
153.026 196.393 LE
147.904 156.466 LS
153.904 156.466 LE
150.904 159.466 LS
150.904 153.466 LE
148.783 158.587 LS
153.026 154.344 LE
148.783 154.344 LS
153.026 158.587 LE
147.904 80.8531 LS
153.904 80.8531 LE
150.904 83.8531 LS
150.904 77.8531 LE
148.783 82.9744 LS
153.026 78.7318 LE
148.783 78.7318 LS
153.026 82.9744 LE
147.904 79.8313 LS
153.904 79.8313 LE
150.904 82.8313 LS
150.904 76.8313 LE
148.783 81.9527 LS
153.026 77.71 LE
148.783 77.71 LS
153.026 81.9527 LE
149.293 194.272 LS
155.293 194.272 LE
152.293 197.272 LS
152.293 191.272 LE
150.171 196.393 LS
154.414 192.151 LE
150.171 192.151 LS
154.414 196.393 LE
149.293 155.444 LS
155.293 155.444 LE
152.293 158.444 LS
152.293 152.444 LE
150.171 157.565 LS
154.414 153.323 LE
150.171 153.323 LS
154.414 157.565 LE
149.293 78.8095 LS
155.293 78.8095 LE
152.293 81.8095 LS
152.293 75.8095 LE
150.171 80.9309 LS
154.414 76.6882 LE
150.171 76.6882 LS
154.414 80.9309 LE
149.293 77.7878 LS
155.293 77.7878 LE
152.293 80.7878 LS
152.293 74.7878 LE
150.171 79.9091 LS
154.414 75.6664 LE
150.171 75.6664 LS
154.414 79.9091 LE
150.681 193.25 LS
156.681 193.25 LE
153.681 196.25 LS
153.681 190.25 LE
151.559 195.371 LS
155.802 191.129 LE
151.559 191.129 LS
155.802 195.371 LE
150.681 154.422 LS
156.681 154.422 LE
153.681 157.422 LS
153.681 151.422 LE
151.559 156.543 LS
155.802 152.301 LE
151.559 152.301 LS
155.802 156.543 LE
150.681 76.766 LS
156.681 76.766 LE
153.681 79.766 LS
153.681 73.766 LE
151.559 78.8873 LS
155.802 74.6446 LE
151.559 74.6446 LS
155.802 78.8873 LE
150.681 75.7442 LS
156.681 75.7442 LE
153.681 78.7442 LS
153.681 72.7442 LE
151.559 77.8655 LS
155.802 73.6229 LE
151.559 73.6229 LS
155.802 77.8655 LE
152.069 193.25 LS
158.069 193.25 LE
155.069 196.25 LS
155.069 190.25 LE
152.947 195.371 LS
157.19 191.129 LE
152.947 191.129 LS
157.19 195.371 LE
152.069 153.4 LS
158.069 153.4 LE
155.069 156.4 LS
155.069 150.4 LE
152.947 155.522 LS
157.19 151.279 LE
152.947 151.279 LS
157.19 155.522 LE
152.069 74.7224 LS
158.069 74.7224 LE
155.069 77.7224 LS
155.069 71.7224 LE
152.947 76.8437 LS
157.19 72.6011 LE
152.947 72.6011 LS
157.19 76.8437 LE
152.069 73.7006 LS
158.069 73.7006 LE
155.069 76.7006 LS
155.069 70.7006 LE
152.947 75.8219 LS
157.19 71.5793 LE
152.947 71.5793 LS
157.19 75.8219 LE
153.457 192.228 LS
159.457 192.228 LE
156.457 195.228 LS
156.457 189.228 LE
154.335 194.35 LS
158.578 190.107 LE
154.335 190.107 LS
158.578 194.35 LE
153.457 152.379 LS
159.457 152.379 LE
156.457 155.379 LS
156.457 149.379 LE
154.335 154.5 LS
158.578 150.257 LE
154.335 150.257 LS
158.578 154.5 LE
153.457 72.6788 LS
159.457 72.6788 LE
156.457 75.6788 LS
156.457 69.6788 LE
154.335 74.8001 LS
158.578 70.5575 LE
154.335 70.5575 LS
158.578 74.8001 LE
153.457 71.657 LS
159.457 71.657 LE
156.457 74.657 LS
156.457 68.657 LE
154.335 73.7783 LS
158.578 69.5357 LE
154.335 69.5357 LS
158.578 73.7783 LE
154.845 192.228 LS
160.845 192.228 LE
157.845 195.228 LS
157.845 189.228 LE
155.723 194.35 LS
159.966 190.107 LE
155.723 190.107 LS
159.966 194.35 LE
154.845 151.357 LS
160.845 151.357 LE
157.845 154.357 LS
157.845 148.357 LE
155.723 153.478 LS
159.966 149.235 LE
155.723 149.235 LS
159.966 153.478 LE
154.845 70.6352 LS
160.845 70.6352 LE
157.845 73.6352 LS
157.845 67.6352 LE
155.723 72.7565 LS
159.966 68.5139 LE
155.723 68.5139 LS
159.966 72.7565 LE
154.845 69.6134 LS
160.845 69.6134 LE
157.845 72.6134 LS
157.845 66.6134 LE
155.723 71.7347 LS
159.966 67.4921 LE
155.723 67.4921 LS
159.966 71.7347 LE
156.233 191.207 LS
162.233 191.207 LE
159.233 194.207 LS
159.233 188.207 LE
157.112 193.328 LS
161.354 189.085 LE
157.112 189.085 LS
161.354 193.328 LE
156.233 150.335 LS
162.233 150.335 LE
159.233 153.335 LS
159.233 147.335 LE
157.112 152.456 LS
161.354 148.214 LE
157.112 148.214 LS
161.354 152.456 LE
156.233 68.5916 LS
162.233 68.5916 LE
159.233 71.5916 LS
159.233 65.5916 LE
157.112 70.713 LS
161.354 66.4703 LE
157.112 66.4703 LS
161.354 70.713 LE
156.233 67.5698 LS
162.233 67.5698 LE
159.233 70.5698 LS
159.233 64.5698 LE
157.112 69.6912 LS
161.354 65.4485 LE
157.112 65.4485 LS
161.354 69.6912 LE
157.621 191.207 LS
163.621 191.207 LE
160.621 194.207 LS
160.621 188.207 LE
158.5 193.328 LS
162.742 189.085 LE
158.5 189.085 LS
162.742 193.328 LE
157.621 149.313 LS
163.621 149.313 LE
160.621 152.313 LS
160.621 146.313 LE
158.5 151.434 LS
162.742 147.192 LE
158.5 147.192 LS
162.742 151.434 LE
157.621 66.548 LS
163.621 66.548 LE
160.621 69.548 LS
160.621 63.5481 LE
158.5 68.6694 LS
162.742 64.4267 LE
158.5 64.4267 LS
162.742 68.6694 LE
157.621 65.5263 LS
163.621 65.5263 LE
160.621 68.5263 LS
160.621 62.5263 LE
158.5 67.6476 LS
162.742 63.4049 LE
158.5 63.4049 LS
162.742 67.6476 LE
159.009 190.185 LS
165.009 190.185 LE
162.009 193.185 LS
162.009 187.185 LE
159.888 192.306 LS
164.13 188.063 LE
159.888 188.063 LS
164.13 192.306 LE
159.009 148.291 LS
165.009 148.291 LE
162.009 151.291 LS
162.009 145.291 LE
159.888 150.413 LS
164.13 146.17 LE
159.888 146.17 LS
164.13 150.413 LE
159.009 64.5045 LS
165.009 64.5045 LE
162.009 67.5045 LS
162.009 61.5045 LE
159.888 66.6258 LS
164.13 62.3831 LE
159.888 62.3831 LS
164.13 66.6258 LE
159.009 63.4827 LS
165.009 63.4827 LE
162.009 66.4827 LS
162.009 60.4827 LE
159.888 65.604 LS
164.13 61.3613 LE
159.888 61.3613 LS
164.13 65.604 LE
160.397 190.185 LS
166.397 190.185 LE
163.397 193.185 LS
163.397 187.185 LE
161.276 192.306 LS
165.518 188.063 LE
161.276 188.063 LS
165.518 192.306 LE
160.397 147.27 LS
166.397 147.27 LE
163.397 150.27 LS
163.397 144.27 LE
161.276 149.391 LS
165.518 145.148 LE
161.276 145.148 LS
165.518 149.391 LE
160.397 62.4609 LS
166.397 62.4609 LE
163.397 65.4609 LS
163.397 59.4609 LE
161.276 64.5822 LS
165.518 60.3396 LE
161.276 60.3396 LS
165.518 64.5822 LE
160.397 61.4391 LS
166.397 61.4391 LE
163.397 64.4391 LS
163.397 58.4391 LE
161.276 63.5604 LS
165.518 59.3178 LE
161.276 59.3178 LS
165.518 63.5604 LE
161.785 189.163 LS
167.785 189.163 LE
164.785 192.163 LS
164.785 186.163 LE
162.664 191.284 LS
166.906 187.042 LE
162.664 187.042 LS
166.906 191.284 LE
161.785 146.248 LS
167.785 146.248 LE
164.785 149.248 LS
164.785 143.248 LE
162.664 148.369 LS
166.906 144.126 LE
162.664 144.126 LS
166.906 148.369 LE
161.785 60.4173 LS
167.785 60.4173 LE
164.785 63.4173 LS
164.785 57.4173 LE
162.664 62.5386 LS
166.906 58.296 LE
162.664 58.296 LS
166.906 62.5386 LE
161.785 59.3955 LS
167.785 59.3955 LE
164.785 62.3955 LS
164.785 56.3955 LE
162.664 61.5168 LS
166.906 57.2742 LE
162.664 57.2742 LS
166.906 61.5168 LE
163.173 189.163 LS
169.173 189.163 LE
166.173 192.163 LS
166.173 186.163 LE
164.052 191.284 LS
168.294 187.042 LE
164.052 187.042 LS
168.294 191.284 LE
163.173 145.226 LS
169.173 145.226 LE
166.173 148.226 LS
166.173 142.226 LE
164.052 147.347 LS
168.294 143.105 LE
164.052 143.105 LS
168.294 147.347 LE
163.173 58.3737 LS
169.173 58.3737 LE
166.173 61.3737 LS
166.173 55.3737 LE
164.052 60.495 LS
168.294 56.2524 LE
164.052 56.2524 LS
168.294 60.495 LE
163.173 57.3519 LS
169.173 57.3519 LE
166.173 60.3519 LS
166.173 54.3519 LE
164.052 59.4733 LS
168.294 55.2306 LE
164.052 55.2306 LS
168.294 59.4733 LE
164.561 188.141 LS
170.561 188.141 LE
167.561 191.141 LS
167.561 185.141 LE
165.44 190.263 LS
169.683 186.02 LE
165.44 186.02 LS
169.683 190.263 LE
164.561 144.204 LS
170.561 144.204 LE
167.561 147.204 LS
167.561 141.204 LE
165.44 146.325 LS
169.683 142.083 LE
165.44 142.083 LS
169.683 146.325 LE
164.561 56.3301 LS
170.561 56.3301 LE
167.561 59.3301 LS
167.561 53.3301 LE
165.44 58.4515 LS
169.683 54.2088 LE
165.44 54.2088 LS
169.683 58.4515 LE
164.561 55.3084 LS
170.561 55.3084 LE
167.561 58.3084 LS
167.561 52.3083 LE
165.44 57.4297 LS
169.683 53.187 LE
165.44 53.187 LS
169.683 57.4297 LE
165.949 188.141 LS
171.949 188.141 LE
168.949 191.141 LS
168.949 185.141 LE
166.828 190.263 LS
171.071 186.02 LE
166.828 186.02 LS
171.071 190.263 LE
165.949 143.182 LS
171.949 143.182 LE
168.949 146.182 LS
168.949 140.182 LE
166.828 145.304 LS
171.071 141.061 LE
166.828 141.061 LS
171.071 145.304 LE
165.949 54.2865 LS
171.949 54.2865 LE
168.949 57.2866 LS
168.949 51.2865 LE
166.828 56.4079 LS
171.071 52.1652 LE
166.828 52.1652 LS
171.071 56.4079 LE
165.949 53.2648 LS
171.949 53.2648 LE
168.949 56.2648 LS
168.949 50.2648 LE
166.828 55.3861 LS
171.071 51.1434 LE
166.828 51.1434 LS
171.071 55.3861 LE
167.337 187.119 LS
173.337 187.119 LE
170.337 190.119 LS
170.337 184.119 LE
168.216 189.241 LS
172.459 184.998 LE
168.216 184.998 LS
172.459 189.241 LE
167.337 142.161 LS
173.337 142.161 LE
170.337 145.161 LS
170.337 139.161 LE
168.216 144.282 LS
172.459 140.039 LE
168.216 140.039 LS
172.459 144.282 LE
167.337 52.243 LS
173.337 52.243 LE
170.337 55.243 LS
170.337 49.243 LE
168.216 54.3643 LS
172.459 50.1216 LE
168.216 50.1216 LS
172.459 54.3643 LE
167.337 51.2212 LS
173.337 51.2212 LE
170.337 54.2212 LS
170.337 48.2212 LE
168.216 53.3425 LS
172.459 49.0999 LE
168.216 49.0999 LS
172.459 53.3425 LE
168.725 187.119 LS
174.725 187.119 LE
171.725 190.119 LS
171.725 184.119 LE
169.604 189.241 LS
173.847 184.998 LE
169.604 184.998 LS
173.847 189.241 LE
168.725 141.139 LS
174.725 141.139 LE
171.725 144.139 LS
171.725 138.139 LE
169.604 143.26 LS
173.847 139.017 LE
169.604 139.017 LS
173.847 143.26 LE
168.725 50.1994 LS
174.725 50.1994 LE
171.725 53.1994 LS
171.725 47.1994 LE
169.604 52.3207 LS
173.847 48.0781 LE
169.604 48.0781 LS
173.847 52.3207 LE
168.725 49.1776 LS
174.725 49.1776 LE
171.725 52.1776 LS
171.725 46.1776 LE
169.604 51.2989 LS
173.847 47.0563 LE
169.604 47.0563 LS
173.847 51.2989 LE
170.113 186.098 LS
176.113 186.098 LE
173.113 189.098 LS
173.113 183.098 LE
170.992 188.219 LS
175.235 183.976 LE
170.992 183.976 LS
175.235 188.219 LE
170.113 140.117 LS
176.113 140.117 LE
173.113 143.117 LS
173.113 137.117 LE
170.992 142.238 LS
175.235 137.996 LE
170.992 137.996 LS
175.235 142.238 LE
170.113 48.1558 LS
176.113 48.1558 LE
173.113 51.1558 LS
173.113 45.1558 LE
170.992 50.2771 LS
175.235 46.0345 LE
170.992 46.0345 LS
175.235 50.2771 LE
170.113 47.134 LS
176.113 47.134 LE
173.113 50.134 LS
173.113 44.134 LE
170.992 49.2553 LS
175.235 45.0127 LE
170.992 45.0127 LS
175.235 49.2553 LE
171.502 186.098 LS
177.502 186.098 LE
174.502 189.098 LS
174.502 183.098 LE
172.38 188.219 LS
176.623 183.976 LE
172.38 183.976 LS
176.623 188.219 LE
171.502 139.095 LS
177.502 139.095 LE
174.502 142.095 LS
174.502 136.095 LE
172.38 141.217 LS
176.623 136.974 LE
172.38 136.974 LS
176.623 141.217 LE
171.502 46.1122 LS
177.502 46.1122 LE
174.502 49.1122 LS
174.502 43.1122 LE
172.38 48.2336 LS
176.623 43.9909 LE
172.38 43.9909 LS
176.623 48.2336 LE
171.502 45.0904 LS
177.502 45.0904 LE
174.502 48.0905 LS
174.502 42.0904 LE
172.38 47.2118 LS
176.623 42.9691 LE
172.38 42.9691 LS
176.623 47.2118 LE
172.89 185.076 LS
178.89 185.076 LE
175.89 188.076 LS
175.89 182.076 LE
173.768 187.197 LS
178.011 182.954 LE
173.768 182.954 LS
178.011 187.197 LE
172.89 138.073 LS
178.89 138.073 LE
175.89 141.073 LS
175.89 135.073 LE
173.768 140.195 LS
178.011 135.952 LE
173.768 135.952 LS
178.011 140.195 LE
172.89 44.0686 LS
178.89 44.0686 LE
175.89 47.0686 LS
175.89 41.0686 LE
173.768 46.19 LS
178.011 41.9473 LE
173.768 41.9473 LS
178.011 46.19 LE
172.89 43.0468 LS
178.89 43.0468 LE
175.89 46.0469 LS
175.89 40.0468 LE
173.768 45.1682 LS
178.011 40.9255 LE
173.768 40.9255 LS
178.011 45.1682 LE
174.278 185.076 LS
180.278 185.076 LE
177.278 188.076 LS
177.278 182.076 LE
175.156 187.197 LS
179.399 182.954 LE
175.156 182.954 LS
179.399 187.197 LE
174.278 137.052 LS
180.278 137.052 LE
177.278 140.052 LS
177.278 134.052 LE
175.156 139.173 LS
179.399 134.93 LE
175.156 134.93 LS
179.399 139.173 LE
174.278 42.0251 LS
180.278 42.0251 LE
177.278 45.0251 LS
177.278 39.0251 LE
175.156 44.1464 LS
179.399 39.9037 LE
175.156 39.9037 LS
179.399 44.1464 LE
174.278 41.0033 LS
180.278 41.0033 LE
177.278 44.0033 LS
177.278 38.0033 LE
175.156 43.1246 LS
179.399 38.882 LE
175.156 38.882 LS
179.399 43.1246 LE
175.666 184.054 LS
181.666 184.054 LE
178.666 187.054 LS
178.666 181.054 LE
176.544 186.175 LS
180.787 181.933 LE
176.544 181.933 LS
180.787 186.175 LE
175.666 136.03 LS
181.666 136.03 LE
178.666 139.03 LS
178.666 133.03 LE
176.544 138.151 LS
180.787 133.909 LE
176.544 133.909 LS
180.787 138.151 LE
175.666 39.9815 LS
181.666 39.9815 LE
178.666 42.9815 LS
178.666 36.9815 LE
176.544 42.1028 LS
180.787 37.8602 LE
176.544 37.8602 LS
180.787 42.1028 LE
175.666 38.9597 LS
181.666 38.9597 LE
178.666 41.9597 LS
178.666 35.9597 LE
176.544 41.081 LS
180.787 36.8384 LE
176.544 36.8384 LS
180.787 41.081 LE
177.054 184.054 LS
183.054 184.054 LE
180.054 187.054 LS
180.054 181.054 LE
177.932 186.175 LS
182.175 181.933 LE
177.932 181.933 LS
182.175 186.175 LE
177.054 135.008 LS
183.054 135.008 LE
180.054 138.008 LS
180.054 132.008 LE
177.932 137.129 LS
182.175 132.887 LE
177.932 132.887 LS
182.175 137.129 LE
177.054 37.9379 LS
183.054 37.9379 LE
180.054 40.9379 LS
180.054 34.9379 LE
177.932 40.0592 LS
182.175 35.8166 LE
177.932 35.8166 LS
182.175 40.0592 LE
177.054 36.9161 LS
183.054 36.9161 LE
180.054 39.9161 LS
180.054 33.9161 LE
177.932 39.0374 LS
182.175 34.7948 LE
177.932 34.7948 LS
182.175 39.0374 LE
178.442 183.032 LS
184.442 183.032 LE
181.442 186.032 LS
181.442 180.032 LE
179.32 185.154 LS
183.563 180.911 LE
179.32 180.911 LS
183.563 185.154 LE
178.442 133.986 LS
184.442 133.986 LE
181.442 136.986 LS
181.442 130.986 LE
179.32 136.108 LS
183.563 131.865 LE
179.32 131.865 LS
183.563 136.108 LE
178.442 35.8943 LS
184.442 35.8943 LE
181.442 38.8943 LS
181.442 32.8943 LE
179.32 38.0156 LS
183.563 33.773 LE
179.32 33.773 LS
183.563 38.0156 LE
178.442 34.8725 LS
184.442 34.8725 LE
181.442 37.8725 LS
181.442 31.8725 LE
179.32 36.9938 LS
183.563 32.7512 LE
179.32 32.7512 LS
183.563 36.9938 LE
179.83 183.032 LS
185.83 183.032 LE
182.83 186.032 LS
182.83 180.032 LE
180.709 185.154 LS
184.951 180.911 LE
180.709 180.911 LS
184.951 185.154 LE
179.83 132.964 LS
185.83 132.964 LE
182.83 135.964 LS
182.83 129.964 LE
180.709 135.086 LS
184.951 130.843 LE
180.709 130.843 LS
184.951 135.086 LE
179.83 33.8507 LS
185.83 33.8507 LE
182.83 36.8507 LS
182.83 30.8507 LE
180.709 35.9721 LS
184.951 31.7294 LE
180.709 31.7294 LS
184.951 35.9721 LE
179.83 32.8289 LS
185.83 32.8289 LE
182.83 35.8289 LS
182.83 29.8289 LE
180.709 34.9503 LS
184.951 30.7076 LE
180.709 30.7076 LS
184.951 34.9503 LE
181.218 182.01 LS
187.218 182.01 LE
184.218 185.01 LS
184.218 179.01 LE
182.097 184.132 LS
186.339 179.889 LE
182.097 179.889 LS
186.339 184.132 LE
181.218 131.943 LS
187.218 131.943 LE
184.218 134.943 LS
184.218 128.943 LE
182.097 134.064 LS
186.339 129.821 LE
182.097 129.821 LS
186.339 134.064 LE
181.218 31.8072 LS
187.218 31.8072 LE
184.218 34.8072 LS
184.218 28.8071 LE
182.097 33.9285 LS
186.339 29.6858 LE
182.097 29.6858 LS
186.339 33.9285 LE
181.218 30.7854 LS
187.218 30.7854 LE
184.218 33.7854 LS
184.218 27.7854 LE
182.097 32.9067 LS
186.339 28.664 LE
182.097 28.664 LS
186.339 32.9067 LE
182.606 182.01 LS
188.606 182.01 LE
185.606 185.01 LS
185.606 179.01 LE
183.485 184.132 LS
187.727 179.889 LE
183.485 179.889 LS
187.727 184.132 LE
182.606 130.921 LS
188.606 130.921 LE
185.606 133.921 LS
185.606 127.921 LE
183.485 133.042 LS
187.727 128.8 LE
183.485 128.8 LS
187.727 133.042 LE
182.606 29.7636 LS
188.606 29.7636 LE
185.606 32.7636 LS
185.606 26.7636 LE
183.485 31.8849 LS
187.727 27.6423 LE
183.485 27.6423 LS
187.727 31.8849 LE
182.606 28.7418 LS
188.606 28.7418 LE
185.606 31.7418 LS
185.606 25.7418 LE
183.485 30.8631 LS
187.727 26.6205 LE
183.485 26.6205 LS
187.727 30.8631 LE
183.994 180.989 LS
189.994 180.989 LE
186.994 183.989 LS
186.994 177.989 LE
184.873 183.11 LS
189.115 178.867 LE
184.873 178.867 LS
189.115 183.11 LE
183.994 129.899 LS
189.994 129.899 LE
186.994 132.899 LS
186.994 126.899 LE
184.873 132.02 LS
189.115 127.778 LE
184.873 127.778 LS
189.115 132.02 LE
185.382 180.989 LS
191.382 180.989 LE
188.382 183.989 LS
188.382 177.989 LE
186.261 183.11 LS
190.503 178.867 LE
186.261 178.867 LS
190.503 183.11 LE
185.382 128.877 LS
191.382 128.877 LE
188.382 131.877 LS
188.382 125.877 LE
186.261 130.999 LS
190.503 126.756 LE
186.261 126.756 LS
190.503 130.999 LE
186.77 179.967 LS
192.77 179.967 LE
189.77 182.967 LS
189.77 176.967 LE
187.649 182.088 LS
191.891 177.846 LE
187.649 177.846 LS
191.891 182.088 LE
186.77 127.856 LS
192.77 127.856 LE
189.77 130.856 LS
189.77 124.856 LE
187.649 129.977 LS
191.891 125.734 LE
187.649 125.734 LS
191.891 129.977 LE
188.158 179.967 LS
194.158 179.967 LE
191.158 182.967 LS
191.158 176.967 LE
189.037 182.088 LS
193.28 177.846 LE
189.037 177.846 LS
193.28 182.088 LE
188.158 126.834 LS
194.158 126.834 LE
191.158 129.834 LS
191.158 123.834 LE
189.037 128.955 LS
193.28 124.712 LE
189.037 124.712 LS
193.28 128.955 LE
189.546 178.945 LS
195.546 178.945 LE
192.546 181.945 LS
192.546 175.945 LE
190.425 181.066 LS
194.668 176.824 LE
190.425 176.824 LS
194.668 181.066 LE
189.546 125.812 LS
195.546 125.812 LE
192.546 128.812 LS
192.546 122.812 LE
190.425 127.933 LS
194.668 123.691 LE
190.425 123.691 LS
194.668 127.933 LE
190.934 178.945 LS
196.934 178.945 LE
193.934 181.945 LS
193.934 175.945 LE
191.813 181.066 LS
196.056 176.824 LE
191.813 176.824 LS
196.056 181.066 LE
190.934 124.79 LS
196.934 124.79 LE
193.934 127.79 LS
193.934 121.79 LE
191.813 126.911 LS
196.056 122.669 LE
191.813 122.669 LS
196.056 126.911 LE
192.322 177.923 LS
198.322 177.923 LE
195.322 180.923 LS
195.322 174.923 LE
193.201 180.045 LS
197.444 175.802 LE
193.201 175.802 LS
197.444 180.045 LE
192.322 123.768 LS
198.322 123.768 LE
195.322 126.768 LS
195.322 120.768 LE
193.201 125.89 LS
197.444 121.647 LE
193.201 121.647 LS
197.444 125.89 LE
193.71 177.923 LS
199.71 177.923 LE
196.71 180.923 LS
196.71 174.923 LE
194.589 180.045 LS
198.832 175.802 LE
194.589 175.802 LS
198.832 180.045 LE
193.71 122.747 LS
199.71 122.747 LE
196.71 125.747 LS
196.71 119.747 LE
194.589 124.868 LS
198.832 120.625 LE
194.589 120.625 LS
198.832 124.868 LE
195.099 176.901 LS
201.099 176.901 LE
198.099 179.901 LS
198.099 173.901 LE
195.977 179.023 LS
200.22 174.78 LE
195.977 174.78 LS
200.22 179.023 LE
195.099 121.725 LS
201.099 121.725 LE
198.099 124.725 LS
198.099 118.725 LE
195.977 123.846 LS
200.22 119.603 LE
195.977 119.603 LS
200.22 123.846 LE
196.487 176.901 LS
202.487 176.901 LE
199.487 179.901 LS
199.487 173.901 LE
197.365 179.023 LS
201.608 174.78 LE
197.365 174.78 LS
201.608 179.023 LE
196.487 120.703 LS
202.487 120.703 LE
199.487 123.703 LS
199.487 117.703 LE
197.365 122.824 LS
201.608 118.582 LE
197.365 118.582 LS
201.608 122.824 LE
197.875 175.88 LS
203.875 175.88 LE
200.875 178.88 LS
200.875 172.88 LE
198.753 178.001 LS
202.996 173.758 LE
198.753 173.758 LS
202.996 178.001 LE
197.875 119.681 LS
203.875 119.681 LE
200.875 122.681 LS
200.875 116.681 LE
198.753 121.803 LS
202.996 117.56 LE
198.753 117.56 LS
202.996 121.803 LE
199.263 175.88 LS
205.263 175.88 LE
202.263 178.88 LS
202.263 172.88 LE
200.141 178.001 LS
204.384 173.758 LE
200.141 173.758 LS
204.384 178.001 LE
199.263 118.659 LS
205.263 118.659 LE
202.263 121.659 LS
202.263 115.659 LE
200.141 120.781 LS
204.384 116.538 LE
200.141 116.538 LS
204.384 120.781 LE
200.651 174.858 LS
206.651 174.858 LE
203.651 177.858 LS
203.651 171.858 LE
201.529 176.979 LS
205.772 172.737 LE
201.529 172.737 LS
205.772 176.979 LE
200.651 117.638 LS
206.651 117.638 LE
203.651 120.638 LS
203.651 114.638 LE
201.529 119.759 LS
205.772 115.516 LE
201.529 115.516 LS
205.772 119.759 LE
202.039 174.858 LS
208.039 174.858 LE
205.039 177.858 LS
205.039 171.858 LE
202.917 176.979 LS
207.16 172.737 LE
202.917 172.737 LS
207.16 176.979 LE
202.039 116.616 LS
208.039 116.616 LE
205.039 119.616 LS
205.039 113.616 LE
202.917 118.737 LS
207.16 114.494 LE
202.917 114.494 LS
207.16 118.737 LE
203.427 173.836 LS
209.427 173.836 LE
206.427 176.836 LS
206.427 170.836 LE
204.306 175.957 LS
208.548 171.715 LE
204.306 171.715 LS
208.548 175.957 LE
203.427 115.594 LS
209.427 115.594 LE
206.427 118.594 LS
206.427 112.594 LE
204.306 117.715 LS
208.548 113.473 LE
204.306 113.473 LS
208.548 117.715 LE
204.815 173.836 LS
210.815 173.836 LE
207.815 176.836 LS
207.815 170.836 LE
205.694 175.957 LS
209.936 171.715 LE
205.694 171.715 LS
209.936 175.957 LE
204.815 114.572 LS
210.815 114.572 LE
207.815 117.572 LS
207.815 111.572 LE
205.694 116.694 LS
209.936 112.451 LE
205.694 112.451 LS
209.936 116.694 LE
206.203 172.814 LS
212.203 172.814 LE
209.203 175.814 LS
209.203 169.814 LE
207.082 174.936 LS
211.324 170.693 LE
207.082 170.693 LS
211.324 174.936 LE
206.203 113.55 LS
212.203 113.55 LE
209.203 116.55 LS
209.203 110.55 LE
207.082 115.672 LS
211.324 111.429 LE
207.082 111.429 LS
211.324 115.672 LE
207.591 172.814 LS
213.591 172.814 LE
210.591 175.814 LS
210.591 169.814 LE
208.47 174.936 LS
212.712 170.693 LE
208.47 170.693 LS
212.712 174.936 LE
207.591 112.529 LS
213.591 112.529 LE
210.591 115.529 LS
210.591 109.529 LE
208.47 114.65 LS
212.712 110.407 LE
208.47 110.407 LS
212.712 114.65 LE
208.979 171.793 LS
214.979 171.793 LE
211.979 174.793 LS
211.979 168.793 LE
209.858 173.914 LS
214.1 169.671 LE
209.858 169.671 LS
214.1 173.914 LE
208.979 111.507 LS
214.979 111.507 LE
211.979 114.507 LS
211.979 108.507 LE
209.858 113.628 LS
214.1 109.386 LE
209.858 109.386 LS
214.1 113.628 LE
210.367 171.793 LS
216.367 171.793 LE
213.367 174.793 LS
213.367 168.793 LE
211.246 173.914 LS
215.488 169.671 LE
211.246 169.671 LS
215.488 173.914 LE
210.367 110.485 LS
216.367 110.485 LE
213.367 113.485 LS
213.367 107.485 LE
211.246 112.606 LS
215.488 108.364 LE
211.246 108.364 LS
215.488 112.606 LE
211.755 170.771 LS
217.755 170.771 LE
214.755 173.771 LS
214.755 167.771 LE
212.634 172.892 LS
216.877 168.649 LE
212.634 168.649 LS
216.877 172.892 LE
211.755 109.463 LS
217.755 109.463 LE
214.755 112.463 LS
214.755 106.463 LE
212.634 111.585 LS
216.877 107.342 LE
212.634 107.342 LS
216.877 111.585 LE
213.143 170.771 LS
219.143 170.771 LE
216.143 173.771 LS
216.143 167.771 LE
214.022 172.892 LS
218.265 168.649 LE
214.022 168.649 LS
218.265 172.892 LE
213.143 108.441 LS
219.143 108.441 LE
216.143 111.441 LS
216.143 105.441 LE
214.022 110.563 LS
218.265 106.32 LE
214.022 106.32 LS
218.265 110.563 LE
214.531 169.749 LS
220.531 169.749 LE
217.531 172.749 LS
217.531 166.749 LE
215.41 171.87 LS
219.653 167.628 LE
215.41 167.628 LS
219.653 171.87 LE
214.531 107.42 LS
220.531 107.42 LE
217.531 110.42 LS
217.531 104.42 LE
215.41 109.541 LS
219.653 105.298 LE
215.41 105.298 LS
219.653 109.541 LE
215.919 169.749 LS
221.919 169.749 LE
218.919 172.749 LS
218.919 166.749 LE
216.798 171.87 LS
221.041 167.628 LE
216.798 167.628 LS
221.041 171.87 LE
215.919 106.398 LS
221.919 106.398 LE
218.919 109.398 LS
218.919 103.398 LE
216.798 108.519 LS
221.041 104.277 LE
216.798 104.277 LS
221.041 108.519 LE
217.307 168.727 LS
223.307 168.727 LE
220.307 171.727 LS
220.307 165.727 LE
218.186 170.848 LS
222.429 166.606 LE
218.186 166.606 LS
222.429 170.848 LE
217.307 105.376 LS
223.307 105.376 LE
220.307 108.376 LS
220.307 102.376 LE
218.186 107.497 LS
222.429 103.255 LE
218.186 103.255 LS
222.429 107.497 LE
218.696 168.727 LS
224.696 168.727 LE
221.696 171.727 LS
221.696 165.727 LE
219.574 170.848 LS
223.817 166.606 LE
219.574 166.606 LS
223.817 170.848 LE
218.696 104.354 LS
224.696 104.354 LE
221.696 107.354 LS
221.696 101.354 LE
219.574 106.476 LS
223.817 102.233 LE
219.574 102.233 LS
223.817 106.476 LE
220.084 167.705 LS
226.084 167.705 LE
223.084 170.705 LS
223.084 164.705 LE
220.962 169.827 LS
225.205 165.584 LE
220.962 165.584 LS
225.205 169.827 LE
220.084 103.333 LS
226.084 103.333 LE
223.084 106.333 LS
223.084 100.333 LE
220.962 105.454 LS
225.205 101.211 LE
220.962 101.211 LS
225.205 105.454 LE
221.472 167.705 LS
227.472 167.705 LE
224.472 170.705 LS
224.472 164.705 LE
222.35 169.827 LS
226.593 165.584 LE
222.35 165.584 LS
226.593 169.827 LE
221.472 102.311 LS
227.472 102.311 LE
224.472 105.311 LS
224.472 99.3107 LE
222.35 104.432 LS
226.593 100.189 LE
222.35 100.189 LS
226.593 104.432 LE
222.86 166.684 LS
228.86 166.684 LE
225.86 169.684 LS
225.86 163.684 LE
223.738 168.805 LS
227.981 164.562 LE
223.738 164.562 LS
227.981 168.805 LE
222.86 101.289 LS
228.86 101.289 LE
225.86 104.289 LS
225.86 98.289 LE
223.738 103.41 LS
227.981 99.1676 LE
223.738 99.1676 LS
227.981 103.41 LE
224.248 166.684 LS
230.248 166.684 LE
227.248 169.684 LS
227.248 163.684 LE
225.126 168.805 LS
229.369 164.562 LE
225.126 164.562 LS
229.369 168.805 LE
224.248 100.267 LS
230.248 100.267 LE
227.248 103.267 LS
227.248 97.2672 LE
225.126 102.388 LS
229.369 98.1458 LE
225.126 98.1458 LS
229.369 102.388 LE
225.636 165.662 LS
231.636 165.662 LE
228.636 168.662 LS
228.636 162.662 LE
226.515 167.783 LS
230.757 163.54 LE
226.515 163.54 LS
230.757 167.783 LE
225.636 99.2454 LS
231.636 99.2454 LE
228.636 102.245 LS
228.636 96.2454 LE
226.515 101.367 LS
230.757 97.1241 LE
226.515 97.1241 LS
230.757 101.367 LE
227.024 165.662 LS
233.024 165.662 LE
230.024 168.662 LS
230.024 162.662 LE
227.903 167.783 LS
232.145 163.54 LE
227.903 163.54 LS
232.145 167.783 LE
227.024 98.2236 LS
233.024 98.2236 LE
230.024 101.224 LS
230.024 95.2236 LE
227.903 100.345 LS
232.145 96.1023 LE
227.903 96.1023 LS
232.145 100.345 LE
228.412 164.64 LS
234.412 164.64 LE
231.412 167.64 LS
231.412 161.64 LE
229.291 166.761 LS
233.533 162.519 LE
229.291 162.519 LS
233.533 166.761 LE
228.412 97.2018 LS
234.412 97.2018 LE
231.412 100.202 LS
231.412 94.2018 LE
229.291 99.3231 LS
233.533 95.0805 LE
229.291 95.0805 LS
233.533 99.3231 LE
229.8 164.64 LS
235.8 164.64 LE
232.8 167.64 LS
232.8 161.64 LE
230.679 166.761 LS
234.921 162.519 LE
230.679 162.519 LS
234.921 166.761 LE
229.8 96.18 LS
235.8 96.18 LE
232.8 99.18 LS
232.8 93.18 LE
230.679 98.3013 LS
234.921 94.0587 LE
230.679 94.0587 LS
234.921 98.3013 LE
231.188 163.618 LS
237.188 163.618 LE
234.188 166.618 LS
234.188 160.618 LE
232.067 165.74 LS
236.309 161.497 LE
232.067 161.497 LS
236.309 165.74 LE
231.188 95.1582 LS
237.188 95.1582 LE
234.188 98.1582 LS
234.188 92.1582 LE
232.067 97.2795 LS
236.309 93.0369 LE
232.067 93.0369 LS
236.309 97.2795 LE
232.576 163.618 LS
238.576 163.618 LE
235.576 166.618 LS
235.576 160.618 LE
233.455 165.74 LS
237.697 161.497 LE
233.455 161.497 LS
237.697 165.74 LE
232.576 94.1364 LS
238.576 94.1364 LE
235.576 97.1364 LS
235.576 91.1364 LE
233.455 96.2577 LS
237.697 92.0151 LE
233.455 92.0151 LS
237.697 96.2577 LE
233.964 162.596 LS
239.964 162.596 LE
236.964 165.596 LS
236.964 159.596 LE
234.843 164.718 LS
239.085 160.475 LE
234.843 160.475 LS
239.085 164.718 LE
233.964 93.1146 LS
239.964 93.1146 LE
236.964 96.1146 LS
236.964 90.1146 LE
234.843 95.2359 LS
239.085 90.9933 LE
234.843 90.9933 LS
239.085 95.2359 LE
235.352 162.596 LS
241.352 162.596 LE
238.352 165.596 LS
238.352 159.596 LE
236.231 164.718 LS
240.474 160.475 LE
236.231 160.475 LS
240.474 164.718 LE
235.352 92.0928 LS
241.352 92.0928 LE
238.352 95.0928 LS
238.352 89.0928 LE
236.231 94.2141 LS
240.474 89.9715 LE
236.231 89.9715 LS
240.474 94.2141 LE
236.74 161.575 LS
242.74 161.575 LE
239.74 164.575 LS
239.74 158.575 LE
237.619 163.696 LS
241.862 159.453 LE
237.619 159.453 LS
241.862 163.696 LE
236.74 91.071 LS
242.74 91.071 LE
239.74 94.071 LS
239.74 88.071 LE
237.619 93.1924 LS
241.862 88.9497 LE
237.619 88.9497 LS
241.862 93.1924 LE
238.128 161.575 LS
244.128 161.575 LE
241.128 164.575 LS
241.128 158.575 LE
239.007 163.696 LS
243.25 159.453 LE
239.007 159.453 LS
243.25 163.696 LE
238.128 90.0492 LS
244.128 90.0492 LE
241.128 93.0492 LS
241.128 87.0492 LE
239.007 92.1706 LS
243.25 87.9279 LE
239.007 87.9279 LS
243.25 92.1706 LE
239.516 160.553 LS
245.516 160.553 LE
242.516 163.553 LS
242.516 157.553 LE
240.395 162.674 LS
244.638 158.432 LE
240.395 158.432 LS
244.638 162.674 LE
239.516 89.0275 LS
245.516 89.0275 LE
242.516 92.0275 LS
242.516 86.0275 LE
240.395 91.1488 LS
244.638 86.9061 LE
240.395 86.9061 LS
244.638 91.1488 LE
240.904 160.553 LS
246.904 160.553 LE
243.904 163.553 LS
243.904 157.553 LE
241.783 162.674 LS
246.026 158.432 LE
241.783 158.432 LS
246.026 162.674 LE
240.904 88.0057 LS
246.904 88.0057 LE
243.904 91.0057 LS
243.904 85.0057 LE
241.783 90.127 LS
246.026 85.8844 LE
241.783 85.8844 LS
246.026 90.127 LE
242.293 159.531 LS
248.293 159.531 LE
245.293 162.531 LS
245.293 156.531 LE
243.171 161.652 LS
247.414 157.41 LE
243.171 157.41 LS
247.414 161.652 LE
242.293 86.9839 LS
248.293 86.9839 LE
245.293 89.9839 LS
245.293 83.9839 LE
243.171 89.1052 LS
247.414 84.8626 LE
243.171 84.8626 LS
247.414 89.1052 LE
243.681 159.531 LS
249.681 159.531 LE
246.681 162.531 LS
246.681 156.531 LE
244.559 161.652 LS
248.802 157.41 LE
244.559 157.41 LS
248.802 161.652 LE
243.681 85.9621 LS
249.681 85.9621 LE
246.681 88.9621 LS
246.681 82.9621 LE
244.559 88.0834 LS
248.802 83.8408 LE
244.559 83.8408 LS
248.802 88.0834 LE
245.069 158.509 LS
251.069 158.509 LE
248.069 161.509 LS
248.069 155.509 LE
245.947 160.631 LS
250.19 156.388 LE
245.947 156.388 LS
250.19 160.631 LE
245.069 84.9403 LS
251.069 84.9403 LE
248.069 87.9403 LS
248.069 81.9403 LE
245.947 87.0616 LS
250.19 82.819 LE
245.947 82.819 LS
250.19 87.0616 LE
246.457 158.509 LS
252.457 158.509 LE
249.457 161.509 LS
249.457 155.509 LE
247.335 160.631 LS
251.578 156.388 LE
247.335 156.388 LS
251.578 160.631 LE
246.457 83.9185 LS
252.457 83.9185 LE
249.457 86.9185 LS
249.457 80.9185 LE
247.335 86.0398 LS
251.578 81.7972 LE
247.335 81.7972 LS
251.578 86.0398 LE
247.845 157.487 LS
253.845 157.487 LE
250.845 160.487 LS
250.845 154.487 LE
248.723 159.609 LS
252.966 155.366 LE
248.723 155.366 LS
252.966 159.609 LE
247.845 82.8967 LS
253.845 82.8967 LE
250.845 85.8967 LS
250.845 79.8967 LE
248.723 85.018 LS
252.966 80.7754 LE
248.723 80.7754 LS
252.966 85.018 LE
249.233 157.487 LS
255.233 157.487 LE
252.233 160.487 LS
252.233 154.487 LE
250.112 159.609 LS
254.354 155.366 LE
250.112 155.366 LS
254.354 159.609 LE
249.233 81.8749 LS
255.233 81.8749 LE
252.233 84.8749 LS
252.233 78.8749 LE
250.112 83.9962 LS
254.354 79.7536 LE
250.112 79.7536 LS
254.354 83.9962 LE
250.621 156.466 LS
256.621 156.466 LE
253.621 159.466 LS
253.621 153.466 LE
251.5 158.587 LS
255.742 154.344 LE
251.5 154.344 LS
255.742 158.587 LE
250.621 80.8531 LS
256.621 80.8531 LE
253.621 83.8531 LS
253.621 77.8531 LE
251.5 82.9744 LS
255.742 78.7318 LE
251.5 78.7318 LS
255.742 82.9744 LE
252.009 156.466 LS
258.009 156.466 LE
255.009 159.466 LS
255.009 153.466 LE
252.888 158.587 LS
257.13 154.344 LE
252.888 154.344 LS
257.13 158.587 LE
252.009 79.8313 LS
258.009 79.8313 LE
255.009 82.8313 LS
255.009 76.8313 LE
252.888 81.9527 LS
257.13 77.71 LE
252.888 77.71 LS
257.13 81.9527 LE
253.397 155.444 LS
259.397 155.444 LE
256.397 158.444 LS
256.397 152.444 LE
254.276 157.565 LS
258.518 153.323 LE
254.276 153.323 LS
258.518 157.565 LE
253.397 78.8095 LS
259.397 78.8095 LE
256.397 81.8095 LS
256.397 75.8095 LE
254.276 80.9309 LS
258.518 76.6882 LE
254.276 76.6882 LS
258.518 80.9309 LE
254.785 155.444 LS
260.785 155.444 LE
257.785 158.444 LS
257.785 152.444 LE
255.664 157.565 LS
259.906 153.323 LE
255.664 153.323 LS
259.906 157.565 LE
254.785 77.7878 LS
260.785 77.7878 LE
257.785 80.7878 LS
257.785 74.7878 LE
255.664 79.9091 LS
259.906 75.6664 LE
255.664 75.6664 LS
259.906 79.9091 LE
256.173 154.422 LS
262.173 154.422 LE
259.173 157.422 LS
259.173 151.422 LE
257.052 156.543 LS
261.294 152.301 LE
257.052 152.301 LS
261.294 156.543 LE
256.173 76.766 LS
262.173 76.766 LE
259.173 79.766 LS
259.173 73.766 LE
257.052 78.8873 LS
261.294 74.6446 LE
257.052 74.6446 LS
261.294 78.8873 LE
257.561 154.422 LS
263.561 154.422 LE
260.561 157.422 LS
260.561 151.422 LE
258.44 156.543 LS
262.683 152.301 LE
258.44 152.301 LS
262.683 156.543 LE
257.561 75.7442 LS
263.561 75.7442 LE
260.561 78.7442 LS
260.561 72.7442 LE
258.44 77.8655 LS
262.683 73.6229 LE
258.44 73.6229 LS
262.683 77.8655 LE
258.949 153.4 LS
264.949 153.4 LE
261.949 156.4 LS
261.949 150.4 LE
259.828 155.522 LS
264.071 151.279 LE
259.828 151.279 LS
264.071 155.522 LE
258.949 74.7224 LS
264.949 74.7224 LE
261.949 77.7224 LS
261.949 71.7224 LE
259.828 76.8437 LS
264.071 72.6011 LE
259.828 72.6011 LS
264.071 76.8437 LE
260.337 153.4 LS
266.337 153.4 LE
263.337 156.4 LS
263.337 150.4 LE
261.216 155.522 LS
265.459 151.279 LE
261.216 151.279 LS
265.459 155.522 LE
260.337 73.7006 LS
266.337 73.7006 LE
263.337 76.7006 LS
263.337 70.7006 LE
261.216 75.8219 LS
265.459 71.5793 LE
261.216 71.5793 LS
265.459 75.8219 LE
261.725 152.379 LS
267.725 152.379 LE
264.725 155.379 LS
264.725 149.379 LE
262.604 154.5 LS
266.847 150.257 LE
262.604 150.257 LS
266.847 154.5 LE
261.725 72.6788 LS
267.725 72.6788 LE
264.725 75.6788 LS
264.725 69.6788 LE
262.604 74.8001 LS
266.847 70.5575 LE
262.604 70.5575 LS
266.847 74.8001 LE
263.113 152.379 LS
269.113 152.379 LE
266.113 155.379 LS
266.113 149.379 LE
263.992 154.5 LS
268.235 150.257 LE
263.992 150.257 LS
268.235 154.5 LE
263.113 71.657 LS
269.113 71.657 LE
266.113 74.657 LS
266.113 68.657 LE
263.992 73.7783 LS
268.235 69.5357 LE
263.992 69.5357 LS
268.235 73.7783 LE
264.501 151.357 LS
270.501 151.357 LE
267.502 154.357 LS
267.502 148.357 LE
265.38 153.478 LS
269.623 149.235 LE
265.38 149.235 LS
269.623 153.478 LE
264.501 70.6352 LS
270.501 70.6352 LE
267.502 73.6352 LS
267.502 67.6352 LE
265.38 72.7565 LS
269.623 68.5139 LE
265.38 68.5139 LS
269.623 72.7565 LE
265.89 151.357 LS
271.89 151.357 LE
268.89 154.357 LS
268.89 148.357 LE
266.768 153.478 LS
271.011 149.235 LE
266.768 149.235 LS
271.011 153.478 LE
265.89 69.6134 LS
271.89 69.6134 LE
268.89 72.6134 LS
268.89 66.6134 LE
266.768 71.7347 LS
271.011 67.4921 LE
266.768 67.4921 LS
271.011 71.7347 LE
267.278 150.335 LS
273.278 150.335 LE
270.278 153.335 LS
270.278 147.335 LE
268.156 152.456 LS
272.399 148.214 LE
268.156 148.214 LS
272.399 152.456 LE
267.278 68.5916 LS
273.278 68.5916 LE
270.278 71.5916 LS
270.278 65.5916 LE
268.156 70.713 LS
272.399 66.4703 LE
268.156 66.4703 LS
272.399 70.713 LE
268.666 150.335 LS
274.666 150.335 LE
271.666 153.335 LS
271.666 147.335 LE
269.544 152.456 LS
273.787 148.214 LE
269.544 148.214 LS
273.787 152.456 LE
268.666 67.5698 LS
274.666 67.5698 LE
271.666 70.5698 LS
271.666 64.5698 LE
269.544 69.6912 LS
273.787 65.4485 LE
269.544 65.4485 LS
273.787 69.6912 LE
270.054 149.313 LS
276.054 149.313 LE
273.054 152.313 LS
273.054 146.313 LE
270.932 151.434 LS
275.175 147.192 LE
270.932 147.192 LS
275.175 151.434 LE
270.054 66.548 LS
276.054 66.548 LE
273.054 69.548 LS
273.054 63.5481 LE
270.932 68.6694 LS
275.175 64.4267 LE
270.932 64.4267 LS
275.175 68.6694 LE
271.442 149.313 LS
277.442 149.313 LE
274.442 152.313 LS
274.442 146.313 LE
272.32 151.434 LS
276.563 147.192 LE
272.32 147.192 LS
276.563 151.434 LE
271.442 65.5263 LS
277.442 65.5263 LE
274.442 68.5263 LS
274.442 62.5263 LE
272.32 67.6476 LS
276.563 63.4049 LE
272.32 63.4049 LS
276.563 67.6476 LE
272.83 148.291 LS
278.83 148.291 LE
275.83 151.291 LS
275.83 145.291 LE
273.709 150.413 LS
277.951 146.17 LE
273.709 146.17 LS
277.951 150.413 LE
272.83 64.5045 LS
278.83 64.5045 LE
275.83 67.5045 LS
275.83 61.5045 LE
273.709 66.6258 LS
277.951 62.3831 LE
273.709 62.3831 LS
277.951 66.6258 LE
274.218 148.291 LS
280.218 148.291 LE
277.218 151.291 LS
277.218 145.291 LE
275.097 150.413 LS
279.339 146.17 LE
275.097 146.17 LS
279.339 150.413 LE
274.218 63.4827 LS
280.218 63.4827 LE
277.218 66.4827 LS
277.218 60.4827 LE
275.097 65.604 LS
279.339 61.3613 LE
275.097 61.3613 LS
279.339 65.604 LE
275.606 147.27 LS
281.606 147.27 LE
278.606 150.27 LS
278.606 144.27 LE
276.485 149.391 LS
280.727 145.148 LE
276.485 145.148 LS
280.727 149.391 LE
275.606 62.4609 LS
281.606 62.4609 LE
278.606 65.4609 LS
278.606 59.4609 LE
276.485 64.5822 LS
280.727 60.3396 LE
276.485 60.3396 LS
280.727 64.5822 LE
276.994 147.27 LS
282.994 147.27 LE
279.994 150.27 LS
279.994 144.27 LE
277.873 149.391 LS
282.115 145.148 LE
277.873 145.148 LS
282.115 149.391 LE
276.994 61.4391 LS
282.994 61.4391 LE
279.994 64.4391 LS
279.994 58.4391 LE
277.873 63.5604 LS
282.115 59.3178 LE
277.873 59.3178 LS
282.115 63.5604 LE
278.382 146.248 LS
284.382 146.248 LE
281.382 149.248 LS
281.382 143.248 LE
279.261 148.369 LS
283.503 144.126 LE
279.261 144.126 LS
283.503 148.369 LE
278.382 60.4173 LS
284.382 60.4173 LE
281.382 63.4173 LS
281.382 57.4173 LE
279.261 62.5386 LS
283.503 58.296 LE
279.261 58.296 LS
283.503 62.5386 LE
279.77 146.248 LS
285.77 146.248 LE
282.77 149.248 LS
282.77 143.248 LE
280.649 148.369 LS
284.891 144.126 LE
280.649 144.126 LS
284.891 148.369 LE
279.77 59.3955 LS
285.77 59.3955 LE
282.77 62.3955 LS
282.77 56.3955 LE
280.649 61.5168 LS
284.891 57.2742 LE
280.649 57.2742 LS
284.891 61.5168 LE
281.158 145.226 LS
287.158 145.226 LE
284.158 148.226 LS
284.158 142.226 LE
282.037 147.347 LS
286.28 143.105 LE
282.037 143.105 LS
286.28 147.347 LE
281.158 58.3737 LS
287.158 58.3737 LE
284.158 61.3737 LS
284.158 55.3737 LE
282.037 60.495 LS
286.28 56.2524 LE
282.037 56.2524 LS
286.28 60.495 LE
282.546 145.226 LS
288.546 145.226 LE
285.546 148.226 LS
285.546 142.226 LE
283.425 147.347 LS
287.668 143.105 LE
283.425 143.105 LS
287.668 147.347 LE
282.546 57.3519 LS
288.546 57.3519 LE
285.546 60.3519 LS
285.546 54.3519 LE
283.425 59.4733 LS
287.668 55.2306 LE
283.425 55.2306 LS
287.668 59.4733 LE
283.934 144.204 LS
289.934 144.204 LE
286.934 147.204 LS
286.934 141.204 LE
284.813 146.325 LS
289.056 142.083 LE
284.813 142.083 LS
289.056 146.325 LE
283.934 56.3301 LS
289.934 56.3301 LE
286.934 59.3301 LS
286.934 53.3301 LE
284.813 58.4515 LS
289.056 54.2088 LE
284.813 54.2088 LS
289.056 58.4515 LE
285.322 144.204 LS
291.322 144.204 LE
288.322 147.204 LS
288.322 141.204 LE
286.201 146.325 LS
290.444 142.083 LE
286.201 142.083 LS
290.444 146.325 LE
285.322 55.3084 LS
291.322 55.3084 LE
288.322 58.3084 LS
288.322 52.3083 LE
286.201 57.4297 LS
290.444 53.187 LE
286.201 53.187 LS
290.444 57.4297 LE
286.71 143.182 LS
292.71 143.182 LE
289.71 146.182 LS
289.71 140.182 LE
287.589 145.304 LS
291.832 141.061 LE
287.589 141.061 LS
291.832 145.304 LE
286.71 54.2865 LS
292.71 54.2865 LE
289.71 57.2866 LS
289.71 51.2865 LE
287.589 56.4079 LS
291.832 52.1652 LE
287.589 52.1652 LS
291.832 56.4079 LE
288.099 143.182 LS
294.099 143.182 LE
291.099 146.182 LS
291.099 140.182 LE
288.977 145.304 LS
293.22 141.061 LE
288.977 141.061 LS
293.22 145.304 LE
288.099 53.2648 LS
294.099 53.2648 LE
291.099 56.2648 LS
291.099 50.2648 LE
288.977 55.3861 LS
293.22 51.1434 LE
288.977 51.1434 LS
293.22 55.3861 LE
289.487 142.161 LS
295.487 142.161 LE
292.487 145.161 LS
292.487 139.161 LE
290.365 144.282 LS
294.608 140.039 LE
290.365 140.039 LS
294.608 144.282 LE
289.487 52.243 LS
295.487 52.243 LE
292.487 55.243 LS
292.487 49.243 LE
290.365 54.3643 LS
294.608 50.1216 LE
290.365 50.1216 LS
294.608 54.3643 LE
290.875 142.161 LS
296.875 142.161 LE
293.875 145.161 LS
293.875 139.161 LE
291.753 144.282 LS
295.996 140.039 LE
291.753 140.039 LS
295.996 144.282 LE
290.875 51.2212 LS
296.875 51.2212 LE
293.875 54.2212 LS
293.875 48.2212 LE
291.753 53.3425 LS
295.996 49.0999 LE
291.753 49.0999 LS
295.996 53.3425 LE
292.263 141.139 LS
298.263 141.139 LE
295.263 144.139 LS
295.263 138.139 LE
293.141 143.26 LS
297.384 139.017 LE
293.141 139.017 LS
297.384 143.26 LE
292.263 50.1994 LS
298.263 50.1994 LE
295.263 53.1994 LS
295.263 47.1994 LE
293.141 52.3207 LS
297.384 48.0781 LE
293.141 48.0781 LS
297.384 52.3207 LE
293.651 141.139 LS
299.651 141.139 LE
296.651 144.139 LS
296.651 138.139 LE
294.529 143.26 LS
298.772 139.017 LE
294.529 139.017 LS
298.772 143.26 LE
293.651 49.1776 LS
299.651 49.1776 LE
296.651 52.1776 LS
296.651 46.1776 LE
294.529 51.2989 LS
298.772 47.0563 LE
294.529 47.0563 LS
298.772 51.2989 LE
295.039 140.117 LS
301.039 140.117 LE
298.039 143.117 LS
298.039 137.117 LE
295.918 142.238 LS
300.16 137.996 LE
295.918 137.996 LS
300.16 142.238 LE
295.039 48.1558 LS
301.039 48.1558 LE
298.039 51.1558 LS
298.039 45.1558 LE
295.918 50.2771 LS
300.16 46.0345 LE
295.918 46.0345 LS
300.16 50.2771 LE
296.427 140.117 LS
302.427 140.117 LE
299.427 143.117 LS
299.427 137.117 LE
297.306 142.238 LS
301.548 137.996 LE
297.306 137.996 LS
301.548 142.238 LE
296.427 47.134 LS
302.427 47.134 LE
299.427 50.134 LS
299.427 44.134 LE
297.306 49.2553 LS
301.548 45.0127 LE
297.306 45.0127 LS
301.548 49.2553 LE
297.815 139.095 LS
303.815 139.095 LE
300.815 142.095 LS
300.815 136.095 LE
298.694 141.217 LS
302.936 136.974 LE
298.694 136.974 LS
302.936 141.217 LE
297.815 46.1122 LS
303.815 46.1122 LE
300.815 49.1122 LS
300.815 43.1122 LE
298.694 48.2336 LS
302.936 43.9909 LE
298.694 43.9909 LS
302.936 48.2336 LE
299.203 139.095 LS
305.203 139.095 LE
302.203 142.095 LS
302.203 136.095 LE
300.082 141.217 LS
304.324 136.974 LE
300.082 136.974 LS
304.324 141.217 LE
299.203 45.0904 LS
305.203 45.0904 LE
302.203 48.0905 LS
302.203 42.0904 LE
300.082 47.2118 LS
304.324 42.9691 LE
300.082 42.9691 LS
304.324 47.2118 LE
300.591 138.073 LS
306.591 138.073 LE
303.591 141.073 LS
303.591 135.073 LE
301.47 140.195 LS
305.712 135.952 LE
301.47 135.952 LS
305.712 140.195 LE
300.591 44.0686 LS
306.591 44.0686 LE
303.591 47.0686 LS
303.591 41.0686 LE
301.47 46.19 LS
305.712 41.9473 LE
301.47 41.9473 LS
305.712 46.19 LE
301.979 138.073 LS
307.979 138.073 LE
304.979 141.073 LS
304.979 135.073 LE
302.858 140.195 LS
307.1 135.952 LE
302.858 135.952 LS
307.1 140.195 LE
301.979 43.0468 LS
307.979 43.0468 LE
304.979 46.0469 LS
304.979 40.0468 LE
302.858 45.1682 LS
307.1 40.9255 LE
302.858 40.9255 LS
307.1 45.1682 LE
303.367 137.052 LS
309.367 137.052 LE
306.367 140.052 LS
306.367 134.052 LE
304.246 139.173 LS
308.488 134.93 LE
304.246 134.93 LS
308.488 139.173 LE
303.367 42.0251 LS
309.367 42.0251 LE
306.367 45.0251 LS
306.367 39.0251 LE
304.246 44.1464 LS
308.488 39.9037 LE
304.246 39.9037 LS
308.488 44.1464 LE
304.755 137.052 LS
310.755 137.052 LE
307.755 140.052 LS
307.755 134.052 LE
305.634 139.173 LS
309.877 134.93 LE
305.634 134.93 LS
309.877 139.173 LE
304.755 41.0033 LS
310.755 41.0033 LE
307.755 44.0033 LS
307.755 38.0033 LE
305.634 43.1246 LS
309.877 38.882 LE
305.634 38.882 LS
309.877 43.1246 LE
306.143 136.03 LS
312.143 136.03 LE
309.143 139.03 LS
309.143 133.03 LE
307.022 138.151 LS
311.265 133.909 LE
307.022 133.909 LS
311.265 138.151 LE
306.143 39.9815 LS
312.143 39.9815 LE
309.143 42.9815 LS
309.143 36.9815 LE
307.022 42.1028 LS
311.265 37.8602 LE
307.022 37.8602 LS
311.265 42.1028 LE
307.531 136.03 LS
313.531 136.03 LE
310.531 139.03 LS
310.531 133.03 LE
308.41 138.151 LS
312.653 133.909 LE
308.41 133.909 LS
312.653 138.151 LE
307.531 38.9597 LS
313.531 38.9597 LE
310.531 41.9597 LS
310.531 35.9597 LE
308.41 41.081 LS
312.653 36.8384 LE
308.41 36.8384 LS
312.653 41.081 LE
308.919 135.008 LS
314.919 135.008 LE
311.919 138.008 LS
311.919 132.008 LE
309.798 137.129 LS
314.041 132.887 LE
309.798 132.887 LS
314.041 137.129 LE
308.919 37.9379 LS
314.919 37.9379 LE
311.919 40.9379 LS
311.919 34.9379 LE
309.798 40.0592 LS
314.041 35.8166 LE
309.798 35.8166 LS
314.041 40.0592 LE
310.307 135.008 LS
316.307 135.008 LE
313.307 138.008 LS
313.307 132.008 LE
311.186 137.129 LS
315.429 132.887 LE
311.186 132.887 LS
315.429 137.129 LE
310.307 36.9161 LS
316.307 36.9161 LE
313.307 39.9161 LS
313.307 33.9161 LE
311.186 39.0374 LS
315.429 34.7948 LE
311.186 34.7948 LS
315.429 39.0374 LE
311.696 133.986 LS
317.696 133.986 LE
314.696 136.986 LS
314.696 130.986 LE
312.574 136.108 LS
316.817 131.865 LE
312.574 131.865 LS
316.817 136.108 LE
311.696 35.8943 LS
317.696 35.8943 LE
314.696 38.8943 LS
314.696 32.8943 LE
312.574 38.0156 LS
316.817 33.773 LE
312.574 33.773 LS
316.817 38.0156 LE
313.084 133.986 LS
319.084 133.986 LE
316.084 136.986 LS
316.084 130.986 LE
313.962 136.108 LS
318.205 131.865 LE
313.962 131.865 LS
318.205 136.108 LE
313.084 34.8725 LS
319.084 34.8725 LE
316.084 37.8725 LS
316.084 31.8725 LE
313.962 36.9938 LS
318.205 32.7512 LE
313.962 32.7512 LS
318.205 36.9938 LE
314.472 132.964 LS
320.472 132.964 LE
317.472 135.964 LS
317.472 129.964 LE
315.35 135.086 LS
319.593 130.843 LE
315.35 130.843 LS
319.593 135.086 LE
314.472 33.8507 LS
320.472 33.8507 LE
317.472 36.8507 LS
317.472 30.8507 LE
315.35 35.9721 LS
319.593 31.7294 LE
315.35 31.7294 LS
319.593 35.9721 LE
315.86 132.964 LS
321.86 132.964 LE
318.86 135.964 LS
318.86 129.964 LE
316.738 135.086 LS
320.981 130.843 LE
316.738 130.843 LS
320.981 135.086 LE
315.86 32.8289 LS
321.86 32.8289 LE
318.86 35.8289 LS
318.86 29.8289 LE
316.738 34.9503 LS
320.981 30.7076 LE
316.738 30.7076 LS
320.981 34.9503 LE
317.248 131.943 LS
323.248 131.943 LE
320.248 134.943 LS
320.248 128.943 LE
318.126 134.064 LS
322.369 129.821 LE
318.126 129.821 LS
322.369 134.064 LE
317.248 31.8072 LS
323.248 31.8072 LE
320.248 34.8072 LS
320.248 28.8071 LE
318.126 33.9285 LS
322.369 29.6858 LE
318.126 29.6858 LS
322.369 33.9285 LE
318.636 131.943 LS
324.636 131.943 LE
321.636 134.943 LS
321.636 128.943 LE
319.515 134.064 LS
323.757 129.821 LE
319.515 129.821 LS
323.757 134.064 LE
318.636 30.7854 LS
324.636 30.7854 LE
321.636 33.7854 LS
321.636 27.7854 LE
319.515 32.9067 LS
323.757 28.664 LE
319.515 28.664 LS
323.757 32.9067 LE
320.024 130.921 LS
326.024 130.921 LE
323.024 133.921 LS
323.024 127.921 LE
320.903 133.042 LS
325.145 128.8 LE
320.903 128.8 LS
325.145 133.042 LE
320.024 29.7636 LS
326.024 29.7636 LE
323.024 32.7636 LS
323.024 26.7636 LE
320.903 31.8849 LS
325.145 27.6423 LE
320.903 27.6423 LS
325.145 31.8849 LE
321.412 130.921 LS
327.412 130.921 LE
324.412 133.921 LS
324.412 127.921 LE
322.291 133.042 LS
326.533 128.8 LE
322.291 128.8 LS
326.533 133.042 LE
321.412 28.7418 LS
327.412 28.7418 LE
324.412 31.7418 LS
324.412 25.7418 LE
322.291 30.8631 LS
326.533 26.6205 LE
322.291 26.6205 LS
326.533 30.8631 LE
grestore
grestore
showpage
cleartomark
%%PageTrailer
%%Trailer
end
%%EOF
